

Time taken to complete the job, Statistics
==========================================
14479.9 seconds 4.02219 hours CTEQ5L-LO_HardQCDSelectionGluon_10To20_2017-02-07-094528
14770.3 seconds 4.10286 hours CTEQ5L-LO_HardQCDSelectionGluon_10To20_2017-02-07-094528
14566.9 seconds 4.04636 hours CTEQ5L-LO_HardQCDSelectionGluon_10To20_2017-02-07-094528
14398.2 seconds 3.9995 hours CTEQ5L-LO_HardQCDSelectionGluon_10To20_2017-02-07-094528
14463.6 seconds 4.01767 hours CTEQ5L-LO_HardQCDSelectionGluon_10To20_2017-02-07-094528
14451 seconds 4.01417 hours CTEQ5L-LO_HardQCDSelectionGluon_10To20_2017-02-07-094528
14808.7 seconds 4.11353 hours CTEQ5L-LO_HardQCDSelectionGluon_10To20_2017-02-07-094528
14592.5 seconds 4.05347 hours CTEQ5L-LO_HardQCDSelectionGluon_10To20_2017-02-07-094528
14461.2 seconds 4.017 hours CTEQ5L-LO_HardQCDSelectionGluon_10To20_2017-02-07-094528
14627.1 seconds 4.06308 hours CTEQ5L-LO_HardQCDSelectionGluon_10To20_2017-02-07-094528
14942.3 seconds 4.15064 hours CTEQ5L-LO_HardQCDSelectionGluon_10To20_2017-02-07-094528
14672.1 seconds 4.07558 hours CTEQ5L-LO_HardQCDSelectionGluon_10To20_2017-02-07-094528
14491.7 seconds 4.02547 hours CTEQ5L-LO_HardQCDSelectionGluon_10To20_2017-02-07-094528
14825 seconds 4.11806 hours CTEQ5L-LO_HardQCDSelectionGluon_10To20_2017-02-07-094528
14447.1 seconds 4.01308 hours CTEQ5L-LO_HardQCDSelectionGluon_10To20_2017-02-07-094528
14509.8 seconds 4.0305 hours CTEQ5L-LO_HardQCDSelectionGluon_10To20_2017-02-07-094528
14416.6 seconds 4.00461 hours CTEQ5L-LO_HardQCDSelectionGluon_10To20_2017-02-07-094528
14580.1 seconds 4.05003 hours CTEQ5L-LO_HardQCDSelectionGluon_10To20_2017-02-07-094528
14538.4 seconds 4.03844 hours CTEQ5L-LO_HardQCDSelectionGluon_10To20_2017-02-07-094528
14551.1 seconds 4.04197 hours CTEQ5L-LO_HardQCDSelectionGluon_10To20_2017-02-07-094528


21778 seconds 6.04944 hours CTEQ5L-LO_HardQCDSelectionGluon_120To170_2017-02-07-094528
21795.5 seconds 6.05431 hours CTEQ5L-LO_HardQCDSelectionGluon_120To170_2017-02-07-094528
22192 seconds 6.16444 hours CTEQ5L-LO_HardQCDSelectionGluon_120To170_2017-02-07-094528
21773.1 seconds 6.04808 hours CTEQ5L-LO_HardQCDSelectionGluon_120To170_2017-02-07-094528
22441.9 seconds 6.23386 hours CTEQ5L-LO_HardQCDSelectionGluon_120To170_2017-02-07-094528
21735.1 seconds 6.03753 hours CTEQ5L-LO_HardQCDSelectionGluon_120To170_2017-02-07-094528
21776.9 seconds 6.04914 hours CTEQ5L-LO_HardQCDSelectionGluon_120To170_2017-02-07-094528
21964.5 seconds 6.10125 hours CTEQ5L-LO_HardQCDSelectionGluon_120To170_2017-02-07-094528
22119 seconds 6.14417 hours CTEQ5L-LO_HardQCDSelectionGluon_120To170_2017-02-07-094528
21987.9 seconds 6.10775 hours CTEQ5L-LO_HardQCDSelectionGluon_120To170_2017-02-07-094528
22002.3 seconds 6.11175 hours CTEQ5L-LO_HardQCDSelectionGluon_120To170_2017-02-07-094528
21838.3 seconds 6.06619 hours CTEQ5L-LO_HardQCDSelectionGluon_120To170_2017-02-07-094528
22078.7 seconds 6.13297 hours CTEQ5L-LO_HardQCDSelectionGluon_120To170_2017-02-07-094528
21840.1 seconds 6.06669 hours CTEQ5L-LO_HardQCDSelectionGluon_120To170_2017-02-07-094528
22141.6 seconds 6.15044 hours CTEQ5L-LO_HardQCDSelectionGluon_120To170_2017-02-07-094528
21867.1 seconds 6.07419 hours CTEQ5L-LO_HardQCDSelectionGluon_120To170_2017-02-07-094528
21779 seconds 6.04972 hours CTEQ5L-LO_HardQCDSelectionGluon_120To170_2017-02-07-094528
21844.4 seconds 6.06789 hours CTEQ5L-LO_HardQCDSelectionGluon_120To170_2017-02-07-094528
22220.7 seconds 6.17242 hours CTEQ5L-LO_HardQCDSelectionGluon_120To170_2017-02-07-094528
21836 seconds 6.06556 hours CTEQ5L-LO_HardQCDSelectionGluon_120To170_2017-02-07-094528


23286.7 seconds 6.46853 hours CTEQ5L-LO_HardQCDSelectionGluon_170To230_2017-02-07-094528
23504.2 seconds 6.52894 hours CTEQ5L-LO_HardQCDSelectionGluon_170To230_2017-02-07-094528
23399.6 seconds 6.49989 hours CTEQ5L-LO_HardQCDSelectionGluon_170To230_2017-02-07-094528
23333.2 seconds 6.48144 hours CTEQ5L-LO_HardQCDSelectionGluon_170To230_2017-02-07-094528
23208.3 seconds 6.44675 hours CTEQ5L-LO_HardQCDSelectionGluon_170To230_2017-02-07-094528
23339.2 seconds 6.48311 hours CTEQ5L-LO_HardQCDSelectionGluon_170To230_2017-02-07-094528
23490.9 seconds 6.52525 hours CTEQ5L-LO_HardQCDSelectionGluon_170To230_2017-02-07-094528
23230 seconds 6.45278 hours CTEQ5L-LO_HardQCDSelectionGluon_170To230_2017-02-07-094528
23449.8 seconds 6.51383 hours CTEQ5L-LO_HardQCDSelectionGluon_170To230_2017-02-07-094528
23516.6 seconds 6.53239 hours CTEQ5L-LO_HardQCDSelectionGluon_170To230_2017-02-07-094528
23296.5 seconds 6.47125 hours CTEQ5L-LO_HardQCDSelectionGluon_170To230_2017-02-07-094528
23335.2 seconds 6.482 hours CTEQ5L-LO_HardQCDSelectionGluon_170To230_2017-02-07-094528
19613.3 seconds 5.44814 hours CTEQ5L-LO_HardQCDSelectionGluon_170To230_2017-02-07-094528
23095.3 seconds 6.41536 hours CTEQ5L-LO_HardQCDSelectionGluon_170To230_2017-02-07-094528
23073.9 seconds 6.40942 hours CTEQ5L-LO_HardQCDSelectionGluon_170To230_2017-02-07-094528
23203.1 seconds 6.44531 hours CTEQ5L-LO_HardQCDSelectionGluon_170To230_2017-02-07-094528
23500.6 seconds 6.52794 hours CTEQ5L-LO_HardQCDSelectionGluon_170To230_2017-02-07-094528
23247.9 seconds 6.45775 hours CTEQ5L-LO_HardQCDSelectionGluon_170To230_2017-02-07-094528
23189.5 seconds 6.44153 hours CTEQ5L-LO_HardQCDSelectionGluon_170To230_2017-02-07-094528
23377.6 seconds 6.49378 hours CTEQ5L-LO_HardQCDSelectionGluon_170To230_2017-02-07-094528


16303.7 seconds 4.52881 hours CTEQ5L-LO_HardQCDSelectionGluon_20To30_2017-02-07-094528
16075.8 seconds 4.4655 hours CTEQ5L-LO_HardQCDSelectionGluon_20To30_2017-02-07-094528
16434.8 seconds 4.56522 hours CTEQ5L-LO_HardQCDSelectionGluon_20To30_2017-02-07-094528
16148.8 seconds 4.48578 hours CTEQ5L-LO_HardQCDSelectionGluon_20To30_2017-02-07-094528
17460.9 seconds 4.85025 hours CTEQ5L-LO_HardQCDSelectionGluon_20To30_2017-02-07-094528
16098.4 seconds 4.47178 hours CTEQ5L-LO_HardQCDSelectionGluon_20To30_2017-02-07-094528
16966.8 seconds 4.713 hours CTEQ5L-LO_HardQCDSelectionGluon_20To30_2017-02-07-094528
16134.3 seconds 4.48175 hours CTEQ5L-LO_HardQCDSelectionGluon_20To30_2017-02-07-094528
16131.6 seconds 4.481 hours CTEQ5L-LO_HardQCDSelectionGluon_20To30_2017-02-07-094528
16148.5 seconds 4.48569 hours CTEQ5L-LO_HardQCDSelectionGluon_20To30_2017-02-07-094528
16225.2 seconds 4.507 hours CTEQ5L-LO_HardQCDSelectionGluon_20To30_2017-02-07-094528
16008.2 seconds 4.44672 hours CTEQ5L-LO_HardQCDSelectionGluon_20To30_2017-02-07-094528
16357.6 seconds 4.54378 hours CTEQ5L-LO_HardQCDSelectionGluon_20To30_2017-02-07-094528
16146.5 seconds 4.48514 hours CTEQ5L-LO_HardQCDSelectionGluon_20To30_2017-02-07-094528
16141.4 seconds 4.48372 hours CTEQ5L-LO_HardQCDSelectionGluon_20To30_2017-02-07-094528
16083.3 seconds 4.46758 hours CTEQ5L-LO_HardQCDSelectionGluon_20To30_2017-02-07-094528
15903 seconds 4.4175 hours CTEQ5L-LO_HardQCDSelectionGluon_20To30_2017-02-07-094528
16193.7 seconds 4.49825 hours CTEQ5L-LO_HardQCDSelectionGluon_20To30_2017-02-07-094528
16565.9 seconds 4.60164 hours CTEQ5L-LO_HardQCDSelectionGluon_20To30_2017-02-07-094528
16088.2 seconds 4.46894 hours CTEQ5L-LO_HardQCDSelectionGluon_20To30_2017-02-07-094528


20931.1 seconds 5.81419 hours CTEQ5L-LO_HardQCDSelectionGluon_230To300_2017-02-07-094528
24513 seconds 6.80917 hours CTEQ5L-LO_HardQCDSelectionGluon_230To300_2017-02-07-094528
24891.4 seconds 6.91428 hours CTEQ5L-LO_HardQCDSelectionGluon_230To300_2017-02-07-094528
24516.1 seconds 6.81003 hours CTEQ5L-LO_HardQCDSelectionGluon_230To300_2017-02-07-094528
24445.3 seconds 6.79036 hours CTEQ5L-LO_HardQCDSelectionGluon_230To300_2017-02-07-094528
24457.4 seconds 6.79372 hours CTEQ5L-LO_HardQCDSelectionGluon_230To300_2017-02-07-094528
24757 seconds 6.87694 hours CTEQ5L-LO_HardQCDSelectionGluon_230To300_2017-02-07-094528
24383 seconds 6.77306 hours CTEQ5L-LO_HardQCDSelectionGluon_230To300_2017-02-07-094528
24207.7 seconds 6.72436 hours CTEQ5L-LO_HardQCDSelectionGluon_230To300_2017-02-07-094528
24833.8 seconds 6.89828 hours CTEQ5L-LO_HardQCDSelectionGluon_230To300_2017-02-07-094528
24736.2 seconds 6.87117 hours CTEQ5L-LO_HardQCDSelectionGluon_230To300_2017-02-07-094528
21014.2 seconds 5.83728 hours CTEQ5L-LO_HardQCDSelectionGluon_230To300_2017-02-07-094528
24491.7 seconds 6.80325 hours CTEQ5L-LO_HardQCDSelectionGluon_230To300_2017-02-07-094528
20960.2 seconds 5.82228 hours CTEQ5L-LO_HardQCDSelectionGluon_230To300_2017-02-07-094528
21015.3 seconds 5.83758 hours CTEQ5L-LO_HardQCDSelectionGluon_230To300_2017-02-07-094528
21242.1 seconds 5.90058 hours CTEQ5L-LO_HardQCDSelectionGluon_230To300_2017-02-07-094528
20873.5 seconds 5.79819 hours CTEQ5L-LO_HardQCDSelectionGluon_230To300_2017-02-07-094528
20773.5 seconds 5.77042 hours CTEQ5L-LO_HardQCDSelectionGluon_230To300_2017-02-07-094528
24329 seconds 6.75806 hours CTEQ5L-LO_HardQCDSelectionGluon_230To300_2017-02-07-094528
24285.5 seconds 6.74597 hours CTEQ5L-LO_HardQCDSelectionGluon_230To300_2017-02-07-094528


26250.4 seconds 7.29178 hours CTEQ5L-LO_HardQCDSelectionGluon_300To380_2017-02-07-094528
26247.3 seconds 7.29092 hours CTEQ5L-LO_HardQCDSelectionGluon_300To380_2017-02-07-094528
21969.9 seconds 6.10275 hours CTEQ5L-LO_HardQCDSelectionGluon_300To380_2017-02-07-094528
22073.4 seconds 6.1315 hours CTEQ5L-LO_HardQCDSelectionGluon_300To380_2017-02-07-094528
22312.7 seconds 6.19797 hours CTEQ5L-LO_HardQCDSelectionGluon_300To380_2017-02-07-094528
22304.1 seconds 6.19558 hours CTEQ5L-LO_HardQCDSelectionGluon_300To380_2017-02-07-094528
22371.5 seconds 6.21431 hours CTEQ5L-LO_HardQCDSelectionGluon_300To380_2017-02-07-094528
22094 seconds 6.13722 hours CTEQ5L-LO_HardQCDSelectionGluon_300To380_2017-02-07-094528
22290.9 seconds 6.19192 hours CTEQ5L-LO_HardQCDSelectionGluon_300To380_2017-02-07-094528
22398.9 seconds 6.22192 hours CTEQ5L-LO_HardQCDSelectionGluon_300To380_2017-02-07-094528
25630.4 seconds 7.11956 hours CTEQ5L-LO_HardQCDSelectionGluon_300To380_2017-02-07-094528
25689.9 seconds 7.13608 hours CTEQ5L-LO_HardQCDSelectionGluon_300To380_2017-02-07-094528
25356.1 seconds 7.04336 hours CTEQ5L-LO_HardQCDSelectionGluon_300To380_2017-02-07-094528
25552.5 seconds 7.09792 hours CTEQ5L-LO_HardQCDSelectionGluon_300To380_2017-02-07-094528
25793.2 seconds 7.16478 hours CTEQ5L-LO_HardQCDSelectionGluon_300To380_2017-02-07-094528
25420.5 seconds 7.06125 hours CTEQ5L-LO_HardQCDSelectionGluon_300To380_2017-02-07-094528
25887.2 seconds 7.19089 hours CTEQ5L-LO_HardQCDSelectionGluon_300To380_2017-02-07-094528
25998.2 seconds 7.22172 hours CTEQ5L-LO_HardQCDSelectionGluon_300To380_2017-02-07-094528
25828.5 seconds 7.17458 hours CTEQ5L-LO_HardQCDSelectionGluon_300To380_2017-02-07-094528
25765.2 seconds 7.157 hours CTEQ5L-LO_HardQCDSelectionGluon_300To380_2017-02-07-094528


17285.4 seconds 4.8015 hours CTEQ5L-LO_HardQCDSelectionGluon_30To50_2017-02-07-094528
17245.6 seconds 4.79044 hours CTEQ5L-LO_HardQCDSelectionGluon_30To50_2017-02-07-094528
17142.4 seconds 4.76178 hours CTEQ5L-LO_HardQCDSelectionGluon_30To50_2017-02-07-094528
17274.9 seconds 4.79858 hours CTEQ5L-LO_HardQCDSelectionGluon_30To50_2017-02-07-094528
17410.3 seconds 4.83619 hours CTEQ5L-LO_HardQCDSelectionGluon_30To50_2017-02-07-094528
17423.3 seconds 4.83981 hours CTEQ5L-LO_HardQCDSelectionGluon_30To50_2017-02-07-094528
17120.9 seconds 4.75581 hours CTEQ5L-LO_HardQCDSelectionGluon_30To50_2017-02-07-094528
17378.6 seconds 4.82739 hours CTEQ5L-LO_HardQCDSelectionGluon_30To50_2017-02-07-094528
17266.4 seconds 4.79622 hours CTEQ5L-LO_HardQCDSelectionGluon_30To50_2017-02-07-094528
17359.1 seconds 4.82197 hours CTEQ5L-LO_HardQCDSelectionGluon_30To50_2017-02-07-094528
17090.9 seconds 4.74747 hours CTEQ5L-LO_HardQCDSelectionGluon_30To50_2017-02-07-094528
17394.5 seconds 4.83181 hours CTEQ5L-LO_HardQCDSelectionGluon_30To50_2017-02-07-094528
17346.2 seconds 4.81839 hours CTEQ5L-LO_HardQCDSelectionGluon_30To50_2017-02-07-094528
17538.9 seconds 4.87192 hours CTEQ5L-LO_HardQCDSelectionGluon_30To50_2017-02-07-094528
17288.8 seconds 4.80244 hours CTEQ5L-LO_HardQCDSelectionGluon_30To50_2017-02-07-094528
17250.6 seconds 4.79183 hours CTEQ5L-LO_HardQCDSelectionGluon_30To50_2017-02-07-094528
17135.2 seconds 4.75978 hours CTEQ5L-LO_HardQCDSelectionGluon_30To50_2017-02-07-094528
17109 seconds 4.7525 hours CTEQ5L-LO_HardQCDSelectionGluon_30To50_2017-02-07-094528
17292 seconds 4.80333 hours CTEQ5L-LO_HardQCDSelectionGluon_30To50_2017-02-07-094528
17271.4 seconds 4.79761 hours CTEQ5L-LO_HardQCDSelectionGluon_30To50_2017-02-07-094528


27370.8 seconds 7.603 hours CTEQ5L-LO_HardQCDSelectionGluon_380To10000_2017-02-07-094528
26937.7 seconds 7.48269 hours CTEQ5L-LO_HardQCDSelectionGluon_380To10000_2017-02-07-094528
27131.1 seconds 7.53642 hours CTEQ5L-LO_HardQCDSelectionGluon_380To10000_2017-02-07-094528
27113.7 seconds 7.53158 hours CTEQ5L-LO_HardQCDSelectionGluon_380To10000_2017-02-07-094528
27114.4 seconds 7.53178 hours CTEQ5L-LO_HardQCDSelectionGluon_380To10000_2017-02-07-094528
27167.1 seconds 7.54642 hours CTEQ5L-LO_HardQCDSelectionGluon_380To10000_2017-02-07-094528
26796.4 seconds 7.44344 hours CTEQ5L-LO_HardQCDSelectionGluon_380To10000_2017-02-07-094528
26877.4 seconds 7.46594 hours CTEQ5L-LO_HardQCDSelectionGluon_380To10000_2017-02-07-094528
26951.9 seconds 7.48664 hours CTEQ5L-LO_HardQCDSelectionGluon_380To10000_2017-02-07-094528
26690.4 seconds 7.414 hours CTEQ5L-LO_HardQCDSelectionGluon_380To10000_2017-02-07-094528
26884.2 seconds 7.46783 hours CTEQ5L-LO_HardQCDSelectionGluon_380To10000_2017-02-07-094528
26985.5 seconds 7.49597 hours CTEQ5L-LO_HardQCDSelectionGluon_380To10000_2017-02-07-094528
26895.9 seconds 7.47108 hours CTEQ5L-LO_HardQCDSelectionGluon_380To10000_2017-02-07-094528
27312.5 seconds 7.58681 hours CTEQ5L-LO_HardQCDSelectionGluon_380To10000_2017-02-07-094528
27136.4 seconds 7.53789 hours CTEQ5L-LO_HardQCDSelectionGluon_380To10000_2017-02-07-094528
27059.5 seconds 7.51653 hours CTEQ5L-LO_HardQCDSelectionGluon_380To10000_2017-02-07-094528
27207.3 seconds 7.55758 hours CTEQ5L-LO_HardQCDSelectionGluon_380To10000_2017-02-07-094528
26742.5 seconds 7.42847 hours CTEQ5L-LO_HardQCDSelectionGluon_380To10000_2017-02-07-094528
26713.7 seconds 7.42047 hours CTEQ5L-LO_HardQCDSelectionGluon_380To10000_2017-02-07-094528
27223.8 seconds 7.56217 hours CTEQ5L-LO_HardQCDSelectionGluon_380To10000_2017-02-07-094528


18691.5 seconds 5.19208 hours CTEQ5L-LO_HardQCDSelectionGluon_50To80_2017-02-07-094528
18717.6 seconds 5.19933 hours CTEQ5L-LO_HardQCDSelectionGluon_50To80_2017-02-07-094528
18815.4 seconds 5.2265 hours CTEQ5L-LO_HardQCDSelectionGluon_50To80_2017-02-07-094528
17987.1 seconds 4.99642 hours CTEQ5L-LO_HardQCDSelectionGluon_50To80_2017-02-07-094528
18709.5 seconds 5.19708 hours CTEQ5L-LO_HardQCDSelectionGluon_50To80_2017-02-07-094528
18799.3 seconds 5.22203 hours CTEQ5L-LO_HardQCDSelectionGluon_50To80_2017-02-07-094528
18689.7 seconds 5.19158 hours CTEQ5L-LO_HardQCDSelectionGluon_50To80_2017-02-07-094528
20154.1 seconds 5.59836 hours CTEQ5L-LO_HardQCDSelectionGluon_50To80_2017-02-07-094528
13440.2 seconds 3.73339 hours CTEQ5L-LO_HardQCDSelectionGluon_50To80_2017-02-07-094528
19836.8 seconds 5.51022 hours CTEQ5L-LO_HardQCDSelectionGluon_50To80_2017-02-07-094528
19038.2 seconds 5.28839 hours CTEQ5L-LO_HardQCDSelectionGluon_50To80_2017-02-07-094528
18748.9 seconds 5.20803 hours CTEQ5L-LO_HardQCDSelectionGluon_50To80_2017-02-07-094528
18651.5 seconds 5.18097 hours CTEQ5L-LO_HardQCDSelectionGluon_50To80_2017-02-07-094528
18754.1 seconds 5.20947 hours CTEQ5L-LO_HardQCDSelectionGluon_50To80_2017-02-07-094528
18694.4 seconds 5.19289 hours CTEQ5L-LO_HardQCDSelectionGluon_50To80_2017-02-07-094528
18713.8 seconds 5.19828 hours CTEQ5L-LO_HardQCDSelectionGluon_50To80_2017-02-07-094528
18913.6 seconds 5.25378 hours CTEQ5L-LO_HardQCDSelectionGluon_50To80_2017-02-07-094528
18695.8 seconds 5.19328 hours CTEQ5L-LO_HardQCDSelectionGluon_50To80_2017-02-07-094528
18880.2 seconds 5.2445 hours CTEQ5L-LO_HardQCDSelectionGluon_50To80_2017-02-07-094528
19089.6 seconds 5.30267 hours CTEQ5L-LO_HardQCDSelectionGluon_50To80_2017-02-07-094528


20936.8 seconds 5.81578 hours CTEQ5L-LO_HardQCDSelectionGluon_80To120_2017-02-07-094528
20131.8 seconds 5.59217 hours CTEQ5L-LO_HardQCDSelectionGluon_80To120_2017-02-07-094528
20538.9 seconds 5.70525 hours CTEQ5L-LO_HardQCDSelectionGluon_80To120_2017-02-07-094528
20163.8 seconds 5.60106 hours CTEQ5L-LO_HardQCDSelectionGluon_80To120_2017-02-07-094528
20158.9 seconds 5.59969 hours CTEQ5L-LO_HardQCDSelectionGluon_80To120_2017-02-07-094528
20301.3 seconds 5.63925 hours CTEQ5L-LO_HardQCDSelectionGluon_80To120_2017-02-07-094528
20229.8 seconds 5.61939 hours CTEQ5L-LO_HardQCDSelectionGluon_80To120_2017-02-07-094528
20370 seconds 5.65833 hours CTEQ5L-LO_HardQCDSelectionGluon_80To120_2017-02-07-094528
20233.5 seconds 5.62042 hours CTEQ5L-LO_HardQCDSelectionGluon_80To120_2017-02-07-094528
20630.2 seconds 5.73061 hours CTEQ5L-LO_HardQCDSelectionGluon_80To120_2017-02-07-094528
20686.1 seconds 5.74614 hours CTEQ5L-LO_HardQCDSelectionGluon_80To120_2017-02-07-094528
20376.1 seconds 5.66003 hours CTEQ5L-LO_HardQCDSelectionGluon_80To120_2017-02-07-094528
20593.3 seconds 5.72036 hours CTEQ5L-LO_HardQCDSelectionGluon_80To120_2017-02-07-094528
20484.3 seconds 5.69008 hours CTEQ5L-LO_HardQCDSelectionGluon_80To120_2017-02-07-094528
20204.7 seconds 5.61242 hours CTEQ5L-LO_HardQCDSelectionGluon_80To120_2017-02-07-094528
20656.5 seconds 5.73792 hours CTEQ5L-LO_HardQCDSelectionGluon_80To120_2017-02-07-094528
15098.5 seconds 4.19403 hours CTEQ5L-LO_HardQCDSelectionGluon_80To120_2017-02-07-094528
20656.9 seconds 5.73803 hours CTEQ5L-LO_HardQCDSelectionGluon_80To120_2017-02-07-094528
20515.8 seconds 5.69883 hours CTEQ5L-LO_HardQCDSelectionGluon_80To120_2017-02-07-094528
20275 seconds 5.63194 hours CTEQ5L-LO_HardQCDSelectionGluon_80To120_2017-02-07-094528




