

Time taken to complete the job, Statistics
==========================================
6593.19 seconds 1.83144 hours CTEQ5L-LO_HardQCDAll_10To20_2017-02-03-125516
5017.19 seconds 1.39366 hours CTEQ5L-LO_HardQCDAll_10To20_2017-02-03-125516
5056.27 seconds 1.40452 hours CTEQ5L-LO_HardQCDAll_10To20_2017-02-03-125516
4939.4 seconds 1.37206 hours CTEQ5L-LO_HardQCDAll_10To20_2017-02-03-125516
4907.61 seconds 1.36322 hours CTEQ5L-LO_HardQCDAll_10To20_2017-02-03-125516
4424.97 seconds 1.22916 hours CTEQ5L-LO_HardQCDAll_10To20_2017-02-03-125516
4406.48 seconds 1.22402 hours CTEQ5L-LO_HardQCDAll_10To20_2017-02-03-125516
5654.97 seconds 1.57083 hours CTEQ5L-LO_HardQCDAll_10To20_2017-02-03-125516
4948.78 seconds 1.37466 hours CTEQ5L-LO_HardQCDAll_10To20_2017-02-03-125516
4403.36 seconds 1.22316 hours CTEQ5L-LO_HardQCDAll_10To20_2017-02-03-125516
5475.68 seconds 1.52102 hours CTEQ5L-LO_HardQCDAll_10To20_2017-02-03-125516
4521.22 seconds 1.25589 hours CTEQ5L-LO_HardQCDAll_10To20_2017-02-03-125516
4936.09 seconds 1.37114 hours CTEQ5L-LO_HardQCDAll_10To20_2017-02-03-125516
4390.18 seconds 1.21949 hours CTEQ5L-LO_HardQCDAll_10To20_2017-02-03-125516
4307.04 seconds 1.1964 hours CTEQ5L-LO_HardQCDAll_10To20_2017-02-03-125516
4312.67 seconds 1.19796 hours CTEQ5L-LO_HardQCDAll_10To20_2017-02-03-125516
4296.79 seconds 1.19355 hours CTEQ5L-LO_HardQCDAll_10To20_2017-02-03-125516
4347.72 seconds 1.2077 hours CTEQ5L-LO_HardQCDAll_10To20_2017-02-03-125516
4316.27 seconds 1.19896 hours CTEQ5L-LO_HardQCDAll_10To20_2017-02-03-125516
4510.32 seconds 1.25287 hours CTEQ5L-LO_HardQCDAll_10To20_2017-02-03-125516


8368.48 seconds 2.32458 hours CTEQ5L-LO_HardQCDAll_120To170_2017-02-03-125516
9142.79 seconds 2.53966 hours CTEQ5L-LO_HardQCDAll_120To170_2017-02-03-125516
9106.64 seconds 2.52962 hours CTEQ5L-LO_HardQCDAll_120To170_2017-02-03-125516
11834.3 seconds 3.28731 hours CTEQ5L-LO_HardQCDAll_120To170_2017-02-03-125516
8197.33 seconds 2.27704 hours CTEQ5L-LO_HardQCDAll_120To170_2017-02-03-125516
8315.09 seconds 2.30975 hours CTEQ5L-LO_HardQCDAll_120To170_2017-02-03-125516
10386.8 seconds 2.88522 hours CTEQ5L-LO_HardQCDAll_120To170_2017-02-03-125516
8314.47 seconds 2.30957 hours CTEQ5L-LO_HardQCDAll_120To170_2017-02-03-125516
8384.72 seconds 2.32909 hours CTEQ5L-LO_HardQCDAll_120To170_2017-02-03-125516
8118.32 seconds 2.25509 hours CTEQ5L-LO_HardQCDAll_120To170_2017-02-03-125516
8023.66 seconds 2.22879 hours CTEQ5L-LO_HardQCDAll_120To170_2017-02-03-125516
7933.37 seconds 2.20371 hours CTEQ5L-LO_HardQCDAll_120To170_2017-02-03-125516
11864.5 seconds 3.29569 hours CTEQ5L-LO_HardQCDAll_120To170_2017-02-03-125516
8224.48 seconds 2.28458 hours CTEQ5L-LO_HardQCDAll_120To170_2017-02-03-125516
7913.17 seconds 2.1981 hours CTEQ5L-LO_HardQCDAll_120To170_2017-02-03-125516
7948.96 seconds 2.20804 hours CTEQ5L-LO_HardQCDAll_120To170_2017-02-03-125516
8667.31 seconds 2.40759 hours CTEQ5L-LO_HardQCDAll_120To170_2017-02-03-125516
8300.99 seconds 2.30583 hours CTEQ5L-LO_HardQCDAll_120To170_2017-02-03-125516
7973.27 seconds 2.2148 hours CTEQ5L-LO_HardQCDAll_120To170_2017-02-03-125516
8080.43 seconds 2.24456 hours CTEQ5L-LO_HardQCDAll_120To170_2017-02-03-125516


9549.43 seconds 2.65262 hours CTEQ5L-LO_HardQCDAll_170To230_2017-02-03-125516
8540.23 seconds 2.37229 hours CTEQ5L-LO_HardQCDAll_170To230_2017-02-03-125516
12429.2 seconds 3.45256 hours CTEQ5L-LO_HardQCDAll_170To230_2017-02-03-125516
12762.3 seconds 3.54508 hours CTEQ5L-LO_HardQCDAll_170To230_2017-02-03-125516
12494 seconds 3.47056 hours CTEQ5L-LO_HardQCDAll_170To230_2017-02-03-125516
11026.4 seconds 3.06289 hours CTEQ5L-LO_HardQCDAll_170To230_2017-02-03-125516
9023.21 seconds 2.50645 hours CTEQ5L-LO_HardQCDAll_170To230_2017-02-03-125516
8793.61 seconds 2.44267 hours CTEQ5L-LO_HardQCDAll_170To230_2017-02-03-125516
8807.33 seconds 2.44648 hours CTEQ5L-LO_HardQCDAll_170To230_2017-02-03-125516
11127.8 seconds 3.09106 hours CTEQ5L-LO_HardQCDAll_170To230_2017-02-03-125516
8439.14 seconds 2.34421 hours CTEQ5L-LO_HardQCDAll_170To230_2017-02-03-125516
9801.51 seconds 2.72264 hours CTEQ5L-LO_HardQCDAll_170To230_2017-02-03-125516
11353.9 seconds 3.15386 hours CTEQ5L-LO_HardQCDAll_170To230_2017-02-03-125516
9493.9 seconds 2.63719 hours CTEQ5L-LO_HardQCDAll_170To230_2017-02-03-125516
9513.43 seconds 2.64262 hours CTEQ5L-LO_HardQCDAll_170To230_2017-02-03-125516
13259.7 seconds 3.68325 hours CTEQ5L-LO_HardQCDAll_170To230_2017-02-03-125516
10255.5 seconds 2.84875 hours CTEQ5L-LO_HardQCDAll_170To230_2017-02-03-125516
12668.9 seconds 3.51914 hours CTEQ5L-LO_HardQCDAll_170To230_2017-02-03-125516
9694.54 seconds 2.69293 hours CTEQ5L-LO_HardQCDAll_170To230_2017-02-03-125516
8656.21 seconds 2.4045 hours CTEQ5L-LO_HardQCDAll_170To230_2017-02-03-125516


7708.73 seconds 2.14131 hours CTEQ5L-LO_HardQCDAll_20To30_2017-02-03-125516
5184.9 seconds 1.44025 hours CTEQ5L-LO_HardQCDAll_20To30_2017-02-03-125516
5935.06 seconds 1.64863 hours CTEQ5L-LO_HardQCDAll_20To30_2017-02-03-125516
7587.72 seconds 2.1077 hours CTEQ5L-LO_HardQCDAll_20To30_2017-02-03-125516
7432.88 seconds 2.06469 hours CTEQ5L-LO_HardQCDAll_20To30_2017-02-03-125516
5246.8 seconds 1.45744 hours CTEQ5L-LO_HardQCDAll_20To30_2017-02-03-125516
5375.18 seconds 1.49311 hours CTEQ5L-LO_HardQCDAll_20To30_2017-02-03-125516
5230.15 seconds 1.45282 hours CTEQ5L-LO_HardQCDAll_20To30_2017-02-03-125516
5175.42 seconds 1.43762 hours CTEQ5L-LO_HardQCDAll_20To30_2017-02-03-125516
8257.88 seconds 2.29386 hours CTEQ5L-LO_HardQCDAll_20To30_2017-02-03-125516
7550.61 seconds 2.09739 hours CTEQ5L-LO_HardQCDAll_20To30_2017-02-03-125516
5433.35 seconds 1.50926 hours CTEQ5L-LO_HardQCDAll_20To30_2017-02-03-125516
5271.88 seconds 1.46441 hours CTEQ5L-LO_HardQCDAll_20To30_2017-02-03-125516
5371.03 seconds 1.49195 hours CTEQ5L-LO_HardQCDAll_20To30_2017-02-03-125516
5095.93 seconds 1.41554 hours CTEQ5L-LO_HardQCDAll_20To30_2017-02-03-125516
5143.5 seconds 1.42875 hours CTEQ5L-LO_HardQCDAll_20To30_2017-02-03-125516
5045.26 seconds 1.40146 hours CTEQ5L-LO_HardQCDAll_20To30_2017-02-03-125516
5221.05 seconds 1.45029 hours CTEQ5L-LO_HardQCDAll_20To30_2017-02-03-125516
5119.26 seconds 1.42202 hours CTEQ5L-LO_HardQCDAll_20To30_2017-02-03-125516
5069.67 seconds 1.40824 hours CTEQ5L-LO_HardQCDAll_20To30_2017-02-03-125516


9155.61 seconds 2.54323 hours CTEQ5L-LO_HardQCDAll_230To300_2017-02-03-125516
9071.88 seconds 2.51997 hours CTEQ5L-LO_HardQCDAll_230To300_2017-02-03-125516
8946.71 seconds 2.4852 hours CTEQ5L-LO_HardQCDAll_230To300_2017-02-03-125516
9708.7 seconds 2.69686 hours CTEQ5L-LO_HardQCDAll_230To300_2017-02-03-125516
9107.57 seconds 2.52988 hours CTEQ5L-LO_HardQCDAll_230To300_2017-02-03-125516
8943.02 seconds 2.48417 hours CTEQ5L-LO_HardQCDAll_230To300_2017-02-03-125516
9246.38 seconds 2.56844 hours CTEQ5L-LO_HardQCDAll_230To300_2017-02-03-125516
9229.52 seconds 2.56376 hours CTEQ5L-LO_HardQCDAll_230To300_2017-02-03-125516
9677.12 seconds 2.68809 hours CTEQ5L-LO_HardQCDAll_230To300_2017-02-03-125516
9648.13 seconds 2.68004 hours CTEQ5L-LO_HardQCDAll_230To300_2017-02-03-125516
9326.3 seconds 2.59064 hours CTEQ5L-LO_HardQCDAll_230To300_2017-02-03-125516
9140.95 seconds 2.53915 hours CTEQ5L-LO_HardQCDAll_230To300_2017-02-03-125516
9639.39 seconds 2.67761 hours CTEQ5L-LO_HardQCDAll_230To300_2017-02-03-125516
8921.42 seconds 2.47817 hours CTEQ5L-LO_HardQCDAll_230To300_2017-02-03-125516
11615.6 seconds 3.22656 hours CTEQ5L-LO_HardQCDAll_230To300_2017-02-03-125516
9385.24 seconds 2.60701 hours CTEQ5L-LO_HardQCDAll_230To300_2017-02-03-125516
11070.7 seconds 3.07519 hours CTEQ5L-LO_HardQCDAll_230To300_2017-02-03-125516
7033.15 seconds 1.95365 hours CTEQ5L-LO_HardQCDAll_230To300_2017-02-03-125516
9110.89 seconds 2.5308 hours CTEQ5L-LO_HardQCDAll_230To300_2017-02-03-125516
8977.95 seconds 2.49388 hours CTEQ5L-LO_HardQCDAll_230To300_2017-02-03-125516


14030.3 seconds 3.89731 hours CTEQ5L-LO_HardQCDAll_300To380_2017-02-03-125516
9345.25 seconds 2.5959 hours CTEQ5L-LO_HardQCDAll_300To380_2017-02-03-125516
9639.32 seconds 2.67759 hours CTEQ5L-LO_HardQCDAll_300To380_2017-02-03-125516
9654.11 seconds 2.6817 hours CTEQ5L-LO_HardQCDAll_300To380_2017-02-03-125516
13192.5 seconds 3.66458 hours CTEQ5L-LO_HardQCDAll_300To380_2017-02-03-125516
13231.5 seconds 3.67542 hours CTEQ5L-LO_HardQCDAll_300To380_2017-02-03-125516
13280.7 seconds 3.68908 hours CTEQ5L-LO_HardQCDAll_300To380_2017-02-03-125516
9630.67 seconds 2.67519 hours CTEQ5L-LO_HardQCDAll_300To380_2017-02-03-125516
9591.56 seconds 2.66432 hours CTEQ5L-LO_HardQCDAll_300To380_2017-02-03-125516
9762.17 seconds 2.71171 hours CTEQ5L-LO_HardQCDAll_300To380_2017-02-03-125516
12419.7 seconds 3.44992 hours CTEQ5L-LO_HardQCDAll_300To380_2017-02-03-125516
12472.3 seconds 3.46453 hours CTEQ5L-LO_HardQCDAll_300To380_2017-02-03-125516
10730.2 seconds 2.98061 hours CTEQ5L-LO_HardQCDAll_300To380_2017-02-03-125516
9574.33 seconds 2.65954 hours CTEQ5L-LO_HardQCDAll_300To380_2017-02-03-125516
10485 seconds 2.9125 hours CTEQ5L-LO_HardQCDAll_300To380_2017-02-03-125516
9810.72 seconds 2.7252 hours CTEQ5L-LO_HardQCDAll_300To380_2017-02-03-125516
13669.9 seconds 3.79719 hours CTEQ5L-LO_HardQCDAll_300To380_2017-02-03-125516
9851.18 seconds 2.73644 hours CTEQ5L-LO_HardQCDAll_300To380_2017-02-03-125516
9579.34 seconds 2.66093 hours CTEQ5L-LO_HardQCDAll_300To380_2017-02-03-125516
9739.14 seconds 2.70532 hours CTEQ5L-LO_HardQCDAll_300To380_2017-02-03-125516


5829.1 seconds 1.61919 hours CTEQ5L-LO_HardQCDAll_30To50_2017-02-03-125516
5768.49 seconds 1.60236 hours CTEQ5L-LO_HardQCDAll_30To50_2017-02-03-125516
6801.52 seconds 1.88931 hours CTEQ5L-LO_HardQCDAll_30To50_2017-02-03-125516
6516.54 seconds 1.81015 hours CTEQ5L-LO_HardQCDAll_30To50_2017-02-03-125516
6488.01 seconds 1.80222 hours CTEQ5L-LO_HardQCDAll_30To50_2017-02-03-125516
8546.72 seconds 2.37409 hours CTEQ5L-LO_HardQCDAll_30To50_2017-02-03-125516
8634.86 seconds 2.39857 hours CTEQ5L-LO_HardQCDAll_30To50_2017-02-03-125516
6534.22 seconds 1.81506 hours CTEQ5L-LO_HardQCDAll_30To50_2017-02-03-125516
8623.79 seconds 2.3955 hours CTEQ5L-LO_HardQCDAll_30To50_2017-02-03-125516
6335.31 seconds 1.75981 hours CTEQ5L-LO_HardQCDAll_30To50_2017-02-03-125516
5848.52 seconds 1.62459 hours CTEQ5L-LO_HardQCDAll_30To50_2017-02-03-125516
5914.07 seconds 1.6428 hours CTEQ5L-LO_HardQCDAll_30To50_2017-02-03-125516
6453.89 seconds 1.79275 hours CTEQ5L-LO_HardQCDAll_30To50_2017-02-03-125516
5780.64 seconds 1.60573 hours CTEQ5L-LO_HardQCDAll_30To50_2017-02-03-125516
5868.7 seconds 1.63019 hours CTEQ5L-LO_HardQCDAll_30To50_2017-02-03-125516
6543.06 seconds 1.81752 hours CTEQ5L-LO_HardQCDAll_30To50_2017-02-03-125516
8738.98 seconds 2.42749 hours CTEQ5L-LO_HardQCDAll_30To50_2017-02-03-125516
8559.26 seconds 2.37757 hours CTEQ5L-LO_HardQCDAll_30To50_2017-02-03-125516
8324.12 seconds 2.31226 hours CTEQ5L-LO_HardQCDAll_30To50_2017-02-03-125516
6030.65 seconds 1.67518 hours CTEQ5L-LO_HardQCDAll_30To50_2017-02-03-125516


13622 seconds 3.78389 hours CTEQ5L-LO_HardQCDAll_380To10000_2017-02-03-125516
14017.6 seconds 3.89378 hours CTEQ5L-LO_HardQCDAll_380To10000_2017-02-03-125516
13036.9 seconds 3.62136 hours CTEQ5L-LO_HardQCDAll_380To10000_2017-02-03-125516
12900.9 seconds 3.58358 hours CTEQ5L-LO_HardQCDAll_380To10000_2017-02-03-125516
10105.6 seconds 2.80711 hours CTEQ5L-LO_HardQCDAll_380To10000_2017-02-03-125516
10844.4 seconds 3.01233 hours CTEQ5L-LO_HardQCDAll_380To10000_2017-02-03-125516
9861.48 seconds 2.7393 hours CTEQ5L-LO_HardQCDAll_380To10000_2017-02-03-125516
9925.74 seconds 2.75715 hours CTEQ5L-LO_HardQCDAll_380To10000_2017-02-03-125516
9953.6 seconds 2.76489 hours CTEQ5L-LO_HardQCDAll_380To10000_2017-02-03-125516
9950.73 seconds 2.76409 hours CTEQ5L-LO_HardQCDAll_380To10000_2017-02-03-125516
10803.2 seconds 3.00089 hours CTEQ5L-LO_HardQCDAll_380To10000_2017-02-03-125516
13645.5 seconds 3.79042 hours CTEQ5L-LO_HardQCDAll_380To10000_2017-02-03-125516
10922 seconds 3.03389 hours CTEQ5L-LO_HardQCDAll_380To10000_2017-02-03-125516
9790.62 seconds 2.71962 hours CTEQ5L-LO_HardQCDAll_380To10000_2017-02-03-125516
9840.35 seconds 2.73343 hours CTEQ5L-LO_HardQCDAll_380To10000_2017-02-03-125516
12718.6 seconds 3.53294 hours CTEQ5L-LO_HardQCDAll_380To10000_2017-02-03-125516
13245.7 seconds 3.67936 hours CTEQ5L-LO_HardQCDAll_380To10000_2017-02-03-125516
13290.4 seconds 3.69178 hours CTEQ5L-LO_HardQCDAll_380To10000_2017-02-03-125516
13337.7 seconds 3.70492 hours CTEQ5L-LO_HardQCDAll_380To10000_2017-02-03-125516
14029.3 seconds 3.89703 hours CTEQ5L-LO_HardQCDAll_380To10000_2017-02-03-125516


6731.47 seconds 1.86985 hours CTEQ5L-LO_HardQCDAll_50To80_2017-02-03-125516
9854.29 seconds 2.7373 hours CTEQ5L-LO_HardQCDAll_50To80_2017-02-03-125516
9459.72 seconds 2.6277 hours CTEQ5L-LO_HardQCDAll_50To80_2017-02-03-125516
9511.11 seconds 2.64197 hours CTEQ5L-LO_HardQCDAll_50To80_2017-02-03-125516
9550.58 seconds 2.65294 hours CTEQ5L-LO_HardQCDAll_50To80_2017-02-03-125516
8566.72 seconds 2.37964 hours CTEQ5L-LO_HardQCDAll_50To80_2017-02-03-125516
9389.56 seconds 2.60821 hours CTEQ5L-LO_HardQCDAll_50To80_2017-02-03-125516
9697.31 seconds 2.6937 hours CTEQ5L-LO_HardQCDAll_50To80_2017-02-03-125516
6638.64 seconds 1.84407 hours CTEQ5L-LO_HardQCDAll_50To80_2017-02-03-125516
6865.62 seconds 1.90712 hours CTEQ5L-LO_HardQCDAll_50To80_2017-02-03-125516
6903.99 seconds 1.91778 hours CTEQ5L-LO_HardQCDAll_50To80_2017-02-03-125516
6894.42 seconds 1.91512 hours CTEQ5L-LO_HardQCDAll_50To80_2017-02-03-125516
6869.97 seconds 1.90833 hours CTEQ5L-LO_HardQCDAll_50To80_2017-02-03-125516
9757.54 seconds 2.71043 hours CTEQ5L-LO_HardQCDAll_50To80_2017-02-03-125516
9727.43 seconds 2.70206 hours CTEQ5L-LO_HardQCDAll_50To80_2017-02-03-125516
6552.31 seconds 1.82009 hours CTEQ5L-LO_HardQCDAll_50To80_2017-02-03-125516
6563.54 seconds 1.82321 hours CTEQ5L-LO_HardQCDAll_50To80_2017-02-03-125516
9666.68 seconds 2.68519 hours CTEQ5L-LO_HardQCDAll_50To80_2017-02-03-125516
6856.19 seconds 1.9045 hours CTEQ5L-LO_HardQCDAll_50To80_2017-02-03-125516
6813.86 seconds 1.89274 hours CTEQ5L-LO_HardQCDAll_50To80_2017-02-03-125516


7865.94 seconds 2.18498 hours CTEQ5L-LO_HardQCDAll_80To120_2017-02-03-125516
9632.56 seconds 2.67571 hours CTEQ5L-LO_HardQCDAll_80To120_2017-02-03-125516
7745.26 seconds 2.15146 hours CTEQ5L-LO_HardQCDAll_80To120_2017-02-03-125516
7288.96 seconds 2.02471 hours CTEQ5L-LO_HardQCDAll_80To120_2017-02-03-125516
7509.95 seconds 2.0861 hours CTEQ5L-LO_HardQCDAll_80To120_2017-02-03-125516
7736.23 seconds 2.14895 hours CTEQ5L-LO_HardQCDAll_80To120_2017-02-03-125516
7708.69 seconds 2.1413 hours CTEQ5L-LO_HardQCDAll_80To120_2017-02-03-125516
7647.63 seconds 2.12434 hours CTEQ5L-LO_HardQCDAll_80To120_2017-02-03-125516
7596.91 seconds 2.11025 hours CTEQ5L-LO_HardQCDAll_80To120_2017-02-03-125516
10566.1 seconds 2.93503 hours CTEQ5L-LO_HardQCDAll_80To120_2017-02-03-125516
10532.7 seconds 2.92575 hours CTEQ5L-LO_HardQCDAll_80To120_2017-02-03-125516
10781.5 seconds 2.99486 hours CTEQ5L-LO_HardQCDAll_80To120_2017-02-03-125516
7251 seconds 2.01417 hours CTEQ5L-LO_HardQCDAll_80To120_2017-02-03-125516
7588.85 seconds 2.10801 hours CTEQ5L-LO_HardQCDAll_80To120_2017-02-03-125516
10873.6 seconds 3.02044 hours CTEQ5L-LO_HardQCDAll_80To120_2017-02-03-125516
7599.34 seconds 2.11093 hours CTEQ5L-LO_HardQCDAll_80To120_2017-02-03-125516
11084.4 seconds 3.079 hours CTEQ5L-LO_HardQCDAll_80To120_2017-02-03-125516
10654.9 seconds 2.95969 hours CTEQ5L-LO_HardQCDAll_80To120_2017-02-03-125516
10929 seconds 3.03583 hours CTEQ5L-LO_HardQCDAll_80To120_2017-02-03-125516
7644.52 seconds 2.12348 hours CTEQ5L-LO_HardQCDAll_80To120_2017-02-03-125516




