

Time taken to complete the job, Statistics
==========================================
21393 seconds 5.9425 hours NNPDF2.3-QCD+QED-LO14_HardQCDMix_10To20_2016-09-23-124340
19141.7 seconds 5.31714 hours NNPDF2.3-QCD+QED-LO14_HardQCDMix_10To20_2016-09-23-124340
18986.4 seconds 5.274 hours NNPDF2.3-QCD+QED-LO14_HardQCDMix_10To20_2016-09-23-124340
21195 seconds 5.8875 hours NNPDF2.3-QCD+QED-LO14_HardQCDMix_10To20_2016-09-23-124340
21138 seconds 5.87167 hours NNPDF2.3-QCD+QED-LO14_HardQCDMix_10To20_2016-09-23-124340
21410.4 seconds 5.94733 hours NNPDF2.3-QCD+QED-LO14_HardQCDMix_10To20_2016-09-23-124340
21187.7 seconds 5.88547 hours NNPDF2.3-QCD+QED-LO14_HardQCDMix_10To20_2016-09-23-124340
21614.6 seconds 6.00406 hours NNPDF2.3-QCD+QED-LO14_HardQCDMix_10To20_2016-09-23-124340
21430.7 seconds 5.95297 hours NNPDF2.3-QCD+QED-LO14_HardQCDMix_10To20_2016-09-23-124340
19138.1 seconds 5.31614 hours NNPDF2.3-QCD+QED-LO14_HardQCDMix_10To20_2016-09-23-124340
21349.9 seconds 5.93053 hours NNPDF2.3-QCD+QED-LO14_HardQCDMix_10To20_2016-09-23-124340
21072.1 seconds 5.85336 hours NNPDF2.3-QCD+QED-LO14_HardQCDMix_10To20_2016-09-23-124340
21121.9 seconds 5.86719 hours NNPDF2.3-QCD+QED-LO14_HardQCDMix_10To20_2016-09-23-124340
21036.9 seconds 5.84358 hours NNPDF2.3-QCD+QED-LO14_HardQCDMix_10To20_2016-09-23-124340
21383 seconds 5.93972 hours NNPDF2.3-QCD+QED-LO14_HardQCDMix_10To20_2016-09-23-124340
21568.8 seconds 5.99133 hours NNPDF2.3-QCD+QED-LO14_HardQCDMix_10To20_2016-09-23-124340
21178.4 seconds 5.88289 hours NNPDF2.3-QCD+QED-LO14_HardQCDMix_10To20_2016-09-23-124340
19057.5 seconds 5.29375 hours NNPDF2.3-QCD+QED-LO14_HardQCDMix_10To20_2016-09-23-124340
19041.7 seconds 5.28936 hours NNPDF2.3-QCD+QED-LO14_HardQCDMix_10To20_2016-09-23-124340
19071.2 seconds 5.29756 hours NNPDF2.3-QCD+QED-LO14_HardQCDMix_10To20_2016-09-23-124340


23303.8 seconds 6.47328 hours NNPDF2.3-QCD+QED-LO14_HardQCDMix_120To170_2016-09-23-124340
18949.2 seconds 5.26367 hours NNPDF2.3-QCD+QED-LO14_HardQCDMix_120To170_2016-09-23-124340
18897.5 seconds 5.24931 hours NNPDF2.3-QCD+QED-LO14_HardQCDMix_120To170_2016-09-23-124340
18260.8 seconds 5.07244 hours NNPDF2.3-QCD+QED-LO14_HardQCDMix_120To170_2016-09-23-124340
18205 seconds 5.05694 hours NNPDF2.3-QCD+QED-LO14_HardQCDMix_120To170_2016-09-23-124340
18402.5 seconds 5.11181 hours NNPDF2.3-QCD+QED-LO14_HardQCDMix_120To170_2016-09-23-124340
18441.3 seconds 5.12258 hours NNPDF2.3-QCD+QED-LO14_HardQCDMix_120To170_2016-09-23-124340
18356.9 seconds 5.09914 hours NNPDF2.3-QCD+QED-LO14_HardQCDMix_120To170_2016-09-23-124340
18411.2 seconds 5.11422 hours NNPDF2.3-QCD+QED-LO14_HardQCDMix_120To170_2016-09-23-124340
23519 seconds 6.53306 hours NNPDF2.3-QCD+QED-LO14_HardQCDMix_120To170_2016-09-23-124340
23234.9 seconds 6.45414 hours NNPDF2.3-QCD+QED-LO14_HardQCDMix_120To170_2016-09-23-124340
22794.8 seconds 6.33189 hours NNPDF2.3-QCD+QED-LO14_HardQCDMix_120To170_2016-09-23-124340
23598.8 seconds 6.55522 hours NNPDF2.3-QCD+QED-LO14_HardQCDMix_120To170_2016-09-23-124340
22946.7 seconds 6.37408 hours NNPDF2.3-QCD+QED-LO14_HardQCDMix_120To170_2016-09-23-124340
24765 seconds 6.87917 hours NNPDF2.3-QCD+QED-LO14_HardQCDMix_120To170_2016-09-23-124340
23991.4 seconds 6.66428 hours NNPDF2.3-QCD+QED-LO14_HardQCDMix_120To170_2016-09-23-124340
24418.9 seconds 6.78303 hours NNPDF2.3-QCD+QED-LO14_HardQCDMix_120To170_2016-09-23-124340
24534.2 seconds 6.81506 hours NNPDF2.3-QCD+QED-LO14_HardQCDMix_120To170_2016-09-23-124340
26616.7 seconds 7.39353 hours NNPDF2.3-QCD+QED-LO14_HardQCDMix_120To170_2016-09-23-124340
18817.6 seconds 5.22711 hours NNPDF2.3-QCD+QED-LO14_HardQCDMix_120To170_2016-09-23-124340


24115.7 seconds 6.69881 hours NNPDF2.3-QCD+QED-LO14_HardQCDMix_170To230_2016-09-23-124340
25397.6 seconds 7.05489 hours NNPDF2.3-QCD+QED-LO14_HardQCDMix_170To230_2016-09-23-124340
25097.5 seconds 6.97153 hours NNPDF2.3-QCD+QED-LO14_HardQCDMix_170To230_2016-09-23-124340
25351.3 seconds 7.04203 hours NNPDF2.3-QCD+QED-LO14_HardQCDMix_170To230_2016-09-23-124340
25098.5 seconds 6.97181 hours NNPDF2.3-QCD+QED-LO14_HardQCDMix_170To230_2016-09-23-124340
19711.6 seconds 5.47544 hours NNPDF2.3-QCD+QED-LO14_HardQCDMix_170To230_2016-09-23-124340
19383.3 seconds 5.38425 hours NNPDF2.3-QCD+QED-LO14_HardQCDMix_170To230_2016-09-23-124340
18686.3 seconds 5.19064 hours NNPDF2.3-QCD+QED-LO14_HardQCDMix_170To230_2016-09-23-124340
19273.6 seconds 5.35378 hours NNPDF2.3-QCD+QED-LO14_HardQCDMix_170To230_2016-09-23-124340
19153 seconds 5.32028 hours NNPDF2.3-QCD+QED-LO14_HardQCDMix_170To230_2016-09-23-124340
18731 seconds 5.20306 hours NNPDF2.3-QCD+QED-LO14_HardQCDMix_170To230_2016-09-23-124340
27016.3 seconds 7.50453 hours NNPDF2.3-QCD+QED-LO14_HardQCDMix_170To230_2016-09-23-124340
26778.9 seconds 7.43858 hours NNPDF2.3-QCD+QED-LO14_HardQCDMix_170To230_2016-09-23-124340
27127.4 seconds 7.53539 hours NNPDF2.3-QCD+QED-LO14_HardQCDMix_170To230_2016-09-23-124340
19172.6 seconds 5.32572 hours NNPDF2.3-QCD+QED-LO14_HardQCDMix_170To230_2016-09-23-124340
19115.3 seconds 5.30981 hours NNPDF2.3-QCD+QED-LO14_HardQCDMix_170To230_2016-09-23-124340
18714.2 seconds 5.19839 hours NNPDF2.3-QCD+QED-LO14_HardQCDMix_170To230_2016-09-23-124340
18632.7 seconds 5.17575 hours NNPDF2.3-QCD+QED-LO14_HardQCDMix_170To230_2016-09-23-124340
19168.7 seconds 5.32464 hours NNPDF2.3-QCD+QED-LO14_HardQCDMix_170To230_2016-09-23-124340
19134.1 seconds 5.31503 hours NNPDF2.3-QCD+QED-LO14_HardQCDMix_170To230_2016-09-23-124340


22387.4 seconds 6.21872 hours NNPDF2.3-QCD+QED-LO14_HardQCDMix_20To30_2016-09-23-124340
17569.7 seconds 4.88047 hours NNPDF2.3-QCD+QED-LO14_HardQCDMix_20To30_2016-09-23-124340
17566.3 seconds 4.87953 hours NNPDF2.3-QCD+QED-LO14_HardQCDMix_20To30_2016-09-23-124340
17613.9 seconds 4.89275 hours NNPDF2.3-QCD+QED-LO14_HardQCDMix_20To30_2016-09-23-124340
17751.1 seconds 4.93086 hours NNPDF2.3-QCD+QED-LO14_HardQCDMix_20To30_2016-09-23-124340
17013.2 seconds 4.72589 hours NNPDF2.3-QCD+QED-LO14_HardQCDMix_20To30_2016-09-23-124340
16973.6 seconds 4.71489 hours NNPDF2.3-QCD+QED-LO14_HardQCDMix_20To30_2016-09-23-124340
17145.3 seconds 4.76258 hours NNPDF2.3-QCD+QED-LO14_HardQCDMix_20To30_2016-09-23-124340
17284 seconds 4.80111 hours NNPDF2.3-QCD+QED-LO14_HardQCDMix_20To30_2016-09-23-124340
17315.9 seconds 4.80997 hours NNPDF2.3-QCD+QED-LO14_HardQCDMix_20To30_2016-09-23-124340
17749.2 seconds 4.93033 hours NNPDF2.3-QCD+QED-LO14_HardQCDMix_20To30_2016-09-23-124340
22911.5 seconds 6.36431 hours NNPDF2.3-QCD+QED-LO14_HardQCDMix_20To30_2016-09-23-124340
18276.9 seconds 5.07692 hours NNPDF2.3-QCD+QED-LO14_HardQCDMix_20To30_2016-09-23-124340
15516.6 seconds 4.31017 hours NNPDF2.3-QCD+QED-LO14_HardQCDMix_20To30_2016-09-23-124340
17951.8 seconds 4.98661 hours NNPDF2.3-QCD+QED-LO14_HardQCDMix_20To30_2016-09-23-124340
17741 seconds 4.92806 hours NNPDF2.3-QCD+QED-LO14_HardQCDMix_20To30_2016-09-23-124340
17823.5 seconds 4.95097 hours NNPDF2.3-QCD+QED-LO14_HardQCDMix_20To30_2016-09-23-124340
23045.9 seconds 6.40164 hours NNPDF2.3-QCD+QED-LO14_HardQCDMix_20To30_2016-09-23-124340
22776.2 seconds 6.32672 hours NNPDF2.3-QCD+QED-LO14_HardQCDMix_20To30_2016-09-23-124340
16964.5 seconds 4.71236 hours NNPDF2.3-QCD+QED-LO14_HardQCDMix_20To30_2016-09-23-124340


27507.3 seconds 7.64092 hours NNPDF2.3-QCD+QED-LO14_HardQCDMix_230To300_2016-09-23-124340
25706.6 seconds 7.14072 hours NNPDF2.3-QCD+QED-LO14_HardQCDMix_230To300_2016-09-23-124340
25894.8 seconds 7.193 hours NNPDF2.3-QCD+QED-LO14_HardQCDMix_230To300_2016-09-23-124340
25563 seconds 7.10083 hours NNPDF2.3-QCD+QED-LO14_HardQCDMix_230To300_2016-09-23-124340
25754.3 seconds 7.15397 hours NNPDF2.3-QCD+QED-LO14_HardQCDMix_230To300_2016-09-23-124340
27373.3 seconds 7.60369 hours NNPDF2.3-QCD+QED-LO14_HardQCDMix_230To300_2016-09-23-124340
27728.2 seconds 7.70228 hours NNPDF2.3-QCD+QED-LO14_HardQCDMix_230To300_2016-09-23-124340
27603.1 seconds 7.66753 hours NNPDF2.3-QCD+QED-LO14_HardQCDMix_230To300_2016-09-23-124340
27968.7 seconds 7.76908 hours NNPDF2.3-QCD+QED-LO14_HardQCDMix_230To300_2016-09-23-124340
27626.1 seconds 7.67392 hours NNPDF2.3-QCD+QED-LO14_HardQCDMix_230To300_2016-09-23-124340
24751.8 seconds 6.8755 hours NNPDF2.3-QCD+QED-LO14_HardQCDMix_230To300_2016-09-23-124340
27695.6 seconds 7.69322 hours NNPDF2.3-QCD+QED-LO14_HardQCDMix_230To300_2016-09-23-124340
23417.4 seconds 6.50483 hours NNPDF2.3-QCD+QED-LO14_HardQCDMix_230To300_2016-09-23-124340
27649.3 seconds 7.68036 hours NNPDF2.3-QCD+QED-LO14_HardQCDMix_230To300_2016-09-23-124340
25023.8 seconds 6.95106 hours NNPDF2.3-QCD+QED-LO14_HardQCDMix_230To300_2016-09-23-124340
24804.4 seconds 6.89011 hours NNPDF2.3-QCD+QED-LO14_HardQCDMix_230To300_2016-09-23-124340
24753.6 seconds 6.876 hours NNPDF2.3-QCD+QED-LO14_HardQCDMix_230To300_2016-09-23-124340
24562.1 seconds 6.82281 hours NNPDF2.3-QCD+QED-LO14_HardQCDMix_230To300_2016-09-23-124340
20111.4 seconds 5.5865 hours NNPDF2.3-QCD+QED-LO14_HardQCDMix_230To300_2016-09-23-124340
20047 seconds 5.56861 hours NNPDF2.3-QCD+QED-LO14_HardQCDMix_230To300_2016-09-23-124340


24895.2 seconds 6.91533 hours NNPDF2.3-QCD+QED-LO14_HardQCDMix_300To380_2016-09-23-124340
19832.6 seconds 5.50906 hours NNPDF2.3-QCD+QED-LO14_HardQCDMix_300To380_2016-09-23-124340
19587.8 seconds 5.44106 hours NNPDF2.3-QCD+QED-LO14_HardQCDMix_300To380_2016-09-23-124340
28118.2 seconds 7.81061 hours NNPDF2.3-QCD+QED-LO14_HardQCDMix_300To380_2016-09-23-124340
27901.2 seconds 7.75033 hours NNPDF2.3-QCD+QED-LO14_HardQCDMix_300To380_2016-09-23-124340
27799.8 seconds 7.72217 hours NNPDF2.3-QCD+QED-LO14_HardQCDMix_300To380_2016-09-23-124340
23603.4 seconds 6.5565 hours NNPDF2.3-QCD+QED-LO14_HardQCDMix_300To380_2016-09-23-124340
20321.3 seconds 5.64481 hours NNPDF2.3-QCD+QED-LO14_HardQCDMix_300To380_2016-09-23-124340
20136.1 seconds 5.59336 hours NNPDF2.3-QCD+QED-LO14_HardQCDMix_300To380_2016-09-23-124340
19969.1 seconds 5.54697 hours NNPDF2.3-QCD+QED-LO14_HardQCDMix_300To380_2016-09-23-124340
20521.3 seconds 5.70036 hours NNPDF2.3-QCD+QED-LO14_HardQCDMix_300To380_2016-09-23-124340
23680.8 seconds 6.578 hours NNPDF2.3-QCD+QED-LO14_HardQCDMix_300To380_2016-09-23-124340
20438.2 seconds 5.67728 hours NNPDF2.3-QCD+QED-LO14_HardQCDMix_300To380_2016-09-23-124340
26745.6 seconds 7.42933 hours NNPDF2.3-QCD+QED-LO14_HardQCDMix_300To380_2016-09-23-124340
20178.4 seconds 5.60511 hours NNPDF2.3-QCD+QED-LO14_HardQCDMix_300To380_2016-09-23-124340
19930.7 seconds 5.53631 hours NNPDF2.3-QCD+QED-LO14_HardQCDMix_300To380_2016-09-23-124340
19946.4 seconds 5.54067 hours NNPDF2.3-QCD+QED-LO14_HardQCDMix_300To380_2016-09-23-124340
19876.8 seconds 5.52133 hours NNPDF2.3-QCD+QED-LO14_HardQCDMix_300To380_2016-09-23-124340
19908.7 seconds 5.53019 hours NNPDF2.3-QCD+QED-LO14_HardQCDMix_300To380_2016-09-23-124340
19819.6 seconds 5.50544 hours NNPDF2.3-QCD+QED-LO14_HardQCDMix_300To380_2016-09-23-124340


18247.8 seconds 5.06883 hours NNPDF2.3-QCD+QED-LO14_HardQCDMix_30To50_2016-09-23-124340
18356 seconds 5.09889 hours NNPDF2.3-QCD+QED-LO14_HardQCDMix_30To50_2016-09-23-124340
16943.5 seconds 4.70653 hours NNPDF2.3-QCD+QED-LO14_HardQCDMix_30To50_2016-09-23-124340
17026.7 seconds 4.72964 hours NNPDF2.3-QCD+QED-LO14_HardQCDMix_30To50_2016-09-23-124340
17443.1 seconds 4.84531 hours NNPDF2.3-QCD+QED-LO14_HardQCDMix_30To50_2016-09-23-124340
18221 seconds 5.06139 hours NNPDF2.3-QCD+QED-LO14_HardQCDMix_30To50_2016-09-23-124340
23719.3 seconds 6.58869 hours NNPDF2.3-QCD+QED-LO14_HardQCDMix_30To50_2016-09-23-124340
23192.9 seconds 6.44247 hours NNPDF2.3-QCD+QED-LO14_HardQCDMix_30To50_2016-09-23-124340
16911.4 seconds 4.69761 hours NNPDF2.3-QCD+QED-LO14_HardQCDMix_30To50_2016-09-23-124340
16859.9 seconds 4.68331 hours NNPDF2.3-QCD+QED-LO14_HardQCDMix_30To50_2016-09-23-124340
17053.2 seconds 4.737 hours NNPDF2.3-QCD+QED-LO14_HardQCDMix_30To50_2016-09-23-124340
18416.6 seconds 5.11572 hours NNPDF2.3-QCD+QED-LO14_HardQCDMix_30To50_2016-09-23-124340
17036 seconds 4.73222 hours NNPDF2.3-QCD+QED-LO14_HardQCDMix_30To50_2016-09-23-124340
18227.6 seconds 5.06322 hours NNPDF2.3-QCD+QED-LO14_HardQCDMix_30To50_2016-09-23-124340
18261.1 seconds 5.07253 hours NNPDF2.3-QCD+QED-LO14_HardQCDMix_30To50_2016-09-23-124340
23827.3 seconds 6.61869 hours NNPDF2.3-QCD+QED-LO14_HardQCDMix_30To50_2016-09-23-124340
23452.9 seconds 6.51469 hours NNPDF2.3-QCD+QED-LO14_HardQCDMix_30To50_2016-09-23-124340
23435.1 seconds 6.50975 hours NNPDF2.3-QCD+QED-LO14_HardQCDMix_30To50_2016-09-23-124340
23324.6 seconds 6.47906 hours NNPDF2.3-QCD+QED-LO14_HardQCDMix_30To50_2016-09-23-124340
18365.5 seconds 5.10153 hours NNPDF2.3-QCD+QED-LO14_HardQCDMix_30To50_2016-09-23-124340


19264.3 seconds 5.35119 hours NNPDF2.3-QCD+QED-LO14_HardQCDMix_380To10000_2016-09-23-124340
28045.6 seconds 7.79044 hours NNPDF2.3-QCD+QED-LO14_HardQCDMix_380To10000_2016-09-23-124340
20100 seconds 5.58333 hours NNPDF2.3-QCD+QED-LO14_HardQCDMix_380To10000_2016-09-23-124340
19636.5 seconds 5.45458 hours NNPDF2.3-QCD+QED-LO14_HardQCDMix_380To10000_2016-09-23-124340
19695.6 seconds 5.471 hours NNPDF2.3-QCD+QED-LO14_HardQCDMix_380To10000_2016-09-23-124340
19633.5 seconds 5.45375 hours NNPDF2.3-QCD+QED-LO14_HardQCDMix_380To10000_2016-09-23-124340
28099.1 seconds 7.80531 hours NNPDF2.3-QCD+QED-LO14_HardQCDMix_380To10000_2016-09-23-124340
20157.1 seconds 5.59919 hours NNPDF2.3-QCD+QED-LO14_HardQCDMix_380To10000_2016-09-23-124340
20676.5 seconds 5.74347 hours NNPDF2.3-QCD+QED-LO14_HardQCDMix_380To10000_2016-09-23-124340
19880 seconds 5.52222 hours NNPDF2.3-QCD+QED-LO14_HardQCDMix_380To10000_2016-09-23-124340
28112.6 seconds 7.80906 hours NNPDF2.3-QCD+QED-LO14_HardQCDMix_380To10000_2016-09-23-124340
19243.3 seconds 5.34536 hours NNPDF2.3-QCD+QED-LO14_HardQCDMix_380To10000_2016-09-23-124340
25007.4 seconds 6.9465 hours NNPDF2.3-QCD+QED-LO14_HardQCDMix_380To10000_2016-09-23-124340
20703.9 seconds 5.75108 hours NNPDF2.3-QCD+QED-LO14_HardQCDMix_380To10000_2016-09-23-124340
19201.3 seconds 5.33369 hours NNPDF2.3-QCD+QED-LO14_HardQCDMix_380To10000_2016-09-23-124340
19386.2 seconds 5.38506 hours NNPDF2.3-QCD+QED-LO14_HardQCDMix_380To10000_2016-09-23-124340
19720.9 seconds 5.47803 hours NNPDF2.3-QCD+QED-LO14_HardQCDMix_380To10000_2016-09-23-124340
19603.4 seconds 5.44539 hours NNPDF2.3-QCD+QED-LO14_HardQCDMix_380To10000_2016-09-23-124340
19641.4 seconds 5.45594 hours NNPDF2.3-QCD+QED-LO14_HardQCDMix_380To10000_2016-09-23-124340
19234.8 seconds 5.343 hours NNPDF2.3-QCD+QED-LO14_HardQCDMix_380To10000_2016-09-23-124340


19456.5 seconds 5.40458 hours NNPDF2.3-QCD+QED-LO14_HardQCDMix_50To80_2016-09-23-124340
17952.3 seconds 4.98675 hours NNPDF2.3-QCD+QED-LO14_HardQCDMix_50To80_2016-09-23-124340
17594.7 seconds 4.88742 hours NNPDF2.3-QCD+QED-LO14_HardQCDMix_50To80_2016-09-23-124340
17444.8 seconds 4.84578 hours NNPDF2.3-QCD+QED-LO14_HardQCDMix_50To80_2016-09-23-124340
24422.2 seconds 6.78394 hours NNPDF2.3-QCD+QED-LO14_HardQCDMix_50To80_2016-09-23-124340
17618.6 seconds 4.89406 hours NNPDF2.3-QCD+QED-LO14_HardQCDMix_50To80_2016-09-23-124340
24536.4 seconds 6.81567 hours NNPDF2.3-QCD+QED-LO14_HardQCDMix_50To80_2016-09-23-124340
17475.9 seconds 4.85442 hours NNPDF2.3-QCD+QED-LO14_HardQCDMix_50To80_2016-09-23-124340
17702.2 seconds 4.91728 hours NNPDF2.3-QCD+QED-LO14_HardQCDMix_50To80_2016-09-23-124340
17677 seconds 4.91028 hours NNPDF2.3-QCD+QED-LO14_HardQCDMix_50To80_2016-09-23-124340
17537.5 seconds 4.87153 hours NNPDF2.3-QCD+QED-LO14_HardQCDMix_50To80_2016-09-23-124340
19117.5 seconds 5.31042 hours NNPDF2.3-QCD+QED-LO14_HardQCDMix_50To80_2016-09-23-124340
17459.7 seconds 4.84992 hours NNPDF2.3-QCD+QED-LO14_HardQCDMix_50To80_2016-09-23-124340
19108.2 seconds 5.30783 hours NNPDF2.3-QCD+QED-LO14_HardQCDMix_50To80_2016-09-23-124340
19111.1 seconds 5.30864 hours NNPDF2.3-QCD+QED-LO14_HardQCDMix_50To80_2016-09-23-124340
24730.7 seconds 6.86964 hours NNPDF2.3-QCD+QED-LO14_HardQCDMix_50To80_2016-09-23-124340
17643.5 seconds 4.90097 hours NNPDF2.3-QCD+QED-LO14_HardQCDMix_50To80_2016-09-23-124340
18203 seconds 5.05639 hours NNPDF2.3-QCD+QED-LO14_HardQCDMix_50To80_2016-09-23-124340
17703.4 seconds 4.91761 hours NNPDF2.3-QCD+QED-LO14_HardQCDMix_50To80_2016-09-23-124340
19038.6 seconds 5.2885 hours NNPDF2.3-QCD+QED-LO14_HardQCDMix_50To80_2016-09-23-124340


18234.9 seconds 5.06525 hours NNPDF2.3-QCD+QED-LO14_HardQCDMix_80To120_2016-09-23-124340
23436.5 seconds 6.51014 hours NNPDF2.3-QCD+QED-LO14_HardQCDMix_80To120_2016-09-23-124340
24007.8 seconds 6.66883 hours NNPDF2.3-QCD+QED-LO14_HardQCDMix_80To120_2016-09-23-124340
23801.8 seconds 6.61161 hours NNPDF2.3-QCD+QED-LO14_HardQCDMix_80To120_2016-09-23-124340
25255.4 seconds 7.01539 hours NNPDF2.3-QCD+QED-LO14_HardQCDMix_80To120_2016-09-23-124340
18345.3 seconds 5.09592 hours NNPDF2.3-QCD+QED-LO14_HardQCDMix_80To120_2016-09-23-124340
18089.7 seconds 5.02492 hours NNPDF2.3-QCD+QED-LO14_HardQCDMix_80To120_2016-09-23-124340
17518.2 seconds 4.86617 hours NNPDF2.3-QCD+QED-LO14_HardQCDMix_80To120_2016-09-23-124340
17495.5 seconds 4.85986 hours NNPDF2.3-QCD+QED-LO14_HardQCDMix_80To120_2016-09-23-124340
17473.5 seconds 4.85375 hours NNPDF2.3-QCD+QED-LO14_HardQCDMix_80To120_2016-09-23-124340
17462.9 seconds 4.85081 hours NNPDF2.3-QCD+QED-LO14_HardQCDMix_80To120_2016-09-23-124340
17962.1 seconds 4.98947 hours NNPDF2.3-QCD+QED-LO14_HardQCDMix_80To120_2016-09-23-124340
22659.9 seconds 6.29442 hours NNPDF2.3-QCD+QED-LO14_HardQCDMix_80To120_2016-09-23-124340
17701.5 seconds 4.91708 hours NNPDF2.3-QCD+QED-LO14_HardQCDMix_80To120_2016-09-23-124340
23550.2 seconds 6.54172 hours NNPDF2.3-QCD+QED-LO14_HardQCDMix_80To120_2016-09-23-124340
23741.7 seconds 6.59492 hours NNPDF2.3-QCD+QED-LO14_HardQCDMix_80To120_2016-09-23-124340
23690.7 seconds 6.58075 hours NNPDF2.3-QCD+QED-LO14_HardQCDMix_80To120_2016-09-23-124340
23474.1 seconds 6.52058 hours NNPDF2.3-QCD+QED-LO14_HardQCDMix_80To120_2016-09-23-124340
21596.4 seconds 5.999 hours NNPDF2.3-QCD+QED-LO14_HardQCDMix_80To120_2016-09-23-124340
24166.2 seconds 6.71283 hours NNPDF2.3-QCD+QED-LO14_HardQCDMix_80To120_2016-09-23-124340




