

Time taken to complete the job, Statistics
==========================================
9598.86 seconds 2.66635 hours CTEQ5L-LO_HardQCDMix_10To20_2017-03-01-123135
11323.3 seconds 3.14536 hours CTEQ5L-LO_HardQCDMix_10To20_2017-03-01-123135
10086.7 seconds 2.80186 hours CTEQ5L-LO_HardQCDMix_10To20_2017-03-01-123135
9885.97 seconds 2.7461 hours CTEQ5L-LO_HardQCDMix_10To20_2017-03-01-123135
8677.33 seconds 2.41037 hours CTEQ5L-LO_HardQCDMix_10To20_2017-03-01-123135
12520.6 seconds 3.47794 hours CTEQ5L-LO_HardQCDMix_10To20_2017-03-01-123135
12655.1 seconds 3.51531 hours CTEQ5L-LO_HardQCDMix_10To20_2017-03-01-123135
9329.57 seconds 2.59155 hours CTEQ5L-LO_HardQCDMix_10To20_2017-03-01-123135
11433.3 seconds 3.17592 hours CTEQ5L-LO_HardQCDMix_10To20_2017-03-01-123135
11333.7 seconds 3.14825 hours CTEQ5L-LO_HardQCDMix_10To20_2017-03-01-123135
9846.2 seconds 2.73506 hours CTEQ5L-LO_HardQCDMix_10To20_2017-03-01-123135
7635.54 seconds 2.12098 hours CTEQ5L-LO_HardQCDMix_10To20_2017-03-01-123135
9880.44 seconds 2.74457 hours CTEQ5L-LO_HardQCDMix_10To20_2017-03-01-123135
8974.82 seconds 2.49301 hours CTEQ5L-LO_HardQCDMix_10To20_2017-03-01-123135
9801.67 seconds 2.72269 hours CTEQ5L-LO_HardQCDMix_10To20_2017-03-01-123135
8947.31 seconds 2.48536 hours CTEQ5L-LO_HardQCDMix_10To20_2017-03-01-123135
8809.69 seconds 2.44714 hours CTEQ5L-LO_HardQCDMix_10To20_2017-03-01-123135
12212.7 seconds 3.39242 hours CTEQ5L-LO_HardQCDMix_10To20_2017-03-01-123135
12302.1 seconds 3.41725 hours CTEQ5L-LO_HardQCDMix_10To20_2017-03-01-123135
12716.6 seconds 3.53239 hours CTEQ5L-LO_HardQCDMix_10To20_2017-03-01-123135


16552.1 seconds 4.59781 hours CTEQ5L-LO_HardQCDMix_120To170_2017-03-01-123135
13134.8 seconds 3.64856 hours CTEQ5L-LO_HardQCDMix_120To170_2017-03-01-123135
12984.7 seconds 3.60686 hours CTEQ5L-LO_HardQCDMix_120To170_2017-03-01-123135
16317.2 seconds 4.53256 hours CTEQ5L-LO_HardQCDMix_120To170_2017-03-01-123135
16509.4 seconds 4.58594 hours CTEQ5L-LO_HardQCDMix_120To170_2017-03-01-123135
16545.8 seconds 4.59606 hours CTEQ5L-LO_HardQCDMix_120To170_2017-03-01-123135
16732.3 seconds 4.64786 hours CTEQ5L-LO_HardQCDMix_120To170_2017-03-01-123135
17971.2 seconds 4.992 hours CTEQ5L-LO_HardQCDMix_120To170_2017-03-01-123135
12504.5 seconds 3.47347 hours CTEQ5L-LO_HardQCDMix_120To170_2017-03-01-123135
18050.6 seconds 5.01406 hours CTEQ5L-LO_HardQCDMix_120To170_2017-03-01-123135
17875.1 seconds 4.96531 hours CTEQ5L-LO_HardQCDMix_120To170_2017-03-01-123135
18425.5 seconds 5.11819 hours CTEQ5L-LO_HardQCDMix_120To170_2017-03-01-123135
12147.9 seconds 3.37442 hours CTEQ5L-LO_HardQCDMix_120To170_2017-03-01-123135
17876.6 seconds 4.96572 hours CTEQ5L-LO_HardQCDMix_120To170_2017-03-01-123135
17728.6 seconds 4.92461 hours CTEQ5L-LO_HardQCDMix_120To170_2017-03-01-123135
17550.5 seconds 4.87514 hours CTEQ5L-LO_HardQCDMix_120To170_2017-03-01-123135
16578.7 seconds 4.60519 hours CTEQ5L-LO_HardQCDMix_120To170_2017-03-01-123135
16612.4 seconds 4.61456 hours CTEQ5L-LO_HardQCDMix_120To170_2017-03-01-123135
17929.9 seconds 4.98053 hours CTEQ5L-LO_HardQCDMix_120To170_2017-03-01-123135
12562.5 seconds 3.48958 hours CTEQ5L-LO_HardQCDMix_120To170_2017-03-01-123135


17476.1 seconds 4.85447 hours CTEQ5L-LO_HardQCDMix_170To230_2017-03-01-123135
19595.7 seconds 5.44325 hours CTEQ5L-LO_HardQCDMix_170To230_2017-03-01-123135
19399.8 seconds 5.38883 hours CTEQ5L-LO_HardQCDMix_170To230_2017-03-01-123135
14240.3 seconds 3.95564 hours CTEQ5L-LO_HardQCDMix_170To230_2017-03-01-123135
14260.5 seconds 3.96125 hours CTEQ5L-LO_HardQCDMix_170To230_2017-03-01-123135
14766.1 seconds 4.10169 hours CTEQ5L-LO_HardQCDMix_170To230_2017-03-01-123135
14226.1 seconds 3.95169 hours CTEQ5L-LO_HardQCDMix_170To230_2017-03-01-123135
13946.9 seconds 3.87414 hours CTEQ5L-LO_HardQCDMix_170To230_2017-03-01-123135
14075.9 seconds 3.90997 hours CTEQ5L-LO_HardQCDMix_170To230_2017-03-01-123135
14044 seconds 3.90111 hours CTEQ5L-LO_HardQCDMix_170To230_2017-03-01-123135
14072 seconds 3.90889 hours CTEQ5L-LO_HardQCDMix_170To230_2017-03-01-123135
17220.7 seconds 4.78353 hours CTEQ5L-LO_HardQCDMix_170To230_2017-03-01-123135
14161.9 seconds 3.93386 hours CTEQ5L-LO_HardQCDMix_170To230_2017-03-01-123135
17196.5 seconds 4.77681 hours CTEQ5L-LO_HardQCDMix_170To230_2017-03-01-123135
17359.2 seconds 4.822 hours CTEQ5L-LO_HardQCDMix_170To230_2017-03-01-123135
17844 seconds 4.95667 hours CTEQ5L-LO_HardQCDMix_170To230_2017-03-01-123135
19563.5 seconds 5.43431 hours CTEQ5L-LO_HardQCDMix_170To230_2017-03-01-123135
20301.2 seconds 5.63922 hours CTEQ5L-LO_HardQCDMix_170To230_2017-03-01-123135
19862.9 seconds 5.51747 hours CTEQ5L-LO_HardQCDMix_170To230_2017-03-01-123135
19398.8 seconds 5.38856 hours CTEQ5L-LO_HardQCDMix_170To230_2017-03-01-123135


12112.8 seconds 3.36467 hours CTEQ5L-LO_HardQCDMix_20To30_2017-03-01-123135
11105.4 seconds 3.08483 hours CTEQ5L-LO_HardQCDMix_20To30_2017-03-01-123135
10911 seconds 3.03083 hours CTEQ5L-LO_HardQCDMix_20To30_2017-03-01-123135
11107.9 seconds 3.08553 hours CTEQ5L-LO_HardQCDMix_20To30_2017-03-01-123135
11111.7 seconds 3.08658 hours CTEQ5L-LO_HardQCDMix_20To30_2017-03-01-123135
10918.6 seconds 3.03294 hours CTEQ5L-LO_HardQCDMix_20To30_2017-03-01-123135
11295.7 seconds 3.13769 hours CTEQ5L-LO_HardQCDMix_20To30_2017-03-01-123135
11284 seconds 3.13444 hours CTEQ5L-LO_HardQCDMix_20To30_2017-03-01-123135
11077.6 seconds 3.07711 hours CTEQ5L-LO_HardQCDMix_20To30_2017-03-01-123135
11102.8 seconds 3.08411 hours CTEQ5L-LO_HardQCDMix_20To30_2017-03-01-123135
10992 seconds 3.05333 hours CTEQ5L-LO_HardQCDMix_20To30_2017-03-01-123135
9876.15 seconds 2.74337 hours CTEQ5L-LO_HardQCDMix_20To30_2017-03-01-123135
11012 seconds 3.05889 hours CTEQ5L-LO_HardQCDMix_20To30_2017-03-01-123135
9938.39 seconds 2.76066 hours CTEQ5L-LO_HardQCDMix_20To30_2017-03-01-123135
9911.97 seconds 2.75332 hours CTEQ5L-LO_HardQCDMix_20To30_2017-03-01-123135
10164.3 seconds 2.82342 hours CTEQ5L-LO_HardQCDMix_20To30_2017-03-01-123135
10166.3 seconds 2.82397 hours CTEQ5L-LO_HardQCDMix_20To30_2017-03-01-123135
10000.6 seconds 2.77794 hours CTEQ5L-LO_HardQCDMix_20To30_2017-03-01-123135
10182.5 seconds 2.82847 hours CTEQ5L-LO_HardQCDMix_20To30_2017-03-01-123135
10258 seconds 2.84944 hours CTEQ5L-LO_HardQCDMix_20To30_2017-03-01-123135


20401.1 seconds 5.66697 hours CTEQ5L-LO_HardQCDMix_230To300_2017-03-01-123135
14435.9 seconds 4.00997 hours CTEQ5L-LO_HardQCDMix_230To300_2017-03-01-123135
14716.4 seconds 4.08789 hours CTEQ5L-LO_HardQCDMix_230To300_2017-03-01-123135
14296 seconds 3.97111 hours CTEQ5L-LO_HardQCDMix_230To300_2017-03-01-123135
18568 seconds 5.15778 hours CTEQ5L-LO_HardQCDMix_230To300_2017-03-01-123135
13848.8 seconds 3.84689 hours CTEQ5L-LO_HardQCDMix_230To300_2017-03-01-123135
13835.8 seconds 3.84328 hours CTEQ5L-LO_HardQCDMix_230To300_2017-03-01-123135
13747.3 seconds 3.81869 hours CTEQ5L-LO_HardQCDMix_230To300_2017-03-01-123135
13428 seconds 3.73 hours CTEQ5L-LO_HardQCDMix_230To300_2017-03-01-123135
13511.1 seconds 3.75308 hours CTEQ5L-LO_HardQCDMix_230To300_2017-03-01-123135
14146.4 seconds 3.92956 hours CTEQ5L-LO_HardQCDMix_230To300_2017-03-01-123135
18634.2 seconds 5.17617 hours CTEQ5L-LO_HardQCDMix_230To300_2017-03-01-123135
20965.7 seconds 5.82381 hours CTEQ5L-LO_HardQCDMix_230To300_2017-03-01-123135
18222.7 seconds 5.06186 hours CTEQ5L-LO_HardQCDMix_230To300_2017-03-01-123135
18409.9 seconds 5.11386 hours CTEQ5L-LO_HardQCDMix_230To300_2017-03-01-123135
18181.8 seconds 5.0505 hours CTEQ5L-LO_HardQCDMix_230To300_2017-03-01-123135
18865.3 seconds 5.24036 hours CTEQ5L-LO_HardQCDMix_230To300_2017-03-01-123135
13252.3 seconds 3.68119 hours CTEQ5L-LO_HardQCDMix_230To300_2017-03-01-123135
16232.3 seconds 4.50897 hours CTEQ5L-LO_HardQCDMix_230To300_2017-03-01-123135
15047.4 seconds 4.17983 hours CTEQ5L-LO_HardQCDMix_230To300_2017-03-01-123135


19154.8 seconds 5.32078 hours CTEQ5L-LO_HardQCDMix_300To380_2017-03-01-123135
21459.9 seconds 5.96108 hours CTEQ5L-LO_HardQCDMix_300To380_2017-03-01-123135
21520.1 seconds 5.97781 hours CTEQ5L-LO_HardQCDMix_300To380_2017-03-01-123135
21502.1 seconds 5.97281 hours CTEQ5L-LO_HardQCDMix_300To380_2017-03-01-123135
21390.1 seconds 5.94169 hours CTEQ5L-LO_HardQCDMix_300To380_2017-03-01-123135
21258.9 seconds 5.90525 hours CTEQ5L-LO_HardQCDMix_300To380_2017-03-01-123135
21149.9 seconds 5.87497 hours CTEQ5L-LO_HardQCDMix_300To380_2017-03-01-123135
18944.6 seconds 5.26239 hours CTEQ5L-LO_HardQCDMix_300To380_2017-03-01-123135
18800.7 seconds 5.22242 hours CTEQ5L-LO_HardQCDMix_300To380_2017-03-01-123135
19291.4 seconds 5.35872 hours CTEQ5L-LO_HardQCDMix_300To380_2017-03-01-123135
18853.7 seconds 5.23714 hours CTEQ5L-LO_HardQCDMix_300To380_2017-03-01-123135
14254.4 seconds 3.95956 hours CTEQ5L-LO_HardQCDMix_300To380_2017-03-01-123135
19013.5 seconds 5.28153 hours CTEQ5L-LO_HardQCDMix_300To380_2017-03-01-123135
19547.2 seconds 5.42978 hours CTEQ5L-LO_HardQCDMix_300To380_2017-03-01-123135
20661.4 seconds 5.73928 hours CTEQ5L-LO_HardQCDMix_300To380_2017-03-01-123135
14704.7 seconds 4.08464 hours CTEQ5L-LO_HardQCDMix_300To380_2017-03-01-123135
21275.8 seconds 5.90994 hours CTEQ5L-LO_HardQCDMix_300To380_2017-03-01-123135
21515.3 seconds 5.97647 hours CTEQ5L-LO_HardQCDMix_300To380_2017-03-01-123135
21216.2 seconds 5.89339 hours CTEQ5L-LO_HardQCDMix_300To380_2017-03-01-123135
20968.1 seconds 5.82447 hours CTEQ5L-LO_HardQCDMix_300To380_2017-03-01-123135


11675 seconds 3.24306 hours CTEQ5L-LO_HardQCDMix_30To50_2017-03-01-123135
14840.3 seconds 4.12231 hours CTEQ5L-LO_HardQCDMix_30To50_2017-03-01-123135
14385.2 seconds 3.99589 hours CTEQ5L-LO_HardQCDMix_30To50_2017-03-01-123135
14764.5 seconds 4.10125 hours CTEQ5L-LO_HardQCDMix_30To50_2017-03-01-123135
13055.4 seconds 3.6265 hours CTEQ5L-LO_HardQCDMix_30To50_2017-03-01-123135
12951 seconds 3.5975 hours CTEQ5L-LO_HardQCDMix_30To50_2017-03-01-123135
14637.8 seconds 4.06606 hours CTEQ5L-LO_HardQCDMix_30To50_2017-03-01-123135
11883.9 seconds 3.30108 hours CTEQ5L-LO_HardQCDMix_30To50_2017-03-01-123135
14890.1 seconds 4.13614 hours CTEQ5L-LO_HardQCDMix_30To50_2017-03-01-123135
11830.8 seconds 3.28633 hours CTEQ5L-LO_HardQCDMix_30To50_2017-03-01-123135
14317.7 seconds 3.97714 hours CTEQ5L-LO_HardQCDMix_30To50_2017-03-01-123135
8931.86 seconds 2.48107 hours CTEQ5L-LO_HardQCDMix_30To50_2017-03-01-123135
10618.3 seconds 2.94953 hours CTEQ5L-LO_HardQCDMix_30To50_2017-03-01-123135
10529.8 seconds 2.92494 hours CTEQ5L-LO_HardQCDMix_30To50_2017-03-01-123135
10429.9 seconds 2.89719 hours CTEQ5L-LO_HardQCDMix_30To50_2017-03-01-123135
14582.6 seconds 4.05072 hours CTEQ5L-LO_HardQCDMix_30To50_2017-03-01-123135
14500.1 seconds 4.02781 hours CTEQ5L-LO_HardQCDMix_30To50_2017-03-01-123135
10570.7 seconds 2.93631 hours CTEQ5L-LO_HardQCDMix_30To50_2017-03-01-123135
14563.2 seconds 4.04533 hours CTEQ5L-LO_HardQCDMix_30To50_2017-03-01-123135
14462.7 seconds 4.01742 hours CTEQ5L-LO_HardQCDMix_30To50_2017-03-01-123135


22254.3 seconds 6.18175 hours CTEQ5L-LO_HardQCDMix_380To10000_2017-03-01-123135
19733.3 seconds 5.48147 hours CTEQ5L-LO_HardQCDMix_380To10000_2017-03-01-123135
19657.4 seconds 5.46039 hours CTEQ5L-LO_HardQCDMix_380To10000_2017-03-01-123135
18467.3 seconds 5.12981 hours CTEQ5L-LO_HardQCDMix_380To10000_2017-03-01-123135
20243.5 seconds 5.62319 hours CTEQ5L-LO_HardQCDMix_380To10000_2017-03-01-123135
19915 seconds 5.53194 hours CTEQ5L-LO_HardQCDMix_380To10000_2017-03-01-123135
19538.1 seconds 5.42725 hours CTEQ5L-LO_HardQCDMix_380To10000_2017-03-01-123135
19619.1 seconds 5.44975 hours CTEQ5L-LO_HardQCDMix_380To10000_2017-03-01-123135
19835.4 seconds 5.50983 hours CTEQ5L-LO_HardQCDMix_380To10000_2017-03-01-123135
19701.8 seconds 5.47272 hours CTEQ5L-LO_HardQCDMix_380To10000_2017-03-01-123135
18711.6 seconds 5.19767 hours CTEQ5L-LO_HardQCDMix_380To10000_2017-03-01-123135
22371.2 seconds 6.21422 hours CTEQ5L-LO_HardQCDMix_380To10000_2017-03-01-123135
16043.7 seconds 4.45658 hours CTEQ5L-LO_HardQCDMix_380To10000_2017-03-01-123135
22208.7 seconds 6.16908 hours CTEQ5L-LO_HardQCDMix_380To10000_2017-03-01-123135
22270.1 seconds 6.18614 hours CTEQ5L-LO_HardQCDMix_380To10000_2017-03-01-123135
19895.4 seconds 5.5265 hours CTEQ5L-LO_HardQCDMix_380To10000_2017-03-01-123135
19840 seconds 5.51111 hours CTEQ5L-LO_HardQCDMix_380To10000_2017-03-01-123135
20038.4 seconds 5.56622 hours CTEQ5L-LO_HardQCDMix_380To10000_2017-03-01-123135
19395.8 seconds 5.38772 hours CTEQ5L-LO_HardQCDMix_380To10000_2017-03-01-123135
19848 seconds 5.51333 hours CTEQ5L-LO_HardQCDMix_380To10000_2017-03-01-123135


12460.5 seconds 3.46125 hours CTEQ5L-LO_HardQCDMix_50To80_2017-03-01-123135
12791.2 seconds 3.55311 hours CTEQ5L-LO_HardQCDMix_50To80_2017-03-01-123135
12703.1 seconds 3.52864 hours CTEQ5L-LO_HardQCDMix_50To80_2017-03-01-123135
14139.7 seconds 3.92769 hours CTEQ5L-LO_HardQCDMix_50To80_2017-03-01-123135
11117.1 seconds 3.08808 hours CTEQ5L-LO_HardQCDMix_50To80_2017-03-01-123135
12851.3 seconds 3.56981 hours CTEQ5L-LO_HardQCDMix_50To80_2017-03-01-123135
10595.2 seconds 2.94311 hours CTEQ5L-LO_HardQCDMix_50To80_2017-03-01-123135
16064.7 seconds 4.46242 hours CTEQ5L-LO_HardQCDMix_50To80_2017-03-01-123135
15442.4 seconds 4.28956 hours CTEQ5L-LO_HardQCDMix_50To80_2017-03-01-123135
15393.1 seconds 4.27586 hours CTEQ5L-LO_HardQCDMix_50To80_2017-03-01-123135
13215.4 seconds 3.67094 hours CTEQ5L-LO_HardQCDMix_50To80_2017-03-01-123135
15004.4 seconds 4.16789 hours CTEQ5L-LO_HardQCDMix_50To80_2017-03-01-123135
12674.5 seconds 3.52069 hours CTEQ5L-LO_HardQCDMix_50To80_2017-03-01-123135
14795 seconds 4.10972 hours CTEQ5L-LO_HardQCDMix_50To80_2017-03-01-123135
11110.4 seconds 3.08622 hours CTEQ5L-LO_HardQCDMix_50To80_2017-03-01-123135
11092.1 seconds 3.08114 hours CTEQ5L-LO_HardQCDMix_50To80_2017-03-01-123135
11066.7 seconds 3.07408 hours CTEQ5L-LO_HardQCDMix_50To80_2017-03-01-123135
15908.2 seconds 4.41894 hours CTEQ5L-LO_HardQCDMix_50To80_2017-03-01-123135
15411.7 seconds 4.28103 hours CTEQ5L-LO_HardQCDMix_50To80_2017-03-01-123135
12640.6 seconds 3.51128 hours CTEQ5L-LO_HardQCDMix_50To80_2017-03-01-123135


13600.5 seconds 3.77792 hours CTEQ5L-LO_HardQCDMix_80To120_2017-03-01-123135
16990.4 seconds 4.71956 hours CTEQ5L-LO_HardQCDMix_80To120_2017-03-01-123135
16189.8 seconds 4.49717 hours CTEQ5L-LO_HardQCDMix_80To120_2017-03-01-123135
16116.8 seconds 4.47689 hours CTEQ5L-LO_HardQCDMix_80To120_2017-03-01-123135
16100.8 seconds 4.47244 hours CTEQ5L-LO_HardQCDMix_80To120_2017-03-01-123135
15712.8 seconds 4.36467 hours CTEQ5L-LO_HardQCDMix_80To120_2017-03-01-123135
12215 seconds 3.39306 hours CTEQ5L-LO_HardQCDMix_80To120_2017-03-01-123135
13188.6 seconds 3.6635 hours CTEQ5L-LO_HardQCDMix_80To120_2017-03-01-123135
12154.1 seconds 3.37614 hours CTEQ5L-LO_HardQCDMix_80To120_2017-03-01-123135
12527.4 seconds 3.47983 hours CTEQ5L-LO_HardQCDMix_80To120_2017-03-01-123135
15374.3 seconds 4.27064 hours CTEQ5L-LO_HardQCDMix_80To120_2017-03-01-123135
15293.1 seconds 4.24808 hours CTEQ5L-LO_HardQCDMix_80To120_2017-03-01-123135
15731.6 seconds 4.36989 hours CTEQ5L-LO_HardQCDMix_80To120_2017-03-01-123135
12272.4 seconds 3.409 hours CTEQ5L-LO_HardQCDMix_80To120_2017-03-01-123135
13660.4 seconds 3.79456 hours CTEQ5L-LO_HardQCDMix_80To120_2017-03-01-123135
13527.5 seconds 3.75764 hours CTEQ5L-LO_HardQCDMix_80To120_2017-03-01-123135
15455.8 seconds 4.29328 hours CTEQ5L-LO_HardQCDMix_80To120_2017-03-01-123135
15828.7 seconds 4.39686 hours CTEQ5L-LO_HardQCDMix_80To120_2017-03-01-123135
15792.4 seconds 4.38678 hours CTEQ5L-LO_HardQCDMix_80To120_2017-03-01-123135
15432.8 seconds 4.28689 hours CTEQ5L-LO_HardQCDMix_80To120_2017-03-01-123135




