%!PS-Adobe-2.0
%%Title: :  
%%Creator: ROOT Version 5.32/00
%%CreationDate: Mon Apr 25 15:02:23 2016
%%Orientation: Landscape
%%EndComments
%%BeginProlog
/s {stroke} def /l {lineto} def /m {moveto} def /t {translate} def
/r {rotate} def /rl {roll}  def /R {repeat} def
/d {rlineto} def /rm {rmoveto} def /gr {grestore} def /f {eofill} def
/c {setrgbcolor} def /black {0 setgray} def /sd {setdash} def
/cl {closepath} def /sf {scalefont setfont} def /lw {setlinewidth} def
/box {m dup 0 exch d exch 0 d 0 exch neg d cl} def
/NC{systemdict begin initclip end}def/C{NC box clip newpath}def
/bl {box s} def /bf {box f} def /Y { 0 exch d} def /X { 0 d} def 
/K {{pop pop 0 moveto} exch kshow} bind def
/ita {/ang 15 def gsave [1 0 ang dup sin exch cos div 1 0 0] concat} def 
/mp {newpath /y exch def /x exch def} def
/side {[w .77 mul w .23 mul] .385 w mul sd w 0 l currentpoint t -144 r} def
/mr {mp x y w2 0 360 arc} def /m24 {mr s} def /m20 {mr f} def
/mb {mp x y w2 add m w2 neg 0 d 0 w neg d w 0 d 0 w d cl} def
/mt {mp x y w2 add m w2 neg w neg d w 0 d cl} def
/m21 {mb f} def /m25 {mb s} def /m22 {mt f} def /m26{mt s} def
/m23 {mp x y w2 sub m w2 w d w neg 0 d cl f} def
/m27 {mp x y w2 add m w3 neg w2 neg d w3 w2 neg d w3 w2 d cl s} def
/m28 {mp x w2 sub y w2 sub w3 add m w3 0 d  0 w3 neg d w3 0 d 0 w3 d w3 0 d  0 w3 d w3 neg 0 d 0 w3 d w3 neg 0 d 0 w3 neg d w3 neg 0 d cl s } def
/m29 {mp gsave x w2 sub y w2 add w3 sub m currentpoint t 4 {side} repeat cl fill gr} def
/m30 {mp gsave x w2 sub y w2 add w3 sub m currentpoint t 4 {side} repeat cl s gr} def
/m31 {mp x y w2 sub m 0 w d x w2 sub y m w 0 d x w2 sub y w2 add m w w neg d x w2 sub y w2 sub m w w d s} def
/m32 {mp x y w2 sub m w2 w d w neg 0 d cl s} def
/m33 {mp x y w2 add m w3 neg w2 neg d w3 w2 neg d w3 w2 d cl f} def
/m34 {mp x w2 sub y w2 sub w3 add m w3 0 d  0 w3 neg d w3 0 d 0 w3 d w3 0 d  0 w3 d w3 neg 0 d 0 w3 d w3 neg 0 d 0 w3 neg d w3 neg 0 d cl f } def
/m2 {mp x y w2 sub m 0 w d x w2 sub y m w 0 d s} def
/m5 {mp x w2 sub y w2 sub m w w d x w2 sub y w2 add m w w neg d s} def
/reEncode {exch findfont dup length dict begin {1 index /FID eq  {pop pop} {def} ifelse } forall /Encoding exch def currentdict end dup /FontName get exch definefont pop } def [/Times-Bold /Times-Italic /Times-BoldItalic /Helvetica /Helvetica-Oblique
 /Helvetica-Bold /Helvetica-BoldOblique /Courier /Courier-Oblique /Courier-Bold /Courier-BoldOblique /Times-Roman /AvantGarde-Book /AvantGarde-BookOblique /AvantGarde-Demi /AvantGarde-DemiOblique /Bookman-Demi /Bookman-DemiItalic /Bookman-Light
 /Bookman-LightItalic /Helvetica-Narrow /Helvetica-Narrow-Bold /Helvetica-Narrow-BoldOblique /Helvetica-Narrow-Oblique /NewCenturySchlbk-Roman /NewCenturySchlbk-Bold /NewCenturySchlbk-BoldItalic /NewCenturySchlbk-Italic /Palatino-Bold
 /Palatino-BoldItalic /Palatino-Italic /Palatino-Roman ] {ISOLatin1Encoding reEncode } forall/Zone {/iy exch def /ix exch def  ix 1 sub  3144 mul  1 iy sub  2224 mul t} def
%%EndProlog
%%BeginSetup
%%EndSetup
newpath  gsave  90 r 0 -594 t  28 20 t .25 .25 scale  gsave 
%%Page: 1 1
 gsave  gsave 
 1 1 Zone
 gsave  0 0 t black[  ] 0 sd 3 lw 1 1 1 c 2948 1415 0 0 bf black 1 1 1 c 2358 1132 295 141 bf black 2358 1132 295 141 bl 1 1 1 c 2358 1132 295 141 bf black 2358 1132 295 141 bl 0 0 0.6 c 1 1 1 c 0 0 1 c /w 23 def /w2 {w 2 div} def /w3 {w 3 div} def
 300 1229 m20 304 1213 m20 305 1195 m20 307 1145 m20 310 1128 m20 312 1111 m20 315 1095 m20 317 1080 m20 320 1066 m20 322 1052 m20 328 1022 m20 337 976 m20 347 939 m20 356 909 m20 366 885 m20 375 865 m20 0 0 0.6 c 380 834 m 3 X s 404 834 m 4 X s 0 0
 1 c 394 834 m20 0 0 0.6 c 408 797 m 4 X s 433 797 m 3 X s 0 0 1 c 422 797 m20 0 0 0.6 c 436 767 m 4 X s 461 767 m 4 X s 0 0 1 c 450 767 m20 0 0 0.6 c 465 732 m 17 X s 503 732 m 18 X s 0 0 1 c 493 732 m20 0 0 0.6 c 521 690 m 18 X s 560 690 m 18 X s 0
 0 1 c 550 690 m20 0 0 0.6 c 578 654 m 18 X s 617 654 m 17 X s 0 0 1 c 606 654 m20 0 0 0.6 c 634 620 m 28 X s 683 620 m 27 X s 0 0 1 c 672 620 m20 0 0 0.6 c 710 588 m 27 X s 758 588 m 27 X s 0 0 1 c 748 588 m20 0 0 0.6 c 785 564 m 28 X s 834 564 m 27
 X s 0 0 1 c 823 564 m20 0 0 0.6 c 861 536 m 65 X s 947 536 m 65 X s 0 0 1 c 936 536 m20 0 0 0.6 c 1012 509 m 65 X s 1098 509 m 65 X s 0 0 1 c 1087 509 m20 0 0 0.6 c 1163 489 m 65 X s 1249 489 m 65 X s 0 0 1 c 1238 489 m20 0 0 0.6 c 1314 471 m 91 X s
 1425 471 m 91 X s 0 0 1 c 1415 471 m20 0 0 0.6 c 1516 459 m 59 X s 1596 459 m 58 X s 0 0 1 c 1585 459 m20 0 0 0.6 c 1654 446 m 77 X s 1752 446 m 76 X s 0 0 1 c 1741 446 m20 0 0 0.6 c 1828 437 m 48 X s 1897 437 m 49 X s 0 0 1 c 1887 437 m20 0 0 0.6 c
 1946 431 m 48 X s 2015 431 m 49 X s 0 0 1 c 2005 431 m20 0 0 0.6 c 2064 425 m 48 X s 2133 425 m 49 X s 0 0 1 c 2123 425 m20 0 0 0.6 c 2182 418 m 48 X s 2251 418 m 48 X s 0 0 1 c 2241 418 m20 0 0 0.6 c 2299 415 m 49 X s 2369 415 m 48 X s 0 0 1 c 2358
 415 m20 0 0 0.6 c 2417 410 m 49 X s 2487 410 m 48 X s 0 0 1 c 2476 410 m20 0 0 0.6 c 2535 510 m 49 X s 2605 510 m 48 X s 0 0 1 c 2594 510 m20 black 1 1 1 c 590 227 2299 1096 bf black 2299 1096 m 590 X s 2889 1096 m 227 Y s 2889 1323 m -590 X s 2299
 1323 m -227 Y s 1 1 1 c black
 gsave  2948 1415 0 0 C 2455.65 1281.03 t 0 r /Helvetica findfont 47.9864 sf 0 0 m 
 254 238 210 183 159 132 99 83 56 27
(hVarPos_Trk) K NC gr  2299 1266 m 590 X s
 gsave  2948 1415 0 0 C 2328.38 1220.52 t 0 r /Helvetica findfont 47.9864 sf 0 0 m (Entries ) show NC gr 
 gsave  2948 1415 0 0 C 2511.98 1220.52 t 0 r /Helvetica findfont 47.9864 sf 0 0 m (   1.431583e+09) show NC gr 
 gsave  2948 1415 0 0 C 2328.38 1164.19 t 0 r /Helvetica findfont 47.9864 sf 0 0 m (Mean  ) show NC gr 
 gsave  2948 1415 0 0 C 2699.75 1164.19 t 0 r /Helvetica findfont 47.9864 sf 0 0 m ( 0.7936) show NC gr 
 gsave  2948 1415 0 0 C 2328.38 1107.86 t 0 r /Helvetica findfont 47.9864 sf 0 0 m (RMS   ) show NC gr 
 gsave  2948 1415 0 0 C 2699.75 1107.86 t 0 r /Helvetica findfont 47.9864 sf 0 0 m ( 0.4573) show NC gr  295 141 m 2358 X s 295 175 m -34 Y s 354 158 m -17 Y s 413 158 m -17 Y s 472 158 m -17 Y s 531 175 m -34 Y s 590 158 m -17 Y s 649 158 m -17 Y s
 708 158 m -17 Y s 766 175 m -34 Y s 825 158 m -17 Y s 884 158 m -17 Y s 943 158 m -17 Y s 1002 175 m -34 Y s 1061 158 m -17 Y s 1120 158 m -17 Y s 1179 158 m -17 Y s 1238 175 m -34 Y s 1297 158 m -17 Y s 1356 158 m -17 Y s 1415 158 m -17 Y s 1474
 175 m -34 Y s 1533 158 m -17 Y s 1592 158 m -17 Y s 1651 158 m -17 Y s 1710 175 m -34 Y s 1769 158 m -17 Y s 1828 158 m -17 Y s 1887 158 m -17 Y s 1946 175 m -34 Y s 2005 158 m -17 Y s 2064 158 m -17 Y s 2123 158 m -17 Y s 2182 175 m -34 Y s 2241
 158 m -17 Y s 2299 158 m -17 Y s 2358 158 m -17 Y s 2417 175 m -34 Y s 2476 158 m -17 Y s 2535 158 m -17 Y s 2594 158 m -17 Y s 2653 175 m -34 Y s
 gsave  2948 1415 0 0 C 281.659 95.9727 t 0 r /Helvetica findfont 45.9 sf 0 0 m (0) show NC gr 
 gsave  2948 1415 0 0 C 504.9 95.9727 t 0 r /Helvetica findfont 45.9 sf 0 0 m (20) show NC gr 
 gsave  2948 1415 0 0 C 740.659 95.9727 t 0 r /Helvetica findfont 45.9 sf 0 0 m (40) show NC gr 
 gsave  2948 1415 0 0 C 976.418 95.9727 t 0 r /Helvetica findfont 45.9 sf 0 0 m (60) show NC gr 
 gsave  2948 1415 0 0 C 1212.18 95.9727 t 0 r /Helvetica findfont 45.9 sf 0 0 m (80) show NC gr 
 gsave  2948 1415 0 0 C 1435.42 95.9727 t 0 r /Helvetica findfont 45.9 sf 0 0 m (100) show NC gr 
 gsave  2948 1415 0 0 C 1671.18 95.9727 t 0 r /Helvetica findfont 45.9 sf 0 0 m (120) show NC gr 
 gsave  2948 1415 0 0 C 1906.94 95.9727 t 0 r /Helvetica findfont 45.9 sf 0 0 m (140) show NC gr 
 gsave  2948 1415 0 0 C 2142.7 95.9727 t 0 r /Helvetica findfont 45.9 sf 0 0 m (160) show NC gr 
 gsave  2948 1415 0 0 C 2378.45 95.9727 t 0 r /Helvetica findfont 45.9 sf 0 0 m (180) show NC gr 
 gsave  2948 1415 0 0 C 2614.21 95.9727 t 0 r /Helvetica findfont 45.9 sf 0 0 m (200) show NC gr  295 141 m 1132 Y s 330 148 m -35 X s 330 166 m -35 X s 330 179 m -35 X s 330 189 m -35 X s 330 197 m -35 X s 330 204 m -35 X s 330 210 m -35 X s 330 216
 m -35 X s 366 221 m -71 X s
 gsave  2948 1415 0 0 C 271.809 201.428 t 0 r  -25 0 t /Helvetica findfont 45.9 sf 0 0 m (1) show NC gr  330 252 m -35 X s 330 271 m -35 X s 330 284 m -35 X s 330 294 m -35 X s 330 302 m -35 X s 330 309 m -35 X s 330 315 m -35 X s 330 320 m -35 X s
 366 325 m -71 X s
 gsave  2948 1415 0 0 C 271.809 306.033 t 0 r  -51 0 t /Helvetica findfont 45.9 sf 0 0 m (10) show NC gr  330 357 m -35 X s 330 375 m -35 X s 330 388 m -35 X s 330 398 m -35 X s 330 407 m -35 X s 330 414 m -35 X s 330 420 m -35 X s 330 425 m -35 X s
 366 430 m -71 X s
 gsave  2948 1415 0 0 C 254.536 429.791 t 0 r /Helvetica findfont 31.2955 sf 0 0 m (2) show NC gr 
 gsave  2948 1415 0 0 C 204.464 411.014 t 0 r /Helvetica findfont 45.9 sf 0 0 m (10) show NC gr  330 461 m -35 X s 330 480 m -35 X s 330 493 m -35 X s 330 503 m -35 X s 330 511 m -35 X s 330 518 m -35 X s 330 524 m -35 X s 330 530 m -35 X s 366 534 m
 -71 X s
 gsave  2948 1415 0 0 C 254.536 536.195 t 0 r /Helvetica findfont 31.2955 sf 0 0 m (3) show NC gr 
 gsave  2948 1415 0 0 C 204.464 515.332 t 0 r /Helvetica findfont 45.9 sf 0 0 m (10) show NC gr  330 566 m -35 X s 330 584 m -35 X s 330 597 m -35 X s 330 608 m -35 X s 330 616 m -35 X s 330 623 m -35 X s 330 629 m -35 X s 330 634 m -35 X s 366 639 m
 -71 X s
 gsave  2948 1415 0 0 C 254.536 638.427 t 0 r /Helvetica findfont 31.2955 sf 0 0 m (4) show NC gr 
 gsave  2948 1415 0 0 C 204.464 619.65 t 0 r /Helvetica findfont 45.9 sf 0 0 m (10) show NC gr  330 671 m -35 X s 330 689 m -35 X s 330 702 m -35 X s 330 712 m -35 X s 330 720 m -35 X s 330 727 m -35 X s 330 734 m -35 X s 330 739 m -35 X s 366 744 m
 -71 X s
 gsave  2948 1415 0 0 C 254.536 744.832 t 0 r /Helvetica findfont 31.2955 sf 0 0 m (5) show NC gr 
 gsave  2948 1415 0 0 C 204.464 723.968 t 0 r /Helvetica findfont 45.9 sf 0 0 m (10) show NC gr  330 775 m -35 X s 330 794 m -35 X s 330 807 m -35 X s 330 817 m -35 X s 330 825 m -35 X s 330 832 m -35 X s 330 838 m -35 X s 330 843 m -35 X s 366 848 m
 -71 X s
 gsave  2948 1415 0 0 C 254.536 849.15 t 0 r /Helvetica findfont 31.2955 sf 0 0 m (6) show NC gr 
 gsave  2948 1415 0 0 C 204.464 828.286 t 0 r /Helvetica findfont 45.9 sf 0 0 m (10) show NC gr  330 880 m -35 X s 330 898 m -35 X s 330 911 m -35 X s 330 921 m -35 X s 330 930 m -35 X s 330 937 m -35 X s 330 943 m -35 X s 330 948 m -35 X s 366 953 m
 -71 X s
 gsave  2948 1415 0 0 C 254.536 951.382 t 0 r /Helvetica findfont 31.2955 sf 0 0 m (7) show NC gr 
 gsave  2948 1415 0 0 C 204.464 932.604 t 0 r /Helvetica findfont 45.9 sf 0 0 m (10) show NC gr  330 984 m -35 X s 330 1003 m -35 X s 330 1016 m -35 X s 330 1026 m -35 X s 330 1034 m -35 X s 330 1041 m -35 X s 330 1047 m -35 X s 330 1053 m -35 X s
 366 1057 m -71 X s
 gsave  2948 1415 0 0 C 254.536 1057.79 t 0 r /Helvetica findfont 31.2955 sf 0 0 m (8) show NC gr 
 gsave  2948 1415 0 0 C 204.464 1036.92 t 0 r /Helvetica findfont 45.9 sf 0 0 m (10) show NC gr  330 1089 m -35 X s 330 1107 m -35 X s 330 1120 m -35 X s 330 1131 m -35 X s 330 1139 m -35 X s 330 1146 m -35 X s 330 1152 m -35 X s 330 1157 m -35 X s
 366 1162 m -71 X s
 gsave  2948 1415 0 0 C 254.536 1162.1 t 0 r /Helvetica findfont 31.2955 sf 0 0 m (9) show NC gr 
 gsave  2948 1415 0 0 C 204.464 1141.24 t 0 r /Helvetica findfont 45.9 sf 0 0 m (10) show NC gr  330 1194 m -35 X s 330 1212 m -35 X s 330 1225 m -35 X s 330 1235 m -35 X s 330 1243 m -35 X s 330 1250 m -35 X s 330 1257 m -35 X s 330 1262 m -35 X s
 366 1267 m -71 X s
 gsave  2948 1415 0 0 C 237.845 1268.51 t 0 r /Helvetica findfont 31.2955 sf 0 0 m (10) show NC gr 
 gsave  2948 1415 0 0 C 187.773 1247.65 t 0 r /Helvetica findfont 45.9 sf 0 0 m (10) show NC gr  1 1 1 c 590 227 2299 1096 bf black 2299 1096 m 590 X s 2889 1096 m 227 Y s 2889 1323 m -590 X s 2299 1323 m -227 Y s 1 1 1 c black
 gsave  2948 1415 0 0 C 2455.65 1281.03 t 0 r /Helvetica findfont 47.9864 sf 0 0 m 
 254 238 210 183 159 132 99 83 56 27
(hVarPos_Trk) K NC gr  2299 1266 m 590 X s
 gsave  2948 1415 0 0 C 2328.38 1220.52 t 0 r /Helvetica findfont 47.9864 sf 0 0 m (Entries ) show NC gr 
 gsave  2948 1415 0 0 C 2511.98 1220.52 t 0 r /Helvetica findfont 47.9864 sf 0 0 m (   1.431583e+09) show NC gr 
 gsave  2948 1415 0 0 C 2328.38 1164.19 t 0 r /Helvetica findfont 47.9864 sf 0 0 m (Mean  ) show NC gr 
 gsave  2948 1415 0 0 C 2699.75 1164.19 t 0 r /Helvetica findfont 47.9864 sf 0 0 m ( 0.7936) show NC gr 
 gsave  2948 1415 0 0 C 2328.38 1107.86 t 0 r /Helvetica findfont 47.9864 sf 0 0 m (RMS   ) show NC gr 
 gsave  2948 1415 0 0 C 2699.75 1107.86 t 0 r /Helvetica findfont 47.9864 sf 0 0 m ( 0.4573) show NC gr  0 0 0.6 c 1 1 1 c 1 0 0 c 300 1227 m20 304 1211 m20 305 1192 m20 307 1143 m20 310 1126 m20 312 1110 m20 315 1094 m20 317 1079 m20 320 1065 m20
 322 1051 m20 328 1021 m20 337 976 m20 347 939 m20 356 909 m20 366 884 m20 375 864 m20 0 0 0.6 c 380 833 m 3 X s 404 833 m 4 X s 1 0 0 c 394 833 m20 0 0 0.6 c 408 795 m 4 X s 433 795 m 3 X s 1 0 0 c 422 795 m20 0 0 0.6 c 436 766 m 4 X s 461 766 m 4 X
 s 1 0 0 c 450 766 m20 0 0 0.6 c 465 730 m 17 X s 503 730 m 18 X s 1 0 0 c 493 730 m20 0 0 0.6 c 521 688 m 18 X s 560 688 m 18 X s 1 0 0 c 550 688 m20 0 0 0.6 c 578 651 m 18 X s 617 651 m 17 X s 1 0 0 c 606 651 m20 0 0 0.6 c 634 617 m 28 X s 683 617
 m 27 X s 1 0 0 c 672 617 m20 0 0 0.6 c 710 585 m 27 X s 758 585 m 27 X s 1 0 0 c 748 585 m20 0 0 0.6 c 785 561 m 28 X s 834 561 m 27 X s 1 0 0 c 823 561 m20 0 0 0.6 c 861 534 m 65 X s 947 534 m 65 X s 1 0 0 c 936 534 m20 0 0 0.6 c 1012 508 m 65 X s
 1098 508 m 65 X s 1 0 0 c 1087 508 m20 0 0 0.6 c 1163 488 m 65 X s 1249 488 m 65 X s 1 0 0 c 1238 488 m20 0 0 0.6 c 1314 472 m 91 X s 1425 472 m 91 X s 1 0 0 c 1415 472 m20 0 0 0.6 c 1516 458 m 59 X s 1596 458 m 58 X s 1 0 0 c 1585 458 m20 0 0 0.6 c
 1654 447 m 77 X s 1752 447 m 76 X s 1 0 0 c 1741 447 m20 0 0 0.6 c 1828 437 m 48 X s 1897 437 m 49 X s 1 0 0 c 1887 437 m20 0 0 0.6 c 1946 431 m 48 X s 2015 431 m 49 X s 1 0 0 c 2005 431 m20 0 0 0.6 c 2064 426 m 48 X s 2133 426 m 49 X s 1 0 0 c 2123
 426 m20 0 0 0.6 c 2182 421 m 48 X s 2251 421 m 48 X s 1 0 0 c 2241 421 m20 0 0 0.6 c 2299 415 m 49 X s 2369 415 m 48 X s 1 0 0 c 2358 415 m20 0 0 0.6 c 2417 406 m 49 X s 2487 406 m 48 X s 1 0 0 c 2476 406 m20 0 0 0.6 c 2535 509 m 49 X s 2605 509 m
 48 X s 1 0 0 c 2594 509 m20 0 0 0.6 c 1 1 1 c 0 0 1 c 300 1206 m24 304 1191 m24 305 1174 m24 307 1126 m24 310 1110 m24 312 1094 m24 315 1079 m24 317 1064 m24 320 1050 m24 322 1036 m24 328 1007 m24 337 962 m24 347 925 m24 356 896 m24 366 872 m24 375
 852 m24 0 0 0.6 c 380 822 m 3 X s 404 822 m 4 X s 0 0 1 c 394 822 m24 0 0 0.6 c 408 784 m 4 X s 433 784 m 3 X s 0 0 1 c 422 784 m24 0 0 0.6 c 436 755 m 4 X s 461 755 m 4 X s 0 0 1 c 450 755 m24 0 0 0.6 c 465 720 m 17 X s 503 720 m 18 X s 0 0 1 c 493
 720 m24 0 0 0.6 c 521 676 m 18 X s 560 676 m 18 X s 0 0 1 c 550 676 m24 0 0 0.6 c 578 636 m 18 X s 617 636 m 17 X s 0 0 1 c 606 636 m24 0 0 0.6 c 634 595 m 28 X s 683 595 m 27 X s 0 0 1 c 672 595 m24 0 0 0.6 c 710 554 m 27 X s 758 554 m 27 X s 0 0 1
 c 748 554 m24 0 0 0.6 c 785 517 m 28 X s 834 517 m 27 X s 0 0 1 c 823 517 m24 0 0 0.6 c 861 472 m 65 X s 947 472 m 65 X s 0 0 1 c 936 472 m24 0 0 0.6 c 1012 419 m 65 X s 1098 419 m 65 X s 0 0 1 c 1087 419 m24 0 0 0.6 c 1163 372 m 65 X s 1249 372 m
 65 X s 0 0 1 c 1238 372 m24 0 0 0.6 c 1314 335 m 91 X s 1425 335 m 91 X s 0 0 1 c 1415 335 m24 0 0 0.6 c 1516 298 m 59 X s 1596 298 m 58 X s 0 0 1 c 1585 298 m24 0 0 0.6 c 1654 274 m 77 X s 1752 274 m 76 X s 0 0 1 c 1741 274 m24 0 0 0.6 c 1887 243 m
 1 Y s 1828 254 m 48 X s 1897 254 m 49 X s 0 0 1 c 1887 254 m24 0 0 0.6 c 2005 209 m 6 Y s 2005 235 m 2 Y s 1946 225 m 48 X s 2015 225 m 49 X s 0 0 1 c 2005 225 m24 0 0 0.6 c 2123 197 m 8 Y s 2123 226 m 3 Y s 2064 216 m 48 X s 2133 216 m 49 X s 0 0 1
 c 2123 216 m24 0 0 0.6 c 2241 183 m 11 Y s 2241 215 m 4 Y s 2182 204 m 48 X s 2251 204 m 48 X s 0 0 1 c 2241 204 m24 0 0 0.6 c 2358 183 m 11 Y s 2358 215 m 4 Y s 2299 204 m 49 X s 2369 204 m 48 X s 0 0 1 c 2358 204 m24 0 0 0.6 c 2476 174 m 13 Y s
 2476 208 m 5 Y s 2417 197 m 49 X s 2487 197 m 48 X s 0 0 1 c 2476 197 m24 0 0 0.6 c 2594 287 m 12 Y s 2594 319 m 5 Y s 2535 309 m 49 X s 2605 309 m 48 X s 0 0 1 c 2594 309 m24 black 1 1 1 c 590 227 2299 1096 bf black 2299 1096 m 590 X s 2889 1096 m
 227 Y s 2889 1323 m -590 X s 2299 1323 m -227 Y s 1 1 1 c black
 gsave  2948 1415 0 0 C 2453.56 1281.03 t 0 r /Helvetica findfont 47.9864 sf 0 0 m 
 256 243 210 183 159 132 99 83 56 27
(hVarPos_Vtx) K NC gr  2299 1266 m 590 X s
 gsave  2948 1415 0 0 C 2328.38 1220.52 t 0 r /Helvetica findfont 47.9864 sf 0 0 m (Entries ) show NC gr 
 gsave  2948 1415 0 0 C 2511.98 1220.52 t 0 r /Helvetica findfont 47.9864 sf 0 0 m (   9.158235e+08) show NC gr 
 gsave  2948 1415 0 0 C 2328.38 1164.19 t 0 r /Helvetica findfont 47.9864 sf 0 0 m (Mean  ) show NC gr 
 gsave  2948 1415 0 0 C 2701.84 1164.19 t 0 r /Helvetica findfont 47.9864 sf 0 0 m 
 131 104 81 54 40 13
( 0.8115) K NC gr 
 gsave  2948 1415 0 0 C 2328.38 1107.86 t 0 r /Helvetica findfont 47.9864 sf 0 0 m (RMS   ) show NC gr 
 gsave  2948 1415 0 0 C 2699.75 1107.86 t 0 r /Helvetica findfont 47.9864 sf 0 0 m ( 0.4735) show NC gr  0 0 0.6 c 1 1 1 c 1 0 0 c 300 1207 m24 304 1191 m24 305 1174 m24 307 1126 m24 310 1109 m24 312 1094 m24 315 1078 m24 317 1064 m24 320 1049 m24
 322 1036 m24 328 1006 m24 337 961 m24 347 925 m24 356 895 m24 366 871 m24 375 851 m24 0 0 0.6 c 380 821 m 3 X s 404 821 m 4 X s 1 0 0 c 394 821 m24 0 0 0.6 c 408 783 m 4 X s 433 783 m 3 X s 1 0 0 c 422 783 m24 0 0 0.6 c 436 753 m 4 X s 461 753 m 4 X
 s 1 0 0 c 450 753 m24 0 0 0.6 c 465 718 m 17 X s 503 718 m 18 X s 1 0 0 c 493 718 m24 0 0 0.6 c 521 673 m 18 X s 560 673 m 18 X s 1 0 0 c 550 673 m24 0 0 0.6 c 578 633 m 18 X s 617 633 m 17 X s 1 0 0 c 606 633 m24 0 0 0.6 c 634 591 m 28 X s 683 591
 m 27 X s 1 0 0 c 672 591 m24 0 0 0.6 c 710 548 m 27 X s 758 548 m 27 X s 1 0 0 c 748 548 m24 0 0 0.6 c 785 511 m 28 X s 834 511 m 27 X s 1 0 0 c 823 511 m24 0 0 0.6 c 861 466 m 65 X s 947 466 m 65 X s 1 0 0 c 936 466 m24 0 0 0.6 c 1012 412 m 65 X s
 1098 412 m 65 X s 1 0 0 c 1087 412 m24 0 0 0.6 c 1163 365 m 65 X s 1249 365 m 65 X s 1 0 0 c 1238 365 m24 0 0 0.6 c 1314 330 m 91 X s 1425 330 m 91 X s 1 0 0 c 1415 330 m24 0 0 0.6 c 1516 288 m 59 X s 1596 288 m 58 X s 1 0 0 c 1585 288 m24 0 0 0.6 c
 1654 256 m 77 X s 1752 256 m 76 X s 1 0 0 c 1741 256 m24 0 0 0.6 c 1887 248 m s 1828 258 m 48 X s 1897 258 m 49 X s 1 0 0 c 1887 258 m24 0 0 0.6 c 2005 218 m 4 Y s 2005 243 m 1 Y s 1946 233 m 48 X s 2015 233 m 49 X s 1 0 0 c 2005 233 m24 0 0 0.6 c
 2123 191 m 9 Y s 2123 221 m 3 Y s 2064 210 m 48 X s 2133 210 m 49 X s 1 0 0 c 2123 210 m24 0 0 0.6 c 2241 213 m 5 Y s 2241 239 m 1 Y s 2182 229 m 48 X s 2251 229 m 48 X s 1 0 0 c 2241 229 m24 0 0 0.6 c 2358 141 m 14 Y s 2358 176 m 11 Y s 2299 166 m
 49 X s 2369 166 m 48 X s 1 0 0 c 2358 166 m24 0 0 0.6 c 2476 148 m 21 Y s 2476 189 m 8 Y s 2417 179 m 49 X s 2487 179 m 48 X s 1 0 0 c 2476 179 m24 0 0 0.6 c 2594 267 m 16 Y s 2594 304 m 7 Y s 2535 294 m 49 X s 2605 294 m 48 X s 1 0 0 c 2594 294 m24
 1 1 1 c black
 gsave  2948 1415 0 0 C 1001.45 1345.7 t 0 r /Helvetica findfont 70.9364 sf 0 0 m (Pt of positively charged tracks) show NC gr  gr showpage
 gr 
%%Trailer
%%Pages:  1
 gr  gr  gr 
%%EOF
