

Time taken to complete the job, Statistics
==========================================
2555.45 seconds 0.709847 hours CTEQ5L-LO_HardQCDSelectionGluon_10To20_2017-01-30-100843
2698.47 seconds 0.749575 hours CTEQ5L-LO_HardQCDSelectionGluon_10To20_2017-01-30-100843
2309.82 seconds 0.641617 hours CTEQ5L-LO_HardQCDSelectionGluon_10To20_2017-01-30-100843
2494.57 seconds 0.692936 hours CTEQ5L-LO_HardQCDSelectionGluon_10To20_2017-01-30-100843
2623.82 seconds 0.728839 hours CTEQ5L-LO_HardQCDSelectionGluon_10To20_2017-01-30-100843
2400.24 seconds 0.666733 hours CTEQ5L-LO_HardQCDSelectionGluon_10To20_2017-01-30-100843
2631.42 seconds 0.73095 hours CTEQ5L-LO_HardQCDSelectionGluon_10To20_2017-01-30-100843
2634.81 seconds 0.731892 hours CTEQ5L-LO_HardQCDSelectionGluon_10To20_2017-01-30-100843
2599.57 seconds 0.722103 hours CTEQ5L-LO_HardQCDSelectionGluon_10To20_2017-01-30-100843
2516.71 seconds 0.699086 hours CTEQ5L-LO_HardQCDSelectionGluon_10To20_2017-01-30-100843
2534.67 seconds 0.704075 hours CTEQ5L-LO_HardQCDSelectionGluon_10To20_2017-01-30-100843
2093.65 seconds 0.581569 hours CTEQ5L-LO_HardQCDSelectionGluon_10To20_2017-01-30-100843
1991.73 seconds 0.553258 hours CTEQ5L-LO_HardQCDSelectionGluon_10To20_2017-01-30-100843
2621.66 seconds 0.728239 hours CTEQ5L-LO_HardQCDSelectionGluon_10To20_2017-01-30-100843
2547.17 seconds 0.707547 hours CTEQ5L-LO_HardQCDSelectionGluon_10To20_2017-01-30-100843
2499.39 seconds 0.694275 hours CTEQ5L-LO_HardQCDSelectionGluon_10To20_2017-01-30-100843
2508.8 seconds 0.696889 hours CTEQ5L-LO_HardQCDSelectionGluon_10To20_2017-01-30-100843
2657.76 seconds 0.738267 hours CTEQ5L-LO_HardQCDSelectionGluon_10To20_2017-01-30-100843
2479.81 seconds 0.688836 hours CTEQ5L-LO_HardQCDSelectionGluon_10To20_2017-01-30-100843
2523.18 seconds 0.700883 hours CTEQ5L-LO_HardQCDSelectionGluon_10To20_2017-01-30-100843


3067.48 seconds 0.852078 hours CTEQ5L-LO_HardQCDSelectionGluon_120To170_2017-01-30-100843
2867.56 seconds 0.796544 hours CTEQ5L-LO_HardQCDSelectionGluon_120To170_2017-01-30-100843
3164.14 seconds 0.878928 hours CTEQ5L-LO_HardQCDSelectionGluon_120To170_2017-01-30-100843
3104.44 seconds 0.862344 hours CTEQ5L-LO_HardQCDSelectionGluon_120To170_2017-01-30-100843
3202.53 seconds 0.889592 hours CTEQ5L-LO_HardQCDSelectionGluon_120To170_2017-01-30-100843
3122.82 seconds 0.86745 hours CTEQ5L-LO_HardQCDSelectionGluon_120To170_2017-01-30-100843
3003.18 seconds 0.834217 hours CTEQ5L-LO_HardQCDSelectionGluon_120To170_2017-01-30-100843
2972.69 seconds 0.825747 hours CTEQ5L-LO_HardQCDSelectionGluon_120To170_2017-01-30-100843
3282.71 seconds 0.911864 hours CTEQ5L-LO_HardQCDSelectionGluon_120To170_2017-01-30-100843
3241.18 seconds 0.900328 hours CTEQ5L-LO_HardQCDSelectionGluon_120To170_2017-01-30-100843
3247.78 seconds 0.902161 hours CTEQ5L-LO_HardQCDSelectionGluon_120To170_2017-01-30-100843
2957.57 seconds 0.821547 hours CTEQ5L-LO_HardQCDSelectionGluon_120To170_2017-01-30-100843
2307.97 seconds 0.641103 hours CTEQ5L-LO_HardQCDSelectionGluon_120To170_2017-01-30-100843
2300.46 seconds 0.639017 hours CTEQ5L-LO_HardQCDSelectionGluon_120To170_2017-01-30-100843
2294.62 seconds 0.637394 hours CTEQ5L-LO_HardQCDSelectionGluon_120To170_2017-01-30-100843
2206.99 seconds 0.613053 hours CTEQ5L-LO_HardQCDSelectionGluon_120To170_2017-01-30-100843
2537.82 seconds 0.70495 hours CTEQ5L-LO_HardQCDSelectionGluon_120To170_2017-01-30-100843
2247.24 seconds 0.624233 hours CTEQ5L-LO_HardQCDSelectionGluon_120To170_2017-01-30-100843
2231.04 seconds 0.619733 hours CTEQ5L-LO_HardQCDSelectionGluon_120To170_2017-01-30-100843
2979.88 seconds 0.827744 hours CTEQ5L-LO_HardQCDSelectionGluon_120To170_2017-01-30-100843


2368.47 seconds 0.657908 hours CTEQ5L-LO_HardQCDSelectionGluon_170To230_2017-01-30-100843
3457.53 seconds 0.960425 hours CTEQ5L-LO_HardQCDSelectionGluon_170To230_2017-01-30-100843
3212.25 seconds 0.892292 hours CTEQ5L-LO_HardQCDSelectionGluon_170To230_2017-01-30-100843
3193.12 seconds 0.886978 hours CTEQ5L-LO_HardQCDSelectionGluon_170To230_2017-01-30-100843
3186.02 seconds 0.885006 hours CTEQ5L-LO_HardQCDSelectionGluon_170To230_2017-01-30-100843
3194.88 seconds 0.887467 hours CTEQ5L-LO_HardQCDSelectionGluon_170To230_2017-01-30-100843
3309.42 seconds 0.919283 hours CTEQ5L-LO_HardQCDSelectionGluon_170To230_2017-01-30-100843
3228.86 seconds 0.896906 hours CTEQ5L-LO_HardQCDSelectionGluon_170To230_2017-01-30-100843
3083.14 seconds 0.856428 hours CTEQ5L-LO_HardQCDSelectionGluon_170To230_2017-01-30-100843
3058.46 seconds 0.849572 hours CTEQ5L-LO_HardQCDSelectionGluon_170To230_2017-01-30-100843
3199.51 seconds 0.888753 hours CTEQ5L-LO_HardQCDSelectionGluon_170To230_2017-01-30-100843
2499.21 seconds 0.694225 hours CTEQ5L-LO_HardQCDSelectionGluon_170To230_2017-01-30-100843
3198.36 seconds 0.888433 hours CTEQ5L-LO_HardQCDSelectionGluon_170To230_2017-01-30-100843
3219.95 seconds 0.894431 hours CTEQ5L-LO_HardQCDSelectionGluon_170To230_2017-01-30-100843
3158.3 seconds 0.877306 hours CTEQ5L-LO_HardQCDSelectionGluon_170To230_2017-01-30-100843
2910.71 seconds 0.808531 hours CTEQ5L-LO_HardQCDSelectionGluon_170To230_2017-01-30-100843
3450.15 seconds 0.958375 hours CTEQ5L-LO_HardQCDSelectionGluon_170To230_2017-01-30-100843
3470.48 seconds 0.964022 hours CTEQ5L-LO_HardQCDSelectionGluon_170To230_2017-01-30-100843
3557.46 seconds 0.988183 hours CTEQ5L-LO_HardQCDSelectionGluon_170To230_2017-01-30-100843
3275.35 seconds 0.909819 hours CTEQ5L-LO_HardQCDSelectionGluon_170To230_2017-01-30-100843


2162.25 seconds 0.600625 hours CTEQ5L-LO_HardQCDSelectionGluon_20To30_2017-01-30-100843
2559.94 seconds 0.711094 hours CTEQ5L-LO_HardQCDSelectionGluon_20To30_2017-01-30-100843
2568.23 seconds 0.713397 hours CTEQ5L-LO_HardQCDSelectionGluon_20To30_2017-01-30-100843
2614.73 seconds 0.726314 hours CTEQ5L-LO_HardQCDSelectionGluon_20To30_2017-01-30-100843
2579.86 seconds 0.716628 hours CTEQ5L-LO_HardQCDSelectionGluon_20To30_2017-01-30-100843
2660.06 seconds 0.738906 hours CTEQ5L-LO_HardQCDSelectionGluon_20To30_2017-01-30-100843
2581.74 seconds 0.71715 hours CTEQ5L-LO_HardQCDSelectionGluon_20To30_2017-01-30-100843
2710.22 seconds 0.752839 hours CTEQ5L-LO_HardQCDSelectionGluon_20To30_2017-01-30-100843
2661.32 seconds 0.739256 hours CTEQ5L-LO_HardQCDSelectionGluon_20To30_2017-01-30-100843
2946.82 seconds 0.818561 hours CTEQ5L-LO_HardQCDSelectionGluon_20To30_2017-01-30-100843
2008.03 seconds 0.557786 hours CTEQ5L-LO_HardQCDSelectionGluon_20To30_2017-01-30-100843
2561.92 seconds 0.711644 hours CTEQ5L-LO_HardQCDSelectionGluon_20To30_2017-01-30-100843
2673.4 seconds 0.742611 hours CTEQ5L-LO_HardQCDSelectionGluon_20To30_2017-01-30-100843
2577.49 seconds 0.715969 hours CTEQ5L-LO_HardQCDSelectionGluon_20To30_2017-01-30-100843
2547.96 seconds 0.707767 hours CTEQ5L-LO_HardQCDSelectionGluon_20To30_2017-01-30-100843
2660.02 seconds 0.738894 hours CTEQ5L-LO_HardQCDSelectionGluon_20To30_2017-01-30-100843
2747.61 seconds 0.763225 hours CTEQ5L-LO_HardQCDSelectionGluon_20To30_2017-01-30-100843
2548.52 seconds 0.707922 hours CTEQ5L-LO_HardQCDSelectionGluon_20To30_2017-01-30-100843
2555.59 seconds 0.709886 hours CTEQ5L-LO_HardQCDSelectionGluon_20To30_2017-01-30-100843
2580.51 seconds 0.716808 hours CTEQ5L-LO_HardQCDSelectionGluon_20To30_2017-01-30-100843


3130.4 seconds 0.869556 hours CTEQ5L-LO_HardQCDSelectionGluon_230To300_2017-01-30-100843
3157.31 seconds 0.877031 hours CTEQ5L-LO_HardQCDSelectionGluon_230To300_2017-01-30-100843
3179.66 seconds 0.883239 hours CTEQ5L-LO_HardQCDSelectionGluon_230To300_2017-01-30-100843
3420.01 seconds 0.950003 hours CTEQ5L-LO_HardQCDSelectionGluon_230To300_2017-01-30-100843
3343.59 seconds 0.928775 hours CTEQ5L-LO_HardQCDSelectionGluon_230To300_2017-01-30-100843
3516.08 seconds 0.976689 hours CTEQ5L-LO_HardQCDSelectionGluon_230To300_2017-01-30-100843
3346.82 seconds 0.929672 hours CTEQ5L-LO_HardQCDSelectionGluon_230To300_2017-01-30-100843
3282.68 seconds 0.911856 hours CTEQ5L-LO_HardQCDSelectionGluon_230To300_2017-01-30-100843
3261.81 seconds 0.906058 hours CTEQ5L-LO_HardQCDSelectionGluon_230To300_2017-01-30-100843
3290.27 seconds 0.913964 hours CTEQ5L-LO_HardQCDSelectionGluon_230To300_2017-01-30-100843
3307.56 seconds 0.918767 hours CTEQ5L-LO_HardQCDSelectionGluon_230To300_2017-01-30-100843
3125.61 seconds 0.868225 hours CTEQ5L-LO_HardQCDSelectionGluon_230To300_2017-01-30-100843
3221.53 seconds 0.894869 hours CTEQ5L-LO_HardQCDSelectionGluon_230To300_2017-01-30-100843
3165.35 seconds 0.879264 hours CTEQ5L-LO_HardQCDSelectionGluon_230To300_2017-01-30-100843
3139.98 seconds 0.872217 hours CTEQ5L-LO_HardQCDSelectionGluon_230To300_2017-01-30-100843
3137.25 seconds 0.871458 hours CTEQ5L-LO_HardQCDSelectionGluon_230To300_2017-01-30-100843
3474.69 seconds 0.965192 hours CTEQ5L-LO_HardQCDSelectionGluon_230To300_2017-01-30-100843
3437.08 seconds 0.954744 hours CTEQ5L-LO_HardQCDSelectionGluon_230To300_2017-01-30-100843
3416.91 seconds 0.949142 hours CTEQ5L-LO_HardQCDSelectionGluon_230To300_2017-01-30-100843
3164.11 seconds 0.878919 hours CTEQ5L-LO_HardQCDSelectionGluon_230To300_2017-01-30-100843


3186.52 seconds 0.885144 hours CTEQ5L-LO_HardQCDSelectionGluon_300To380_2017-01-30-100843
3235.91 seconds 0.898864 hours CTEQ5L-LO_HardQCDSelectionGluon_300To380_2017-01-30-100843
3262.42 seconds 0.906228 hours CTEQ5L-LO_HardQCDSelectionGluon_300To380_2017-01-30-100843
2445 seconds 0.679167 hours CTEQ5L-LO_HardQCDSelectionGluon_300To380_2017-01-30-100843
3150.06 seconds 0.875017 hours CTEQ5L-LO_HardQCDSelectionGluon_300To380_2017-01-30-100843
3205.35 seconds 0.890375 hours CTEQ5L-LO_HardQCDSelectionGluon_300To380_2017-01-30-100843
3128.34 seconds 0.868983 hours CTEQ5L-LO_HardQCDSelectionGluon_300To380_2017-01-30-100843
3526.1 seconds 0.979472 hours CTEQ5L-LO_HardQCDSelectionGluon_300To380_2017-01-30-100843
3334.94 seconds 0.926372 hours CTEQ5L-LO_HardQCDSelectionGluon_300To380_2017-01-30-100843
3328.72 seconds 0.924644 hours CTEQ5L-LO_HardQCDSelectionGluon_300To380_2017-01-30-100843
2383 seconds 0.661944 hours CTEQ5L-LO_HardQCDSelectionGluon_300To380_2017-01-30-100843
3271.8 seconds 0.908833 hours CTEQ5L-LO_HardQCDSelectionGluon_300To380_2017-01-30-100843
2393.2 seconds 0.664778 hours CTEQ5L-LO_HardQCDSelectionGluon_300To380_2017-01-30-100843
3267.57 seconds 0.907658 hours CTEQ5L-LO_HardQCDSelectionGluon_300To380_2017-01-30-100843
3248.89 seconds 0.902469 hours CTEQ5L-LO_HardQCDSelectionGluon_300To380_2017-01-30-100843
3298.13 seconds 0.916147 hours CTEQ5L-LO_HardQCDSelectionGluon_300To380_2017-01-30-100843
3314.24 seconds 0.920622 hours CTEQ5L-LO_HardQCDSelectionGluon_300To380_2017-01-30-100843
3323.78 seconds 0.923272 hours CTEQ5L-LO_HardQCDSelectionGluon_300To380_2017-01-30-100843
3355.48 seconds 0.932078 hours CTEQ5L-LO_HardQCDSelectionGluon_300To380_2017-01-30-100843
3315.35 seconds 0.920931 hours CTEQ5L-LO_HardQCDSelectionGluon_300To380_2017-01-30-100843


2751.87 seconds 0.764408 hours CTEQ5L-LO_HardQCDSelectionGluon_30To50_2017-01-30-100843
2739.14 seconds 0.760872 hours CTEQ5L-LO_HardQCDSelectionGluon_30To50_2017-01-30-100843
2662.74 seconds 0.73965 hours CTEQ5L-LO_HardQCDSelectionGluon_30To50_2017-01-30-100843
2658.87 seconds 0.738575 hours CTEQ5L-LO_HardQCDSelectionGluon_30To50_2017-01-30-100843
2610.67 seconds 0.725186 hours CTEQ5L-LO_HardQCDSelectionGluon_30To50_2017-01-30-100843
2793.02 seconds 0.775839 hours CTEQ5L-LO_HardQCDSelectionGluon_30To50_2017-01-30-100843
2762.21 seconds 0.767281 hours CTEQ5L-LO_HardQCDSelectionGluon_30To50_2017-01-30-100843
2794.16 seconds 0.776156 hours CTEQ5L-LO_HardQCDSelectionGluon_30To50_2017-01-30-100843
2732.13 seconds 0.758925 hours CTEQ5L-LO_HardQCDSelectionGluon_30To50_2017-01-30-100843
2802.59 seconds 0.778497 hours CTEQ5L-LO_HardQCDSelectionGluon_30To50_2017-01-30-100843
2666.23 seconds 0.740619 hours CTEQ5L-LO_HardQCDSelectionGluon_30To50_2017-01-30-100843
2783.03 seconds 0.773064 hours CTEQ5L-LO_HardQCDSelectionGluon_30To50_2017-01-30-100843
2857.39 seconds 0.793719 hours CTEQ5L-LO_HardQCDSelectionGluon_30To50_2017-01-30-100843
2866.68 seconds 0.7963 hours CTEQ5L-LO_HardQCDSelectionGluon_30To50_2017-01-30-100843
2812.64 seconds 0.781289 hours CTEQ5L-LO_HardQCDSelectionGluon_30To50_2017-01-30-100843
2784.42 seconds 0.77345 hours CTEQ5L-LO_HardQCDSelectionGluon_30To50_2017-01-30-100843
2939.08 seconds 0.816411 hours CTEQ5L-LO_HardQCDSelectionGluon_30To50_2017-01-30-100843
2631.31 seconds 0.730919 hours CTEQ5L-LO_HardQCDSelectionGluon_30To50_2017-01-30-100843
2743.77 seconds 0.762158 hours CTEQ5L-LO_HardQCDSelectionGluon_30To50_2017-01-30-100843
2742.32 seconds 0.761756 hours CTEQ5L-LO_HardQCDSelectionGluon_30To50_2017-01-30-100843


2398.38 seconds 0.666217 hours CTEQ5L-LO_HardQCDSelectionGluon_380To10000_2017-01-30-100843
3455.6 seconds 0.959889 hours CTEQ5L-LO_HardQCDSelectionGluon_380To10000_2017-01-30-100843
3287.95 seconds 0.913319 hours CTEQ5L-LO_HardQCDSelectionGluon_380To10000_2017-01-30-100843
3082.3 seconds 0.856194 hours CTEQ5L-LO_HardQCDSelectionGluon_380To10000_2017-01-30-100843
3443.84 seconds 0.956622 hours CTEQ5L-LO_HardQCDSelectionGluon_380To10000_2017-01-30-100843
3375.48 seconds 0.937633 hours CTEQ5L-LO_HardQCDSelectionGluon_380To10000_2017-01-30-100843
2457.23 seconds 0.682564 hours CTEQ5L-LO_HardQCDSelectionGluon_380To10000_2017-01-30-100843
3476.93 seconds 0.965814 hours CTEQ5L-LO_HardQCDSelectionGluon_380To10000_2017-01-30-100843
3428.27 seconds 0.952297 hours CTEQ5L-LO_HardQCDSelectionGluon_380To10000_2017-01-30-100843
2477.91 seconds 0.688308 hours CTEQ5L-LO_HardQCDSelectionGluon_380To10000_2017-01-30-100843
3609.17 seconds 1.00255 hours CTEQ5L-LO_HardQCDSelectionGluon_380To10000_2017-01-30-100843
2440.66 seconds 0.677961 hours CTEQ5L-LO_HardQCDSelectionGluon_380To10000_2017-01-30-100843
2508.04 seconds 0.696678 hours CTEQ5L-LO_HardQCDSelectionGluon_380To10000_2017-01-30-100843
2407.51 seconds 0.668753 hours CTEQ5L-LO_HardQCDSelectionGluon_380To10000_2017-01-30-100843
2465.65 seconds 0.684903 hours CTEQ5L-LO_HardQCDSelectionGluon_380To10000_2017-01-30-100843
3664.7 seconds 1.01797 hours CTEQ5L-LO_HardQCDSelectionGluon_380To10000_2017-01-30-100843
3403.22 seconds 0.945339 hours CTEQ5L-LO_HardQCDSelectionGluon_380To10000_2017-01-30-100843
2374.62 seconds 0.659617 hours CTEQ5L-LO_HardQCDSelectionGluon_380To10000_2017-01-30-100843
3366.47 seconds 0.935131 hours CTEQ5L-LO_HardQCDSelectionGluon_380To10000_2017-01-30-100843
3627.2 seconds 1.00756 hours CTEQ5L-LO_HardQCDSelectionGluon_380To10000_2017-01-30-100843


2882.46 seconds 0.800683 hours CTEQ5L-LO_HardQCDSelectionGluon_50To80_2017-01-30-100843
2783.23 seconds 0.773119 hours CTEQ5L-LO_HardQCDSelectionGluon_50To80_2017-01-30-100843
2934.18 seconds 0.81505 hours CTEQ5L-LO_HardQCDSelectionGluon_50To80_2017-01-30-100843
2945.17 seconds 0.818103 hours CTEQ5L-LO_HardQCDSelectionGluon_50To80_2017-01-30-100843
2863.39 seconds 0.795386 hours CTEQ5L-LO_HardQCDSelectionGluon_50To80_2017-01-30-100843
3105.65 seconds 0.862681 hours CTEQ5L-LO_HardQCDSelectionGluon_50To80_2017-01-30-100843
2976.08 seconds 0.826689 hours CTEQ5L-LO_HardQCDSelectionGluon_50To80_2017-01-30-100843
2851.64 seconds 0.792122 hours CTEQ5L-LO_HardQCDSelectionGluon_50To80_2017-01-30-100843
3187.89 seconds 0.885525 hours CTEQ5L-LO_HardQCDSelectionGluon_50To80_2017-01-30-100843
2859.82 seconds 0.794394 hours CTEQ5L-LO_HardQCDSelectionGluon_50To80_2017-01-30-100843
2889.62 seconds 0.802672 hours CTEQ5L-LO_HardQCDSelectionGluon_50To80_2017-01-30-100843
2768.74 seconds 0.769094 hours CTEQ5L-LO_HardQCDSelectionGluon_50To80_2017-01-30-100843
2952.88 seconds 0.820244 hours CTEQ5L-LO_HardQCDSelectionGluon_50To80_2017-01-30-100843
2872.07 seconds 0.797797 hours CTEQ5L-LO_HardQCDSelectionGluon_50To80_2017-01-30-100843
2867.13 seconds 0.796425 hours CTEQ5L-LO_HardQCDSelectionGluon_50To80_2017-01-30-100843
2902.87 seconds 0.806353 hours CTEQ5L-LO_HardQCDSelectionGluon_50To80_2017-01-30-100843
2925.54 seconds 0.81265 hours CTEQ5L-LO_HardQCDSelectionGluon_50To80_2017-01-30-100843
2944.97 seconds 0.818047 hours CTEQ5L-LO_HardQCDSelectionGluon_50To80_2017-01-30-100843
2942.28 seconds 0.8173 hours CTEQ5L-LO_HardQCDSelectionGluon_50To80_2017-01-30-100843
2775.08 seconds 0.770856 hours CTEQ5L-LO_HardQCDSelectionGluon_50To80_2017-01-30-100843


2947.89 seconds 0.818858 hours CTEQ5L-LO_HardQCDSelectionGluon_80To120_2017-01-30-100843
3177.54 seconds 0.88265 hours CTEQ5L-LO_HardQCDSelectionGluon_80To120_2017-01-30-100843
2919.89 seconds 0.811081 hours CTEQ5L-LO_HardQCDSelectionGluon_80To120_2017-01-30-100843
2809.32 seconds 0.780367 hours CTEQ5L-LO_HardQCDSelectionGluon_80To120_2017-01-30-100843
3112.64 seconds 0.864622 hours CTEQ5L-LO_HardQCDSelectionGluon_80To120_2017-01-30-100843
3201.35 seconds 0.889264 hours CTEQ5L-LO_HardQCDSelectionGluon_80To120_2017-01-30-100843
3132.46 seconds 0.870128 hours CTEQ5L-LO_HardQCDSelectionGluon_80To120_2017-01-30-100843
3193.05 seconds 0.886958 hours CTEQ5L-LO_HardQCDSelectionGluon_80To120_2017-01-30-100843
2998.68 seconds 0.832967 hours CTEQ5L-LO_HardQCDSelectionGluon_80To120_2017-01-30-100843
2869.03 seconds 0.796953 hours CTEQ5L-LO_HardQCDSelectionGluon_80To120_2017-01-30-100843
2884.14 seconds 0.80115 hours CTEQ5L-LO_HardQCDSelectionGluon_80To120_2017-01-30-100843
3072.88 seconds 0.853578 hours CTEQ5L-LO_HardQCDSelectionGluon_80To120_2017-01-30-100843
2951.34 seconds 0.819817 hours CTEQ5L-LO_HardQCDSelectionGluon_80To120_2017-01-30-100843
2996.19 seconds 0.832275 hours CTEQ5L-LO_HardQCDSelectionGluon_80To120_2017-01-30-100843
3045.31 seconds 0.845919 hours CTEQ5L-LO_HardQCDSelectionGluon_80To120_2017-01-30-100843
3052.22 seconds 0.847839 hours CTEQ5L-LO_HardQCDSelectionGluon_80To120_2017-01-30-100843
2932.36 seconds 0.814544 hours CTEQ5L-LO_HardQCDSelectionGluon_80To120_2017-01-30-100843
3064.46 seconds 0.851239 hours CTEQ5L-LO_HardQCDSelectionGluon_80To120_2017-01-30-100843
3106.67 seconds 0.862964 hours CTEQ5L-LO_HardQCDSelectionGluon_80To120_2017-01-30-100843
2990.42 seconds 0.830672 hours CTEQ5L-LO_HardQCDSelectionGluon_80To120_2017-01-30-100843




