

Time taken to complete the job, Statistics
==========================================
3008.01 seconds 0.835558 hours CTEQ5L-LO_HardQCDMix_10To20_2017-02-01-104433
2259.62 seconds 0.627672 hours CTEQ5L-LO_HardQCDMix_10To20_2017-02-01-104433
3287.5 seconds 0.913194 hours CTEQ5L-LO_HardQCDMix_10To20_2017-02-01-104433
3261.26 seconds 0.905906 hours CTEQ5L-LO_HardQCDMix_10To20_2017-02-01-104433
2241.26 seconds 0.622572 hours CTEQ5L-LO_HardQCDMix_10To20_2017-02-01-104433
3016.52 seconds 0.837922 hours CTEQ5L-LO_HardQCDMix_10To20_2017-02-01-104433
2888.51 seconds 0.802364 hours CTEQ5L-LO_HardQCDMix_10To20_2017-02-01-104433
3156.75 seconds 0.876875 hours CTEQ5L-LO_HardQCDMix_10To20_2017-02-01-104433
2980.2 seconds 0.827833 hours CTEQ5L-LO_HardQCDMix_10To20_2017-02-01-104433
3125.24 seconds 0.868122 hours CTEQ5L-LO_HardQCDMix_10To20_2017-02-01-104433
3027.74 seconds 0.841039 hours CTEQ5L-LO_HardQCDMix_10To20_2017-02-01-104433
2239.7 seconds 0.622139 hours CTEQ5L-LO_HardQCDMix_10To20_2017-02-01-104433
3024.54 seconds 0.84015 hours CTEQ5L-LO_HardQCDMix_10To20_2017-02-01-104433
3255.83 seconds 0.904397 hours CTEQ5L-LO_HardQCDMix_10To20_2017-02-01-104433
2336.18 seconds 0.648939 hours CTEQ5L-LO_HardQCDMix_10To20_2017-02-01-104433
3233.9 seconds 0.898306 hours CTEQ5L-LO_HardQCDMix_10To20_2017-02-01-104433
3204.05 seconds 0.890014 hours CTEQ5L-LO_HardQCDMix_10To20_2017-02-01-104433
3309.17 seconds 0.919214 hours CTEQ5L-LO_HardQCDMix_10To20_2017-02-01-104433
3235.59 seconds 0.898775 hours CTEQ5L-LO_HardQCDMix_10To20_2017-02-01-104433
3248.16 seconds 0.902267 hours CTEQ5L-LO_HardQCDMix_10To20_2017-02-01-104433


5992.13 seconds 1.66448 hours CTEQ5L-LO_HardQCDMix_120To170_2017-02-01-104433
4240.63 seconds 1.17795 hours CTEQ5L-LO_HardQCDMix_120To170_2017-02-01-104433
3977.54 seconds 1.10487 hours CTEQ5L-LO_HardQCDMix_120To170_2017-02-01-104433
5198.45 seconds 1.44401 hours CTEQ5L-LO_HardQCDMix_120To170_2017-02-01-104433
5249.4 seconds 1.45817 hours CTEQ5L-LO_HardQCDMix_120To170_2017-02-01-104433
4076.29 seconds 1.1323 hours CTEQ5L-LO_HardQCDMix_120To170_2017-02-01-104433
4237.03 seconds 1.17695 hours CTEQ5L-LO_HardQCDMix_120To170_2017-02-01-104433
4226.57 seconds 1.17405 hours CTEQ5L-LO_HardQCDMix_120To170_2017-02-01-104433
4583.67 seconds 1.27324 hours CTEQ5L-LO_HardQCDMix_120To170_2017-02-01-104433
4044.8 seconds 1.12356 hours CTEQ5L-LO_HardQCDMix_120To170_2017-02-01-104433
4058.31 seconds 1.12731 hours CTEQ5L-LO_HardQCDMix_120To170_2017-02-01-104433
5148.92 seconds 1.43026 hours CTEQ5L-LO_HardQCDMix_120To170_2017-02-01-104433
5209.23 seconds 1.44701 hours CTEQ5L-LO_HardQCDMix_120To170_2017-02-01-104433
3925.34 seconds 1.09037 hours CTEQ5L-LO_HardQCDMix_120To170_2017-02-01-104433
3979.11 seconds 1.10531 hours CTEQ5L-LO_HardQCDMix_120To170_2017-02-01-104433
5154.2 seconds 1.43172 hours CTEQ5L-LO_HardQCDMix_120To170_2017-02-01-104433
3993.34 seconds 1.10926 hours CTEQ5L-LO_HardQCDMix_120To170_2017-02-01-104433
5193.07 seconds 1.44252 hours CTEQ5L-LO_HardQCDMix_120To170_2017-02-01-104433
4028.11 seconds 1.11892 hours CTEQ5L-LO_HardQCDMix_120To170_2017-02-01-104433
5174.08 seconds 1.43724 hours CTEQ5L-LO_HardQCDMix_120To170_2017-02-01-104433


6306.54 seconds 1.75182 hours CTEQ5L-LO_HardQCDMix_170To230_2017-02-01-104433
4901.96 seconds 1.36166 hours CTEQ5L-LO_HardQCDMix_170To230_2017-02-01-104433
4487.11 seconds 1.24642 hours CTEQ5L-LO_HardQCDMix_170To230_2017-02-01-104433
5763.69 seconds 1.60102 hours CTEQ5L-LO_HardQCDMix_170To230_2017-02-01-104433
6240.24 seconds 1.7334 hours CTEQ5L-LO_HardQCDMix_170To230_2017-02-01-104433
5670.98 seconds 1.57527 hours CTEQ5L-LO_HardQCDMix_170To230_2017-02-01-104433
5693.89 seconds 1.58164 hours CTEQ5L-LO_HardQCDMix_170To230_2017-02-01-104433
6276.1 seconds 1.74336 hours CTEQ5L-LO_HardQCDMix_170To230_2017-02-01-104433
5621.14 seconds 1.56143 hours CTEQ5L-LO_HardQCDMix_170To230_2017-02-01-104433
4895.64 seconds 1.3599 hours CTEQ5L-LO_HardQCDMix_170To230_2017-02-01-104433
4753.81 seconds 1.3205 hours CTEQ5L-LO_HardQCDMix_170To230_2017-02-01-104433
4443.8 seconds 1.23439 hours CTEQ5L-LO_HardQCDMix_170To230_2017-02-01-104433
5453.39 seconds 1.51483 hours CTEQ5L-LO_HardQCDMix_170To230_2017-02-01-104433
4920.37 seconds 1.36677 hours CTEQ5L-LO_HardQCDMix_170To230_2017-02-01-104433
6350 seconds 1.76389 hours CTEQ5L-LO_HardQCDMix_170To230_2017-02-01-104433
6502.45 seconds 1.80624 hours CTEQ5L-LO_HardQCDMix_170To230_2017-02-01-104433
6267.45 seconds 1.74096 hours CTEQ5L-LO_HardQCDMix_170To230_2017-02-01-104433
6294.36 seconds 1.74843 hours CTEQ5L-LO_HardQCDMix_170To230_2017-02-01-104433
6601.72 seconds 1.83381 hours CTEQ5L-LO_HardQCDMix_170To230_2017-02-01-104433
6482.14 seconds 1.80059 hours CTEQ5L-LO_HardQCDMix_170To230_2017-02-01-104433


2578.51 seconds 0.716253 hours CTEQ5L-LO_HardQCDMix_20To30_2017-02-01-104433
2543.55 seconds 0.706542 hours CTEQ5L-LO_HardQCDMix_20To30_2017-02-01-104433
3717.31 seconds 1.03259 hours CTEQ5L-LO_HardQCDMix_20To30_2017-02-01-104433
2934.39 seconds 0.815108 hours CTEQ5L-LO_HardQCDMix_20To30_2017-02-01-104433
2896.63 seconds 0.804619 hours CTEQ5L-LO_HardQCDMix_20To30_2017-02-01-104433
3803.22 seconds 1.05645 hours CTEQ5L-LO_HardQCDMix_20To30_2017-02-01-104433
3310.78 seconds 0.919661 hours CTEQ5L-LO_HardQCDMix_20To30_2017-02-01-104433
3385.44 seconds 0.9404 hours CTEQ5L-LO_HardQCDMix_20To30_2017-02-01-104433
2602.36 seconds 0.722878 hours CTEQ5L-LO_HardQCDMix_20To30_2017-02-01-104433
2915.85 seconds 0.809958 hours CTEQ5L-LO_HardQCDMix_20To30_2017-02-01-104433
3359.8 seconds 0.933278 hours CTEQ5L-LO_HardQCDMix_20To30_2017-02-01-104433
3257.41 seconds 0.904836 hours CTEQ5L-LO_HardQCDMix_20To30_2017-02-01-104433
2617.69 seconds 0.727136 hours CTEQ5L-LO_HardQCDMix_20To30_2017-02-01-104433
3796.8 seconds 1.05467 hours CTEQ5L-LO_HardQCDMix_20To30_2017-02-01-104433
2551.26 seconds 0.708683 hours CTEQ5L-LO_HardQCDMix_20To30_2017-02-01-104433
3002.51 seconds 0.834031 hours CTEQ5L-LO_HardQCDMix_20To30_2017-02-01-104433
2920.46 seconds 0.811239 hours CTEQ5L-LO_HardQCDMix_20To30_2017-02-01-104433
2603.83 seconds 0.723286 hours CTEQ5L-LO_HardQCDMix_20To30_2017-02-01-104433
3364.68 seconds 0.934633 hours CTEQ5L-LO_HardQCDMix_20To30_2017-02-01-104433
2662.08 seconds 0.739467 hours CTEQ5L-LO_HardQCDMix_20To30_2017-02-01-104433


5950.52 seconds 1.65292 hours CTEQ5L-LO_HardQCDMix_230To300_2017-02-01-104433
4771.09 seconds 1.3253 hours CTEQ5L-LO_HardQCDMix_230To300_2017-02-01-104433
6082.5 seconds 1.68958 hours CTEQ5L-LO_HardQCDMix_230To300_2017-02-01-104433
6869.26 seconds 1.90813 hours CTEQ5L-LO_HardQCDMix_230To300_2017-02-01-104433
6216.7 seconds 1.72686 hours CTEQ5L-LO_HardQCDMix_230To300_2017-02-01-104433
6950.48 seconds 1.93069 hours CTEQ5L-LO_HardQCDMix_230To300_2017-02-01-104433
4824.2 seconds 1.34006 hours CTEQ5L-LO_HardQCDMix_230To300_2017-02-01-104433
4803.6 seconds 1.33433 hours CTEQ5L-LO_HardQCDMix_230To300_2017-02-01-104433
6170.45 seconds 1.71401 hours CTEQ5L-LO_HardQCDMix_230To300_2017-02-01-104433
6225.35 seconds 1.72926 hours CTEQ5L-LO_HardQCDMix_230To300_2017-02-01-104433
6220.54 seconds 1.72793 hours CTEQ5L-LO_HardQCDMix_230To300_2017-02-01-104433
4811.31 seconds 1.33648 hours CTEQ5L-LO_HardQCDMix_230To300_2017-02-01-104433
6249.91 seconds 1.73609 hours CTEQ5L-LO_HardQCDMix_230To300_2017-02-01-104433
6280.42 seconds 1.74456 hours CTEQ5L-LO_HardQCDMix_230To300_2017-02-01-104433
6197.83 seconds 1.72162 hours CTEQ5L-LO_HardQCDMix_230To300_2017-02-01-104433
6771.47 seconds 1.88096 hours CTEQ5L-LO_HardQCDMix_230To300_2017-02-01-104433
6794.67 seconds 1.88741 hours CTEQ5L-LO_HardQCDMix_230To300_2017-02-01-104433
4744.78 seconds 1.31799 hours CTEQ5L-LO_HardQCDMix_230To300_2017-02-01-104433
6179.1 seconds 1.71642 hours CTEQ5L-LO_HardQCDMix_230To300_2017-02-01-104433
6253.59 seconds 1.73711 hours CTEQ5L-LO_HardQCDMix_230To300_2017-02-01-104433


7417.28 seconds 2.06036 hours CTEQ5L-LO_HardQCDMix_300To380_2017-02-01-104433
7042.99 seconds 1.95639 hours CTEQ5L-LO_HardQCDMix_300To380_2017-02-01-104433
6810.25 seconds 1.89174 hours CTEQ5L-LO_HardQCDMix_300To380_2017-02-01-104433
6553.06 seconds 1.82029 hours CTEQ5L-LO_HardQCDMix_300To380_2017-02-01-104433
6622.8 seconds 1.83967 hours CTEQ5L-LO_HardQCDMix_300To380_2017-02-01-104433
5795.4 seconds 1.60983 hours CTEQ5L-LO_HardQCDMix_300To380_2017-02-01-104433
6970.55 seconds 1.93626 hours CTEQ5L-LO_HardQCDMix_300To380_2017-02-01-104433
7029.21 seconds 1.95256 hours CTEQ5L-LO_HardQCDMix_300To380_2017-02-01-104433
5334.49 seconds 1.4818 hours CTEQ5L-LO_HardQCDMix_300To380_2017-02-01-104433
7049.56 seconds 1.95821 hours CTEQ5L-LO_HardQCDMix_300To380_2017-02-01-104433
7194.94 seconds 1.99859 hours CTEQ5L-LO_HardQCDMix_300To380_2017-02-01-104433
6762.86 seconds 1.87857 hours CTEQ5L-LO_HardQCDMix_300To380_2017-02-01-104433
7225.28 seconds 2.00702 hours CTEQ5L-LO_HardQCDMix_300To380_2017-02-01-104433
6711.85 seconds 1.8644 hours CTEQ5L-LO_HardQCDMix_300To380_2017-02-01-104433
6874.92 seconds 1.9097 hours CTEQ5L-LO_HardQCDMix_300To380_2017-02-01-104433
7531.56 seconds 2.0921 hours CTEQ5L-LO_HardQCDMix_300To380_2017-02-01-104433
6537.27 seconds 1.81591 hours CTEQ5L-LO_HardQCDMix_300To380_2017-02-01-104433
6705.04 seconds 1.86251 hours CTEQ5L-LO_HardQCDMix_300To380_2017-02-01-104433
5592.63 seconds 1.55351 hours CTEQ5L-LO_HardQCDMix_300To380_2017-02-01-104433
5635.45 seconds 1.5654 hours CTEQ5L-LO_HardQCDMix_300To380_2017-02-01-104433


3471.46 seconds 0.964294 hours CTEQ5L-LO_HardQCDMix_30To50_2017-02-01-104433
4184.16 seconds 1.16227 hours CTEQ5L-LO_HardQCDMix_30To50_2017-02-01-104433
3507.14 seconds 0.974206 hours CTEQ5L-LO_HardQCDMix_30To50_2017-02-01-104433
2857.01 seconds 0.793614 hours CTEQ5L-LO_HardQCDMix_30To50_2017-02-01-104433
3214.18 seconds 0.892828 hours CTEQ5L-LO_HardQCDMix_30To50_2017-02-01-104433
2784.58 seconds 0.773494 hours CTEQ5L-LO_HardQCDMix_30To50_2017-02-01-104433
2962.55 seconds 0.822931 hours CTEQ5L-LO_HardQCDMix_30To50_2017-02-01-104433
2968.63 seconds 0.824619 hours CTEQ5L-LO_HardQCDMix_30To50_2017-02-01-104433
4076.74 seconds 1.13243 hours CTEQ5L-LO_HardQCDMix_30To50_2017-02-01-104433
3471.64 seconds 0.964344 hours CTEQ5L-LO_HardQCDMix_30To50_2017-02-01-104433
3720.19 seconds 1.03339 hours CTEQ5L-LO_HardQCDMix_30To50_2017-02-01-104433
3167.27 seconds 0.879797 hours CTEQ5L-LO_HardQCDMix_30To50_2017-02-01-104433
3486.2 seconds 0.968389 hours CTEQ5L-LO_HardQCDMix_30To50_2017-02-01-104433
4094.36 seconds 1.13732 hours CTEQ5L-LO_HardQCDMix_30To50_2017-02-01-104433
2930.62 seconds 0.814061 hours CTEQ5L-LO_HardQCDMix_30To50_2017-02-01-104433
3205.42 seconds 0.890394 hours CTEQ5L-LO_HardQCDMix_30To50_2017-02-01-104433
3989.31 seconds 1.10814 hours CTEQ5L-LO_HardQCDMix_30To50_2017-02-01-104433
3812.81 seconds 1.05911 hours CTEQ5L-LO_HardQCDMix_30To50_2017-02-01-104433
3965.2 seconds 1.10144 hours CTEQ5L-LO_HardQCDMix_30To50_2017-02-01-104433
3980.66 seconds 1.10574 hours CTEQ5L-LO_HardQCDMix_30To50_2017-02-01-104433


8151.59 seconds 2.26433 hours CTEQ5L-LO_HardQCDMix_380To10000_2017-02-01-104433
7758.6 seconds 2.15517 hours CTEQ5L-LO_HardQCDMix_380To10000_2017-02-01-104433
6065.83 seconds 1.68495 hours CTEQ5L-LO_HardQCDMix_380To10000_2017-02-01-104433
5727.81 seconds 1.59106 hours CTEQ5L-LO_HardQCDMix_380To10000_2017-02-01-104433
5796.45 seconds 1.61013 hours CTEQ5L-LO_HardQCDMix_380To10000_2017-02-01-104433
5877.79 seconds 1.63272 hours CTEQ5L-LO_HardQCDMix_380To10000_2017-02-01-104433
8231.18 seconds 2.28644 hours CTEQ5L-LO_HardQCDMix_380To10000_2017-02-01-104433
8227.94 seconds 2.28554 hours CTEQ5L-LO_HardQCDMix_380To10000_2017-02-01-104433
5853.55 seconds 1.62599 hours CTEQ5L-LO_HardQCDMix_380To10000_2017-02-01-104433
8328.07 seconds 2.31335 hours CTEQ5L-LO_HardQCDMix_380To10000_2017-02-01-104433
8471.67 seconds 2.35324 hours CTEQ5L-LO_HardQCDMix_380To10000_2017-02-01-104433
8067.04 seconds 2.24084 hours CTEQ5L-LO_HardQCDMix_380To10000_2017-02-01-104433
8012.9 seconds 2.22581 hours CTEQ5L-LO_HardQCDMix_380To10000_2017-02-01-104433
5735.13 seconds 1.59309 hours CTEQ5L-LO_HardQCDMix_380To10000_2017-02-01-104433
5656.42 seconds 1.57123 hours CTEQ5L-LO_HardQCDMix_380To10000_2017-02-01-104433
7311.31 seconds 2.03092 hours CTEQ5L-LO_HardQCDMix_380To10000_2017-02-01-104433
7317.2 seconds 2.03256 hours CTEQ5L-LO_HardQCDMix_380To10000_2017-02-01-104433
5672.66 seconds 1.57574 hours CTEQ5L-LO_HardQCDMix_380To10000_2017-02-01-104433
7254.41 seconds 2.01511 hours CTEQ5L-LO_HardQCDMix_380To10000_2017-02-01-104433
7332.99 seconds 2.03694 hours CTEQ5L-LO_HardQCDMix_380To10000_2017-02-01-104433


4683.18 seconds 1.30088 hours CTEQ5L-LO_HardQCDMix_50To80_2017-02-01-104433
4634.51 seconds 1.28736 hours CTEQ5L-LO_HardQCDMix_50To80_2017-02-01-104433
3431.68 seconds 0.953244 hours CTEQ5L-LO_HardQCDMix_50To80_2017-02-01-104433
4631.87 seconds 1.28663 hours CTEQ5L-LO_HardQCDMix_50To80_2017-02-01-104433
4206.7 seconds 1.16853 hours CTEQ5L-LO_HardQCDMix_50To80_2017-02-01-104433
3297.19 seconds 0.915886 hours CTEQ5L-LO_HardQCDMix_50To80_2017-02-01-104433
4615.57 seconds 1.2821 hours CTEQ5L-LO_HardQCDMix_50To80_2017-02-01-104433
3393.79 seconds 0.942719 hours CTEQ5L-LO_HardQCDMix_50To80_2017-02-01-104433
3273.93 seconds 0.909425 hours CTEQ5L-LO_HardQCDMix_50To80_2017-02-01-104433
3398.18 seconds 0.943939 hours CTEQ5L-LO_HardQCDMix_50To80_2017-02-01-104433
3289.82 seconds 0.913839 hours CTEQ5L-LO_HardQCDMix_50To80_2017-02-01-104433
3373.38 seconds 0.93705 hours CTEQ5L-LO_HardQCDMix_50To80_2017-02-01-104433
4189.82 seconds 1.16384 hours CTEQ5L-LO_HardQCDMix_50To80_2017-02-01-104433
4687.45 seconds 1.30207 hours CTEQ5L-LO_HardQCDMix_50To80_2017-02-01-104433
4629.68 seconds 1.28602 hours CTEQ5L-LO_HardQCDMix_50To80_2017-02-01-104433
4618.05 seconds 1.28279 hours CTEQ5L-LO_HardQCDMix_50To80_2017-02-01-104433
4582.43 seconds 1.2729 hours CTEQ5L-LO_HardQCDMix_50To80_2017-02-01-104433
4599.68 seconds 1.27769 hours CTEQ5L-LO_HardQCDMix_50To80_2017-02-01-104433
4669.47 seconds 1.29707 hours CTEQ5L-LO_HardQCDMix_50To80_2017-02-01-104433
3356.77 seconds 0.932436 hours CTEQ5L-LO_HardQCDMix_50To80_2017-02-01-104433


4721.13 seconds 1.31143 hours CTEQ5L-LO_HardQCDMix_80To120_2017-02-01-104433
4619.72 seconds 1.28326 hours CTEQ5L-LO_HardQCDMix_80To120_2017-02-01-104433
3780.11 seconds 1.05003 hours CTEQ5L-LO_HardQCDMix_80To120_2017-02-01-104433
4640.19 seconds 1.28894 hours CTEQ5L-LO_HardQCDMix_80To120_2017-02-01-104433
3582.99 seconds 0.995275 hours CTEQ5L-LO_HardQCDMix_80To120_2017-02-01-104433
3721.51 seconds 1.03375 hours CTEQ5L-LO_HardQCDMix_80To120_2017-02-01-104433
4650.49 seconds 1.2918 hours CTEQ5L-LO_HardQCDMix_80To120_2017-02-01-104433
4604.84 seconds 1.27912 hours CTEQ5L-LO_HardQCDMix_80To120_2017-02-01-104433
5215.01 seconds 1.44861 hours CTEQ5L-LO_HardQCDMix_80To120_2017-02-01-104433
5113.23 seconds 1.42034 hours CTEQ5L-LO_HardQCDMix_80To120_2017-02-01-104433
4655.35 seconds 1.29315 hours CTEQ5L-LO_HardQCDMix_80To120_2017-02-01-104433
3765.46 seconds 1.04596 hours CTEQ5L-LO_HardQCDMix_80To120_2017-02-01-104433
4651.72 seconds 1.29214 hours CTEQ5L-LO_HardQCDMix_80To120_2017-02-01-104433
4648.3 seconds 1.29119 hours CTEQ5L-LO_HardQCDMix_80To120_2017-02-01-104433
3858.29 seconds 1.07175 hours CTEQ5L-LO_HardQCDMix_80To120_2017-02-01-104433
5205.36 seconds 1.44593 hours CTEQ5L-LO_HardQCDMix_80To120_2017-02-01-104433
3781.1 seconds 1.05031 hours CTEQ5L-LO_HardQCDMix_80To120_2017-02-01-104433
3706.77 seconds 1.02966 hours CTEQ5L-LO_HardQCDMix_80To120_2017-02-01-104433
4658.27 seconds 1.29396 hours CTEQ5L-LO_HardQCDMix_80To120_2017-02-01-104433
4608.61 seconds 1.28017 hours CTEQ5L-LO_HardQCDMix_80To120_2017-02-01-104433




