

Time taken to complete the job, Statistics
==========================================
5663.7 seconds 1.57325 hours CTEQ5L-LO_HardQCDMix_10To20_2017-02-06-162207
5698.13 seconds 1.58281 hours CTEQ5L-LO_HardQCDMix_10To20_2017-02-06-162207
6367.33 seconds 1.7687 hours CTEQ5L-LO_HardQCDMix_10To20_2017-02-06-162207
6280.08 seconds 1.74447 hours CTEQ5L-LO_HardQCDMix_10To20_2017-02-06-162207
5779.08 seconds 1.6053 hours CTEQ5L-LO_HardQCDMix_10To20_2017-02-06-162207
5691.3 seconds 1.58092 hours CTEQ5L-LO_HardQCDMix_10To20_2017-02-06-162207
5409.64 seconds 1.50268 hours CTEQ5L-LO_HardQCDMix_10To20_2017-02-06-162207
4623.44 seconds 1.28429 hours CTEQ5L-LO_HardQCDMix_10To20_2017-02-06-162207
4595.81 seconds 1.27661 hours CTEQ5L-LO_HardQCDMix_10To20_2017-02-06-162207
5027.44 seconds 1.39651 hours CTEQ5L-LO_HardQCDMix_10To20_2017-02-06-162207
4993.6 seconds 1.38711 hours CTEQ5L-LO_HardQCDMix_10To20_2017-02-06-162207
4715.57 seconds 1.30988 hours CTEQ5L-LO_HardQCDMix_10To20_2017-02-06-162207
5023.12 seconds 1.39531 hours CTEQ5L-LO_HardQCDMix_10To20_2017-02-06-162207
4470.39 seconds 1.24178 hours CTEQ5L-LO_HardQCDMix_10To20_2017-02-06-162207
4403.73 seconds 1.22326 hours CTEQ5L-LO_HardQCDMix_10To20_2017-02-06-162207
4457.23 seconds 1.23812 hours CTEQ5L-LO_HardQCDMix_10To20_2017-02-06-162207
4659.89 seconds 1.29441 hours CTEQ5L-LO_HardQCDMix_10To20_2017-02-06-162207
4502.86 seconds 1.25079 hours CTEQ5L-LO_HardQCDMix_10To20_2017-02-06-162207
4479.9 seconds 1.24442 hours CTEQ5L-LO_HardQCDMix_10To20_2017-02-06-162207
6342.14 seconds 1.76171 hours CTEQ5L-LO_HardQCDMix_10To20_2017-02-06-162207


7950.16 seconds 2.20838 hours CTEQ5L-LO_HardQCDMix_120To170_2017-02-06-162207
9050.61 seconds 2.51406 hours CTEQ5L-LO_HardQCDMix_120To170_2017-02-06-162207
6382.96 seconds 1.77304 hours CTEQ5L-LO_HardQCDMix_120To170_2017-02-06-162207
8957.71 seconds 2.48825 hours CTEQ5L-LO_HardQCDMix_120To170_2017-02-06-162207
9732.27 seconds 2.70341 hours CTEQ5L-LO_HardQCDMix_120To170_2017-02-06-162207
8944.7 seconds 2.48464 hours CTEQ5L-LO_HardQCDMix_120To170_2017-02-06-162207
8844.64 seconds 2.45684 hours CTEQ5L-LO_HardQCDMix_120To170_2017-02-06-162207
8825.3 seconds 2.45147 hours CTEQ5L-LO_HardQCDMix_120To170_2017-02-06-162207
7621.09 seconds 2.11697 hours CTEQ5L-LO_HardQCDMix_120To170_2017-02-06-162207
8010.01 seconds 2.225 hours CTEQ5L-LO_HardQCDMix_120To170_2017-02-06-162207
8041.82 seconds 2.23384 hours CTEQ5L-LO_HardQCDMix_120To170_2017-02-06-162207
8981.95 seconds 2.49499 hours CTEQ5L-LO_HardQCDMix_120To170_2017-02-06-162207
9028.53 seconds 2.50793 hours CTEQ5L-LO_HardQCDMix_120To170_2017-02-06-162207
8884 seconds 2.46778 hours CTEQ5L-LO_HardQCDMix_120To170_2017-02-06-162207
7953.87 seconds 2.20941 hours CTEQ5L-LO_HardQCDMix_120To170_2017-02-06-162207
7924.53 seconds 2.20126 hours CTEQ5L-LO_HardQCDMix_120To170_2017-02-06-162207
7500.39 seconds 2.08344 hours CTEQ5L-LO_HardQCDMix_120To170_2017-02-06-162207
7928.89 seconds 2.20247 hours CTEQ5L-LO_HardQCDMix_120To170_2017-02-06-162207
7610.73 seconds 2.11409 hours CTEQ5L-LO_HardQCDMix_120To170_2017-02-06-162207
9095.69 seconds 2.52658 hours CTEQ5L-LO_HardQCDMix_120To170_2017-02-06-162207


9625.82 seconds 2.67384 hours CTEQ5L-LO_HardQCDMix_170To230_2017-02-06-162207
9700.58 seconds 2.69461 hours CTEQ5L-LO_HardQCDMix_170To230_2017-02-06-162207
9481.34 seconds 2.63371 hours CTEQ5L-LO_HardQCDMix_170To230_2017-02-06-162207
9478.6 seconds 2.63294 hours CTEQ5L-LO_HardQCDMix_170To230_2017-02-06-162207
9391.3 seconds 2.60869 hours CTEQ5L-LO_HardQCDMix_170To230_2017-02-06-162207
9472.14 seconds 2.63115 hours CTEQ5L-LO_HardQCDMix_170To230_2017-02-06-162207
9574.12 seconds 2.65948 hours CTEQ5L-LO_HardQCDMix_170To230_2017-02-06-162207
9459.9 seconds 2.62775 hours CTEQ5L-LO_HardQCDMix_170To230_2017-02-06-162207
8484.98 seconds 2.35694 hours CTEQ5L-LO_HardQCDMix_170To230_2017-02-06-162207
8382.63 seconds 2.32851 hours CTEQ5L-LO_HardQCDMix_170To230_2017-02-06-162207
8545.15 seconds 2.37365 hours CTEQ5L-LO_HardQCDMix_170To230_2017-02-06-162207
9835.06 seconds 2.73196 hours CTEQ5L-LO_HardQCDMix_170To230_2017-02-06-162207
8512.38 seconds 2.36455 hours CTEQ5L-LO_HardQCDMix_170To230_2017-02-06-162207
9628.94 seconds 2.67471 hours CTEQ5L-LO_HardQCDMix_170To230_2017-02-06-162207
9621.7 seconds 2.67269 hours CTEQ5L-LO_HardQCDMix_170To230_2017-02-06-162207
9465.16 seconds 2.62921 hours CTEQ5L-LO_HardQCDMix_170To230_2017-02-06-162207
6825.59 seconds 1.896 hours CTEQ5L-LO_HardQCDMix_170To230_2017-02-06-162207
6591.24 seconds 1.8309 hours CTEQ5L-LO_HardQCDMix_170To230_2017-02-06-162207
9814 seconds 2.72611 hours CTEQ5L-LO_HardQCDMix_170To230_2017-02-06-162207
9815.12 seconds 2.72642 hours CTEQ5L-LO_HardQCDMix_170To230_2017-02-06-162207


5409.63 seconds 1.50267 hours CTEQ5L-LO_HardQCDMix_20To30_2017-02-06-162207
6452.7 seconds 1.79242 hours CTEQ5L-LO_HardQCDMix_20To30_2017-02-06-162207
6088.45 seconds 1.69124 hours CTEQ5L-LO_HardQCDMix_20To30_2017-02-06-162207
6168.62 seconds 1.71351 hours CTEQ5L-LO_HardQCDMix_20To30_2017-02-06-162207
6078.71 seconds 1.68853 hours CTEQ5L-LO_HardQCDMix_20To30_2017-02-06-162207
5858.95 seconds 1.62749 hours CTEQ5L-LO_HardQCDMix_20To30_2017-02-06-162207
6231.6 seconds 1.731 hours CTEQ5L-LO_HardQCDMix_20To30_2017-02-06-162207
6958.36 seconds 1.93288 hours CTEQ5L-LO_HardQCDMix_20To30_2017-02-06-162207
7066.21 seconds 1.96284 hours CTEQ5L-LO_HardQCDMix_20To30_2017-02-06-162207
6208.34 seconds 1.72454 hours CTEQ5L-LO_HardQCDMix_20To30_2017-02-06-162207
6104.54 seconds 1.69571 hours CTEQ5L-LO_HardQCDMix_20To30_2017-02-06-162207
5361 seconds 1.48917 hours CTEQ5L-LO_HardQCDMix_20To30_2017-02-06-162207
6851.57 seconds 1.90321 hours CTEQ5L-LO_HardQCDMix_20To30_2017-02-06-162207
5328.13 seconds 1.48004 hours CTEQ5L-LO_HardQCDMix_20To30_2017-02-06-162207
5082.4 seconds 1.41178 hours CTEQ5L-LO_HardQCDMix_20To30_2017-02-06-162207
5061.7 seconds 1.40603 hours CTEQ5L-LO_HardQCDMix_20To30_2017-02-06-162207
5479.87 seconds 1.52219 hours CTEQ5L-LO_HardQCDMix_20To30_2017-02-06-162207
5329.53 seconds 1.48042 hours CTEQ5L-LO_HardQCDMix_20To30_2017-02-06-162207
6959.82 seconds 1.93328 hours CTEQ5L-LO_HardQCDMix_20To30_2017-02-06-162207
6132.37 seconds 1.70344 hours CTEQ5L-LO_HardQCDMix_20To30_2017-02-06-162207


9014.53 seconds 2.50404 hours CTEQ5L-LO_HardQCDMix_230To300_2017-02-06-162207
10034 seconds 2.78722 hours CTEQ5L-LO_HardQCDMix_230To300_2017-02-06-162207
10131.6 seconds 2.81433 hours CTEQ5L-LO_HardQCDMix_230To300_2017-02-06-162207
9964.49 seconds 2.76791 hours CTEQ5L-LO_HardQCDMix_230To300_2017-02-06-162207
9001.65 seconds 2.50046 hours CTEQ5L-LO_HardQCDMix_230To300_2017-02-06-162207
10106.7 seconds 2.80742 hours CTEQ5L-LO_HardQCDMix_230To300_2017-02-06-162207
10105.5 seconds 2.80708 hours CTEQ5L-LO_HardQCDMix_230To300_2017-02-06-162207
9868.57 seconds 2.74127 hours CTEQ5L-LO_HardQCDMix_230To300_2017-02-06-162207
9996.03 seconds 2.77668 hours CTEQ5L-LO_HardQCDMix_230To300_2017-02-06-162207
9959.28 seconds 2.76647 hours CTEQ5L-LO_HardQCDMix_230To300_2017-02-06-162207
9818.53 seconds 2.72737 hours CTEQ5L-LO_HardQCDMix_230To300_2017-02-06-162207
10064.6 seconds 2.79572 hours CTEQ5L-LO_HardQCDMix_230To300_2017-02-06-162207
9136.99 seconds 2.53805 hours CTEQ5L-LO_HardQCDMix_230To300_2017-02-06-162207
10017.7 seconds 2.78269 hours CTEQ5L-LO_HardQCDMix_230To300_2017-02-06-162207
9975.72 seconds 2.77103 hours CTEQ5L-LO_HardQCDMix_230To300_2017-02-06-162207
9929.15 seconds 2.7581 hours CTEQ5L-LO_HardQCDMix_230To300_2017-02-06-162207
10428.6 seconds 2.89683 hours CTEQ5L-LO_HardQCDMix_230To300_2017-02-06-162207
10036.3 seconds 2.78786 hours CTEQ5L-LO_HardQCDMix_230To300_2017-02-06-162207
10072.4 seconds 2.79789 hours CTEQ5L-LO_HardQCDMix_230To300_2017-02-06-162207
10016.1 seconds 2.78225 hours CTEQ5L-LO_HardQCDMix_230To300_2017-02-06-162207


9324.36 seconds 2.5901 hours CTEQ5L-LO_HardQCDMix_300To380_2017-02-06-162207
9429.4 seconds 2.61928 hours CTEQ5L-LO_HardQCDMix_300To380_2017-02-06-162207
9498.99 seconds 2.63861 hours CTEQ5L-LO_HardQCDMix_300To380_2017-02-06-162207
8874.2 seconds 2.46506 hours CTEQ5L-LO_HardQCDMix_300To380_2017-02-06-162207
9249.19 seconds 2.56922 hours CTEQ5L-LO_HardQCDMix_300To380_2017-02-06-162207
10617.7 seconds 2.94936 hours CTEQ5L-LO_HardQCDMix_300To380_2017-02-06-162207
10720.8 seconds 2.978 hours CTEQ5L-LO_HardQCDMix_300To380_2017-02-06-162207
10398.8 seconds 2.88856 hours CTEQ5L-LO_HardQCDMix_300To380_2017-02-06-162207
12200.4 seconds 3.389 hours CTEQ5L-LO_HardQCDMix_300To380_2017-02-06-162207
10916.2 seconds 3.03228 hours CTEQ5L-LO_HardQCDMix_300To380_2017-02-06-162207
7327.33 seconds 2.03537 hours CTEQ5L-LO_HardQCDMix_300To380_2017-02-06-162207
10554.7 seconds 2.93186 hours CTEQ5L-LO_HardQCDMix_300To380_2017-02-06-162207
7649.17 seconds 2.12477 hours CTEQ5L-LO_HardQCDMix_300To380_2017-02-06-162207
10575.8 seconds 2.93772 hours CTEQ5L-LO_HardQCDMix_300To380_2017-02-06-162207
10463 seconds 2.90639 hours CTEQ5L-LO_HardQCDMix_300To380_2017-02-06-162207
10681.2 seconds 2.967 hours CTEQ5L-LO_HardQCDMix_300To380_2017-02-06-162207
10705.7 seconds 2.97381 hours CTEQ5L-LO_HardQCDMix_300To380_2017-02-06-162207
10671.2 seconds 2.96422 hours CTEQ5L-LO_HardQCDMix_300To380_2017-02-06-162207
9494.29 seconds 2.6373 hours CTEQ5L-LO_HardQCDMix_300To380_2017-02-06-162207
9324.82 seconds 2.59023 hours CTEQ5L-LO_HardQCDMix_300To380_2017-02-06-162207


7241.11 seconds 2.01142 hours CTEQ5L-LO_HardQCDMix_30To50_2017-02-06-162207
6604.26 seconds 1.83452 hours CTEQ5L-LO_HardQCDMix_30To50_2017-02-06-162207
7202.85 seconds 2.00079 hours CTEQ5L-LO_HardQCDMix_30To50_2017-02-06-162207
7161.9 seconds 1.98942 hours CTEQ5L-LO_HardQCDMix_30To50_2017-02-06-162207
6637.62 seconds 1.84378 hours CTEQ5L-LO_HardQCDMix_30To50_2017-02-06-162207
6492.7 seconds 1.80353 hours CTEQ5L-LO_HardQCDMix_30To50_2017-02-06-162207
6507.68 seconds 1.80769 hours CTEQ5L-LO_HardQCDMix_30To50_2017-02-06-162207
6436.89 seconds 1.78803 hours CTEQ5L-LO_HardQCDMix_30To50_2017-02-06-162207
6553.35 seconds 1.82038 hours CTEQ5L-LO_HardQCDMix_30To50_2017-02-06-162207
6189.62 seconds 1.71934 hours CTEQ5L-LO_HardQCDMix_30To50_2017-02-06-162207
5171.29 seconds 1.43647 hours CTEQ5L-LO_HardQCDMix_30To50_2017-02-06-162207
7364.61 seconds 2.04573 hours CTEQ5L-LO_HardQCDMix_30To50_2017-02-06-162207
7548.96 seconds 2.09693 hours CTEQ5L-LO_HardQCDMix_30To50_2017-02-06-162207
7466.62 seconds 2.07406 hours CTEQ5L-LO_HardQCDMix_30To50_2017-02-06-162207
5527.93 seconds 1.53554 hours CTEQ5L-LO_HardQCDMix_30To50_2017-02-06-162207
5532.06 seconds 1.53668 hours CTEQ5L-LO_HardQCDMix_30To50_2017-02-06-162207
7277.73 seconds 2.02159 hours CTEQ5L-LO_HardQCDMix_30To50_2017-02-06-162207
7337.79 seconds 2.03828 hours CTEQ5L-LO_HardQCDMix_30To50_2017-02-06-162207
7296.21 seconds 2.02672 hours CTEQ5L-LO_HardQCDMix_30To50_2017-02-06-162207
6652.98 seconds 1.84805 hours CTEQ5L-LO_HardQCDMix_30To50_2017-02-06-162207


7894.39 seconds 2.19289 hours CTEQ5L-LO_HardQCDMix_380To10000_2017-02-06-162207
10034.6 seconds 2.78739 hours CTEQ5L-LO_HardQCDMix_380To10000_2017-02-06-162207
10060.3 seconds 2.79453 hours CTEQ5L-LO_HardQCDMix_380To10000_2017-02-06-162207
9823.5 seconds 2.72875 hours CTEQ5L-LO_HardQCDMix_380To10000_2017-02-06-162207
9852.72 seconds 2.73687 hours CTEQ5L-LO_HardQCDMix_380To10000_2017-02-06-162207
9976.59 seconds 2.77128 hours CTEQ5L-LO_HardQCDMix_380To10000_2017-02-06-162207
11158.5 seconds 3.09958 hours CTEQ5L-LO_HardQCDMix_380To10000_2017-02-06-162207
11351.9 seconds 3.15331 hours CTEQ5L-LO_HardQCDMix_380To10000_2017-02-06-162207
7920.38 seconds 2.20011 hours CTEQ5L-LO_HardQCDMix_380To10000_2017-02-06-162207
11246.3 seconds 3.12397 hours CTEQ5L-LO_HardQCDMix_380To10000_2017-02-06-162207
11215.7 seconds 3.11547 hours CTEQ5L-LO_HardQCDMix_380To10000_2017-02-06-162207
11381.7 seconds 3.16158 hours CTEQ5L-LO_HardQCDMix_380To10000_2017-02-06-162207
6823.65 seconds 1.89546 hours CTEQ5L-LO_HardQCDMix_380To10000_2017-02-06-162207
11372.1 seconds 3.15892 hours CTEQ5L-LO_HardQCDMix_380To10000_2017-02-06-162207
11186.3 seconds 3.10731 hours CTEQ5L-LO_HardQCDMix_380To10000_2017-02-06-162207
11356.9 seconds 3.15469 hours CTEQ5L-LO_HardQCDMix_380To10000_2017-02-06-162207
10967.1 seconds 3.04642 hours CTEQ5L-LO_HardQCDMix_380To10000_2017-02-06-162207
11141.1 seconds 3.09475 hours CTEQ5L-LO_HardQCDMix_380To10000_2017-02-06-162207
11174.1 seconds 3.10392 hours CTEQ5L-LO_HardQCDMix_380To10000_2017-02-06-162207
11527.8 seconds 3.20217 hours CTEQ5L-LO_HardQCDMix_380To10000_2017-02-06-162207


7810.89 seconds 2.16969 hours CTEQ5L-LO_HardQCDMix_50To80_2017-02-06-162207
7902.29 seconds 2.19508 hours CTEQ5L-LO_HardQCDMix_50To80_2017-02-06-162207
7833.77 seconds 2.17605 hours CTEQ5L-LO_HardQCDMix_50To80_2017-02-06-162207
7768.14 seconds 2.15782 hours CTEQ5L-LO_HardQCDMix_50To80_2017-02-06-162207
7694.28 seconds 2.1373 hours CTEQ5L-LO_HardQCDMix_50To80_2017-02-06-162207
6857.61 seconds 1.90489 hours CTEQ5L-LO_HardQCDMix_50To80_2017-02-06-162207
6950.72 seconds 1.93076 hours CTEQ5L-LO_HardQCDMix_50To80_2017-02-06-162207
7018.59 seconds 1.94961 hours CTEQ5L-LO_HardQCDMix_50To80_2017-02-06-162207
7098.39 seconds 1.97178 hours CTEQ5L-LO_HardQCDMix_50To80_2017-02-06-162207
7043.01 seconds 1.95639 hours CTEQ5L-LO_HardQCDMix_50To80_2017-02-06-162207
7752.17 seconds 2.15338 hours CTEQ5L-LO_HardQCDMix_50To80_2017-02-06-162207
7765.39 seconds 2.15705 hours CTEQ5L-LO_HardQCDMix_50To80_2017-02-06-162207
7771.4 seconds 2.15872 hours CTEQ5L-LO_HardQCDMix_50To80_2017-02-06-162207
7921.78 seconds 2.20049 hours CTEQ5L-LO_HardQCDMix_50To80_2017-02-06-162207
7744.42 seconds 2.15123 hours CTEQ5L-LO_HardQCDMix_50To80_2017-02-06-162207
7101.41 seconds 1.97261 hours CTEQ5L-LO_HardQCDMix_50To80_2017-02-06-162207
6875.42 seconds 1.90984 hours CTEQ5L-LO_HardQCDMix_50To80_2017-02-06-162207
6942.36 seconds 1.92843 hours CTEQ5L-LO_HardQCDMix_50To80_2017-02-06-162207
6955.35 seconds 1.93204 hours CTEQ5L-LO_HardQCDMix_50To80_2017-02-06-162207
6914.05 seconds 1.92057 hours CTEQ5L-LO_HardQCDMix_50To80_2017-02-06-162207


8411.6 seconds 2.33656 hours CTEQ5L-LO_HardQCDMix_80To120_2017-02-06-162207
7516.63 seconds 2.08795 hours CTEQ5L-LO_HardQCDMix_80To120_2017-02-06-162207
7505.32 seconds 2.08481 hours CTEQ5L-LO_HardQCDMix_80To120_2017-02-06-162207
6173.65 seconds 1.7149 hours CTEQ5L-LO_HardQCDMix_80To120_2017-02-06-162207
8366.94 seconds 2.32415 hours CTEQ5L-LO_HardQCDMix_80To120_2017-02-06-162207
8610.07 seconds 2.39169 hours CTEQ5L-LO_HardQCDMix_80To120_2017-02-06-162207
8311.27 seconds 2.30869 hours CTEQ5L-LO_HardQCDMix_80To120_2017-02-06-162207
8399.74 seconds 2.33326 hours CTEQ5L-LO_HardQCDMix_80To120_2017-02-06-162207
8387.94 seconds 2.32998 hours CTEQ5L-LO_HardQCDMix_80To120_2017-02-06-162207
8421 seconds 2.33917 hours CTEQ5L-LO_HardQCDMix_80To120_2017-02-06-162207
8433.92 seconds 2.34276 hours CTEQ5L-LO_HardQCDMix_80To120_2017-02-06-162207
8336.35 seconds 2.31565 hours CTEQ5L-LO_HardQCDMix_80To120_2017-02-06-162207
7481.93 seconds 2.07831 hours CTEQ5L-LO_HardQCDMix_80To120_2017-02-06-162207
8498.82 seconds 2.36078 hours CTEQ5L-LO_HardQCDMix_80To120_2017-02-06-162207
8502.52 seconds 2.36181 hours CTEQ5L-LO_HardQCDMix_80To120_2017-02-06-162207
7471.39 seconds 2.07539 hours CTEQ5L-LO_HardQCDMix_80To120_2017-02-06-162207
7426.9 seconds 2.06303 hours CTEQ5L-LO_HardQCDMix_80To120_2017-02-06-162207
7455.01 seconds 2.07084 hours CTEQ5L-LO_HardQCDMix_80To120_2017-02-06-162207
7558.79 seconds 2.09966 hours CTEQ5L-LO_HardQCDMix_80To120_2017-02-06-162207
7471.01 seconds 2.07528 hours CTEQ5L-LO_HardQCDMix_80To120_2017-02-06-162207




