

Time taken to complete the job, Statistics
==========================================
5024.22 seconds 1.39562 hours CTEQ5L-LO_HardQCDAll_10To20_2017-02-06-105128
6206.81 seconds 1.72411 hours CTEQ5L-LO_HardQCDAll_10To20_2017-02-06-105128
6490.82 seconds 1.80301 hours CTEQ5L-LO_HardQCDAll_10To20_2017-02-06-105128
6140.07 seconds 1.70557 hours CTEQ5L-LO_HardQCDAll_10To20_2017-02-06-105128
7324.93 seconds 2.0347 hours CTEQ5L-LO_HardQCDAll_10To20_2017-02-06-105128
7337.07 seconds 2.03808 hours CTEQ5L-LO_HardQCDAll_10To20_2017-02-06-105128
7303.39 seconds 2.02872 hours CTEQ5L-LO_HardQCDAll_10To20_2017-02-06-105128
7180.4 seconds 1.99456 hours CTEQ5L-LO_HardQCDAll_10To20_2017-02-06-105128
7444.68 seconds 2.06797 hours CTEQ5L-LO_HardQCDAll_10To20_2017-02-06-105128
7507.86 seconds 2.08552 hours CTEQ5L-LO_HardQCDAll_10To20_2017-02-06-105128
7373.5 seconds 2.04819 hours CTEQ5L-LO_HardQCDAll_10To20_2017-02-06-105128
5001.75 seconds 1.38938 hours CTEQ5L-LO_HardQCDAll_10To20_2017-02-06-105128
7282.81 seconds 2.023 hours CTEQ5L-LO_HardQCDAll_10To20_2017-02-06-105128
5001.79 seconds 1.38939 hours CTEQ5L-LO_HardQCDAll_10To20_2017-02-06-105128
5143.85 seconds 1.42885 hours CTEQ5L-LO_HardQCDAll_10To20_2017-02-06-105128
5112.19 seconds 1.42005 hours CTEQ5L-LO_HardQCDAll_10To20_2017-02-06-105128
5105.13 seconds 1.41809 hours CTEQ5L-LO_HardQCDAll_10To20_2017-02-06-105128
5124.39 seconds 1.42344 hours CTEQ5L-LO_HardQCDAll_10To20_2017-02-06-105128
7537.2 seconds 2.09367 hours CTEQ5L-LO_HardQCDAll_10To20_2017-02-06-105128
7327.8 seconds 2.0355 hours CTEQ5L-LO_HardQCDAll_10To20_2017-02-06-105128


7413.26 seconds 2.05924 hours CTEQ5L-LO_HardQCDAll_120To170_2017-02-06-105128
7145.6 seconds 1.98489 hours CTEQ5L-LO_HardQCDAll_120To170_2017-02-06-105128
8714.83 seconds 2.42079 hours CTEQ5L-LO_HardQCDAll_120To170_2017-02-06-105128
8292.68 seconds 2.30352 hours CTEQ5L-LO_HardQCDAll_120To170_2017-02-06-105128
8246.71 seconds 2.29075 hours CTEQ5L-LO_HardQCDAll_120To170_2017-02-06-105128
7201.5 seconds 2.00042 hours CTEQ5L-LO_HardQCDAll_120To170_2017-02-06-105128
7139.06 seconds 1.98307 hours CTEQ5L-LO_HardQCDAll_120To170_2017-02-06-105128
6836.98 seconds 1.89916 hours CTEQ5L-LO_HardQCDAll_120To170_2017-02-06-105128
7256.98 seconds 2.01583 hours CTEQ5L-LO_HardQCDAll_120To170_2017-02-06-105128
7279 seconds 2.02194 hours CTEQ5L-LO_HardQCDAll_120To170_2017-02-06-105128
7396.66 seconds 2.05463 hours CTEQ5L-LO_HardQCDAll_120To170_2017-02-06-105128
7221.36 seconds 2.00593 hours CTEQ5L-LO_HardQCDAll_120To170_2017-02-06-105128
8170.27 seconds 2.26952 hours CTEQ5L-LO_HardQCDAll_120To170_2017-02-06-105128
7976.02 seconds 2.21556 hours CTEQ5L-LO_HardQCDAll_120To170_2017-02-06-105128
8138.51 seconds 2.2607 hours CTEQ5L-LO_HardQCDAll_120To170_2017-02-06-105128
7406.62 seconds 2.05739 hours CTEQ5L-LO_HardQCDAll_120To170_2017-02-06-105128
7312.24 seconds 2.03118 hours CTEQ5L-LO_HardQCDAll_120To170_2017-02-06-105128
7359.65 seconds 2.04435 hours CTEQ5L-LO_HardQCDAll_120To170_2017-02-06-105128
7228.23 seconds 2.00784 hours CTEQ5L-LO_HardQCDAll_120To170_2017-02-06-105128
7654.18 seconds 2.12616 hours CTEQ5L-LO_HardQCDAll_120To170_2017-02-06-105128


8479.76 seconds 2.35549 hours CTEQ5L-LO_HardQCDAll_170To230_2017-02-06-105128
7408.84 seconds 2.05801 hours CTEQ5L-LO_HardQCDAll_170To230_2017-02-06-105128
7211.82 seconds 2.00328 hours CTEQ5L-LO_HardQCDAll_170To230_2017-02-06-105128
7992.7 seconds 2.22019 hours CTEQ5L-LO_HardQCDAll_170To230_2017-02-06-105128
7896.27 seconds 2.19341 hours CTEQ5L-LO_HardQCDAll_170To230_2017-02-06-105128
8117.71 seconds 2.25492 hours CTEQ5L-LO_HardQCDAll_170To230_2017-02-06-105128
7993.41 seconds 2.22039 hours CTEQ5L-LO_HardQCDAll_170To230_2017-02-06-105128
8154.49 seconds 2.26514 hours CTEQ5L-LO_HardQCDAll_170To230_2017-02-06-105128
8299.72 seconds 2.30548 hours CTEQ5L-LO_HardQCDAll_170To230_2017-02-06-105128
8121.92 seconds 2.25609 hours CTEQ5L-LO_HardQCDAll_170To230_2017-02-06-105128
8417.74 seconds 2.33826 hours CTEQ5L-LO_HardQCDAll_170To230_2017-02-06-105128
7991.74 seconds 2.21993 hours CTEQ5L-LO_HardQCDAll_170To230_2017-02-06-105128
8109.76 seconds 2.25271 hours CTEQ5L-LO_HardQCDAll_170To230_2017-02-06-105128
8387.13 seconds 2.32976 hours CTEQ5L-LO_HardQCDAll_170To230_2017-02-06-105128
7999.86 seconds 2.22218 hours CTEQ5L-LO_HardQCDAll_170To230_2017-02-06-105128
8181.23 seconds 2.27256 hours CTEQ5L-LO_HardQCDAll_170To230_2017-02-06-105128
8281.1 seconds 2.30031 hours CTEQ5L-LO_HardQCDAll_170To230_2017-02-06-105128
7420.06 seconds 2.06113 hours CTEQ5L-LO_HardQCDAll_170To230_2017-02-06-105128
7652.91 seconds 2.12581 hours CTEQ5L-LO_HardQCDAll_170To230_2017-02-06-105128
7150.73 seconds 1.98631 hours CTEQ5L-LO_HardQCDAll_170To230_2017-02-06-105128


7727.07 seconds 2.14641 hours CTEQ5L-LO_HardQCDAll_20To30_2017-02-06-105128
7539.84 seconds 2.0944 hours CTEQ5L-LO_HardQCDAll_20To30_2017-02-06-105128
6965.87 seconds 1.93496 hours CTEQ5L-LO_HardQCDAll_20To30_2017-02-06-105128
6965.08 seconds 1.93474 hours CTEQ5L-LO_HardQCDAll_20To30_2017-02-06-105128
6721.95 seconds 1.86721 hours CTEQ5L-LO_HardQCDAll_20To30_2017-02-06-105128
6751.86 seconds 1.87552 hours CTEQ5L-LO_HardQCDAll_20To30_2017-02-06-105128
6887.31 seconds 1.91314 hours CTEQ5L-LO_HardQCDAll_20To30_2017-02-06-105128
7677.97 seconds 2.13277 hours CTEQ5L-LO_HardQCDAll_20To30_2017-02-06-105128
7617.53 seconds 2.11598 hours CTEQ5L-LO_HardQCDAll_20To30_2017-02-06-105128
7787.64 seconds 2.16323 hours CTEQ5L-LO_HardQCDAll_20To30_2017-02-06-105128
7892.82 seconds 2.19245 hours CTEQ5L-LO_HardQCDAll_20To30_2017-02-06-105128
7646.94 seconds 2.12415 hours CTEQ5L-LO_HardQCDAll_20To30_2017-02-06-105128
6909.45 seconds 1.91929 hours CTEQ5L-LO_HardQCDAll_20To30_2017-02-06-105128
5982.82 seconds 1.66189 hours CTEQ5L-LO_HardQCDAll_20To30_2017-02-06-105128
5758.66 seconds 1.59963 hours CTEQ5L-LO_HardQCDAll_20To30_2017-02-06-105128
5533.64 seconds 1.53712 hours CTEQ5L-LO_HardQCDAll_20To30_2017-02-06-105128
5161.26 seconds 1.43368 hours CTEQ5L-LO_HardQCDAll_20To30_2017-02-06-105128
7590.78 seconds 2.10855 hours CTEQ5L-LO_HardQCDAll_20To30_2017-02-06-105128
7684.64 seconds 2.13462 hours CTEQ5L-LO_HardQCDAll_20To30_2017-02-06-105128
7698.02 seconds 2.13834 hours CTEQ5L-LO_HardQCDAll_20To30_2017-02-06-105128


8296.53 seconds 2.30459 hours CTEQ5L-LO_HardQCDAll_230To300_2017-02-06-105128
8257.39 seconds 2.29372 hours CTEQ5L-LO_HardQCDAll_230To300_2017-02-06-105128
8363.03 seconds 2.32306 hours CTEQ5L-LO_HardQCDAll_230To300_2017-02-06-105128
8412.52 seconds 2.33681 hours CTEQ5L-LO_HardQCDAll_230To300_2017-02-06-105128
8422.63 seconds 2.33962 hours CTEQ5L-LO_HardQCDAll_230To300_2017-02-06-105128
8445.53 seconds 2.34598 hours CTEQ5L-LO_HardQCDAll_230To300_2017-02-06-105128
8105.45 seconds 2.25151 hours CTEQ5L-LO_HardQCDAll_230To300_2017-02-06-105128
8262.38 seconds 2.29511 hours CTEQ5L-LO_HardQCDAll_230To300_2017-02-06-105128
8325.52 seconds 2.31264 hours CTEQ5L-LO_HardQCDAll_230To300_2017-02-06-105128
8413.2 seconds 2.337 hours CTEQ5L-LO_HardQCDAll_230To300_2017-02-06-105128
7937.26 seconds 2.20479 hours CTEQ5L-LO_HardQCDAll_230To300_2017-02-06-105128
8108.37 seconds 2.25232 hours CTEQ5L-LO_HardQCDAll_230To300_2017-02-06-105128
8091.53 seconds 2.24765 hours CTEQ5L-LO_HardQCDAll_230To300_2017-02-06-105128
7282.29 seconds 2.02286 hours CTEQ5L-LO_HardQCDAll_230To300_2017-02-06-105128
7357.24 seconds 2.04368 hours CTEQ5L-LO_HardQCDAll_230To300_2017-02-06-105128
7995.43 seconds 2.22095 hours CTEQ5L-LO_HardQCDAll_230To300_2017-02-06-105128
7995.43 seconds 2.22095 hours CTEQ5L-LO_HardQCDAll_230To300_2017-02-06-105128
7970.34 seconds 2.21398 hours CTEQ5L-LO_HardQCDAll_230To300_2017-02-06-105128
7950.72 seconds 2.20853 hours CTEQ5L-LO_HardQCDAll_230To300_2017-02-06-105128
7942.03 seconds 2.20612 hours CTEQ5L-LO_HardQCDAll_230To300_2017-02-06-105128


8363.47 seconds 2.32319 hours CTEQ5L-LO_HardQCDAll_300To380_2017-02-06-105128
8018.38 seconds 2.22733 hours CTEQ5L-LO_HardQCDAll_300To380_2017-02-06-105128
8013.63 seconds 2.22601 hours CTEQ5L-LO_HardQCDAll_300To380_2017-02-06-105128
8023.49 seconds 2.22875 hours CTEQ5L-LO_HardQCDAll_300To380_2017-02-06-105128
7972.36 seconds 2.21454 hours CTEQ5L-LO_HardQCDAll_300To380_2017-02-06-105128
8488.33 seconds 2.35787 hours CTEQ5L-LO_HardQCDAll_300To380_2017-02-06-105128
8148.59 seconds 2.2635 hours CTEQ5L-LO_HardQCDAll_300To380_2017-02-06-105128
7892.1 seconds 2.19225 hours CTEQ5L-LO_HardQCDAll_300To380_2017-02-06-105128
8107.29 seconds 2.25203 hours CTEQ5L-LO_HardQCDAll_300To380_2017-02-06-105128
7949.8 seconds 2.20828 hours CTEQ5L-LO_HardQCDAll_300To380_2017-02-06-105128
8241.66 seconds 2.28935 hours CTEQ5L-LO_HardQCDAll_300To380_2017-02-06-105128
8141.7 seconds 2.26158 hours CTEQ5L-LO_HardQCDAll_300To380_2017-02-06-105128
8127.77 seconds 2.25771 hours CTEQ5L-LO_HardQCDAll_300To380_2017-02-06-105128
6836.22 seconds 1.89895 hours CTEQ5L-LO_HardQCDAll_300To380_2017-02-06-105128
7098.47 seconds 1.9718 hours CTEQ5L-LO_HardQCDAll_300To380_2017-02-06-105128
7197.53 seconds 1.99931 hours CTEQ5L-LO_HardQCDAll_300To380_2017-02-06-105128
7344.94 seconds 2.04026 hours CTEQ5L-LO_HardQCDAll_300To380_2017-02-06-105128
7145.61 seconds 1.98489 hours CTEQ5L-LO_HardQCDAll_300To380_2017-02-06-105128
7149.99 seconds 1.98611 hours CTEQ5L-LO_HardQCDAll_300To380_2017-02-06-105128
7240.25 seconds 2.01118 hours CTEQ5L-LO_HardQCDAll_300To380_2017-02-06-105128


7260.35 seconds 2.01676 hours CTEQ5L-LO_HardQCDAll_30To50_2017-02-06-105128
7609.3 seconds 2.11369 hours CTEQ5L-LO_HardQCDAll_30To50_2017-02-06-105128
8191.58 seconds 2.27544 hours CTEQ5L-LO_HardQCDAll_30To50_2017-02-06-105128
6969.42 seconds 1.93595 hours CTEQ5L-LO_HardQCDAll_30To50_2017-02-06-105128
7875.52 seconds 2.18764 hours CTEQ5L-LO_HardQCDAll_30To50_2017-02-06-105128
7775.29 seconds 2.1598 hours CTEQ5L-LO_HardQCDAll_30To50_2017-02-06-105128
7931.13 seconds 2.20309 hours CTEQ5L-LO_HardQCDAll_30To50_2017-02-06-105128
8073.29 seconds 2.24258 hours CTEQ5L-LO_HardQCDAll_30To50_2017-02-06-105128
7856.65 seconds 2.1824 hours CTEQ5L-LO_HardQCDAll_30To50_2017-02-06-105128
7689.56 seconds 2.13599 hours CTEQ5L-LO_HardQCDAll_30To50_2017-02-06-105128
6973.45 seconds 1.93707 hours CTEQ5L-LO_HardQCDAll_30To50_2017-02-06-105128
6971.96 seconds 1.93666 hours CTEQ5L-LO_HardQCDAll_30To50_2017-02-06-105128
6940.01 seconds 1.92778 hours CTEQ5L-LO_HardQCDAll_30To50_2017-02-06-105128
7094.57 seconds 1.97071 hours CTEQ5L-LO_HardQCDAll_30To50_2017-02-06-105128
7797.96 seconds 2.1661 hours CTEQ5L-LO_HardQCDAll_30To50_2017-02-06-105128
7816.07 seconds 2.17113 hours CTEQ5L-LO_HardQCDAll_30To50_2017-02-06-105128
8128.16 seconds 2.25782 hours CTEQ5L-LO_HardQCDAll_30To50_2017-02-06-105128
7879.13 seconds 2.18865 hours CTEQ5L-LO_HardQCDAll_30To50_2017-02-06-105128
8256.33 seconds 2.29343 hours CTEQ5L-LO_HardQCDAll_30To50_2017-02-06-105128
7782.73 seconds 2.16187 hours CTEQ5L-LO_HardQCDAll_30To50_2017-02-06-105128


7764.35 seconds 2.15676 hours CTEQ5L-LO_HardQCDAll_380To10000_2017-02-06-105128
7922.04 seconds 2.20057 hours CTEQ5L-LO_HardQCDAll_380To10000_2017-02-06-105128
7869.3 seconds 2.18592 hours CTEQ5L-LO_HardQCDAll_380To10000_2017-02-06-105128
7759.71 seconds 2.15548 hours CTEQ5L-LO_HardQCDAll_380To10000_2017-02-06-105128
7869.23 seconds 2.1859 hours CTEQ5L-LO_HardQCDAll_380To10000_2017-02-06-105128
8463.23 seconds 2.3509 hours CTEQ5L-LO_HardQCDAll_380To10000_2017-02-06-105128
8041.33 seconds 2.2337 hours CTEQ5L-LO_HardQCDAll_380To10000_2017-02-06-105128
7888.64 seconds 2.19129 hours CTEQ5L-LO_HardQCDAll_380To10000_2017-02-06-105128
7826.65 seconds 2.17407 hours CTEQ5L-LO_HardQCDAll_380To10000_2017-02-06-105128
7830.77 seconds 2.17521 hours CTEQ5L-LO_HardQCDAll_380To10000_2017-02-06-105128
7132.95 seconds 1.98137 hours CTEQ5L-LO_HardQCDAll_380To10000_2017-02-06-105128
7766.08 seconds 2.15724 hours CTEQ5L-LO_HardQCDAll_380To10000_2017-02-06-105128
6986.19 seconds 1.94061 hours CTEQ5L-LO_HardQCDAll_380To10000_2017-02-06-105128
7873.95 seconds 2.18721 hours CTEQ5L-LO_HardQCDAll_380To10000_2017-02-06-105128
7665.8 seconds 2.12939 hours CTEQ5L-LO_HardQCDAll_380To10000_2017-02-06-105128
7988.89 seconds 2.21914 hours CTEQ5L-LO_HardQCDAll_380To10000_2017-02-06-105128
7924.08 seconds 2.20113 hours CTEQ5L-LO_HardQCDAll_380To10000_2017-02-06-105128
7995.67 seconds 2.22102 hours CTEQ5L-LO_HardQCDAll_380To10000_2017-02-06-105128
7816.44 seconds 2.17123 hours CTEQ5L-LO_HardQCDAll_380To10000_2017-02-06-105128
7714.86 seconds 2.14302 hours CTEQ5L-LO_HardQCDAll_380To10000_2017-02-06-105128


7229.86 seconds 2.00829 hours CTEQ5L-LO_HardQCDAll_50To80_2017-02-06-105128
8311.22 seconds 2.30867 hours CTEQ5L-LO_HardQCDAll_50To80_2017-02-06-105128
7125.99 seconds 1.97944 hours CTEQ5L-LO_HardQCDAll_50To80_2017-02-06-105128
7227.5 seconds 2.00764 hours CTEQ5L-LO_HardQCDAll_50To80_2017-02-06-105128
7198.29 seconds 1.99952 hours CTEQ5L-LO_HardQCDAll_50To80_2017-02-06-105128
7123.8 seconds 1.97883 hours CTEQ5L-LO_HardQCDAll_50To80_2017-02-06-105128
7150 seconds 1.98611 hours CTEQ5L-LO_HardQCDAll_50To80_2017-02-06-105128
6989.33 seconds 1.94148 hours CTEQ5L-LO_HardQCDAll_50To80_2017-02-06-105128
7081.59 seconds 1.96711 hours CTEQ5L-LO_HardQCDAll_50To80_2017-02-06-105128
7112.55 seconds 1.97571 hours CTEQ5L-LO_HardQCDAll_50To80_2017-02-06-105128
8184.38 seconds 2.27344 hours CTEQ5L-LO_HardQCDAll_50To80_2017-02-06-105128
7179.34 seconds 1.99426 hours CTEQ5L-LO_HardQCDAll_50To80_2017-02-06-105128
7876.27 seconds 2.18785 hours CTEQ5L-LO_HardQCDAll_50To80_2017-02-06-105128
8139.94 seconds 2.26109 hours CTEQ5L-LO_HardQCDAll_50To80_2017-02-06-105128
8021.56 seconds 2.22821 hours CTEQ5L-LO_HardQCDAll_50To80_2017-02-06-105128
8195.14 seconds 2.27643 hours CTEQ5L-LO_HardQCDAll_50To80_2017-02-06-105128
8105.88 seconds 2.25163 hours CTEQ5L-LO_HardQCDAll_50To80_2017-02-06-105128
8000.68 seconds 2.22241 hours CTEQ5L-LO_HardQCDAll_50To80_2017-02-06-105128
8039.17 seconds 2.2331 hours CTEQ5L-LO_HardQCDAll_50To80_2017-02-06-105128
8242.47 seconds 2.28957 hours CTEQ5L-LO_HardQCDAll_50To80_2017-02-06-105128


8143.82 seconds 2.26217 hours CTEQ5L-LO_HardQCDAll_80To120_2017-02-06-105128
7102.53 seconds 1.97293 hours CTEQ5L-LO_HardQCDAll_80To120_2017-02-06-105128
8003.65 seconds 2.22324 hours CTEQ5L-LO_HardQCDAll_80To120_2017-02-06-105128
7235.64 seconds 2.0099 hours CTEQ5L-LO_HardQCDAll_80To120_2017-02-06-105128
7219.12 seconds 2.00531 hours CTEQ5L-LO_HardQCDAll_80To120_2017-02-06-105128
8101.1 seconds 2.25031 hours CTEQ5L-LO_HardQCDAll_80To120_2017-02-06-105128
8244.74 seconds 2.29021 hours CTEQ5L-LO_HardQCDAll_80To120_2017-02-06-105128
8063.28 seconds 2.2398 hours CTEQ5L-LO_HardQCDAll_80To120_2017-02-06-105128
8225.08 seconds 2.28474 hours CTEQ5L-LO_HardQCDAll_80To120_2017-02-06-105128
8048.2 seconds 2.23561 hours CTEQ5L-LO_HardQCDAll_80To120_2017-02-06-105128
8068.71 seconds 2.24131 hours CTEQ5L-LO_HardQCDAll_80To120_2017-02-06-105128
8142.68 seconds 2.26186 hours CTEQ5L-LO_HardQCDAll_80To120_2017-02-06-105128
8056.45 seconds 2.2379 hours CTEQ5L-LO_HardQCDAll_80To120_2017-02-06-105128
8569.15 seconds 2.38032 hours CTEQ5L-LO_HardQCDAll_80To120_2017-02-06-105128
8638.54 seconds 2.39959 hours CTEQ5L-LO_HardQCDAll_80To120_2017-02-06-105128
8114.56 seconds 2.25404 hours CTEQ5L-LO_HardQCDAll_80To120_2017-02-06-105128
8261.23 seconds 2.29479 hours CTEQ5L-LO_HardQCDAll_80To120_2017-02-06-105128
8207.32 seconds 2.27981 hours CTEQ5L-LO_HardQCDAll_80To120_2017-02-06-105128
8236.24 seconds 2.28784 hours CTEQ5L-LO_HardQCDAll_80To120_2017-02-06-105128
8060.84 seconds 2.23912 hours CTEQ5L-LO_HardQCDAll_80To120_2017-02-06-105128




