

Time taken to complete the job, Statistics
==========================================
2041.5 seconds 0.567083 hours CTEQ5L-LO_HardQCDSelectionQuark_10To20_2017-02-01-104410
2568.72 seconds 0.713533 hours CTEQ5L-LO_HardQCDSelectionQuark_10To20_2017-02-01-104410
2530.98 seconds 0.70305 hours CTEQ5L-LO_HardQCDSelectionQuark_10To20_2017-02-01-104410
2590.34 seconds 0.719539 hours CTEQ5L-LO_HardQCDSelectionQuark_10To20_2017-02-01-104410
2524.79 seconds 0.701331 hours CTEQ5L-LO_HardQCDSelectionQuark_10To20_2017-02-01-104410
2547.49 seconds 0.707636 hours CTEQ5L-LO_HardQCDSelectionQuark_10To20_2017-02-01-104410
2545.9 seconds 0.707194 hours CTEQ5L-LO_HardQCDSelectionQuark_10To20_2017-02-01-104410
2655.29 seconds 0.737581 hours CTEQ5L-LO_HardQCDSelectionQuark_10To20_2017-02-01-104410
2572.32 seconds 0.714533 hours CTEQ5L-LO_HardQCDSelectionQuark_10To20_2017-02-01-104410
2565.6 seconds 0.712667 hours CTEQ5L-LO_HardQCDSelectionQuark_10To20_2017-02-01-104410
2580.3 seconds 0.71675 hours CTEQ5L-LO_HardQCDSelectionQuark_10To20_2017-02-01-104410
2031.17 seconds 0.564214 hours CTEQ5L-LO_HardQCDSelectionQuark_10To20_2017-02-01-104410
2627.08 seconds 0.729744 hours CTEQ5L-LO_HardQCDSelectionQuark_10To20_2017-02-01-104410
2634.82 seconds 0.731894 hours CTEQ5L-LO_HardQCDSelectionQuark_10To20_2017-02-01-104410
2591.22 seconds 0.719783 hours CTEQ5L-LO_HardQCDSelectionQuark_10To20_2017-02-01-104410
2825.88 seconds 0.784967 hours CTEQ5L-LO_HardQCDSelectionQuark_10To20_2017-02-01-104410
2573.04 seconds 0.714733 hours CTEQ5L-LO_HardQCDSelectionQuark_10To20_2017-02-01-104410
2620.03 seconds 0.727786 hours CTEQ5L-LO_HardQCDSelectionQuark_10To20_2017-02-01-104410
2549.4 seconds 0.708167 hours CTEQ5L-LO_HardQCDSelectionQuark_10To20_2017-02-01-104410
2552.17 seconds 0.708936 hours CTEQ5L-LO_HardQCDSelectionQuark_10To20_2017-02-01-104410


4199.1 seconds 1.16642 hours CTEQ5L-LO_HardQCDSelectionQuark_120To170_2017-02-01-104410
4130.81 seconds 1.14745 hours CTEQ5L-LO_HardQCDSelectionQuark_120To170_2017-02-01-104410
4181.27 seconds 1.16146 hours CTEQ5L-LO_HardQCDSelectionQuark_120To170_2017-02-01-104410
4131.54 seconds 1.14765 hours CTEQ5L-LO_HardQCDSelectionQuark_120To170_2017-02-01-104410
4146.83 seconds 1.1519 hours CTEQ5L-LO_HardQCDSelectionQuark_120To170_2017-02-01-104410
4367.44 seconds 1.21318 hours CTEQ5L-LO_HardQCDSelectionQuark_120To170_2017-02-01-104410
4118.29 seconds 1.14397 hours CTEQ5L-LO_HardQCDSelectionQuark_120To170_2017-02-01-104410
4371.89 seconds 1.21441 hours CTEQ5L-LO_HardQCDSelectionQuark_120To170_2017-02-01-104410
4465.63 seconds 1.24045 hours CTEQ5L-LO_HardQCDSelectionQuark_120To170_2017-02-01-104410
4461.89 seconds 1.23941 hours CTEQ5L-LO_HardQCDSelectionQuark_120To170_2017-02-01-104410
4466.54 seconds 1.24071 hours CTEQ5L-LO_HardQCDSelectionQuark_120To170_2017-02-01-104410
4132.92 seconds 1.14803 hours CTEQ5L-LO_HardQCDSelectionQuark_120To170_2017-02-01-104410
4417.53 seconds 1.22709 hours CTEQ5L-LO_HardQCDSelectionQuark_120To170_2017-02-01-104410
4606.92 seconds 1.2797 hours CTEQ5L-LO_HardQCDSelectionQuark_120To170_2017-02-01-104410
4419.18 seconds 1.22755 hours CTEQ5L-LO_HardQCDSelectionQuark_120To170_2017-02-01-104410
4215.7 seconds 1.17103 hours CTEQ5L-LO_HardQCDSelectionQuark_120To170_2017-02-01-104410
4200.41 seconds 1.16678 hours CTEQ5L-LO_HardQCDSelectionQuark_120To170_2017-02-01-104410
4119.99 seconds 1.14444 hours CTEQ5L-LO_HardQCDSelectionQuark_120To170_2017-02-01-104410
4362.56 seconds 1.21182 hours CTEQ5L-LO_HardQCDSelectionQuark_120To170_2017-02-01-104410
4335.31 seconds 1.20425 hours CTEQ5L-LO_HardQCDSelectionQuark_120To170_2017-02-01-104410


4491.87 seconds 1.24774 hours CTEQ5L-LO_HardQCDSelectionQuark_170To230_2017-02-01-104410
4889.67 seconds 1.35824 hours CTEQ5L-LO_HardQCDSelectionQuark_170To230_2017-02-01-104410
4689.9 seconds 1.30275 hours CTEQ5L-LO_HardQCDSelectionQuark_170To230_2017-02-01-104410
3409.9 seconds 0.947194 hours CTEQ5L-LO_HardQCDSelectionQuark_170To230_2017-02-01-104410
4242.85 seconds 1.17857 hours CTEQ5L-LO_HardQCDSelectionQuark_170To230_2017-02-01-104410
3362.48 seconds 0.934022 hours CTEQ5L-LO_HardQCDSelectionQuark_170To230_2017-02-01-104410
5045.67 seconds 1.40158 hours CTEQ5L-LO_HardQCDSelectionQuark_170To230_2017-02-01-104410
5052.24 seconds 1.4034 hours CTEQ5L-LO_HardQCDSelectionQuark_170To230_2017-02-01-104410
4979.88 seconds 1.3833 hours CTEQ5L-LO_HardQCDSelectionQuark_170To230_2017-02-01-104410
4791.34 seconds 1.33093 hours CTEQ5L-LO_HardQCDSelectionQuark_170To230_2017-02-01-104410
4693.66 seconds 1.30379 hours CTEQ5L-LO_HardQCDSelectionQuark_170To230_2017-02-01-104410
4467.49 seconds 1.24097 hours CTEQ5L-LO_HardQCDSelectionQuark_170To230_2017-02-01-104410
4999 seconds 1.38861 hours CTEQ5L-LO_HardQCDSelectionQuark_170To230_2017-02-01-104410
4820.51 seconds 1.33903 hours CTEQ5L-LO_HardQCDSelectionQuark_170To230_2017-02-01-104410
4851.54 seconds 1.34765 hours CTEQ5L-LO_HardQCDSelectionQuark_170To230_2017-02-01-104410
4845.31 seconds 1.34592 hours CTEQ5L-LO_HardQCDSelectionQuark_170To230_2017-02-01-104410
4737.86 seconds 1.31607 hours CTEQ5L-LO_HardQCDSelectionQuark_170To230_2017-02-01-104410
5262.81 seconds 1.46189 hours CTEQ5L-LO_HardQCDSelectionQuark_170To230_2017-02-01-104410
4717.84 seconds 1.31051 hours CTEQ5L-LO_HardQCDSelectionQuark_170To230_2017-02-01-104410
4577.54 seconds 1.27154 hours CTEQ5L-LO_HardQCDSelectionQuark_170To230_2017-02-01-104410


2716.17 seconds 0.754492 hours CTEQ5L-LO_HardQCDSelectionQuark_20To30_2017-02-01-104410
2824.86 seconds 0.784683 hours CTEQ5L-LO_HardQCDSelectionQuark_20To30_2017-02-01-104410
2939.31 seconds 0.816475 hours CTEQ5L-LO_HardQCDSelectionQuark_20To30_2017-02-01-104410
3022.55 seconds 0.839597 hours CTEQ5L-LO_HardQCDSelectionQuark_20To30_2017-02-01-104410
2869.63 seconds 0.797119 hours CTEQ5L-LO_HardQCDSelectionQuark_20To30_2017-02-01-104410
2833.44 seconds 0.787067 hours CTEQ5L-LO_HardQCDSelectionQuark_20To30_2017-02-01-104410
2883.49 seconds 0.800969 hours CTEQ5L-LO_HardQCDSelectionQuark_20To30_2017-02-01-104410
2880.8 seconds 0.800222 hours CTEQ5L-LO_HardQCDSelectionQuark_20To30_2017-02-01-104410
2825.28 seconds 0.7848 hours CTEQ5L-LO_HardQCDSelectionQuark_20To30_2017-02-01-104410
2889.96 seconds 0.802767 hours CTEQ5L-LO_HardQCDSelectionQuark_20To30_2017-02-01-104410
2858.6 seconds 0.794056 hours CTEQ5L-LO_HardQCDSelectionQuark_20To30_2017-02-01-104410
3015.73 seconds 0.837703 hours CTEQ5L-LO_HardQCDSelectionQuark_20To30_2017-02-01-104410
2720.27 seconds 0.755631 hours CTEQ5L-LO_HardQCDSelectionQuark_20To30_2017-02-01-104410
2807.15 seconds 0.779764 hours CTEQ5L-LO_HardQCDSelectionQuark_20To30_2017-02-01-104410
2746.5 seconds 0.762917 hours CTEQ5L-LO_HardQCDSelectionQuark_20To30_2017-02-01-104410
3230.61 seconds 0.897392 hours CTEQ5L-LO_HardQCDSelectionQuark_20To30_2017-02-01-104410
2820.06 seconds 0.78335 hours CTEQ5L-LO_HardQCDSelectionQuark_20To30_2017-02-01-104410
2926.36 seconds 0.812878 hours CTEQ5L-LO_HardQCDSelectionQuark_20To30_2017-02-01-104410
2808.8 seconds 0.780222 hours CTEQ5L-LO_HardQCDSelectionQuark_20To30_2017-02-01-104410
2988.87 seconds 0.830242 hours CTEQ5L-LO_HardQCDSelectionQuark_20To30_2017-02-01-104410


4990.87 seconds 1.38635 hours CTEQ5L-LO_HardQCDSelectionQuark_230To300_2017-02-01-104410
4752.34 seconds 1.32009 hours CTEQ5L-LO_HardQCDSelectionQuark_230To300_2017-02-01-104410
4826.01 seconds 1.34056 hours CTEQ5L-LO_HardQCDSelectionQuark_230To300_2017-02-01-104410
4764.82 seconds 1.32356 hours CTEQ5L-LO_HardQCDSelectionQuark_230To300_2017-02-01-104410
4746.18 seconds 1.31838 hours CTEQ5L-LO_HardQCDSelectionQuark_230To300_2017-02-01-104410
5288.43 seconds 1.46901 hours CTEQ5L-LO_HardQCDSelectionQuark_230To300_2017-02-01-104410
4712.59 seconds 1.30905 hours CTEQ5L-LO_HardQCDSelectionQuark_230To300_2017-02-01-104410
4774.77 seconds 1.32633 hours CTEQ5L-LO_HardQCDSelectionQuark_230To300_2017-02-01-104410
3543.45 seconds 0.984292 hours CTEQ5L-LO_HardQCDSelectionQuark_230To300_2017-02-01-104410
3947.58 seconds 1.09655 hours CTEQ5L-LO_HardQCDSelectionQuark_230To300_2017-02-01-104410
4741.49 seconds 1.31708 hours CTEQ5L-LO_HardQCDSelectionQuark_230To300_2017-02-01-104410
4817.19 seconds 1.33811 hours CTEQ5L-LO_HardQCDSelectionQuark_230To300_2017-02-01-104410
4763.81 seconds 1.32328 hours CTEQ5L-LO_HardQCDSelectionQuark_230To300_2017-02-01-104410
5263.55 seconds 1.4621 hours CTEQ5L-LO_HardQCDSelectionQuark_230To300_2017-02-01-104410
5318.32 seconds 1.47731 hours CTEQ5L-LO_HardQCDSelectionQuark_230To300_2017-02-01-104410
5267.31 seconds 1.46314 hours CTEQ5L-LO_HardQCDSelectionQuark_230To300_2017-02-01-104410
5294.72 seconds 1.47076 hours CTEQ5L-LO_HardQCDSelectionQuark_230To300_2017-02-01-104410
4775.51 seconds 1.32653 hours CTEQ5L-LO_HardQCDSelectionQuark_230To300_2017-02-01-104410
5279.24 seconds 1.46646 hours CTEQ5L-LO_HardQCDSelectionQuark_230To300_2017-02-01-104410
5336.39 seconds 1.48233 hours CTEQ5L-LO_HardQCDSelectionQuark_230To300_2017-02-01-104410


5399.8 seconds 1.49994 hours CTEQ5L-LO_HardQCDSelectionQuark_300To380_2017-02-01-104410
5084.55 seconds 1.41238 hours CTEQ5L-LO_HardQCDSelectionQuark_300To380_2017-02-01-104410
5464.4 seconds 1.51789 hours CTEQ5L-LO_HardQCDSelectionQuark_300To380_2017-02-01-104410
5370.85 seconds 1.4919 hours CTEQ5L-LO_HardQCDSelectionQuark_300To380_2017-02-01-104410
5418.78 seconds 1.50522 hours CTEQ5L-LO_HardQCDSelectionQuark_300To380_2017-02-01-104410
5416.81 seconds 1.50467 hours CTEQ5L-LO_HardQCDSelectionQuark_300To380_2017-02-01-104410
5773.13 seconds 1.60365 hours CTEQ5L-LO_HardQCDSelectionQuark_300To380_2017-02-01-104410
4105.01 seconds 1.14028 hours CTEQ5L-LO_HardQCDSelectionQuark_300To380_2017-02-01-104410
5294.04 seconds 1.47057 hours CTEQ5L-LO_HardQCDSelectionQuark_300To380_2017-02-01-104410
5422.81 seconds 1.50634 hours CTEQ5L-LO_HardQCDSelectionQuark_300To380_2017-02-01-104410
5507.71 seconds 1.52992 hours CTEQ5L-LO_HardQCDSelectionQuark_300To380_2017-02-01-104410
5381.99 seconds 1.495 hours CTEQ5L-LO_HardQCDSelectionQuark_300To380_2017-02-01-104410
5694.62 seconds 1.58184 hours CTEQ5L-LO_HardQCDSelectionQuark_300To380_2017-02-01-104410
5384.74 seconds 1.49576 hours CTEQ5L-LO_HardQCDSelectionQuark_300To380_2017-02-01-104410
5526.88 seconds 1.53524 hours CTEQ5L-LO_HardQCDSelectionQuark_300To380_2017-02-01-104410
5207.17 seconds 1.44644 hours CTEQ5L-LO_HardQCDSelectionQuark_300To380_2017-02-01-104410
5653.72 seconds 1.57048 hours CTEQ5L-LO_HardQCDSelectionQuark_300To380_2017-02-01-104410
5811.91 seconds 1.61442 hours CTEQ5L-LO_HardQCDSelectionQuark_300To380_2017-02-01-104410
5614.82 seconds 1.55967 hours CTEQ5L-LO_HardQCDSelectionQuark_300To380_2017-02-01-104410
5397.23 seconds 1.49923 hours CTEQ5L-LO_HardQCDSelectionQuark_300To380_2017-02-01-104410


3097.37 seconds 0.860381 hours CTEQ5L-LO_HardQCDSelectionQuark_30To50_2017-02-01-104410
3075.04 seconds 0.854178 hours CTEQ5L-LO_HardQCDSelectionQuark_30To50_2017-02-01-104410
3249.97 seconds 0.902769 hours CTEQ5L-LO_HardQCDSelectionQuark_30To50_2017-02-01-104410
3244.11 seconds 0.901142 hours CTEQ5L-LO_HardQCDSelectionQuark_30To50_2017-02-01-104410
3085.17 seconds 0.856992 hours CTEQ5L-LO_HardQCDSelectionQuark_30To50_2017-02-01-104410
2395.49 seconds 0.665414 hours CTEQ5L-LO_HardQCDSelectionQuark_30To50_2017-02-01-104410
2384.45 seconds 0.662347 hours CTEQ5L-LO_HardQCDSelectionQuark_30To50_2017-02-01-104410
2341.09 seconds 0.650303 hours CTEQ5L-LO_HardQCDSelectionQuark_30To50_2017-02-01-104410
3482.09 seconds 0.967247 hours CTEQ5L-LO_HardQCDSelectionQuark_30To50_2017-02-01-104410
2341.44 seconds 0.6504 hours CTEQ5L-LO_HardQCDSelectionQuark_30To50_2017-02-01-104410
3496.97 seconds 0.971381 hours CTEQ5L-LO_HardQCDSelectionQuark_30To50_2017-02-01-104410
3126.9 seconds 0.868583 hours CTEQ5L-LO_HardQCDSelectionQuark_30To50_2017-02-01-104410
2324.6 seconds 0.645722 hours CTEQ5L-LO_HardQCDSelectionQuark_30To50_2017-02-01-104410
3112.37 seconds 0.864547 hours CTEQ5L-LO_HardQCDSelectionQuark_30To50_2017-02-01-104410
3049.34 seconds 0.847039 hours CTEQ5L-LO_HardQCDSelectionQuark_30To50_2017-02-01-104410
3158.53 seconds 0.877369 hours CTEQ5L-LO_HardQCDSelectionQuark_30To50_2017-02-01-104410
3409.24 seconds 0.947011 hours CTEQ5L-LO_HardQCDSelectionQuark_30To50_2017-02-01-104410
2991.2 seconds 0.830889 hours CTEQ5L-LO_HardQCDSelectionQuark_30To50_2017-02-01-104410
3087.91 seconds 0.857753 hours CTEQ5L-LO_HardQCDSelectionQuark_30To50_2017-02-01-104410
3256.3 seconds 0.904528 hours CTEQ5L-LO_HardQCDSelectionQuark_30To50_2017-02-01-104410


6019.99 seconds 1.67222 hours CTEQ5L-LO_HardQCDSelectionQuark_380To10000_2017-02-01-104410
5614.65 seconds 1.55962 hours CTEQ5L-LO_HardQCDSelectionQuark_380To10000_2017-02-01-104410
6193.07 seconds 1.7203 hours CTEQ5L-LO_HardQCDSelectionQuark_380To10000_2017-02-01-104410
6138.72 seconds 1.7052 hours CTEQ5L-LO_HardQCDSelectionQuark_380To10000_2017-02-01-104410
6276.69 seconds 1.74352 hours CTEQ5L-LO_HardQCDSelectionQuark_380To10000_2017-02-01-104410
6152.14 seconds 1.70893 hours CTEQ5L-LO_HardQCDSelectionQuark_380To10000_2017-02-01-104410
6131.68 seconds 1.70324 hours CTEQ5L-LO_HardQCDSelectionQuark_380To10000_2017-02-01-104410
5460.74 seconds 1.51687 hours CTEQ5L-LO_HardQCDSelectionQuark_380To10000_2017-02-01-104410
5807.15 seconds 1.6131 hours CTEQ5L-LO_HardQCDSelectionQuark_380To10000_2017-02-01-104410
5724.69 seconds 1.59019 hours CTEQ5L-LO_HardQCDSelectionQuark_380To10000_2017-02-01-104410
5618.72 seconds 1.56076 hours CTEQ5L-LO_HardQCDSelectionQuark_380To10000_2017-02-01-104410
5637.5 seconds 1.56597 hours CTEQ5L-LO_HardQCDSelectionQuark_380To10000_2017-02-01-104410
5760.5 seconds 1.60014 hours CTEQ5L-LO_HardQCDSelectionQuark_380To10000_2017-02-01-104410
5788.5 seconds 1.60792 hours CTEQ5L-LO_HardQCDSelectionQuark_380To10000_2017-02-01-104410
5427.31 seconds 1.50759 hours CTEQ5L-LO_HardQCDSelectionQuark_380To10000_2017-02-01-104410
5838.63 seconds 1.62184 hours CTEQ5L-LO_HardQCDSelectionQuark_380To10000_2017-02-01-104410
5836.65 seconds 1.62129 hours CTEQ5L-LO_HardQCDSelectionQuark_380To10000_2017-02-01-104410
6030.03 seconds 1.67501 hours CTEQ5L-LO_HardQCDSelectionQuark_380To10000_2017-02-01-104410
6107.71 seconds 1.69659 hours CTEQ5L-LO_HardQCDSelectionQuark_380To10000_2017-02-01-104410
4427.69 seconds 1.22991 hours CTEQ5L-LO_HardQCDSelectionQuark_380To10000_2017-02-01-104410


2607.95 seconds 0.724431 hours CTEQ5L-LO_HardQCDSelectionQuark_50To80_2017-02-01-104410
2705.36 seconds 0.751489 hours CTEQ5L-LO_HardQCDSelectionQuark_50To80_2017-02-01-104410
3393.56 seconds 0.942656 hours CTEQ5L-LO_HardQCDSelectionQuark_50To80_2017-02-01-104410
3746.74 seconds 1.04076 hours CTEQ5L-LO_HardQCDSelectionQuark_50To80_2017-02-01-104410
2682.96 seconds 0.745267 hours CTEQ5L-LO_HardQCDSelectionQuark_50To80_2017-02-01-104410
2720.7 seconds 0.75575 hours CTEQ5L-LO_HardQCDSelectionQuark_50To80_2017-02-01-104410
4013.25 seconds 1.11479 hours CTEQ5L-LO_HardQCDSelectionQuark_50To80_2017-02-01-104410
3795.17 seconds 1.05421 hours CTEQ5L-LO_HardQCDSelectionQuark_50To80_2017-02-01-104410
2720.42 seconds 0.755672 hours CTEQ5L-LO_HardQCDSelectionQuark_50To80_2017-02-01-104410
3866.55 seconds 1.07404 hours CTEQ5L-LO_HardQCDSelectionQuark_50To80_2017-02-01-104410
3822 seconds 1.06167 hours CTEQ5L-LO_HardQCDSelectionQuark_50To80_2017-02-01-104410
3643.28 seconds 1.01202 hours CTEQ5L-LO_HardQCDSelectionQuark_50To80_2017-02-01-104410
3930.55 seconds 1.09182 hours CTEQ5L-LO_HardQCDSelectionQuark_50To80_2017-02-01-104410
3868.44 seconds 1.07457 hours CTEQ5L-LO_HardQCDSelectionQuark_50To80_2017-02-01-104410
3466.05 seconds 0.962792 hours CTEQ5L-LO_HardQCDSelectionQuark_50To80_2017-02-01-104410
3462.35 seconds 0.961764 hours CTEQ5L-LO_HardQCDSelectionQuark_50To80_2017-02-01-104410
3442.71 seconds 0.956308 hours CTEQ5L-LO_HardQCDSelectionQuark_50To80_2017-02-01-104410
3790.61 seconds 1.05295 hours CTEQ5L-LO_HardQCDSelectionQuark_50To80_2017-02-01-104410
3766.93 seconds 1.04637 hours CTEQ5L-LO_HardQCDSelectionQuark_50To80_2017-02-01-104410
3427.22 seconds 0.952006 hours CTEQ5L-LO_HardQCDSelectionQuark_50To80_2017-02-01-104410


3761.13 seconds 1.04476 hours CTEQ5L-LO_HardQCDSelectionQuark_80To120_2017-02-01-104410
2983.51 seconds 0.828753 hours CTEQ5L-LO_HardQCDSelectionQuark_80To120_2017-02-01-104410
4219.72 seconds 1.17214 hours CTEQ5L-LO_HardQCDSelectionQuark_80To120_2017-02-01-104410
3167.96 seconds 0.879989 hours CTEQ5L-LO_HardQCDSelectionQuark_80To120_2017-02-01-104410
3055.9 seconds 0.848861 hours CTEQ5L-LO_HardQCDSelectionQuark_80To120_2017-02-01-104410
4226.12 seconds 1.17392 hours CTEQ5L-LO_HardQCDSelectionQuark_80To120_2017-02-01-104410
2991.75 seconds 0.831042 hours CTEQ5L-LO_HardQCDSelectionQuark_80To120_2017-02-01-104410
2882.68 seconds 0.800744 hours CTEQ5L-LO_HardQCDSelectionQuark_80To120_2017-02-01-104410
2879.88 seconds 0.799967 hours CTEQ5L-LO_HardQCDSelectionQuark_80To120_2017-02-01-104410
4288.84 seconds 1.19134 hours CTEQ5L-LO_HardQCDSelectionQuark_80To120_2017-02-01-104410
2890.88 seconds 0.803022 hours CTEQ5L-LO_HardQCDSelectionQuark_80To120_2017-02-01-104410
2990.86 seconds 0.830794 hours CTEQ5L-LO_HardQCDSelectionQuark_80To120_2017-02-01-104410
3755.49 seconds 1.04319 hours CTEQ5L-LO_HardQCDSelectionQuark_80To120_2017-02-01-104410
3249.99 seconds 0.902775 hours CTEQ5L-LO_HardQCDSelectionQuark_80To120_2017-02-01-104410
3263.43 seconds 0.906508 hours CTEQ5L-LO_HardQCDSelectionQuark_80To120_2017-02-01-104410
3245.43 seconds 0.901508 hours CTEQ5L-LO_HardQCDSelectionQuark_80To120_2017-02-01-104410
4253.64 seconds 1.18157 hours CTEQ5L-LO_HardQCDSelectionQuark_80To120_2017-02-01-104410
3098.34 seconds 0.86065 hours CTEQ5L-LO_HardQCDSelectionQuark_80To120_2017-02-01-104410
3010.82 seconds 0.836339 hours CTEQ5L-LO_HardQCDSelectionQuark_80To120_2017-02-01-104410
2978.6 seconds 0.827389 hours CTEQ5L-LO_HardQCDSelectionQuark_80To120_2017-02-01-104410




