

Time taken to complete the job, Statistics
==========================================
2509.12 seconds 0.696978 hours CTEQ5L-LO_HardQCDMix_10To20_2017-02-01-140600
4998.14 seconds 1.38837 hours CTEQ5L-LO_HardQCDMix_10To20_2017-02-01-140600
4934.32 seconds 1.37064 hours CTEQ5L-LO_HardQCDMix_10To20_2017-02-01-140600
4973 seconds 1.38139 hours CTEQ5L-LO_HardQCDMix_10To20_2017-02-01-140600
5048.6 seconds 1.40239 hours CTEQ5L-LO_HardQCDMix_10To20_2017-02-01-140600
4944.01 seconds 1.37334 hours CTEQ5L-LO_HardQCDMix_10To20_2017-02-01-140600
4945.92 seconds 1.37387 hours CTEQ5L-LO_HardQCDMix_10To20_2017-02-01-140600
4952.16 seconds 1.3756 hours CTEQ5L-LO_HardQCDMix_10To20_2017-02-01-140600
4992.88 seconds 1.38691 hours CTEQ5L-LO_HardQCDMix_10To20_2017-02-01-140600
4961.39 seconds 1.37816 hours CTEQ5L-LO_HardQCDMix_10To20_2017-02-01-140600
4919.07 seconds 1.36641 hours CTEQ5L-LO_HardQCDMix_10To20_2017-02-01-140600
2471.99 seconds 0.686664 hours CTEQ5L-LO_HardQCDMix_10To20_2017-02-01-140600
4923.26 seconds 1.36757 hours CTEQ5L-LO_HardQCDMix_10To20_2017-02-01-140600
2519.69 seconds 0.699914 hours CTEQ5L-LO_HardQCDMix_10To20_2017-02-01-140600
2493.51 seconds 0.692642 hours CTEQ5L-LO_HardQCDMix_10To20_2017-02-01-140600
2485.8 seconds 0.6905 hours CTEQ5L-LO_HardQCDMix_10To20_2017-02-01-140600
2473.53 seconds 0.687092 hours CTEQ5L-LO_HardQCDMix_10To20_2017-02-01-140600
5006.77 seconds 1.39077 hours CTEQ5L-LO_HardQCDMix_10To20_2017-02-01-140600
5093.71 seconds 1.41492 hours CTEQ5L-LO_HardQCDMix_10To20_2017-02-01-140600
4960.42 seconds 1.37789 hours CTEQ5L-LO_HardQCDMix_10To20_2017-02-01-140600


2689.09 seconds 0.746969 hours CTEQ5L-LO_HardQCDMix_120To170_2017-02-01-140600
2704.84 seconds 0.751344 hours CTEQ5L-LO_HardQCDMix_120To170_2017-02-01-140600
2671.93 seconds 0.742203 hours CTEQ5L-LO_HardQCDMix_120To170_2017-02-01-140600
2749.42 seconds 0.763728 hours CTEQ5L-LO_HardQCDMix_120To170_2017-02-01-140600
2704.9 seconds 0.751361 hours CTEQ5L-LO_HardQCDMix_120To170_2017-02-01-140600
2709.16 seconds 0.752544 hours CTEQ5L-LO_HardQCDMix_120To170_2017-02-01-140600
2702.24 seconds 0.750622 hours CTEQ5L-LO_HardQCDMix_120To170_2017-02-01-140600
2714.78 seconds 0.754106 hours CTEQ5L-LO_HardQCDMix_120To170_2017-02-01-140600
2710.88 seconds 0.753022 hours CTEQ5L-LO_HardQCDMix_120To170_2017-02-01-140600
2734.3 seconds 0.759528 hours CTEQ5L-LO_HardQCDMix_120To170_2017-02-01-140600
2758.65 seconds 0.766292 hours CTEQ5L-LO_HardQCDMix_120To170_2017-02-01-140600
2654.64 seconds 0.7374 hours CTEQ5L-LO_HardQCDMix_120To170_2017-02-01-140600
2730.3 seconds 0.758417 hours CTEQ5L-LO_HardQCDMix_120To170_2017-02-01-140600
2710.03 seconds 0.752786 hours CTEQ5L-LO_HardQCDMix_120To170_2017-02-01-140600
2711.18 seconds 0.753106 hours CTEQ5L-LO_HardQCDMix_120To170_2017-02-01-140600
2714.93 seconds 0.754147 hours CTEQ5L-LO_HardQCDMix_120To170_2017-02-01-140600
2762.29 seconds 0.767303 hours CTEQ5L-LO_HardQCDMix_120To170_2017-02-01-140600
2709.45 seconds 0.752625 hours CTEQ5L-LO_HardQCDMix_120To170_2017-02-01-140600
2710.3 seconds 0.752861 hours CTEQ5L-LO_HardQCDMix_120To170_2017-02-01-140600
2738.84 seconds 0.760789 hours CTEQ5L-LO_HardQCDMix_120To170_2017-02-01-140600


2751.99 seconds 0.764442 hours CTEQ5L-LO_HardQCDMix_170To230_2017-02-01-140600
5611.19 seconds 1.55866 hours CTEQ5L-LO_HardQCDMix_170To230_2017-02-01-140600
5424.25 seconds 1.50674 hours CTEQ5L-LO_HardQCDMix_170To230_2017-02-01-140600
5412.9 seconds 1.50358 hours CTEQ5L-LO_HardQCDMix_170To230_2017-02-01-140600
5577.22 seconds 1.54923 hours CTEQ5L-LO_HardQCDMix_170To230_2017-02-01-140600
5434.05 seconds 1.50946 hours CTEQ5L-LO_HardQCDMix_170To230_2017-02-01-140600
5447.97 seconds 1.51333 hours CTEQ5L-LO_HardQCDMix_170To230_2017-02-01-140600
5497.46 seconds 1.52707 hours CTEQ5L-LO_HardQCDMix_170To230_2017-02-01-140600
4182.28 seconds 1.16174 hours CTEQ5L-LO_HardQCDMix_170To230_2017-02-01-140600
5398.37 seconds 1.49955 hours CTEQ5L-LO_HardQCDMix_170To230_2017-02-01-140600
5509.91 seconds 1.53053 hours CTEQ5L-LO_HardQCDMix_170To230_2017-02-01-140600
2733.39 seconds 0.759275 hours CTEQ5L-LO_HardQCDMix_170To230_2017-02-01-140600
5448.36 seconds 1.51343 hours CTEQ5L-LO_HardQCDMix_170To230_2017-02-01-140600
2727.58 seconds 0.757661 hours CTEQ5L-LO_HardQCDMix_170To230_2017-02-01-140600
2741.39 seconds 0.761497 hours CTEQ5L-LO_HardQCDMix_170To230_2017-02-01-140600
2728.46 seconds 0.757906 hours CTEQ5L-LO_HardQCDMix_170To230_2017-02-01-140600
2734.4 seconds 0.759556 hours CTEQ5L-LO_HardQCDMix_170To230_2017-02-01-140600
2733.62 seconds 0.759339 hours CTEQ5L-LO_HardQCDMix_170To230_2017-02-01-140600
2723.92 seconds 0.756644 hours CTEQ5L-LO_HardQCDMix_170To230_2017-02-01-140600
2255.39 seconds 0.626497 hours CTEQ5L-LO_HardQCDMix_170To230_2017-02-01-140600


5031.26 seconds 1.39757 hours CTEQ5L-LO_HardQCDMix_20To30_2017-02-01-140600
5027 seconds 1.39639 hours CTEQ5L-LO_HardQCDMix_20To30_2017-02-01-140600
2554.95 seconds 0.709708 hours CTEQ5L-LO_HardQCDMix_20To30_2017-02-01-140600
2545.97 seconds 0.707214 hours CTEQ5L-LO_HardQCDMix_20To30_2017-02-01-140600
2531.91 seconds 0.703308 hours CTEQ5L-LO_HardQCDMix_20To30_2017-02-01-140600
2528.32 seconds 0.702311 hours CTEQ5L-LO_HardQCDMix_20To30_2017-02-01-140600
2533.79 seconds 0.703831 hours CTEQ5L-LO_HardQCDMix_20To30_2017-02-01-140600
2586.59 seconds 0.718497 hours CTEQ5L-LO_HardQCDMix_20To30_2017-02-01-140600
2586.98 seconds 0.718606 hours CTEQ5L-LO_HardQCDMix_20To30_2017-02-01-140600
2552.96 seconds 0.709156 hours CTEQ5L-LO_HardQCDMix_20To30_2017-02-01-140600
2588.16 seconds 0.718933 hours CTEQ5L-LO_HardQCDMix_20To30_2017-02-01-140600
5109.88 seconds 1.41941 hours CTEQ5L-LO_HardQCDMix_20To30_2017-02-01-140600
2523.47 seconds 0.700964 hours CTEQ5L-LO_HardQCDMix_20To30_2017-02-01-140600
5117.43 seconds 1.42151 hours CTEQ5L-LO_HardQCDMix_20To30_2017-02-01-140600
5116.78 seconds 1.42133 hours CTEQ5L-LO_HardQCDMix_20To30_2017-02-01-140600
5242.38 seconds 1.45622 hours CTEQ5L-LO_HardQCDMix_20To30_2017-02-01-140600
5031.46 seconds 1.39763 hours CTEQ5L-LO_HardQCDMix_20To30_2017-02-01-140600
5070.6 seconds 1.4085 hours CTEQ5L-LO_HardQCDMix_20To30_2017-02-01-140600
5189.59 seconds 1.44155 hours CTEQ5L-LO_HardQCDMix_20To30_2017-02-01-140600
5000.16 seconds 1.38893 hours CTEQ5L-LO_HardQCDMix_20To30_2017-02-01-140600


5444.67 seconds 1.51241 hours CTEQ5L-LO_HardQCDMix_230To300_2017-02-01-140600
2742.18 seconds 0.761717 hours CTEQ5L-LO_HardQCDMix_230To300_2017-02-01-140600
2786.69 seconds 0.774081 hours CTEQ5L-LO_HardQCDMix_230To300_2017-02-01-140600
2741.91 seconds 0.761642 hours CTEQ5L-LO_HardQCDMix_230To300_2017-02-01-140600
2770.59 seconds 0.769608 hours CTEQ5L-LO_HardQCDMix_230To300_2017-02-01-140600
3636.15 seconds 1.01004 hours CTEQ5L-LO_HardQCDMix_230To300_2017-02-01-140600
3620.68 seconds 1.00574 hours CTEQ5L-LO_HardQCDMix_230To300_2017-02-01-140600
3578 seconds 0.993889 hours CTEQ5L-LO_HardQCDMix_230To300_2017-02-01-140600
3575.75 seconds 0.993264 hours CTEQ5L-LO_HardQCDMix_230To300_2017-02-01-140600
3563.66 seconds 0.989906 hours CTEQ5L-LO_HardQCDMix_230To300_2017-02-01-140600
3667.64 seconds 1.01879 hours CTEQ5L-LO_HardQCDMix_230To300_2017-02-01-140600
2763.91 seconds 0.767753 hours CTEQ5L-LO_HardQCDMix_230To300_2017-02-01-140600
3655.32 seconds 1.01537 hours CTEQ5L-LO_HardQCDMix_230To300_2017-02-01-140600
2783.51 seconds 0.773197 hours CTEQ5L-LO_HardQCDMix_230To300_2017-02-01-140600
3012.91 seconds 0.836919 hours CTEQ5L-LO_HardQCDMix_230To300_2017-02-01-140600
2776.74 seconds 0.771317 hours CTEQ5L-LO_HardQCDMix_230To300_2017-02-01-140600
2734.44 seconds 0.759567 hours CTEQ5L-LO_HardQCDMix_230To300_2017-02-01-140600
2740.89 seconds 0.761358 hours CTEQ5L-LO_HardQCDMix_230To300_2017-02-01-140600
2782.76 seconds 0.772989 hours CTEQ5L-LO_HardQCDMix_230To300_2017-02-01-140600
2749.59 seconds 0.763775 hours CTEQ5L-LO_HardQCDMix_230To300_2017-02-01-140600


3585.45 seconds 0.995958 hours CTEQ5L-LO_HardQCDMix_300To380_2017-02-01-140600
3950.42 seconds 1.09734 hours CTEQ5L-LO_HardQCDMix_300To380_2017-02-01-140600
4034.59 seconds 1.12072 hours CTEQ5L-LO_HardQCDMix_300To380_2017-02-01-140600
3971.81 seconds 1.10328 hours CTEQ5L-LO_HardQCDMix_300To380_2017-02-01-140600
3872.85 seconds 1.07579 hours CTEQ5L-LO_HardQCDMix_300To380_2017-02-01-140600
3846.96 seconds 1.0686 hours CTEQ5L-LO_HardQCDMix_300To380_2017-02-01-140600
3814.36 seconds 1.05954 hours CTEQ5L-LO_HardQCDMix_300To380_2017-02-01-140600
3942.97 seconds 1.09527 hours CTEQ5L-LO_HardQCDMix_300To380_2017-02-01-140600
3919.48 seconds 1.08874 hours CTEQ5L-LO_HardQCDMix_300To380_2017-02-01-140600
3936.39 seconds 1.09344 hours CTEQ5L-LO_HardQCDMix_300To380_2017-02-01-140600
3902.59 seconds 1.08405 hours CTEQ5L-LO_HardQCDMix_300To380_2017-02-01-140600
3586.23 seconds 0.996175 hours CTEQ5L-LO_HardQCDMix_300To380_2017-02-01-140600
3706.98 seconds 1.02972 hours CTEQ5L-LO_HardQCDMix_300To380_2017-02-01-140600
3599.16 seconds 0.999767 hours CTEQ5L-LO_HardQCDMix_300To380_2017-02-01-140600
3818.09 seconds 1.06058 hours CTEQ5L-LO_HardQCDMix_300To380_2017-02-01-140600
3884.14 seconds 1.07893 hours CTEQ5L-LO_HardQCDMix_300To380_2017-02-01-140600
3806.68 seconds 1.05741 hours CTEQ5L-LO_HardQCDMix_300To380_2017-02-01-140600
3848.23 seconds 1.06895 hours CTEQ5L-LO_HardQCDMix_300To380_2017-02-01-140600
3928.56 seconds 1.09127 hours CTEQ5L-LO_HardQCDMix_300To380_2017-02-01-140600
4029.25 seconds 1.11924 hours CTEQ5L-LO_HardQCDMix_300To380_2017-02-01-140600


2602.25 seconds 0.722847 hours CTEQ5L-LO_HardQCDMix_30To50_2017-02-01-140600
2644.29 seconds 0.734525 hours CTEQ5L-LO_HardQCDMix_30To50_2017-02-01-140600
2591.14 seconds 0.719761 hours CTEQ5L-LO_HardQCDMix_30To50_2017-02-01-140600
2574.74 seconds 0.715206 hours CTEQ5L-LO_HardQCDMix_30To50_2017-02-01-140600
2582.77 seconds 0.717436 hours CTEQ5L-LO_HardQCDMix_30To50_2017-02-01-140600
2630.61 seconds 0.730725 hours CTEQ5L-LO_HardQCDMix_30To50_2017-02-01-140600
2645.33 seconds 0.734814 hours CTEQ5L-LO_HardQCDMix_30To50_2017-02-01-140600
2573.36 seconds 0.714822 hours CTEQ5L-LO_HardQCDMix_30To50_2017-02-01-140600
2660.39 seconds 0.738997 hours CTEQ5L-LO_HardQCDMix_30To50_2017-02-01-140600
2573.37 seconds 0.714825 hours CTEQ5L-LO_HardQCDMix_30To50_2017-02-01-140600
2595.74 seconds 0.721039 hours CTEQ5L-LO_HardQCDMix_30To50_2017-02-01-140600
2593.65 seconds 0.720458 hours CTEQ5L-LO_HardQCDMix_30To50_2017-02-01-140600
2572 seconds 0.714444 hours CTEQ5L-LO_HardQCDMix_30To50_2017-02-01-140600
5156.08 seconds 1.43224 hours CTEQ5L-LO_HardQCDMix_30To50_2017-02-01-140600
5232.3 seconds 1.45342 hours CTEQ5L-LO_HardQCDMix_30To50_2017-02-01-140600
5240.24 seconds 1.45562 hours CTEQ5L-LO_HardQCDMix_30To50_2017-02-01-140600
5217.99 seconds 1.44944 hours CTEQ5L-LO_HardQCDMix_30To50_2017-02-01-140600
5145.8 seconds 1.42939 hours CTEQ5L-LO_HardQCDMix_30To50_2017-02-01-140600
5270.36 seconds 1.46399 hours CTEQ5L-LO_HardQCDMix_30To50_2017-02-01-140600
2692.48 seconds 0.747911 hours CTEQ5L-LO_HardQCDMix_30To50_2017-02-01-140600


3687.39 seconds 1.02428 hours CTEQ5L-LO_HardQCDMix_380To10000_2017-02-01-140600
3807.08 seconds 1.05752 hours CTEQ5L-LO_HardQCDMix_380To10000_2017-02-01-140600
3834.04 seconds 1.06501 hours CTEQ5L-LO_HardQCDMix_380To10000_2017-02-01-140600
3837.58 seconds 1.06599 hours CTEQ5L-LO_HardQCDMix_380To10000_2017-02-01-140600
3847.68 seconds 1.0688 hours CTEQ5L-LO_HardQCDMix_380To10000_2017-02-01-140600
3840.19 seconds 1.06672 hours CTEQ5L-LO_HardQCDMix_380To10000_2017-02-01-140600
3821.22 seconds 1.06145 hours CTEQ5L-LO_HardQCDMix_380To10000_2017-02-01-140600
3783.93 seconds 1.05109 hours CTEQ5L-LO_HardQCDMix_380To10000_2017-02-01-140600
3801.95 seconds 1.0561 hours CTEQ5L-LO_HardQCDMix_380To10000_2017-02-01-140600
3829.46 seconds 1.06374 hours CTEQ5L-LO_HardQCDMix_380To10000_2017-02-01-140600
3797.12 seconds 1.05476 hours CTEQ5L-LO_HardQCDMix_380To10000_2017-02-01-140600
3650.77 seconds 1.0141 hours CTEQ5L-LO_HardQCDMix_380To10000_2017-02-01-140600
3832.33 seconds 1.06454 hours CTEQ5L-LO_HardQCDMix_380To10000_2017-02-01-140600
3718.35 seconds 1.03287 hours CTEQ5L-LO_HardQCDMix_380To10000_2017-02-01-140600
3760.07 seconds 1.04446 hours CTEQ5L-LO_HardQCDMix_380To10000_2017-02-01-140600
3791.52 seconds 1.0532 hours CTEQ5L-LO_HardQCDMix_380To10000_2017-02-01-140600
3807.67 seconds 1.05769 hours CTEQ5L-LO_HardQCDMix_380To10000_2017-02-01-140600
3850.29 seconds 1.06953 hours CTEQ5L-LO_HardQCDMix_380To10000_2017-02-01-140600
3818.65 seconds 1.06074 hours CTEQ5L-LO_HardQCDMix_380To10000_2017-02-01-140600
3798.44 seconds 1.05512 hours CTEQ5L-LO_HardQCDMix_380To10000_2017-02-01-140600


2672.53 seconds 0.742369 hours CTEQ5L-LO_HardQCDMix_50To80_2017-02-01-140600
5302.9 seconds 1.47303 hours CTEQ5L-LO_HardQCDMix_50To80_2017-02-01-140600
5353.53 seconds 1.48709 hours CTEQ5L-LO_HardQCDMix_50To80_2017-02-01-140600
5185.2 seconds 1.44033 hours CTEQ5L-LO_HardQCDMix_50To80_2017-02-01-140600
2738.66 seconds 0.760739 hours CTEQ5L-LO_HardQCDMix_50To80_2017-02-01-140600
3477.81 seconds 0.966058 hours CTEQ5L-LO_HardQCDMix_50To80_2017-02-01-140600
3940.83 seconds 1.09468 hours CTEQ5L-LO_HardQCDMix_50To80_2017-02-01-140600
2800.82 seconds 0.778006 hours CTEQ5L-LO_HardQCDMix_50To80_2017-02-01-140600
3696.9 seconds 1.02692 hours CTEQ5L-LO_HardQCDMix_50To80_2017-02-01-140600
3623.32 seconds 1.00648 hours CTEQ5L-LO_HardQCDMix_50To80_2017-02-01-140600
3515.31 seconds 0.976475 hours CTEQ5L-LO_HardQCDMix_50To80_2017-02-01-140600
2628.86 seconds 0.730239 hours CTEQ5L-LO_HardQCDMix_50To80_2017-02-01-140600
2625.46 seconds 0.729294 hours CTEQ5L-LO_HardQCDMix_50To80_2017-02-01-140600
2662.74 seconds 0.73965 hours CTEQ5L-LO_HardQCDMix_50To80_2017-02-01-140600
2631.14 seconds 0.730872 hours CTEQ5L-LO_HardQCDMix_50To80_2017-02-01-140600
2668.01 seconds 0.741114 hours CTEQ5L-LO_HardQCDMix_50To80_2017-02-01-140600
2619.69 seconds 0.727692 hours CTEQ5L-LO_HardQCDMix_50To80_2017-02-01-140600
5299.79 seconds 1.47216 hours CTEQ5L-LO_HardQCDMix_50To80_2017-02-01-140600
5294.12 seconds 1.47059 hours CTEQ5L-LO_HardQCDMix_50To80_2017-02-01-140600
5299.95 seconds 1.47221 hours CTEQ5L-LO_HardQCDMix_50To80_2017-02-01-140600


2652.72 seconds 0.736867 hours CTEQ5L-LO_HardQCDMix_80To120_2017-02-01-140600
2659.14 seconds 0.73865 hours CTEQ5L-LO_HardQCDMix_80To120_2017-02-01-140600
2735.3 seconds 0.759806 hours CTEQ5L-LO_HardQCDMix_80To120_2017-02-01-140600
2686.54 seconds 0.746261 hours CTEQ5L-LO_HardQCDMix_80To120_2017-02-01-140600
3893.03 seconds 1.0814 hours CTEQ5L-LO_HardQCDMix_80To120_2017-02-01-140600
3788.82 seconds 1.05245 hours CTEQ5L-LO_HardQCDMix_80To120_2017-02-01-140600
2744.83 seconds 0.762453 hours CTEQ5L-LO_HardQCDMix_80To120_2017-02-01-140600
4959.47 seconds 1.37763 hours CTEQ5L-LO_HardQCDMix_80To120_2017-02-01-140600
5300.01 seconds 1.47223 hours CTEQ5L-LO_HardQCDMix_80To120_2017-02-01-140600
5256.7 seconds 1.46019 hours CTEQ5L-LO_HardQCDMix_80To120_2017-02-01-140600
2647.01 seconds 0.735281 hours CTEQ5L-LO_HardQCDMix_80To120_2017-02-01-140600
2666.94 seconds 0.740817 hours CTEQ5L-LO_HardQCDMix_80To120_2017-02-01-140600
2680.53 seconds 0.744592 hours CTEQ5L-LO_HardQCDMix_80To120_2017-02-01-140600
2659.99 seconds 0.738886 hours CTEQ5L-LO_HardQCDMix_80To120_2017-02-01-140600
2653.76 seconds 0.737156 hours CTEQ5L-LO_HardQCDMix_80To120_2017-02-01-140600
2677.61 seconds 0.743781 hours CTEQ5L-LO_HardQCDMix_80To120_2017-02-01-140600
2682.61 seconds 0.745169 hours CTEQ5L-LO_HardQCDMix_80To120_2017-02-01-140600
2641.37 seconds 0.733714 hours CTEQ5L-LO_HardQCDMix_80To120_2017-02-01-140600
2664.68 seconds 0.740189 hours CTEQ5L-LO_HardQCDMix_80To120_2017-02-01-140600
2693.7 seconds 0.74825 hours CTEQ5L-LO_HardQCDMix_80To120_2017-02-01-140600




