

Time taken to complete the job, Statistics
==========================================
6854.11 seconds 1.90392 hours CTEQ5L-LO_HardQCDSelectionGluon_10To20_2017-02-03-125534
6878.45 seconds 1.91068 hours CTEQ5L-LO_HardQCDSelectionGluon_10To20_2017-02-03-125534
6754.56 seconds 1.87627 hours CTEQ5L-LO_HardQCDSelectionGluon_10To20_2017-02-03-125534
4825.81 seconds 1.3405 hours CTEQ5L-LO_HardQCDSelectionGluon_10To20_2017-02-03-125534
4868.06 seconds 1.35224 hours CTEQ5L-LO_HardQCDSelectionGluon_10To20_2017-02-03-125534
4798.81 seconds 1.333 hours CTEQ5L-LO_HardQCDSelectionGluon_10To20_2017-02-03-125534
5167.1 seconds 1.43531 hours CTEQ5L-LO_HardQCDSelectionGluon_10To20_2017-02-03-125534
6967.74 seconds 1.93548 hours CTEQ5L-LO_HardQCDSelectionGluon_10To20_2017-02-03-125534
4813.68 seconds 1.33713 hours CTEQ5L-LO_HardQCDSelectionGluon_10To20_2017-02-03-125534
5377.74 seconds 1.49382 hours CTEQ5L-LO_HardQCDSelectionGluon_10To20_2017-02-03-125534
5231.77 seconds 1.45327 hours CTEQ5L-LO_HardQCDSelectionGluon_10To20_2017-02-03-125534
5658.84 seconds 1.5719 hours CTEQ5L-LO_HardQCDSelectionGluon_10To20_2017-02-03-125534
7075.5 seconds 1.96542 hours CTEQ5L-LO_HardQCDSelectionGluon_10To20_2017-02-03-125534
6859.33 seconds 1.90537 hours CTEQ5L-LO_HardQCDSelectionGluon_10To20_2017-02-03-125534
4871.84 seconds 1.35329 hours CTEQ5L-LO_HardQCDSelectionGluon_10To20_2017-02-03-125534
4867.69 seconds 1.35214 hours CTEQ5L-LO_HardQCDSelectionGluon_10To20_2017-02-03-125534
4866.37 seconds 1.35177 hours CTEQ5L-LO_HardQCDSelectionGluon_10To20_2017-02-03-125534
4938.32 seconds 1.37176 hours CTEQ5L-LO_HardQCDSelectionGluon_10To20_2017-02-03-125534
4945.36 seconds 1.37371 hours CTEQ5L-LO_HardQCDSelectionGluon_10To20_2017-02-03-125534
7004.71 seconds 1.94575 hours CTEQ5L-LO_HardQCDSelectionGluon_10To20_2017-02-03-125534


9927.56 seconds 2.75766 hours CTEQ5L-LO_HardQCDSelectionGluon_120To170_2017-02-03-125534
13714.5 seconds 3.80958 hours CTEQ5L-LO_HardQCDSelectionGluon_120To170_2017-02-03-125534
10126.4 seconds 2.81289 hours CTEQ5L-LO_HardQCDSelectionGluon_120To170_2017-02-03-125534
9943.7 seconds 2.76214 hours CTEQ5L-LO_HardQCDSelectionGluon_120To170_2017-02-03-125534
10462.1 seconds 2.90614 hours CTEQ5L-LO_HardQCDSelectionGluon_120To170_2017-02-03-125534
13963.9 seconds 3.87886 hours CTEQ5L-LO_HardQCDSelectionGluon_120To170_2017-02-03-125534
10301.6 seconds 2.86156 hours CTEQ5L-LO_HardQCDSelectionGluon_120To170_2017-02-03-125534
13818.3 seconds 3.83842 hours CTEQ5L-LO_HardQCDSelectionGluon_120To170_2017-02-03-125534
9896.55 seconds 2.74904 hours CTEQ5L-LO_HardQCDSelectionGluon_120To170_2017-02-03-125534
10131.6 seconds 2.81433 hours CTEQ5L-LO_HardQCDSelectionGluon_120To170_2017-02-03-125534
12343.3 seconds 3.42869 hours CTEQ5L-LO_HardQCDSelectionGluon_120To170_2017-02-03-125534
14464.8 seconds 4.018 hours CTEQ5L-LO_HardQCDSelectionGluon_120To170_2017-02-03-125534
10121.8 seconds 2.81161 hours CTEQ5L-LO_HardQCDSelectionGluon_120To170_2017-02-03-125534
13538.9 seconds 3.76081 hours CTEQ5L-LO_HardQCDSelectionGluon_120To170_2017-02-03-125534
8884.43 seconds 2.4679 hours CTEQ5L-LO_HardQCDSelectionGluon_120To170_2017-02-03-125534
14220.1 seconds 3.95003 hours CTEQ5L-LO_HardQCDSelectionGluon_120To170_2017-02-03-125534
13451.7 seconds 3.73658 hours CTEQ5L-LO_HardQCDSelectionGluon_120To170_2017-02-03-125534
9412.31 seconds 2.61453 hours CTEQ5L-LO_HardQCDSelectionGluon_120To170_2017-02-03-125534
10817.7 seconds 3.00492 hours CTEQ5L-LO_HardQCDSelectionGluon_120To170_2017-02-03-125534
12522.2 seconds 3.47839 hours CTEQ5L-LO_HardQCDSelectionGluon_120To170_2017-02-03-125534


11080.1 seconds 3.07781 hours CTEQ5L-LO_HardQCDSelectionGluon_170To230_2017-02-03-125534
15254.7 seconds 4.23742 hours CTEQ5L-LO_HardQCDSelectionGluon_170To230_2017-02-03-125534
15144.1 seconds 4.20669 hours CTEQ5L-LO_HardQCDSelectionGluon_170To230_2017-02-03-125534
15602.3 seconds 4.33397 hours CTEQ5L-LO_HardQCDSelectionGluon_170To230_2017-02-03-125534
15493.3 seconds 4.30369 hours CTEQ5L-LO_HardQCDSelectionGluon_170To230_2017-02-03-125534
15490.6 seconds 4.30294 hours CTEQ5L-LO_HardQCDSelectionGluon_170To230_2017-02-03-125534
15338.5 seconds 4.26069 hours CTEQ5L-LO_HardQCDSelectionGluon_170To230_2017-02-03-125534
11101.1 seconds 3.08364 hours CTEQ5L-LO_HardQCDSelectionGluon_170To230_2017-02-03-125534
10379.9 seconds 2.88331 hours CTEQ5L-LO_HardQCDSelectionGluon_170To230_2017-02-03-125534
10663.7 seconds 2.96214 hours CTEQ5L-LO_HardQCDSelectionGluon_170To230_2017-02-03-125534
10889.9 seconds 3.02497 hours CTEQ5L-LO_HardQCDSelectionGluon_170To230_2017-02-03-125534
10863 seconds 3.0175 hours CTEQ5L-LO_HardQCDSelectionGluon_170To230_2017-02-03-125534
12005.7 seconds 3.33492 hours CTEQ5L-LO_HardQCDSelectionGluon_170To230_2017-02-03-125534
11473.5 seconds 3.18708 hours CTEQ5L-LO_HardQCDSelectionGluon_170To230_2017-02-03-125534
13804.2 seconds 3.8345 hours CTEQ5L-LO_HardQCDSelectionGluon_170To230_2017-02-03-125534
15537.1 seconds 4.31586 hours CTEQ5L-LO_HardQCDSelectionGluon_170To230_2017-02-03-125534
14038.4 seconds 3.89956 hours CTEQ5L-LO_HardQCDSelectionGluon_170To230_2017-02-03-125534
15367.9 seconds 4.26886 hours CTEQ5L-LO_HardQCDSelectionGluon_170To230_2017-02-03-125534
15598.2 seconds 4.33283 hours CTEQ5L-LO_HardQCDSelectionGluon_170To230_2017-02-03-125534
13583.5 seconds 3.77319 hours CTEQ5L-LO_HardQCDSelectionGluon_170To230_2017-02-03-125534


7092.88 seconds 1.97024 hours CTEQ5L-LO_HardQCDSelectionGluon_20To30_2017-02-03-125534
5785.61 seconds 1.60711 hours CTEQ5L-LO_HardQCDSelectionGluon_20To30_2017-02-03-125534
6810.71 seconds 1.89186 hours CTEQ5L-LO_HardQCDSelectionGluon_20To30_2017-02-03-125534
5570.56 seconds 1.54738 hours CTEQ5L-LO_HardQCDSelectionGluon_20To30_2017-02-03-125534
5596.62 seconds 1.55462 hours CTEQ5L-LO_HardQCDSelectionGluon_20To30_2017-02-03-125534
8480.99 seconds 2.35583 hours CTEQ5L-LO_HardQCDSelectionGluon_20To30_2017-02-03-125534
5510.4 seconds 1.53067 hours CTEQ5L-LO_HardQCDSelectionGluon_20To30_2017-02-03-125534
7436.32 seconds 2.06564 hours CTEQ5L-LO_HardQCDSelectionGluon_20To30_2017-02-03-125534
5849.63 seconds 1.6249 hours CTEQ5L-LO_HardQCDSelectionGluon_20To30_2017-02-03-125534
8451.65 seconds 2.34768 hours CTEQ5L-LO_HardQCDSelectionGluon_20To30_2017-02-03-125534
8129.12 seconds 2.25809 hours CTEQ5L-LO_HardQCDSelectionGluon_20To30_2017-02-03-125534
8227.35 seconds 2.28538 hours CTEQ5L-LO_HardQCDSelectionGluon_20To30_2017-02-03-125534
8424.83 seconds 2.34023 hours CTEQ5L-LO_HardQCDSelectionGluon_20To30_2017-02-03-125534
5658.89 seconds 1.57191 hours CTEQ5L-LO_HardQCDSelectionGluon_20To30_2017-02-03-125534
6402.92 seconds 1.77859 hours CTEQ5L-LO_HardQCDSelectionGluon_20To30_2017-02-03-125534
8084.5 seconds 2.24569 hours CTEQ5L-LO_HardQCDSelectionGluon_20To30_2017-02-03-125534
8314.91 seconds 2.3097 hours CTEQ5L-LO_HardQCDSelectionGluon_20To30_2017-02-03-125534
6694.79 seconds 1.85966 hours CTEQ5L-LO_HardQCDSelectionGluon_20To30_2017-02-03-125534
8457.12 seconds 2.3492 hours CTEQ5L-LO_HardQCDSelectionGluon_20To30_2017-02-03-125534
5714.4 seconds 1.58733 hours CTEQ5L-LO_HardQCDSelectionGluon_20To30_2017-02-03-125534


15134 seconds 4.20389 hours CTEQ5L-LO_HardQCDSelectionGluon_230To300_2017-02-03-125534
11379.2 seconds 3.16089 hours CTEQ5L-LO_HardQCDSelectionGluon_230To300_2017-02-03-125534
15192.5 seconds 4.22014 hours CTEQ5L-LO_HardQCDSelectionGluon_230To300_2017-02-03-125534
16892.3 seconds 4.69231 hours CTEQ5L-LO_HardQCDSelectionGluon_230To300_2017-02-03-125534
14779.9 seconds 4.10553 hours CTEQ5L-LO_HardQCDSelectionGluon_230To300_2017-02-03-125534
15110.6 seconds 4.19739 hours CTEQ5L-LO_HardQCDSelectionGluon_230To300_2017-02-03-125534
15021.9 seconds 4.17275 hours CTEQ5L-LO_HardQCDSelectionGluon_230To300_2017-02-03-125534
13026.8 seconds 3.61856 hours CTEQ5L-LO_HardQCDSelectionGluon_230To300_2017-02-03-125534
12694.2 seconds 3.52617 hours CTEQ5L-LO_HardQCDSelectionGluon_230To300_2017-02-03-125534
17009 seconds 4.72472 hours CTEQ5L-LO_HardQCDSelectionGluon_230To300_2017-02-03-125534
17402.1 seconds 4.83392 hours CTEQ5L-LO_HardQCDSelectionGluon_230To300_2017-02-03-125534
17144.6 seconds 4.76239 hours CTEQ5L-LO_HardQCDSelectionGluon_230To300_2017-02-03-125534
12726.4 seconds 3.53511 hours CTEQ5L-LO_HardQCDSelectionGluon_230To300_2017-02-03-125534
17040.6 seconds 4.7335 hours CTEQ5L-LO_HardQCDSelectionGluon_230To300_2017-02-03-125534
16997.9 seconds 4.72164 hours CTEQ5L-LO_HardQCDSelectionGluon_230To300_2017-02-03-125534
12193.8 seconds 3.38717 hours CTEQ5L-LO_HardQCDSelectionGluon_230To300_2017-02-03-125534
16680.5 seconds 4.63347 hours CTEQ5L-LO_HardQCDSelectionGluon_230To300_2017-02-03-125534
12650.5 seconds 3.51403 hours CTEQ5L-LO_HardQCDSelectionGluon_230To300_2017-02-03-125534
11719.8 seconds 3.2555 hours CTEQ5L-LO_HardQCDSelectionGluon_230To300_2017-02-03-125534
17308.5 seconds 4.80792 hours CTEQ5L-LO_HardQCDSelectionGluon_230To300_2017-02-03-125534


12866.3 seconds 3.57397 hours CTEQ5L-LO_HardQCDSelectionGluon_300To380_2017-02-03-125534
12729.3 seconds 3.53592 hours CTEQ5L-LO_HardQCDSelectionGluon_300To380_2017-02-03-125534
12699 seconds 3.5275 hours CTEQ5L-LO_HardQCDSelectionGluon_300To380_2017-02-03-125534
12666.6 seconds 3.5185 hours CTEQ5L-LO_HardQCDSelectionGluon_300To380_2017-02-03-125534
13202 seconds 3.66722 hours CTEQ5L-LO_HardQCDSelectionGluon_300To380_2017-02-03-125534
13003.5 seconds 3.61208 hours CTEQ5L-LO_HardQCDSelectionGluon_300To380_2017-02-03-125534
12622 seconds 3.50611 hours CTEQ5L-LO_HardQCDSelectionGluon_300To380_2017-02-03-125534
16686.4 seconds 4.63511 hours CTEQ5L-LO_HardQCDSelectionGluon_300To380_2017-02-03-125534
18532.2 seconds 5.14783 hours CTEQ5L-LO_HardQCDSelectionGluon_300To380_2017-02-03-125534
13847.5 seconds 3.84653 hours CTEQ5L-LO_HardQCDSelectionGluon_300To380_2017-02-03-125534
12938.3 seconds 3.59397 hours CTEQ5L-LO_HardQCDSelectionGluon_300To380_2017-02-03-125534
12408.7 seconds 3.44686 hours CTEQ5L-LO_HardQCDSelectionGluon_300To380_2017-02-03-125534
13054.6 seconds 3.62628 hours CTEQ5L-LO_HardQCDSelectionGluon_300To380_2017-02-03-125534
14031.4 seconds 3.89761 hours CTEQ5L-LO_HardQCDSelectionGluon_300To380_2017-02-03-125534
14422.4 seconds 4.00622 hours CTEQ5L-LO_HardQCDSelectionGluon_300To380_2017-02-03-125534
12657 seconds 3.51583 hours CTEQ5L-LO_HardQCDSelectionGluon_300To380_2017-02-03-125534
16574.3 seconds 4.60397 hours CTEQ5L-LO_HardQCDSelectionGluon_300To380_2017-02-03-125534
18441.3 seconds 5.12258 hours CTEQ5L-LO_HardQCDSelectionGluon_300To380_2017-02-03-125534
12720 seconds 3.53333 hours CTEQ5L-LO_HardQCDSelectionGluon_300To380_2017-02-03-125534
12685.3 seconds 3.52369 hours CTEQ5L-LO_HardQCDSelectionGluon_300To380_2017-02-03-125534


6517 seconds 1.81028 hours CTEQ5L-LO_HardQCDSelectionGluon_30To50_2017-02-03-125534
9210.61 seconds 2.5585 hours CTEQ5L-LO_HardQCDSelectionGluon_30To50_2017-02-03-125534
9533.16 seconds 2.6481 hours CTEQ5L-LO_HardQCDSelectionGluon_30To50_2017-02-03-125534
6785.41 seconds 1.88484 hours CTEQ5L-LO_HardQCDSelectionGluon_30To50_2017-02-03-125534
8862.01 seconds 2.46167 hours CTEQ5L-LO_HardQCDSelectionGluon_30To50_2017-02-03-125534
8941.24 seconds 2.48368 hours CTEQ5L-LO_HardQCDSelectionGluon_30To50_2017-02-03-125534
8912.66 seconds 2.47574 hours CTEQ5L-LO_HardQCDSelectionGluon_30To50_2017-02-03-125534
8923.81 seconds 2.47884 hours CTEQ5L-LO_HardQCDSelectionGluon_30To50_2017-02-03-125534
6570.38 seconds 1.82511 hours CTEQ5L-LO_HardQCDSelectionGluon_30To50_2017-02-03-125534
6864.99 seconds 1.90694 hours CTEQ5L-LO_HardQCDSelectionGluon_30To50_2017-02-03-125534
6815.1 seconds 1.89308 hours CTEQ5L-LO_HardQCDSelectionGluon_30To50_2017-02-03-125534
6767.34 seconds 1.87982 hours CTEQ5L-LO_HardQCDSelectionGluon_30To50_2017-02-03-125534
9407.4 seconds 2.61317 hours CTEQ5L-LO_HardQCDSelectionGluon_30To50_2017-02-03-125534
6476.4 seconds 1.799 hours CTEQ5L-LO_HardQCDSelectionGluon_30To50_2017-02-03-125534
7828.55 seconds 2.1746 hours CTEQ5L-LO_HardQCDSelectionGluon_30To50_2017-02-03-125534
8280.19 seconds 2.30005 hours CTEQ5L-LO_HardQCDSelectionGluon_30To50_2017-02-03-125534
6756.52 seconds 1.87681 hours CTEQ5L-LO_HardQCDSelectionGluon_30To50_2017-02-03-125534
6419.06 seconds 1.78307 hours CTEQ5L-LO_HardQCDSelectionGluon_30To50_2017-02-03-125534
9116.88 seconds 2.53247 hours CTEQ5L-LO_HardQCDSelectionGluon_30To50_2017-02-03-125534
9053.16 seconds 2.51477 hours CTEQ5L-LO_HardQCDSelectionGluon_30To50_2017-02-03-125534


20009.7 seconds 5.55825 hours CTEQ5L-LO_HardQCDSelectionGluon_380To10000_2017-02-03-125534
19079.9 seconds 5.29997 hours CTEQ5L-LO_HardQCDSelectionGluon_380To10000_2017-02-03-125534
19163.6 seconds 5.32322 hours CTEQ5L-LO_HardQCDSelectionGluon_380To10000_2017-02-03-125534
14094.8 seconds 3.91522 hours CTEQ5L-LO_HardQCDSelectionGluon_380To10000_2017-02-03-125534
18879.1 seconds 5.24419 hours CTEQ5L-LO_HardQCDSelectionGluon_380To10000_2017-02-03-125534
17759 seconds 4.93306 hours CTEQ5L-LO_HardQCDSelectionGluon_380To10000_2017-02-03-125534
12992.3 seconds 3.60897 hours CTEQ5L-LO_HardQCDSelectionGluon_380To10000_2017-02-03-125534
12989.2 seconds 3.60811 hours CTEQ5L-LO_HardQCDSelectionGluon_380To10000_2017-02-03-125534
14432.1 seconds 4.00892 hours CTEQ5L-LO_HardQCDSelectionGluon_380To10000_2017-02-03-125534
14198.3 seconds 3.94397 hours CTEQ5L-LO_HardQCDSelectionGluon_380To10000_2017-02-03-125534
12879.9 seconds 3.57775 hours CTEQ5L-LO_HardQCDSelectionGluon_380To10000_2017-02-03-125534
19893.5 seconds 5.52597 hours CTEQ5L-LO_HardQCDSelectionGluon_380To10000_2017-02-03-125534
19958.4 seconds 5.544 hours CTEQ5L-LO_HardQCDSelectionGluon_380To10000_2017-02-03-125534
14166.2 seconds 3.93506 hours CTEQ5L-LO_HardQCDSelectionGluon_380To10000_2017-02-03-125534
14015.6 seconds 3.89322 hours CTEQ5L-LO_HardQCDSelectionGluon_380To10000_2017-02-03-125534
17930.4 seconds 4.98067 hours CTEQ5L-LO_HardQCDSelectionGluon_380To10000_2017-02-03-125534
17671.2 seconds 4.90867 hours CTEQ5L-LO_HardQCDSelectionGluon_380To10000_2017-02-03-125534
14201.9 seconds 3.94497 hours CTEQ5L-LO_HardQCDSelectionGluon_380To10000_2017-02-03-125534
19005.9 seconds 5.27942 hours CTEQ5L-LO_HardQCDSelectionGluon_380To10000_2017-02-03-125534
19272.4 seconds 5.35344 hours CTEQ5L-LO_HardQCDSelectionGluon_380To10000_2017-02-03-125534


7801.23 seconds 2.16701 hours CTEQ5L-LO_HardQCDSelectionGluon_50To80_2017-02-03-125534
7467.99 seconds 2.07444 hours CTEQ5L-LO_HardQCDSelectionGluon_50To80_2017-02-03-125534
10765.9 seconds 2.99053 hours CTEQ5L-LO_HardQCDSelectionGluon_50To80_2017-02-03-125534
8095.33 seconds 2.2487 hours CTEQ5L-LO_HardQCDSelectionGluon_50To80_2017-02-03-125534
10881.2 seconds 3.02256 hours CTEQ5L-LO_HardQCDSelectionGluon_50To80_2017-02-03-125534
7364.15 seconds 2.0456 hours CTEQ5L-LO_HardQCDSelectionGluon_50To80_2017-02-03-125534
7445.1 seconds 2.06808 hours CTEQ5L-LO_HardQCDSelectionGluon_50To80_2017-02-03-125534
11048.6 seconds 3.06906 hours CTEQ5L-LO_HardQCDSelectionGluon_50To80_2017-02-03-125534
7669.72 seconds 2.13048 hours CTEQ5L-LO_HardQCDSelectionGluon_50To80_2017-02-03-125534
9479.68 seconds 2.63324 hours CTEQ5L-LO_HardQCDSelectionGluon_50To80_2017-02-03-125534
7642.72 seconds 2.12298 hours CTEQ5L-LO_HardQCDSelectionGluon_50To80_2017-02-03-125534
7566.89 seconds 2.10191 hours CTEQ5L-LO_HardQCDSelectionGluon_50To80_2017-02-03-125534
7436.51 seconds 2.0657 hours CTEQ5L-LO_HardQCDSelectionGluon_50To80_2017-02-03-125534
7718.27 seconds 2.14396 hours CTEQ5L-LO_HardQCDSelectionGluon_50To80_2017-02-03-125534
10754.4 seconds 2.98733 hours CTEQ5L-LO_HardQCDSelectionGluon_50To80_2017-02-03-125534
7930.57 seconds 2.20294 hours CTEQ5L-LO_HardQCDSelectionGluon_50To80_2017-02-03-125534
7717.97 seconds 2.14388 hours CTEQ5L-LO_HardQCDSelectionGluon_50To80_2017-02-03-125534
7787.12 seconds 2.16309 hours CTEQ5L-LO_HardQCDSelectionGluon_50To80_2017-02-03-125534
7926.65 seconds 2.20185 hours CTEQ5L-LO_HardQCDSelectionGluon_50To80_2017-02-03-125534
10816.5 seconds 3.00458 hours CTEQ5L-LO_HardQCDSelectionGluon_50To80_2017-02-03-125534


10505.1 seconds 2.91808 hours CTEQ5L-LO_HardQCDSelectionGluon_80To120_2017-02-03-125534
12762.3 seconds 3.54508 hours CTEQ5L-LO_HardQCDSelectionGluon_80To120_2017-02-03-125534
12342.3 seconds 3.42842 hours CTEQ5L-LO_HardQCDSelectionGluon_80To120_2017-02-03-125534
12235.4 seconds 3.39872 hours CTEQ5L-LO_HardQCDSelectionGluon_80To120_2017-02-03-125534
10936.7 seconds 3.03797 hours CTEQ5L-LO_HardQCDSelectionGluon_80To120_2017-02-03-125534
12432.3 seconds 3.45342 hours CTEQ5L-LO_HardQCDSelectionGluon_80To120_2017-02-03-125534
12442.5 seconds 3.45625 hours CTEQ5L-LO_HardQCDSelectionGluon_80To120_2017-02-03-125534
12652.9 seconds 3.51469 hours CTEQ5L-LO_HardQCDSelectionGluon_80To120_2017-02-03-125534
12435.4 seconds 3.45428 hours CTEQ5L-LO_HardQCDSelectionGluon_80To120_2017-02-03-125534
8838.27 seconds 2.45508 hours CTEQ5L-LO_HardQCDSelectionGluon_80To120_2017-02-03-125534
11067.7 seconds 3.07436 hours CTEQ5L-LO_HardQCDSelectionGluon_80To120_2017-02-03-125534
12508.2 seconds 3.4745 hours CTEQ5L-LO_HardQCDSelectionGluon_80To120_2017-02-03-125534
10464.9 seconds 2.90692 hours CTEQ5L-LO_HardQCDSelectionGluon_80To120_2017-02-03-125534
12219.8 seconds 3.39439 hours CTEQ5L-LO_HardQCDSelectionGluon_80To120_2017-02-03-125534
8532.74 seconds 2.37021 hours CTEQ5L-LO_HardQCDSelectionGluon_80To120_2017-02-03-125534
8836.59 seconds 2.45461 hours CTEQ5L-LO_HardQCDSelectionGluon_80To120_2017-02-03-125534
8557.25 seconds 2.37701 hours CTEQ5L-LO_HardQCDSelectionGluon_80To120_2017-02-03-125534
8585.39 seconds 2.38483 hours CTEQ5L-LO_HardQCDSelectionGluon_80To120_2017-02-03-125534
8815.52 seconds 2.44876 hours CTEQ5L-LO_HardQCDSelectionGluon_80To120_2017-02-03-125534
8655.14 seconds 2.40421 hours CTEQ5L-LO_HardQCDSelectionGluon_80To120_2017-02-03-125534




