

Time taken to complete the job, Statistics
==========================================
CTEQ5L-LO_HardQCDMix_10To20_2017-02-01-100823
CTEQ5L-LO_HardQCDMix_10To20_2017-02-01-100823
CTEQ5L-LO_HardQCDMix_10To20_2017-02-01-100823
CTEQ5L-LO_HardQCDMix_10To20_2017-02-01-100823
CTEQ5L-LO_HardQCDMix_10To20_2017-02-01-100823
CTEQ5L-LO_HardQCDMix_10To20_2017-02-01-100823
CTEQ5L-LO_HardQCDMix_10To20_2017-02-01-100823
CTEQ5L-LO_HardQCDMix_10To20_2017-02-01-100823
CTEQ5L-LO_HardQCDMix_10To20_2017-02-01-100823
CTEQ5L-LO_HardQCDMix_10To20_2017-02-01-100823
CTEQ5L-LO_HardQCDMix_10To20_2017-02-01-100823
CTEQ5L-LO_HardQCDMix_10To20_2017-02-01-100823
CTEQ5L-LO_HardQCDMix_10To20_2017-02-01-100823
CTEQ5L-LO_HardQCDMix_10To20_2017-02-01-100823
CTEQ5L-LO_HardQCDMix_10To20_2017-02-01-100823
CTEQ5L-LO_HardQCDMix_10To20_2017-02-01-100823
CTEQ5L-LO_HardQCDMix_10To20_2017-02-01-100823
CTEQ5L-LO_HardQCDMix_10To20_2017-02-01-100823
CTEQ5L-LO_HardQCDMix_10To20_2017-02-01-100823
CTEQ5L-LO_HardQCDMix_10To20_2017-02-01-100823


CTEQ5L-LO_HardQCDMix_120To170_2017-02-01-100823
CTEQ5L-LO_HardQCDMix_120To170_2017-02-01-100823
CTEQ5L-LO_HardQCDMix_120To170_2017-02-01-100823
CTEQ5L-LO_HardQCDMix_120To170_2017-02-01-100823
CTEQ5L-LO_HardQCDMix_120To170_2017-02-01-100823
CTEQ5L-LO_HardQCDMix_120To170_2017-02-01-100823
CTEQ5L-LO_HardQCDMix_120To170_2017-02-01-100823
CTEQ5L-LO_HardQCDMix_120To170_2017-02-01-100823
CTEQ5L-LO_HardQCDMix_120To170_2017-02-01-100823
CTEQ5L-LO_HardQCDMix_120To170_2017-02-01-100823
CTEQ5L-LO_HardQCDMix_120To170_2017-02-01-100823
CTEQ5L-LO_HardQCDMix_120To170_2017-02-01-100823
CTEQ5L-LO_HardQCDMix_120To170_2017-02-01-100823
CTEQ5L-LO_HardQCDMix_120To170_2017-02-01-100823
CTEQ5L-LO_HardQCDMix_120To170_2017-02-01-100823
CTEQ5L-LO_HardQCDMix_120To170_2017-02-01-100823
CTEQ5L-LO_HardQCDMix_120To170_2017-02-01-100823
CTEQ5L-LO_HardQCDMix_120To170_2017-02-01-100823
CTEQ5L-LO_HardQCDMix_120To170_2017-02-01-100823
CTEQ5L-LO_HardQCDMix_120To170_2017-02-01-100823


CTEQ5L-LO_HardQCDMix_170To230_2017-02-01-100823
CTEQ5L-LO_HardQCDMix_170To230_2017-02-01-100823
CTEQ5L-LO_HardQCDMix_170To230_2017-02-01-100823
CTEQ5L-LO_HardQCDMix_170To230_2017-02-01-100823
CTEQ5L-LO_HardQCDMix_170To230_2017-02-01-100823
CTEQ5L-LO_HardQCDMix_170To230_2017-02-01-100823
CTEQ5L-LO_HardQCDMix_170To230_2017-02-01-100823
CTEQ5L-LO_HardQCDMix_170To230_2017-02-01-100823
CTEQ5L-LO_HardQCDMix_170To230_2017-02-01-100823
CTEQ5L-LO_HardQCDMix_170To230_2017-02-01-100823
CTEQ5L-LO_HardQCDMix_170To230_2017-02-01-100823
CTEQ5L-LO_HardQCDMix_170To230_2017-02-01-100823
CTEQ5L-LO_HardQCDMix_170To230_2017-02-01-100823
CTEQ5L-LO_HardQCDMix_170To230_2017-02-01-100823
CTEQ5L-LO_HardQCDMix_170To230_2017-02-01-100823
CTEQ5L-LO_HardQCDMix_170To230_2017-02-01-100823
CTEQ5L-LO_HardQCDMix_170To230_2017-02-01-100823
CTEQ5L-LO_HardQCDMix_170To230_2017-02-01-100823
CTEQ5L-LO_HardQCDMix_170To230_2017-02-01-100823
CTEQ5L-LO_HardQCDMix_170To230_2017-02-01-100823


CTEQ5L-LO_HardQCDMix_20To30_2017-02-01-100823
CTEQ5L-LO_HardQCDMix_20To30_2017-02-01-100823
CTEQ5L-LO_HardQCDMix_20To30_2017-02-01-100823
CTEQ5L-LO_HardQCDMix_20To30_2017-02-01-100823
CTEQ5L-LO_HardQCDMix_20To30_2017-02-01-100823
CTEQ5L-LO_HardQCDMix_20To30_2017-02-01-100823
CTEQ5L-LO_HardQCDMix_20To30_2017-02-01-100823
CTEQ5L-LO_HardQCDMix_20To30_2017-02-01-100823
CTEQ5L-LO_HardQCDMix_20To30_2017-02-01-100823
CTEQ5L-LO_HardQCDMix_20To30_2017-02-01-100823
CTEQ5L-LO_HardQCDMix_20To30_2017-02-01-100823
CTEQ5L-LO_HardQCDMix_20To30_2017-02-01-100823
CTEQ5L-LO_HardQCDMix_20To30_2017-02-01-100823
CTEQ5L-LO_HardQCDMix_20To30_2017-02-01-100823
CTEQ5L-LO_HardQCDMix_20To30_2017-02-01-100823
CTEQ5L-LO_HardQCDMix_20To30_2017-02-01-100823
CTEQ5L-LO_HardQCDMix_20To30_2017-02-01-100823
CTEQ5L-LO_HardQCDMix_20To30_2017-02-01-100823
CTEQ5L-LO_HardQCDMix_20To30_2017-02-01-100823
CTEQ5L-LO_HardQCDMix_20To30_2017-02-01-100823


CTEQ5L-LO_HardQCDMix_230To300_2017-02-01-100823
CTEQ5L-LO_HardQCDMix_230To300_2017-02-01-100823
CTEQ5L-LO_HardQCDMix_230To300_2017-02-01-100823
CTEQ5L-LO_HardQCDMix_230To300_2017-02-01-100823
CTEQ5L-LO_HardQCDMix_230To300_2017-02-01-100823
CTEQ5L-LO_HardQCDMix_230To300_2017-02-01-100823
CTEQ5L-LO_HardQCDMix_230To300_2017-02-01-100823
CTEQ5L-LO_HardQCDMix_230To300_2017-02-01-100823
CTEQ5L-LO_HardQCDMix_230To300_2017-02-01-100823
CTEQ5L-LO_HardQCDMix_230To300_2017-02-01-100823
CTEQ5L-LO_HardQCDMix_230To300_2017-02-01-100823
CTEQ5L-LO_HardQCDMix_230To300_2017-02-01-100823
CTEQ5L-LO_HardQCDMix_230To300_2017-02-01-100823
CTEQ5L-LO_HardQCDMix_230To300_2017-02-01-100823
CTEQ5L-LO_HardQCDMix_230To300_2017-02-01-100823
CTEQ5L-LO_HardQCDMix_230To300_2017-02-01-100823
CTEQ5L-LO_HardQCDMix_230To300_2017-02-01-100823
CTEQ5L-LO_HardQCDMix_230To300_2017-02-01-100823
CTEQ5L-LO_HardQCDMix_230To300_2017-02-01-100823
CTEQ5L-LO_HardQCDMix_230To300_2017-02-01-100823


CTEQ5L-LO_HardQCDMix_300To380_2017-02-01-100823
CTEQ5L-LO_HardQCDMix_300To380_2017-02-01-100823
CTEQ5L-LO_HardQCDMix_300To380_2017-02-01-100823
CTEQ5L-LO_HardQCDMix_300To380_2017-02-01-100823
CTEQ5L-LO_HardQCDMix_300To380_2017-02-01-100823
CTEQ5L-LO_HardQCDMix_300To380_2017-02-01-100823
CTEQ5L-LO_HardQCDMix_300To380_2017-02-01-100823
CTEQ5L-LO_HardQCDMix_300To380_2017-02-01-100823
CTEQ5L-LO_HardQCDMix_300To380_2017-02-01-100823
CTEQ5L-LO_HardQCDMix_300To380_2017-02-01-100823
CTEQ5L-LO_HardQCDMix_300To380_2017-02-01-100823
CTEQ5L-LO_HardQCDMix_300To380_2017-02-01-100823
CTEQ5L-LO_HardQCDMix_300To380_2017-02-01-100823
CTEQ5L-LO_HardQCDMix_300To380_2017-02-01-100823
CTEQ5L-LO_HardQCDMix_300To380_2017-02-01-100823
CTEQ5L-LO_HardQCDMix_300To380_2017-02-01-100823
CTEQ5L-LO_HardQCDMix_300To380_2017-02-01-100823
CTEQ5L-LO_HardQCDMix_300To380_2017-02-01-100823
CTEQ5L-LO_HardQCDMix_300To380_2017-02-01-100823
CTEQ5L-LO_HardQCDMix_300To380_2017-02-01-100823


CTEQ5L-LO_HardQCDMix_30To50_2017-02-01-100823
CTEQ5L-LO_HardQCDMix_30To50_2017-02-01-100823
CTEQ5L-LO_HardQCDMix_30To50_2017-02-01-100823
CTEQ5L-LO_HardQCDMix_30To50_2017-02-01-100823
CTEQ5L-LO_HardQCDMix_30To50_2017-02-01-100823
CTEQ5L-LO_HardQCDMix_30To50_2017-02-01-100823
CTEQ5L-LO_HardQCDMix_30To50_2017-02-01-100823
CTEQ5L-LO_HardQCDMix_30To50_2017-02-01-100823
CTEQ5L-LO_HardQCDMix_30To50_2017-02-01-100823
CTEQ5L-LO_HardQCDMix_30To50_2017-02-01-100823
CTEQ5L-LO_HardQCDMix_30To50_2017-02-01-100823
CTEQ5L-LO_HardQCDMix_30To50_2017-02-01-100823
CTEQ5L-LO_HardQCDMix_30To50_2017-02-01-100823
CTEQ5L-LO_HardQCDMix_30To50_2017-02-01-100823
CTEQ5L-LO_HardQCDMix_30To50_2017-02-01-100823
CTEQ5L-LO_HardQCDMix_30To50_2017-02-01-100823
CTEQ5L-LO_HardQCDMix_30To50_2017-02-01-100823
CTEQ5L-LO_HardQCDMix_30To50_2017-02-01-100823
CTEQ5L-LO_HardQCDMix_30To50_2017-02-01-100823
CTEQ5L-LO_HardQCDMix_30To50_2017-02-01-100823


CTEQ5L-LO_HardQCDMix_380To10000_2017-02-01-100823
CTEQ5L-LO_HardQCDMix_380To10000_2017-02-01-100823
CTEQ5L-LO_HardQCDMix_380To10000_2017-02-01-100823
CTEQ5L-LO_HardQCDMix_380To10000_2017-02-01-100823
CTEQ5L-LO_HardQCDMix_380To10000_2017-02-01-100823
CTEQ5L-LO_HardQCDMix_380To10000_2017-02-01-100823
CTEQ5L-LO_HardQCDMix_380To10000_2017-02-01-100823
CTEQ5L-LO_HardQCDMix_380To10000_2017-02-01-100823
CTEQ5L-LO_HardQCDMix_380To10000_2017-02-01-100823
CTEQ5L-LO_HardQCDMix_380To10000_2017-02-01-100823
CTEQ5L-LO_HardQCDMix_380To10000_2017-02-01-100823
CTEQ5L-LO_HardQCDMix_380To10000_2017-02-01-100823
CTEQ5L-LO_HardQCDMix_380To10000_2017-02-01-100823
CTEQ5L-LO_HardQCDMix_380To10000_2017-02-01-100823
CTEQ5L-LO_HardQCDMix_380To10000_2017-02-01-100823
CTEQ5L-LO_HardQCDMix_380To10000_2017-02-01-100823
CTEQ5L-LO_HardQCDMix_380To10000_2017-02-01-100823
CTEQ5L-LO_HardQCDMix_380To10000_2017-02-01-100823
CTEQ5L-LO_HardQCDMix_380To10000_2017-02-01-100823
CTEQ5L-LO_HardQCDMix_380To10000_2017-02-01-100823


CTEQ5L-LO_HardQCDMix_50To80_2017-02-01-100823
CTEQ5L-LO_HardQCDMix_50To80_2017-02-01-100823
CTEQ5L-LO_HardQCDMix_50To80_2017-02-01-100823
CTEQ5L-LO_HardQCDMix_50To80_2017-02-01-100823
CTEQ5L-LO_HardQCDMix_50To80_2017-02-01-100823
CTEQ5L-LO_HardQCDMix_50To80_2017-02-01-100823
CTEQ5L-LO_HardQCDMix_50To80_2017-02-01-100823
CTEQ5L-LO_HardQCDMix_50To80_2017-02-01-100823
CTEQ5L-LO_HardQCDMix_50To80_2017-02-01-100823
CTEQ5L-LO_HardQCDMix_50To80_2017-02-01-100823
CTEQ5L-LO_HardQCDMix_50To80_2017-02-01-100823
CTEQ5L-LO_HardQCDMix_50To80_2017-02-01-100823
CTEQ5L-LO_HardQCDMix_50To80_2017-02-01-100823
CTEQ5L-LO_HardQCDMix_50To80_2017-02-01-100823
CTEQ5L-LO_HardQCDMix_50To80_2017-02-01-100823
CTEQ5L-LO_HardQCDMix_50To80_2017-02-01-100823
CTEQ5L-LO_HardQCDMix_50To80_2017-02-01-100823
CTEQ5L-LO_HardQCDMix_50To80_2017-02-01-100823
CTEQ5L-LO_HardQCDMix_50To80_2017-02-01-100823
CTEQ5L-LO_HardQCDMix_50To80_2017-02-01-100823


CTEQ5L-LO_HardQCDMix_80To120_2017-02-01-100823
CTEQ5L-LO_HardQCDMix_80To120_2017-02-01-100823
CTEQ5L-LO_HardQCDMix_80To120_2017-02-01-100823
CTEQ5L-LO_HardQCDMix_80To120_2017-02-01-100823
CTEQ5L-LO_HardQCDMix_80To120_2017-02-01-100823
CTEQ5L-LO_HardQCDMix_80To120_2017-02-01-100823
CTEQ5L-LO_HardQCDMix_80To120_2017-02-01-100823
CTEQ5L-LO_HardQCDMix_80To120_2017-02-01-100823
CTEQ5L-LO_HardQCDMix_80To120_2017-02-01-100823
CTEQ5L-LO_HardQCDMix_80To120_2017-02-01-100823
CTEQ5L-LO_HardQCDMix_80To120_2017-02-01-100823
CTEQ5L-LO_HardQCDMix_80To120_2017-02-01-100823
CTEQ5L-LO_HardQCDMix_80To120_2017-02-01-100823
CTEQ5L-LO_HardQCDMix_80To120_2017-02-01-100823
CTEQ5L-LO_HardQCDMix_80To120_2017-02-01-100823
CTEQ5L-LO_HardQCDMix_80To120_2017-02-01-100823
CTEQ5L-LO_HardQCDMix_80To120_2017-02-01-100823
CTEQ5L-LO_HardQCDMix_80To120_2017-02-01-100823
CTEQ5L-LO_HardQCDMix_80To120_2017-02-01-100823
CTEQ5L-LO_HardQCDMix_80To120_2017-02-01-100823




