

Time taken to complete the job, Statistics
==========================================
6638.71 seconds 1.84409 hours CTEQ5L-LO_HardQCDSelectionGluon_10To20_2017-02-06-110330
4721.82 seconds 1.31162 hours CTEQ5L-LO_HardQCDSelectionGluon_10To20_2017-02-06-110330
4766.56 seconds 1.32404 hours CTEQ5L-LO_HardQCDSelectionGluon_10To20_2017-02-06-110330
4778.74 seconds 1.32743 hours CTEQ5L-LO_HardQCDSelectionGluon_10To20_2017-02-06-110330
4910.93 seconds 1.36415 hours CTEQ5L-LO_HardQCDSelectionGluon_10To20_2017-02-06-110330
4806.72 seconds 1.3352 hours CTEQ5L-LO_HardQCDSelectionGluon_10To20_2017-02-06-110330
4806.12 seconds 1.33503 hours CTEQ5L-LO_HardQCDSelectionGluon_10To20_2017-02-06-110330
4724.46 seconds 1.31235 hours CTEQ5L-LO_HardQCDSelectionGluon_10To20_2017-02-06-110330
4730.14 seconds 1.31393 hours CTEQ5L-LO_HardQCDSelectionGluon_10To20_2017-02-06-110330
4714.87 seconds 1.30969 hours CTEQ5L-LO_HardQCDSelectionGluon_10To20_2017-02-06-110330
4756.02 seconds 1.32112 hours CTEQ5L-LO_HardQCDSelectionGluon_10To20_2017-02-06-110330
6807.13 seconds 1.89087 hours CTEQ5L-LO_HardQCDSelectionGluon_10To20_2017-02-06-110330
4780.73 seconds 1.32798 hours CTEQ5L-LO_HardQCDSelectionGluon_10To20_2017-02-06-110330
5635.36 seconds 1.56538 hours CTEQ5L-LO_HardQCDSelectionGluon_10To20_2017-02-06-110330
4804.05 seconds 1.33446 hours CTEQ5L-LO_HardQCDSelectionGluon_10To20_2017-02-06-110330
4727.87 seconds 1.3133 hours CTEQ5L-LO_HardQCDSelectionGluon_10To20_2017-02-06-110330
4754.65 seconds 1.32074 hours CTEQ5L-LO_HardQCDSelectionGluon_10To20_2017-02-06-110330
4645.09 seconds 1.2903 hours CTEQ5L-LO_HardQCDSelectionGluon_10To20_2017-02-06-110330
4792.83 seconds 1.33134 hours CTEQ5L-LO_HardQCDSelectionGluon_10To20_2017-02-06-110330
4693.11 seconds 1.30364 hours CTEQ5L-LO_HardQCDSelectionGluon_10To20_2017-02-06-110330


8927.21 seconds 2.47978 hours CTEQ5L-LO_HardQCDSelectionGluon_120To170_2017-02-06-110330
10173.5 seconds 2.82597 hours CTEQ5L-LO_HardQCDSelectionGluon_120To170_2017-02-06-110330
10105 seconds 2.80694 hours CTEQ5L-LO_HardQCDSelectionGluon_120To170_2017-02-06-110330
10029 seconds 2.78583 hours CTEQ5L-LO_HardQCDSelectionGluon_120To170_2017-02-06-110330
9938.4 seconds 2.76067 hours CTEQ5L-LO_HardQCDSelectionGluon_120To170_2017-02-06-110330
10105.5 seconds 2.80708 hours CTEQ5L-LO_HardQCDSelectionGluon_120To170_2017-02-06-110330
10004.2 seconds 2.77894 hours CTEQ5L-LO_HardQCDSelectionGluon_120To170_2017-02-06-110330
9012.61 seconds 2.5035 hours CTEQ5L-LO_HardQCDSelectionGluon_120To170_2017-02-06-110330
8970.03 seconds 2.49168 hours CTEQ5L-LO_HardQCDSelectionGluon_120To170_2017-02-06-110330
8991.39 seconds 2.49761 hours CTEQ5L-LO_HardQCDSelectionGluon_120To170_2017-02-06-110330
9022.1 seconds 2.50614 hours CTEQ5L-LO_HardQCDSelectionGluon_120To170_2017-02-06-110330
10204.1 seconds 2.83447 hours CTEQ5L-LO_HardQCDSelectionGluon_120To170_2017-02-06-110330
8902.06 seconds 2.47279 hours CTEQ5L-LO_HardQCDSelectionGluon_120To170_2017-02-06-110330
10319.9 seconds 2.86664 hours CTEQ5L-LO_HardQCDSelectionGluon_120To170_2017-02-06-110330
9071.18 seconds 2.51977 hours CTEQ5L-LO_HardQCDSelectionGluon_120To170_2017-02-06-110330
8469.63 seconds 2.35267 hours CTEQ5L-LO_HardQCDSelectionGluon_120To170_2017-02-06-110330
9050.28 seconds 2.51397 hours CTEQ5L-LO_HardQCDSelectionGluon_120To170_2017-02-06-110330
8938.61 seconds 2.48295 hours CTEQ5L-LO_HardQCDSelectionGluon_120To170_2017-02-06-110330
8983.26 seconds 2.49535 hours CTEQ5L-LO_HardQCDSelectionGluon_120To170_2017-02-06-110330
9030.1 seconds 2.50836 hours CTEQ5L-LO_HardQCDSelectionGluon_120To170_2017-02-06-110330


9588.96 seconds 2.6636 hours CTEQ5L-LO_HardQCDSelectionGluon_170To230_2017-02-06-110330
8150.81 seconds 2.26411 hours CTEQ5L-LO_HardQCDSelectionGluon_170To230_2017-02-06-110330
8155.64 seconds 2.26546 hours CTEQ5L-LO_HardQCDSelectionGluon_170To230_2017-02-06-110330
7893.21 seconds 2.19256 hours CTEQ5L-LO_HardQCDSelectionGluon_170To230_2017-02-06-110330
10698.8 seconds 2.97189 hours CTEQ5L-LO_HardQCDSelectionGluon_170To230_2017-02-06-110330
10916.9 seconds 3.03247 hours CTEQ5L-LO_HardQCDSelectionGluon_170To230_2017-02-06-110330
10969.7 seconds 3.04714 hours CTEQ5L-LO_HardQCDSelectionGluon_170To230_2017-02-06-110330
10997.9 seconds 3.05497 hours CTEQ5L-LO_HardQCDSelectionGluon_170To230_2017-02-06-110330
9876.22 seconds 2.74339 hours CTEQ5L-LO_HardQCDSelectionGluon_170To230_2017-02-06-110330
9698.15 seconds 2.69393 hours CTEQ5L-LO_HardQCDSelectionGluon_170To230_2017-02-06-110330
9640.21 seconds 2.67784 hours CTEQ5L-LO_HardQCDSelectionGluon_170To230_2017-02-06-110330
9620.97 seconds 2.67249 hours CTEQ5L-LO_HardQCDSelectionGluon_170To230_2017-02-06-110330
9584.04 seconds 2.66223 hours CTEQ5L-LO_HardQCDSelectionGluon_170To230_2017-02-06-110330
9552.07 seconds 2.65335 hours CTEQ5L-LO_HardQCDSelectionGluon_170To230_2017-02-06-110330
9231.67 seconds 2.56435 hours CTEQ5L-LO_HardQCDSelectionGluon_170To230_2017-02-06-110330
8255.25 seconds 2.29312 hours CTEQ5L-LO_HardQCDSelectionGluon_170To230_2017-02-06-110330
7852.76 seconds 2.18132 hours CTEQ5L-LO_HardQCDSelectionGluon_170To230_2017-02-06-110330
7584.64 seconds 2.10684 hours CTEQ5L-LO_HardQCDSelectionGluon_170To230_2017-02-06-110330
7900.28 seconds 2.19452 hours CTEQ5L-LO_HardQCDSelectionGluon_170To230_2017-02-06-110330
8358.33 seconds 2.32176 hours CTEQ5L-LO_HardQCDSelectionGluon_170To230_2017-02-06-110330


5517.55 seconds 1.53265 hours CTEQ5L-LO_HardQCDSelectionGluon_20To30_2017-02-06-110330
5217.85 seconds 1.4494 hours CTEQ5L-LO_HardQCDSelectionGluon_20To30_2017-02-06-110330
5256.03 seconds 1.46001 hours CTEQ5L-LO_HardQCDSelectionGluon_20To30_2017-02-06-110330
5213.71 seconds 1.44825 hours CTEQ5L-LO_HardQCDSelectionGluon_20To30_2017-02-06-110330
5192.66 seconds 1.44241 hours CTEQ5L-LO_HardQCDSelectionGluon_20To30_2017-02-06-110330
5166.74 seconds 1.43521 hours CTEQ5L-LO_HardQCDSelectionGluon_20To30_2017-02-06-110330
5051.54 seconds 1.40321 hours CTEQ5L-LO_HardQCDSelectionGluon_20To30_2017-02-06-110330
5039.19 seconds 1.39977 hours CTEQ5L-LO_HardQCDSelectionGluon_20To30_2017-02-06-110330
4931.84 seconds 1.36996 hours CTEQ5L-LO_HardQCDSelectionGluon_20To30_2017-02-06-110330
6740.23 seconds 1.87229 hours CTEQ5L-LO_HardQCDSelectionGluon_20To30_2017-02-06-110330
6576.04 seconds 1.82668 hours CTEQ5L-LO_HardQCDSelectionGluon_20To30_2017-02-06-110330
5447.12 seconds 1.51309 hours CTEQ5L-LO_HardQCDSelectionGluon_20To30_2017-02-06-110330
6709.39 seconds 1.86372 hours CTEQ5L-LO_HardQCDSelectionGluon_20To30_2017-02-06-110330
5326.99 seconds 1.47972 hours CTEQ5L-LO_HardQCDSelectionGluon_20To30_2017-02-06-110330
5458.71 seconds 1.51631 hours CTEQ5L-LO_HardQCDSelectionGluon_20To30_2017-02-06-110330
5505.67 seconds 1.52935 hours CTEQ5L-LO_HardQCDSelectionGluon_20To30_2017-02-06-110330
5165.44 seconds 1.43484 hours CTEQ5L-LO_HardQCDSelectionGluon_20To30_2017-02-06-110330
5136.15 seconds 1.42671 hours CTEQ5L-LO_HardQCDSelectionGluon_20To30_2017-02-06-110330
5211.12 seconds 1.44753 hours CTEQ5L-LO_HardQCDSelectionGluon_20To30_2017-02-06-110330
5305.85 seconds 1.47385 hours CTEQ5L-LO_HardQCDSelectionGluon_20To30_2017-02-06-110330


10456 seconds 2.90444 hours CTEQ5L-LO_HardQCDSelectionGluon_230To300_2017-02-06-110330
10306.2 seconds 2.86283 hours CTEQ5L-LO_HardQCDSelectionGluon_230To300_2017-02-06-110330
10354.5 seconds 2.87625 hours CTEQ5L-LO_HardQCDSelectionGluon_230To300_2017-02-06-110330
9830.51 seconds 2.7307 hours CTEQ5L-LO_HardQCDSelectionGluon_230To300_2017-02-06-110330
10443.2 seconds 2.90089 hours CTEQ5L-LO_HardQCDSelectionGluon_230To300_2017-02-06-110330
10506.1 seconds 2.91836 hours CTEQ5L-LO_HardQCDSelectionGluon_230To300_2017-02-06-110330
10275.1 seconds 2.85419 hours CTEQ5L-LO_HardQCDSelectionGluon_230To300_2017-02-06-110330
9701.22 seconds 2.69478 hours CTEQ5L-LO_HardQCDSelectionGluon_230To300_2017-02-06-110330
9723.14 seconds 2.70087 hours CTEQ5L-LO_HardQCDSelectionGluon_230To300_2017-02-06-110330
10107.6 seconds 2.80767 hours CTEQ5L-LO_HardQCDSelectionGluon_230To300_2017-02-06-110330
10419.4 seconds 2.89428 hours CTEQ5L-LO_HardQCDSelectionGluon_230To300_2017-02-06-110330
10410.3 seconds 2.89175 hours CTEQ5L-LO_HardQCDSelectionGluon_230To300_2017-02-06-110330
10865.4 seconds 3.01817 hours CTEQ5L-LO_HardQCDSelectionGluon_230To300_2017-02-06-110330
9749.74 seconds 2.70826 hours CTEQ5L-LO_HardQCDSelectionGluon_230To300_2017-02-06-110330
10423.3 seconds 2.89536 hours CTEQ5L-LO_HardQCDSelectionGluon_230To300_2017-02-06-110330
10458.5 seconds 2.90514 hours CTEQ5L-LO_HardQCDSelectionGluon_230To300_2017-02-06-110330
10356 seconds 2.87667 hours CTEQ5L-LO_HardQCDSelectionGluon_230To300_2017-02-06-110330
10385.2 seconds 2.88478 hours CTEQ5L-LO_HardQCDSelectionGluon_230To300_2017-02-06-110330
10290 seconds 2.85833 hours CTEQ5L-LO_HardQCDSelectionGluon_230To300_2017-02-06-110330
9711.39 seconds 2.69761 hours CTEQ5L-LO_HardQCDSelectionGluon_230To300_2017-02-06-110330


11222.6 seconds 3.11739 hours CTEQ5L-LO_HardQCDSelectionGluon_300To380_2017-02-06-110330
8694.12 seconds 2.41503 hours CTEQ5L-LO_HardQCDSelectionGluon_300To380_2017-02-06-110330
12225.4 seconds 3.39594 hours CTEQ5L-LO_HardQCDSelectionGluon_300To380_2017-02-06-110330
12561.6 seconds 3.48933 hours CTEQ5L-LO_HardQCDSelectionGluon_300To380_2017-02-06-110330
10969.2 seconds 3.047 hours CTEQ5L-LO_HardQCDSelectionGluon_300To380_2017-02-06-110330
10957.4 seconds 3.04372 hours CTEQ5L-LO_HardQCDSelectionGluon_300To380_2017-02-06-110330
10862.4 seconds 3.01733 hours CTEQ5L-LO_HardQCDSelectionGluon_300To380_2017-02-06-110330
10940.9 seconds 3.03914 hours CTEQ5L-LO_HardQCDSelectionGluon_300To380_2017-02-06-110330
11177.7 seconds 3.10492 hours CTEQ5L-LO_HardQCDSelectionGluon_300To380_2017-02-06-110330
12193.7 seconds 3.38714 hours CTEQ5L-LO_HardQCDSelectionGluon_300To380_2017-02-06-110330
9098.69 seconds 2.52741 hours CTEQ5L-LO_HardQCDSelectionGluon_300To380_2017-02-06-110330
10963.8 seconds 3.0455 hours CTEQ5L-LO_HardQCDSelectionGluon_300To380_2017-02-06-110330
9500.6 seconds 2.63906 hours CTEQ5L-LO_HardQCDSelectionGluon_300To380_2017-02-06-110330
10901.7 seconds 3.02825 hours CTEQ5L-LO_HardQCDSelectionGluon_300To380_2017-02-06-110330
10905.1 seconds 3.02919 hours CTEQ5L-LO_HardQCDSelectionGluon_300To380_2017-02-06-110330
11018.1 seconds 3.06058 hours CTEQ5L-LO_HardQCDSelectionGluon_300To380_2017-02-06-110330
12270.1 seconds 3.40836 hours CTEQ5L-LO_HardQCDSelectionGluon_300To380_2017-02-06-110330
9114.97 seconds 2.53194 hours CTEQ5L-LO_HardQCDSelectionGluon_300To380_2017-02-06-110330
9013.25 seconds 2.50368 hours CTEQ5L-LO_HardQCDSelectionGluon_300To380_2017-02-06-110330
8673.33 seconds 2.40926 hours CTEQ5L-LO_HardQCDSelectionGluon_300To380_2017-02-06-110330


7004.66 seconds 1.94574 hours CTEQ5L-LO_HardQCDSelectionGluon_30To50_2017-02-06-110330
5610.96 seconds 1.5586 hours CTEQ5L-LO_HardQCDSelectionGluon_30To50_2017-02-06-110330
5305.43 seconds 1.47373 hours CTEQ5L-LO_HardQCDSelectionGluon_30To50_2017-02-06-110330
5148.45 seconds 1.43012 hours CTEQ5L-LO_HardQCDSelectionGluon_30To50_2017-02-06-110330
5480.8 seconds 1.52244 hours CTEQ5L-LO_HardQCDSelectionGluon_30To50_2017-02-06-110330
5291.44 seconds 1.46984 hours CTEQ5L-LO_HardQCDSelectionGluon_30To50_2017-02-06-110330
5247.18 seconds 1.45755 hours CTEQ5L-LO_HardQCDSelectionGluon_30To50_2017-02-06-110330
5560.64 seconds 1.54462 hours CTEQ5L-LO_HardQCDSelectionGluon_30To50_2017-02-06-110330
7069.69 seconds 1.9638 hours CTEQ5L-LO_HardQCDSelectionGluon_30To50_2017-02-06-110330
7005.89 seconds 1.94608 hours CTEQ5L-LO_HardQCDSelectionGluon_30To50_2017-02-06-110330
6963.65 seconds 1.93435 hours CTEQ5L-LO_HardQCDSelectionGluon_30To50_2017-02-06-110330
6995.53 seconds 1.9432 hours CTEQ5L-LO_HardQCDSelectionGluon_30To50_2017-02-06-110330
7042.88 seconds 1.95636 hours CTEQ5L-LO_HardQCDSelectionGluon_30To50_2017-02-06-110330
7149.11 seconds 1.98586 hours CTEQ5L-LO_HardQCDSelectionGluon_30To50_2017-02-06-110330
6985.5 seconds 1.94042 hours CTEQ5L-LO_HardQCDSelectionGluon_30To50_2017-02-06-110330
7094.58 seconds 1.97072 hours CTEQ5L-LO_HardQCDSelectionGluon_30To50_2017-02-06-110330
5912.74 seconds 1.64243 hours CTEQ5L-LO_HardQCDSelectionGluon_30To50_2017-02-06-110330
5707.94 seconds 1.58554 hours CTEQ5L-LO_HardQCDSelectionGluon_30To50_2017-02-06-110330
5680.75 seconds 1.57799 hours CTEQ5L-LO_HardQCDSelectionGluon_30To50_2017-02-06-110330
5568.49 seconds 1.5468 hours CTEQ5L-LO_HardQCDSelectionGluon_30To50_2017-02-06-110330


9337.74 seconds 2.59382 hours CTEQ5L-LO_HardQCDSelectionGluon_380To10000_2017-02-06-110330
13224.3 seconds 3.67342 hours CTEQ5L-LO_HardQCDSelectionGluon_380To10000_2017-02-06-110330
13328 seconds 3.70222 hours CTEQ5L-LO_HardQCDSelectionGluon_380To10000_2017-02-06-110330
11775.3 seconds 3.27092 hours CTEQ5L-LO_HardQCDSelectionGluon_380To10000_2017-02-06-110330
11154.9 seconds 3.09858 hours CTEQ5L-LO_HardQCDSelectionGluon_380To10000_2017-02-06-110330
11742.3 seconds 3.26175 hours CTEQ5L-LO_HardQCDSelectionGluon_380To10000_2017-02-06-110330
11726.8 seconds 3.25744 hours CTEQ5L-LO_HardQCDSelectionGluon_380To10000_2017-02-06-110330
12187 seconds 3.38528 hours CTEQ5L-LO_HardQCDSelectionGluon_380To10000_2017-02-06-110330
11650.2 seconds 3.23617 hours CTEQ5L-LO_HardQCDSelectionGluon_380To10000_2017-02-06-110330
13496.3 seconds 3.74897 hours CTEQ5L-LO_HardQCDSelectionGluon_380To10000_2017-02-06-110330
13781.7 seconds 3.82825 hours CTEQ5L-LO_HardQCDSelectionGluon_380To10000_2017-02-06-110330
9306.84 seconds 2.58523 hours CTEQ5L-LO_HardQCDSelectionGluon_380To10000_2017-02-06-110330
10065.2 seconds 2.79589 hours CTEQ5L-LO_HardQCDSelectionGluon_380To10000_2017-02-06-110330
9380.75 seconds 2.60576 hours CTEQ5L-LO_HardQCDSelectionGluon_380To10000_2017-02-06-110330
9203.89 seconds 2.55664 hours CTEQ5L-LO_HardQCDSelectionGluon_380To10000_2017-02-06-110330
9023.44 seconds 2.50651 hours CTEQ5L-LO_HardQCDSelectionGluon_380To10000_2017-02-06-110330
8911.82 seconds 2.47551 hours CTEQ5L-LO_HardQCDSelectionGluon_380To10000_2017-02-06-110330
10082.1 seconds 2.80058 hours CTEQ5L-LO_HardQCDSelectionGluon_380To10000_2017-02-06-110330
10102.3 seconds 2.80619 hours CTEQ5L-LO_HardQCDSelectionGluon_380To10000_2017-02-06-110330
9856.55 seconds 2.73793 hours CTEQ5L-LO_HardQCDSelectionGluon_380To10000_2017-02-06-110330


8587.06 seconds 2.38529 hours CTEQ5L-LO_HardQCDSelectionGluon_50To80_2017-02-06-110330
6023.62 seconds 1.67323 hours CTEQ5L-LO_HardQCDSelectionGluon_50To80_2017-02-06-110330
5873.65 seconds 1.63157 hours CTEQ5L-LO_HardQCDSelectionGluon_50To80_2017-02-06-110330
5879.52 seconds 1.6332 hours CTEQ5L-LO_HardQCDSelectionGluon_50To80_2017-02-06-110330
5929.42 seconds 1.64706 hours CTEQ5L-LO_HardQCDSelectionGluon_50To80_2017-02-06-110330
5989.3 seconds 1.66369 hours CTEQ5L-LO_HardQCDSelectionGluon_50To80_2017-02-06-110330
5959.51 seconds 1.65542 hours CTEQ5L-LO_HardQCDSelectionGluon_50To80_2017-02-06-110330
8528.04 seconds 2.3689 hours CTEQ5L-LO_HardQCDSelectionGluon_50To80_2017-02-06-110330
7636.36 seconds 2.12121 hours CTEQ5L-LO_HardQCDSelectionGluon_50To80_2017-02-06-110330
7694.1 seconds 2.13725 hours CTEQ5L-LO_HardQCDSelectionGluon_50To80_2017-02-06-110330
7638.77 seconds 2.12188 hours CTEQ5L-LO_HardQCDSelectionGluon_50To80_2017-02-06-110330
8485 seconds 2.35694 hours CTEQ5L-LO_HardQCDSelectionGluon_50To80_2017-02-06-110330
7523.68 seconds 2.08991 hours CTEQ5L-LO_HardQCDSelectionGluon_50To80_2017-02-06-110330
8553.94 seconds 2.37609 hours CTEQ5L-LO_HardQCDSelectionGluon_50To80_2017-02-06-110330
8433.92 seconds 2.34276 hours CTEQ5L-LO_HardQCDSelectionGluon_50To80_2017-02-06-110330
7603.97 seconds 2.11221 hours CTEQ5L-LO_HardQCDSelectionGluon_50To80_2017-02-06-110330
7732.85 seconds 2.14801 hours CTEQ5L-LO_HardQCDSelectionGluon_50To80_2017-02-06-110330
7567.93 seconds 2.1022 hours CTEQ5L-LO_HardQCDSelectionGluon_50To80_2017-02-06-110330
6243.06 seconds 1.73418 hours CTEQ5L-LO_HardQCDSelectionGluon_50To80_2017-02-06-110330
5919.81 seconds 1.64439 hours CTEQ5L-LO_HardQCDSelectionGluon_50To80_2017-02-06-110330


8334.88 seconds 2.31524 hours CTEQ5L-LO_HardQCDSelectionGluon_80To120_2017-02-06-110330
7023.09 seconds 1.95086 hours CTEQ5L-LO_HardQCDSelectionGluon_80To120_2017-02-06-110330
6426.64 seconds 1.78518 hours CTEQ5L-LO_HardQCDSelectionGluon_80To120_2017-02-06-110330
6372.91 seconds 1.77025 hours CTEQ5L-LO_HardQCDSelectionGluon_80To120_2017-02-06-110330
6287.94 seconds 1.74665 hours CTEQ5L-LO_HardQCDSelectionGluon_80To120_2017-02-06-110330
6402.48 seconds 1.77847 hours CTEQ5L-LO_HardQCDSelectionGluon_80To120_2017-02-06-110330
9440.72 seconds 2.62242 hours CTEQ5L-LO_HardQCDSelectionGluon_80To120_2017-02-06-110330
9325.53 seconds 2.59043 hours CTEQ5L-LO_HardQCDSelectionGluon_80To120_2017-02-06-110330
8323.36 seconds 2.31204 hours CTEQ5L-LO_HardQCDSelectionGluon_80To120_2017-02-06-110330
8288.86 seconds 2.30246 hours CTEQ5L-LO_HardQCDSelectionGluon_80To120_2017-02-06-110330
8329.65 seconds 2.31379 hours CTEQ5L-LO_HardQCDSelectionGluon_80To120_2017-02-06-110330
9494.34 seconds 2.63732 hours CTEQ5L-LO_HardQCDSelectionGluon_80To120_2017-02-06-110330
8297.23 seconds 2.30479 hours CTEQ5L-LO_HardQCDSelectionGluon_80To120_2017-02-06-110330
6285.52 seconds 1.74598 hours CTEQ5L-LO_HardQCDSelectionGluon_80To120_2017-02-06-110330
7072.51 seconds 1.96459 hours CTEQ5L-LO_HardQCDSelectionGluon_80To120_2017-02-06-110330
7051.9 seconds 1.95886 hours CTEQ5L-LO_HardQCDSelectionGluon_80To120_2017-02-06-110330
6847.11 seconds 1.90197 hours CTEQ5L-LO_HardQCDSelectionGluon_80To120_2017-02-06-110330
6999.02 seconds 1.94417 hours CTEQ5L-LO_HardQCDSelectionGluon_80To120_2017-02-06-110330
7946.64 seconds 2.2074 hours CTEQ5L-LO_HardQCDSelectionGluon_80To120_2017-02-06-110330
7137.69 seconds 1.98269 hours CTEQ5L-LO_HardQCDSelectionGluon_80To120_2017-02-06-110330




