

Time taken to complete the job, Statistics
==========================================
9470.88 seconds 2.6308 hours CTEQ5L-LO_HardQCDAll_10To20_2017-03-01-123207
12058.7 seconds 3.34964 hours CTEQ5L-LO_HardQCDAll_10To20_2017-03-01-123207
9544.65 seconds 2.65129 hours CTEQ5L-LO_HardQCDAll_10To20_2017-03-01-123207
10981.1 seconds 3.05031 hours CTEQ5L-LO_HardQCDAll_10To20_2017-03-01-123207
12276.6 seconds 3.41017 hours CTEQ5L-LO_HardQCDAll_10To20_2017-03-01-123207
11263.1 seconds 3.12864 hours CTEQ5L-LO_HardQCDAll_10To20_2017-03-01-123207
10244.9 seconds 2.84581 hours CTEQ5L-LO_HardQCDAll_10To20_2017-03-01-123207
9270.71 seconds 2.5752 hours CTEQ5L-LO_HardQCDAll_10To20_2017-03-01-123207
9473.69 seconds 2.63158 hours CTEQ5L-LO_HardQCDAll_10To20_2017-03-01-123207
9594.91 seconds 2.66525 hours CTEQ5L-LO_HardQCDAll_10To20_2017-03-01-123207
12372.4 seconds 3.43678 hours CTEQ5L-LO_HardQCDAll_10To20_2017-03-01-123207
10029 seconds 2.78583 hours CTEQ5L-LO_HardQCDAll_10To20_2017-03-01-123207
11143.9 seconds 3.09553 hours CTEQ5L-LO_HardQCDAll_10To20_2017-03-01-123207
9426.4 seconds 2.61844 hours CTEQ5L-LO_HardQCDAll_10To20_2017-03-01-123207
9455.07 seconds 2.62641 hours CTEQ5L-LO_HardQCDAll_10To20_2017-03-01-123207
9490.8 seconds 2.63633 hours CTEQ5L-LO_HardQCDAll_10To20_2017-03-01-123207
9430.74 seconds 2.61965 hours CTEQ5L-LO_HardQCDAll_10To20_2017-03-01-123207
9801 seconds 2.7225 hours CTEQ5L-LO_HardQCDAll_10To20_2017-03-01-123207
9647.9 seconds 2.67997 hours CTEQ5L-LO_HardQCDAll_10To20_2017-03-01-123207
9426.25 seconds 2.6184 hours CTEQ5L-LO_HardQCDAll_10To20_2017-03-01-123207


13554.4 seconds 3.76511 hours CTEQ5L-LO_HardQCDAll_120To170_2017-03-01-123207
13462.3 seconds 3.73953 hours CTEQ5L-LO_HardQCDAll_120To170_2017-03-01-123207
13300.8 seconds 3.69467 hours CTEQ5L-LO_HardQCDAll_120To170_2017-03-01-123207
13257.3 seconds 3.68258 hours CTEQ5L-LO_HardQCDAll_120To170_2017-03-01-123207
14060.8 seconds 3.90578 hours CTEQ5L-LO_HardQCDAll_120To170_2017-03-01-123207
13899.6 seconds 3.861 hours CTEQ5L-LO_HardQCDAll_120To170_2017-03-01-123207
14181 seconds 3.93917 hours CTEQ5L-LO_HardQCDAll_120To170_2017-03-01-123207
13333.5 seconds 3.70375 hours CTEQ5L-LO_HardQCDAll_120To170_2017-03-01-123207
13680.2 seconds 3.80006 hours CTEQ5L-LO_HardQCDAll_120To170_2017-03-01-123207
13615.2 seconds 3.782 hours CTEQ5L-LO_HardQCDAll_120To170_2017-03-01-123207
15270.4 seconds 4.24178 hours CTEQ5L-LO_HardQCDAll_120To170_2017-03-01-123207
13219.2 seconds 3.672 hours CTEQ5L-LO_HardQCDAll_120To170_2017-03-01-123207
13617.8 seconds 3.78272 hours CTEQ5L-LO_HardQCDAll_120To170_2017-03-01-123207
13779 seconds 3.8275 hours CTEQ5L-LO_HardQCDAll_120To170_2017-03-01-123207
13769.4 seconds 3.82483 hours CTEQ5L-LO_HardQCDAll_120To170_2017-03-01-123207
17455.8 seconds 4.84883 hours CTEQ5L-LO_HardQCDAll_120To170_2017-03-01-123207
17249.3 seconds 4.79147 hours CTEQ5L-LO_HardQCDAll_120To170_2017-03-01-123207
12901.3 seconds 3.58369 hours CTEQ5L-LO_HardQCDAll_120To170_2017-03-01-123207
13172.2 seconds 3.65894 hours CTEQ5L-LO_HardQCDAll_120To170_2017-03-01-123207
13499.7 seconds 3.74992 hours CTEQ5L-LO_HardQCDAll_120To170_2017-03-01-123207


20276.5 seconds 5.63236 hours CTEQ5L-LO_HardQCDAll_170To230_2017-03-01-123207
12992.1 seconds 3.60892 hours CTEQ5L-LO_HardQCDAll_170To230_2017-03-01-123207
17693.2 seconds 4.91478 hours CTEQ5L-LO_HardQCDAll_170To230_2017-03-01-123207
17783.2 seconds 4.93978 hours CTEQ5L-LO_HardQCDAll_170To230_2017-03-01-123207
17429.3 seconds 4.84147 hours CTEQ5L-LO_HardQCDAll_170To230_2017-03-01-123207
13979.9 seconds 3.88331 hours CTEQ5L-LO_HardQCDAll_170To230_2017-03-01-123207
17524.8 seconds 4.868 hours CTEQ5L-LO_HardQCDAll_170To230_2017-03-01-123207
14420.7 seconds 4.00575 hours CTEQ5L-LO_HardQCDAll_170To230_2017-03-01-123207
14332.1 seconds 3.98114 hours CTEQ5L-LO_HardQCDAll_170To230_2017-03-01-123207
13953.2 seconds 3.87589 hours CTEQ5L-LO_HardQCDAll_170To230_2017-03-01-123207
13530.7 seconds 3.75853 hours CTEQ5L-LO_HardQCDAll_170To230_2017-03-01-123207
16154 seconds 4.48722 hours CTEQ5L-LO_HardQCDAll_170To230_2017-03-01-123207
17643.2 seconds 4.90089 hours CTEQ5L-LO_HardQCDAll_170To230_2017-03-01-123207
18286.1 seconds 5.07947 hours CTEQ5L-LO_HardQCDAll_170To230_2017-03-01-123207
17780.4 seconds 4.939 hours CTEQ5L-LO_HardQCDAll_170To230_2017-03-01-123207
13582.6 seconds 3.77294 hours CTEQ5L-LO_HardQCDAll_170To230_2017-03-01-123207
13710.9 seconds 3.80858 hours CTEQ5L-LO_HardQCDAll_170To230_2017-03-01-123207
13628.2 seconds 3.78561 hours CTEQ5L-LO_HardQCDAll_170To230_2017-03-01-123207
16112.3 seconds 4.47564 hours CTEQ5L-LO_HardQCDAll_170To230_2017-03-01-123207
14300.9 seconds 3.97247 hours CTEQ5L-LO_HardQCDAll_170To230_2017-03-01-123207


12855.7 seconds 3.57103 hours CTEQ5L-LO_HardQCDAll_20To30_2017-03-01-123207
14458.7 seconds 4.01631 hours CTEQ5L-LO_HardQCDAll_20To30_2017-03-01-123207
12254.5 seconds 3.40403 hours CTEQ5L-LO_HardQCDAll_20To30_2017-03-01-123207
14893.1 seconds 4.13697 hours CTEQ5L-LO_HardQCDAll_20To30_2017-03-01-123207
15005 seconds 4.16806 hours CTEQ5L-LO_HardQCDAll_20To30_2017-03-01-123207
14885.2 seconds 4.13478 hours CTEQ5L-LO_HardQCDAll_20To30_2017-03-01-123207
12787.3 seconds 3.55203 hours CTEQ5L-LO_HardQCDAll_20To30_2017-03-01-123207
12875.8 seconds 3.57661 hours CTEQ5L-LO_HardQCDAll_20To30_2017-03-01-123207
13489.3 seconds 3.74703 hours CTEQ5L-LO_HardQCDAll_20To30_2017-03-01-123207
13251.2 seconds 3.68089 hours CTEQ5L-LO_HardQCDAll_20To30_2017-03-01-123207
13520.9 seconds 3.75581 hours CTEQ5L-LO_HardQCDAll_20To30_2017-03-01-123207
13017.1 seconds 3.61586 hours CTEQ5L-LO_HardQCDAll_20To30_2017-03-01-123207
10968.1 seconds 3.04669 hours CTEQ5L-LO_HardQCDAll_20To30_2017-03-01-123207
13651.2 seconds 3.792 hours CTEQ5L-LO_HardQCDAll_20To30_2017-03-01-123207
14422.2 seconds 4.00617 hours CTEQ5L-LO_HardQCDAll_20To30_2017-03-01-123207
13324 seconds 3.70111 hours CTEQ5L-LO_HardQCDAll_20To30_2017-03-01-123207
14443.9 seconds 4.01219 hours CTEQ5L-LO_HardQCDAll_20To30_2017-03-01-123207
14828.5 seconds 4.11903 hours CTEQ5L-LO_HardQCDAll_20To30_2017-03-01-123207
14538.1 seconds 4.03836 hours CTEQ5L-LO_HardQCDAll_20To30_2017-03-01-123207
13288.2 seconds 3.69117 hours CTEQ5L-LO_HardQCDAll_20To30_2017-03-01-123207


14581.5 seconds 4.05042 hours CTEQ5L-LO_HardQCDAll_230To300_2017-03-01-123207
14263.6 seconds 3.96211 hours CTEQ5L-LO_HardQCDAll_230To300_2017-03-01-123207
17901.8 seconds 4.97272 hours CTEQ5L-LO_HardQCDAll_230To300_2017-03-01-123207
14810.5 seconds 4.11403 hours CTEQ5L-LO_HardQCDAll_230To300_2017-03-01-123207
17973.1 seconds 4.99253 hours CTEQ5L-LO_HardQCDAll_230To300_2017-03-01-123207
18030.7 seconds 5.00853 hours CTEQ5L-LO_HardQCDAll_230To300_2017-03-01-123207
16025.5 seconds 4.45153 hours CTEQ5L-LO_HardQCDAll_230To300_2017-03-01-123207
16067.4 seconds 4.46317 hours CTEQ5L-LO_HardQCDAll_230To300_2017-03-01-123207
16075.1 seconds 4.46531 hours CTEQ5L-LO_HardQCDAll_230To300_2017-03-01-123207
14032.5 seconds 3.89792 hours CTEQ5L-LO_HardQCDAll_230To300_2017-03-01-123207
14677.8 seconds 4.07717 hours CTEQ5L-LO_HardQCDAll_230To300_2017-03-01-123207
14415 seconds 4.00417 hours CTEQ5L-LO_HardQCDAll_230To300_2017-03-01-123207
21350.8 seconds 5.93078 hours CTEQ5L-LO_HardQCDAll_230To300_2017-03-01-123207
14590.7 seconds 4.05297 hours CTEQ5L-LO_HardQCDAll_230To300_2017-03-01-123207
18895.5 seconds 5.24875 hours CTEQ5L-LO_HardQCDAll_230To300_2017-03-01-123207
16352.1 seconds 4.54225 hours CTEQ5L-LO_HardQCDAll_230To300_2017-03-01-123207
16330.7 seconds 4.53631 hours CTEQ5L-LO_HardQCDAll_230To300_2017-03-01-123207
15996.3 seconds 4.44342 hours CTEQ5L-LO_HardQCDAll_230To300_2017-03-01-123207
14794.5 seconds 4.10958 hours CTEQ5L-LO_HardQCDAll_230To300_2017-03-01-123207
15702.6 seconds 4.36183 hours CTEQ5L-LO_HardQCDAll_230To300_2017-03-01-123207


14670.4 seconds 4.07511 hours CTEQ5L-LO_HardQCDAll_300To380_2017-03-01-123207
21603.4 seconds 6.00094 hours CTEQ5L-LO_HardQCDAll_300To380_2017-03-01-123207
18856.5 seconds 5.23792 hours CTEQ5L-LO_HardQCDAll_300To380_2017-03-01-123207
14892.7 seconds 4.13686 hours CTEQ5L-LO_HardQCDAll_300To380_2017-03-01-123207
14778.1 seconds 4.10503 hours CTEQ5L-LO_HardQCDAll_300To380_2017-03-01-123207
15500.3 seconds 4.30564 hours CTEQ5L-LO_HardQCDAll_300To380_2017-03-01-123207
19341.9 seconds 5.37275 hours CTEQ5L-LO_HardQCDAll_300To380_2017-03-01-123207
15227 seconds 4.22972 hours CTEQ5L-LO_HardQCDAll_300To380_2017-03-01-123207
16581.9 seconds 4.60608 hours CTEQ5L-LO_HardQCDAll_300To380_2017-03-01-123207
13528 seconds 3.75778 hours CTEQ5L-LO_HardQCDAll_300To380_2017-03-01-123207
14649 seconds 4.06917 hours CTEQ5L-LO_HardQCDAll_300To380_2017-03-01-123207
15030.7 seconds 4.17519 hours CTEQ5L-LO_HardQCDAll_300To380_2017-03-01-123207
14727.7 seconds 4.09103 hours CTEQ5L-LO_HardQCDAll_300To380_2017-03-01-123207
14479.7 seconds 4.02214 hours CTEQ5L-LO_HardQCDAll_300To380_2017-03-01-123207
18322.9 seconds 5.08969 hours CTEQ5L-LO_HardQCDAll_300To380_2017-03-01-123207
16686.7 seconds 4.63519 hours CTEQ5L-LO_HardQCDAll_300To380_2017-03-01-123207
16842.9 seconds 4.67858 hours CTEQ5L-LO_HardQCDAll_300To380_2017-03-01-123207
14653.3 seconds 4.07036 hours CTEQ5L-LO_HardQCDAll_300To380_2017-03-01-123207
16597.7 seconds 4.61047 hours CTEQ5L-LO_HardQCDAll_300To380_2017-03-01-123207
16562.6 seconds 4.60072 hours CTEQ5L-LO_HardQCDAll_300To380_2017-03-01-123207


11399.6 seconds 3.16656 hours CTEQ5L-LO_HardQCDAll_30To50_2017-03-01-123207
11482.4 seconds 3.18956 hours CTEQ5L-LO_HardQCDAll_30To50_2017-03-01-123207
12310.5 seconds 3.41958 hours CTEQ5L-LO_HardQCDAll_30To50_2017-03-01-123207
10953.5 seconds 3.04264 hours CTEQ5L-LO_HardQCDAll_30To50_2017-03-01-123207
13875.2 seconds 3.85422 hours CTEQ5L-LO_HardQCDAll_30To50_2017-03-01-123207
11642.3 seconds 3.23397 hours CTEQ5L-LO_HardQCDAll_30To50_2017-03-01-123207
14220.1 seconds 3.95003 hours CTEQ5L-LO_HardQCDAll_30To50_2017-03-01-123207
14087.9 seconds 3.91331 hours CTEQ5L-LO_HardQCDAll_30To50_2017-03-01-123207
14246 seconds 3.95722 hours CTEQ5L-LO_HardQCDAll_30To50_2017-03-01-123207
14218 seconds 3.94944 hours CTEQ5L-LO_HardQCDAll_30To50_2017-03-01-123207
11526 seconds 3.20167 hours CTEQ5L-LO_HardQCDAll_30To50_2017-03-01-123207
11388.2 seconds 3.16339 hours CTEQ5L-LO_HardQCDAll_30To50_2017-03-01-123207
13724 seconds 3.81222 hours CTEQ5L-LO_HardQCDAll_30To50_2017-03-01-123207
11545.3 seconds 3.20703 hours CTEQ5L-LO_HardQCDAll_30To50_2017-03-01-123207
11351.5 seconds 3.15319 hours CTEQ5L-LO_HardQCDAll_30To50_2017-03-01-123207
11515.4 seconds 3.19872 hours CTEQ5L-LO_HardQCDAll_30To50_2017-03-01-123207
11825.7 seconds 3.28492 hours CTEQ5L-LO_HardQCDAll_30To50_2017-03-01-123207
11391.3 seconds 3.16425 hours CTEQ5L-LO_HardQCDAll_30To50_2017-03-01-123207
11392.8 seconds 3.16467 hours CTEQ5L-LO_HardQCDAll_30To50_2017-03-01-123207
11415.6 seconds 3.171 hours CTEQ5L-LO_HardQCDAll_30To50_2017-03-01-123207


14967.2 seconds 4.15756 hours CTEQ5L-LO_HardQCDAll_380To10000_2017-03-01-123207
19364.6 seconds 5.37906 hours CTEQ5L-LO_HardQCDAll_380To10000_2017-03-01-123207
14773.7 seconds 4.10381 hours CTEQ5L-LO_HardQCDAll_380To10000_2017-03-01-123207
14582.4 seconds 4.05067 hours CTEQ5L-LO_HardQCDAll_380To10000_2017-03-01-123207
14706.5 seconds 4.08514 hours CTEQ5L-LO_HardQCDAll_380To10000_2017-03-01-123207
15309.5 seconds 4.25264 hours CTEQ5L-LO_HardQCDAll_380To10000_2017-03-01-123207
21239.7 seconds 5.89992 hours CTEQ5L-LO_HardQCDAll_380To10000_2017-03-01-123207
21059.7 seconds 5.84992 hours CTEQ5L-LO_HardQCDAll_380To10000_2017-03-01-123207
15592.9 seconds 4.33136 hours CTEQ5L-LO_HardQCDAll_380To10000_2017-03-01-123207
14863.9 seconds 4.12886 hours CTEQ5L-LO_HardQCDAll_380To10000_2017-03-01-123207
15755.4 seconds 4.3765 hours CTEQ5L-LO_HardQCDAll_380To10000_2017-03-01-123207
13794.8 seconds 3.83189 hours CTEQ5L-LO_HardQCDAll_380To10000_2017-03-01-123207
15457.6 seconds 4.29378 hours CTEQ5L-LO_HardQCDAll_380To10000_2017-03-01-123207
16119.2 seconds 4.47756 hours CTEQ5L-LO_HardQCDAll_380To10000_2017-03-01-123207
19282.9 seconds 5.35636 hours CTEQ5L-LO_HardQCDAll_380To10000_2017-03-01-123207
18838.8 seconds 5.233 hours CTEQ5L-LO_HardQCDAll_380To10000_2017-03-01-123207
19269.6 seconds 5.35267 hours CTEQ5L-LO_HardQCDAll_380To10000_2017-03-01-123207
18723 seconds 5.20083 hours CTEQ5L-LO_HardQCDAll_380To10000_2017-03-01-123207
15928.8 seconds 4.42467 hours CTEQ5L-LO_HardQCDAll_380To10000_2017-03-01-123207
14797.7 seconds 4.11047 hours CTEQ5L-LO_HardQCDAll_380To10000_2017-03-01-123207


14821.9 seconds 4.11719 hours CTEQ5L-LO_HardQCDAll_50To80_2017-03-01-123207
16713.1 seconds 4.64253 hours CTEQ5L-LO_HardQCDAll_50To80_2017-03-01-123207
15025.1 seconds 4.17364 hours CTEQ5L-LO_HardQCDAll_50To80_2017-03-01-123207
15026.6 seconds 4.17406 hours CTEQ5L-LO_HardQCDAll_50To80_2017-03-01-123207
14837.4 seconds 4.1215 hours CTEQ5L-LO_HardQCDAll_50To80_2017-03-01-123207
14770.2 seconds 4.10283 hours CTEQ5L-LO_HardQCDAll_50To80_2017-03-01-123207
17008.2 seconds 4.7245 hours CTEQ5L-LO_HardQCDAll_50To80_2017-03-01-123207
17027.5 seconds 4.72986 hours CTEQ5L-LO_HardQCDAll_50To80_2017-03-01-123207
15253.9 seconds 4.23719 hours CTEQ5L-LO_HardQCDAll_50To80_2017-03-01-123207
11883.7 seconds 3.30103 hours CTEQ5L-LO_HardQCDAll_50To80_2017-03-01-123207
11824.7 seconds 3.28464 hours CTEQ5L-LO_HardQCDAll_50To80_2017-03-01-123207
17354 seconds 4.82056 hours CTEQ5L-LO_HardQCDAll_50To80_2017-03-01-123207
13589.7 seconds 3.77492 hours CTEQ5L-LO_HardQCDAll_50To80_2017-03-01-123207
15392.8 seconds 4.27578 hours CTEQ5L-LO_HardQCDAll_50To80_2017-03-01-123207
17093.7 seconds 4.74825 hours CTEQ5L-LO_HardQCDAll_50To80_2017-03-01-123207
16816.7 seconds 4.67131 hours CTEQ5L-LO_HardQCDAll_50To80_2017-03-01-123207
15209.3 seconds 4.22481 hours CTEQ5L-LO_HardQCDAll_50To80_2017-03-01-123207
15190.9 seconds 4.21969 hours CTEQ5L-LO_HardQCDAll_50To80_2017-03-01-123207
14962.5 seconds 4.15625 hours CTEQ5L-LO_HardQCDAll_50To80_2017-03-01-123207
14890.5 seconds 4.13625 hours CTEQ5L-LO_HardQCDAll_50To80_2017-03-01-123207


12729.9 seconds 3.53608 hours CTEQ5L-LO_HardQCDAll_80To120_2017-03-01-123207
13055.1 seconds 3.62642 hours CTEQ5L-LO_HardQCDAll_80To120_2017-03-01-123207
13209.8 seconds 3.66939 hours CTEQ5L-LO_HardQCDAll_80To120_2017-03-01-123207
13765.2 seconds 3.82367 hours CTEQ5L-LO_HardQCDAll_80To120_2017-03-01-123207
12916.9 seconds 3.58803 hours CTEQ5L-LO_HardQCDAll_80To120_2017-03-01-123207
13115.5 seconds 3.64319 hours CTEQ5L-LO_HardQCDAll_80To120_2017-03-01-123207
16066.9 seconds 4.46303 hours CTEQ5L-LO_HardQCDAll_80To120_2017-03-01-123207
12599.3 seconds 3.49981 hours CTEQ5L-LO_HardQCDAll_80To120_2017-03-01-123207
13091.2 seconds 3.63644 hours CTEQ5L-LO_HardQCDAll_80To120_2017-03-01-123207
16422.2 seconds 4.56172 hours CTEQ5L-LO_HardQCDAll_80To120_2017-03-01-123207
16126.5 seconds 4.47958 hours CTEQ5L-LO_HardQCDAll_80To120_2017-03-01-123207
15861.4 seconds 4.40594 hours CTEQ5L-LO_HardQCDAll_80To120_2017-03-01-123207
12942.2 seconds 3.59506 hours CTEQ5L-LO_HardQCDAll_80To120_2017-03-01-123207
12948.8 seconds 3.59689 hours CTEQ5L-LO_HardQCDAll_80To120_2017-03-01-123207
12845.9 seconds 3.56831 hours CTEQ5L-LO_HardQCDAll_80To120_2017-03-01-123207
14300.6 seconds 3.97239 hours CTEQ5L-LO_HardQCDAll_80To120_2017-03-01-123207
12722.6 seconds 3.53406 hours CTEQ5L-LO_HardQCDAll_80To120_2017-03-01-123207
12729.8 seconds 3.53606 hours CTEQ5L-LO_HardQCDAll_80To120_2017-03-01-123207
12660.4 seconds 3.51678 hours CTEQ5L-LO_HardQCDAll_80To120_2017-03-01-123207
12330.9 seconds 3.42525 hours CTEQ5L-LO_HardQCDAll_80To120_2017-03-01-123207




