

Time taken to complete the job, Statistics
==========================================
8467.32 seconds 2.35203 hours CTEQ5L-LO_HardQCDSelectionQuark_10To20_2017-03-01-123214
8180.3 seconds 2.27231 hours CTEQ5L-LO_HardQCDSelectionQuark_10To20_2017-03-01-123214
8261.49 seconds 2.29486 hours CTEQ5L-LO_HardQCDSelectionQuark_10To20_2017-03-01-123214
8379.31 seconds 2.32759 hours CTEQ5L-LO_HardQCDSelectionQuark_10To20_2017-03-01-123214
11991.9 seconds 3.33108 hours CTEQ5L-LO_HardQCDSelectionQuark_10To20_2017-03-01-123214
8616.38 seconds 2.39344 hours CTEQ5L-LO_HardQCDSelectionQuark_10To20_2017-03-01-123214
8465.87 seconds 2.35163 hours CTEQ5L-LO_HardQCDSelectionQuark_10To20_2017-03-01-123214
8432.43 seconds 2.34234 hours CTEQ5L-LO_HardQCDSelectionQuark_10To20_2017-03-01-123214
9725.86 seconds 2.70163 hours CTEQ5L-LO_HardQCDSelectionQuark_10To20_2017-03-01-123214
9497.82 seconds 2.63828 hours CTEQ5L-LO_HardQCDSelectionQuark_10To20_2017-03-01-123214
8087.74 seconds 2.24659 hours CTEQ5L-LO_HardQCDSelectionQuark_10To20_2017-03-01-123214
7998.51 seconds 2.22181 hours CTEQ5L-LO_HardQCDSelectionQuark_10To20_2017-03-01-123214
9209.18 seconds 2.55811 hours CTEQ5L-LO_HardQCDSelectionQuark_10To20_2017-03-01-123214
8283.28 seconds 2.30091 hours CTEQ5L-LO_HardQCDSelectionQuark_10To20_2017-03-01-123214
8358 seconds 2.32167 hours CTEQ5L-LO_HardQCDSelectionQuark_10To20_2017-03-01-123214
9273.18 seconds 2.57588 hours CTEQ5L-LO_HardQCDSelectionQuark_10To20_2017-03-01-123214
9145.25 seconds 2.54035 hours CTEQ5L-LO_HardQCDSelectionQuark_10To20_2017-03-01-123214
8254.57 seconds 2.29294 hours CTEQ5L-LO_HardQCDSelectionQuark_10To20_2017-03-01-123214
9184.19 seconds 2.55116 hours CTEQ5L-LO_HardQCDSelectionQuark_10To20_2017-03-01-123214
8318.29 seconds 2.31064 hours CTEQ5L-LO_HardQCDSelectionQuark_10To20_2017-03-01-123214


9985.29 seconds 2.77369 hours CTEQ5L-LO_HardQCDSelectionQuark_120To170_2017-03-01-123214
11129.2 seconds 3.09144 hours CTEQ5L-LO_HardQCDSelectionQuark_120To170_2017-03-01-123214
11814.3 seconds 3.28175 hours CTEQ5L-LO_HardQCDSelectionQuark_120To170_2017-03-01-123214
11545.2 seconds 3.207 hours CTEQ5L-LO_HardQCDSelectionQuark_120To170_2017-03-01-123214
10165.1 seconds 2.82364 hours CTEQ5L-LO_HardQCDSelectionQuark_120To170_2017-03-01-123214
10121 seconds 2.81139 hours CTEQ5L-LO_HardQCDSelectionQuark_120To170_2017-03-01-123214
10068.6 seconds 2.79683 hours CTEQ5L-LO_HardQCDSelectionQuark_120To170_2017-03-01-123214
10161.6 seconds 2.82267 hours CTEQ5L-LO_HardQCDSelectionQuark_120To170_2017-03-01-123214
15676.3 seconds 4.35453 hours CTEQ5L-LO_HardQCDSelectionQuark_120To170_2017-03-01-123214
15446.6 seconds 4.29072 hours CTEQ5L-LO_HardQCDSelectionQuark_120To170_2017-03-01-123214
14355.5 seconds 3.98764 hours CTEQ5L-LO_HardQCDSelectionQuark_120To170_2017-03-01-123214
10865.4 seconds 3.01817 hours CTEQ5L-LO_HardQCDSelectionQuark_120To170_2017-03-01-123214
14067.5 seconds 3.90764 hours CTEQ5L-LO_HardQCDSelectionQuark_120To170_2017-03-01-123214
10832.8 seconds 3.00911 hours CTEQ5L-LO_HardQCDSelectionQuark_120To170_2017-03-01-123214
11101.5 seconds 3.08375 hours CTEQ5L-LO_HardQCDSelectionQuark_120To170_2017-03-01-123214
10836.9 seconds 3.01025 hours CTEQ5L-LO_HardQCDSelectionQuark_120To170_2017-03-01-123214
10959.6 seconds 3.04433 hours CTEQ5L-LO_HardQCDSelectionQuark_120To170_2017-03-01-123214
10903.2 seconds 3.02867 hours CTEQ5L-LO_HardQCDSelectionQuark_120To170_2017-03-01-123214
10754.8 seconds 2.98744 hours CTEQ5L-LO_HardQCDSelectionQuark_120To170_2017-03-01-123214
11037.1 seconds 3.06586 hours CTEQ5L-LO_HardQCDSelectionQuark_120To170_2017-03-01-123214


11586.2 seconds 3.21839 hours CTEQ5L-LO_HardQCDSelectionQuark_170To230_2017-03-01-123214
13128.5 seconds 3.64681 hours CTEQ5L-LO_HardQCDSelectionQuark_170To230_2017-03-01-123214
10492.4 seconds 2.91456 hours CTEQ5L-LO_HardQCDSelectionQuark_170To230_2017-03-01-123214
14572.2 seconds 4.04783 hours CTEQ5L-LO_HardQCDSelectionQuark_170To230_2017-03-01-123214
14974.9 seconds 4.15969 hours CTEQ5L-LO_HardQCDSelectionQuark_170To230_2017-03-01-123214
12898.3 seconds 3.58286 hours CTEQ5L-LO_HardQCDSelectionQuark_170To230_2017-03-01-123214
11317.9 seconds 3.14386 hours CTEQ5L-LO_HardQCDSelectionQuark_170To230_2017-03-01-123214
14896 seconds 4.13778 hours CTEQ5L-LO_HardQCDSelectionQuark_170To230_2017-03-01-123214
12946 seconds 3.59611 hours CTEQ5L-LO_HardQCDSelectionQuark_170To230_2017-03-01-123214
13395.5 seconds 3.72097 hours CTEQ5L-LO_HardQCDSelectionQuark_170To230_2017-03-01-123214
11971.8 seconds 3.3255 hours CTEQ5L-LO_HardQCDSelectionQuark_170To230_2017-03-01-123214
13219.6 seconds 3.67211 hours CTEQ5L-LO_HardQCDSelectionQuark_170To230_2017-03-01-123214
11694.3 seconds 3.24842 hours CTEQ5L-LO_HardQCDSelectionQuark_170To230_2017-03-01-123214
16373 seconds 4.54806 hours CTEQ5L-LO_HardQCDSelectionQuark_170To230_2017-03-01-123214
15500.5 seconds 4.30569 hours CTEQ5L-LO_HardQCDSelectionQuark_170To230_2017-03-01-123214
10449.5 seconds 2.90264 hours CTEQ5L-LO_HardQCDSelectionQuark_170To230_2017-03-01-123214
12421.4 seconds 3.45039 hours CTEQ5L-LO_HardQCDSelectionQuark_170To230_2017-03-01-123214
11462.2 seconds 3.18394 hours CTEQ5L-LO_HardQCDSelectionQuark_170To230_2017-03-01-123214
10988.1 seconds 3.05225 hours CTEQ5L-LO_HardQCDSelectionQuark_170To230_2017-03-01-123214
16620.7 seconds 4.61686 hours CTEQ5L-LO_HardQCDSelectionQuark_170To230_2017-03-01-123214


9919.8 seconds 2.7555 hours CTEQ5L-LO_HardQCDSelectionQuark_20To30_2017-03-01-123214
12237.9 seconds 3.39942 hours CTEQ5L-LO_HardQCDSelectionQuark_20To30_2017-03-01-123214
12153.4 seconds 3.37594 hours CTEQ5L-LO_HardQCDSelectionQuark_20To30_2017-03-01-123214
8712.53 seconds 2.42015 hours CTEQ5L-LO_HardQCDSelectionQuark_20To30_2017-03-01-123214
8679.68 seconds 2.41102 hours CTEQ5L-LO_HardQCDSelectionQuark_20To30_2017-03-01-123214
8815.58 seconds 2.44877 hours CTEQ5L-LO_HardQCDSelectionQuark_20To30_2017-03-01-123214
8829.61 seconds 2.45267 hours CTEQ5L-LO_HardQCDSelectionQuark_20To30_2017-03-01-123214
10006.4 seconds 2.77956 hours CTEQ5L-LO_HardQCDSelectionQuark_20To30_2017-03-01-123214
9924.54 seconds 2.75682 hours CTEQ5L-LO_HardQCDSelectionQuark_20To30_2017-03-01-123214
10174.4 seconds 2.82622 hours CTEQ5L-LO_HardQCDSelectionQuark_20To30_2017-03-01-123214
10246.4 seconds 2.84622 hours CTEQ5L-LO_HardQCDSelectionQuark_20To30_2017-03-01-123214
11405.7 seconds 3.16825 hours CTEQ5L-LO_HardQCDSelectionQuark_20To30_2017-03-01-123214
8720.49 seconds 2.42236 hours CTEQ5L-LO_HardQCDSelectionQuark_20To30_2017-03-01-123214
11261.9 seconds 3.12831 hours CTEQ5L-LO_HardQCDSelectionQuark_20To30_2017-03-01-123214
11694.1 seconds 3.24836 hours CTEQ5L-LO_HardQCDSelectionQuark_20To30_2017-03-01-123214
11616.9 seconds 3.22692 hours CTEQ5L-LO_HardQCDSelectionQuark_20To30_2017-03-01-123214
8445.45 seconds 2.34596 hours CTEQ5L-LO_HardQCDSelectionQuark_20To30_2017-03-01-123214
12815.2 seconds 3.55978 hours CTEQ5L-LO_HardQCDSelectionQuark_20To30_2017-03-01-123214
12040.8 seconds 3.34467 hours CTEQ5L-LO_HardQCDSelectionQuark_20To30_2017-03-01-123214
13023.7 seconds 3.61769 hours CTEQ5L-LO_HardQCDSelectionQuark_20To30_2017-03-01-123214


11953.6 seconds 3.32044 hours CTEQ5L-LO_HardQCDSelectionQuark_230To300_2017-03-01-123214
11543.1 seconds 3.20642 hours CTEQ5L-LO_HardQCDSelectionQuark_230To300_2017-03-01-123214
11954.7 seconds 3.32075 hours CTEQ5L-LO_HardQCDSelectionQuark_230To300_2017-03-01-123214
11573 seconds 3.21472 hours CTEQ5L-LO_HardQCDSelectionQuark_230To300_2017-03-01-123214
11568.6 seconds 3.2135 hours CTEQ5L-LO_HardQCDSelectionQuark_230To300_2017-03-01-123214
11821.3 seconds 3.28369 hours CTEQ5L-LO_HardQCDSelectionQuark_230To300_2017-03-01-123214
10846.5 seconds 3.01292 hours CTEQ5L-LO_HardQCDSelectionQuark_230To300_2017-03-01-123214
11756.3 seconds 3.26564 hours CTEQ5L-LO_HardQCDSelectionQuark_230To300_2017-03-01-123214
10756 seconds 2.98778 hours CTEQ5L-LO_HardQCDSelectionQuark_230To300_2017-03-01-123214
16624.2 seconds 4.61783 hours CTEQ5L-LO_HardQCDSelectionQuark_230To300_2017-03-01-123214
11835.8 seconds 3.28772 hours CTEQ5L-LO_HardQCDSelectionQuark_230To300_2017-03-01-123214
13356.4 seconds 3.71011 hours CTEQ5L-LO_HardQCDSelectionQuark_230To300_2017-03-01-123214
11638.3 seconds 3.23286 hours CTEQ5L-LO_HardQCDSelectionQuark_230To300_2017-03-01-123214
11915.9 seconds 3.30997 hours CTEQ5L-LO_HardQCDSelectionQuark_230To300_2017-03-01-123214
13299.8 seconds 3.69439 hours CTEQ5L-LO_HardQCDSelectionQuark_230To300_2017-03-01-123214
12032.6 seconds 3.34239 hours CTEQ5L-LO_HardQCDSelectionQuark_230To300_2017-03-01-123214
13319.6 seconds 3.69989 hours CTEQ5L-LO_HardQCDSelectionQuark_230To300_2017-03-01-123214
13491.7 seconds 3.74769 hours CTEQ5L-LO_HardQCDSelectionQuark_230To300_2017-03-01-123214
15602.7 seconds 4.33408 hours CTEQ5L-LO_HardQCDSelectionQuark_230To300_2017-03-01-123214
12020.5 seconds 3.33903 hours CTEQ5L-LO_HardQCDSelectionQuark_230To300_2017-03-01-123214


12340.8 seconds 3.428 hours CTEQ5L-LO_HardQCDSelectionQuark_300To380_2017-03-01-123214
17313.4 seconds 4.80928 hours CTEQ5L-LO_HardQCDSelectionQuark_300To380_2017-03-01-123214
14060.8 seconds 3.90578 hours CTEQ5L-LO_HardQCDSelectionQuark_300To380_2017-03-01-123214
12057.2 seconds 3.34922 hours CTEQ5L-LO_HardQCDSelectionQuark_300To380_2017-03-01-123214
12830.7 seconds 3.56408 hours CTEQ5L-LO_HardQCDSelectionQuark_300To380_2017-03-01-123214
12348.6 seconds 3.43017 hours CTEQ5L-LO_HardQCDSelectionQuark_300To380_2017-03-01-123214
11916 seconds 3.31 hours CTEQ5L-LO_HardQCDSelectionQuark_300To380_2017-03-01-123214
12015.7 seconds 3.33769 hours CTEQ5L-LO_HardQCDSelectionQuark_300To380_2017-03-01-123214
12428.2 seconds 3.45228 hours CTEQ5L-LO_HardQCDSelectionQuark_300To380_2017-03-01-123214
12206.1 seconds 3.39058 hours CTEQ5L-LO_HardQCDSelectionQuark_300To380_2017-03-01-123214
15621.7 seconds 4.33936 hours CTEQ5L-LO_HardQCDSelectionQuark_300To380_2017-03-01-123214
12243.4 seconds 3.40094 hours CTEQ5L-LO_HardQCDSelectionQuark_300To380_2017-03-01-123214
14289.8 seconds 3.96939 hours CTEQ5L-LO_HardQCDSelectionQuark_300To380_2017-03-01-123214
12330.9 seconds 3.42525 hours CTEQ5L-LO_HardQCDSelectionQuark_300To380_2017-03-01-123214
12150.4 seconds 3.37511 hours CTEQ5L-LO_HardQCDSelectionQuark_300To380_2017-03-01-123214
12225.9 seconds 3.39608 hours CTEQ5L-LO_HardQCDSelectionQuark_300To380_2017-03-01-123214
17278.7 seconds 4.79964 hours CTEQ5L-LO_HardQCDSelectionQuark_300To380_2017-03-01-123214
12773.5 seconds 3.54819 hours CTEQ5L-LO_HardQCDSelectionQuark_300To380_2017-03-01-123214
11927.9 seconds 3.31331 hours CTEQ5L-LO_HardQCDSelectionQuark_300To380_2017-03-01-123214
17420.4 seconds 4.839 hours CTEQ5L-LO_HardQCDSelectionQuark_300To380_2017-03-01-123214


9193.77 seconds 2.55383 hours CTEQ5L-LO_HardQCDSelectionQuark_30To50_2017-03-01-123214
9090.13 seconds 2.52504 hours CTEQ5L-LO_HardQCDSelectionQuark_30To50_2017-03-01-123214
9115.75 seconds 2.53215 hours CTEQ5L-LO_HardQCDSelectionQuark_30To50_2017-03-01-123214
12135.4 seconds 3.37094 hours CTEQ5L-LO_HardQCDSelectionQuark_30To50_2017-03-01-123214
9641.45 seconds 2.67818 hours CTEQ5L-LO_HardQCDSelectionQuark_30To50_2017-03-01-123214
9346.12 seconds 2.59614 hours CTEQ5L-LO_HardQCDSelectionQuark_30To50_2017-03-01-123214
9619.65 seconds 2.67212 hours CTEQ5L-LO_HardQCDSelectionQuark_30To50_2017-03-01-123214
10337.7 seconds 2.87158 hours CTEQ5L-LO_HardQCDSelectionQuark_30To50_2017-03-01-123214
10398.7 seconds 2.88853 hours CTEQ5L-LO_HardQCDSelectionQuark_30To50_2017-03-01-123214
9591.14 seconds 2.66421 hours CTEQ5L-LO_HardQCDSelectionQuark_30To50_2017-03-01-123214
9257.8 seconds 2.57161 hours CTEQ5L-LO_HardQCDSelectionQuark_30To50_2017-03-01-123214
10438.1 seconds 2.89947 hours CTEQ5L-LO_HardQCDSelectionQuark_30To50_2017-03-01-123214
9369.51 seconds 2.60264 hours CTEQ5L-LO_HardQCDSelectionQuark_30To50_2017-03-01-123214
10719.5 seconds 2.97764 hours CTEQ5L-LO_HardQCDSelectionQuark_30To50_2017-03-01-123214
10769.5 seconds 2.99153 hours CTEQ5L-LO_HardQCDSelectionQuark_30To50_2017-03-01-123214
9133.98 seconds 2.53722 hours CTEQ5L-LO_HardQCDSelectionQuark_30To50_2017-03-01-123214
9659.23 seconds 2.68312 hours CTEQ5L-LO_HardQCDSelectionQuark_30To50_2017-03-01-123214
9776.5 seconds 2.71569 hours CTEQ5L-LO_HardQCDSelectionQuark_30To50_2017-03-01-123214
9539.61 seconds 2.64989 hours CTEQ5L-LO_HardQCDSelectionQuark_30To50_2017-03-01-123214
9343.5 seconds 2.59542 hours CTEQ5L-LO_HardQCDSelectionQuark_30To50_2017-03-01-123214


12719.6 seconds 3.53322 hours CTEQ5L-LO_HardQCDSelectionQuark_380To10000_2017-03-01-123214
13226.1 seconds 3.67392 hours CTEQ5L-LO_HardQCDSelectionQuark_380To10000_2017-03-01-123214
13224.9 seconds 3.67358 hours CTEQ5L-LO_HardQCDSelectionQuark_380To10000_2017-03-01-123214
16113 seconds 4.47583 hours CTEQ5L-LO_HardQCDSelectionQuark_380To10000_2017-03-01-123214
12397.6 seconds 3.44378 hours CTEQ5L-LO_HardQCDSelectionQuark_380To10000_2017-03-01-123214
12526.4 seconds 3.47956 hours CTEQ5L-LO_HardQCDSelectionQuark_380To10000_2017-03-01-123214
12149 seconds 3.37472 hours CTEQ5L-LO_HardQCDSelectionQuark_380To10000_2017-03-01-123214
12210.5 seconds 3.39181 hours CTEQ5L-LO_HardQCDSelectionQuark_380To10000_2017-03-01-123214
12966.7 seconds 3.60186 hours CTEQ5L-LO_HardQCDSelectionQuark_380To10000_2017-03-01-123214
12189.4 seconds 3.38594 hours CTEQ5L-LO_HardQCDSelectionQuark_380To10000_2017-03-01-123214
14512.8 seconds 4.03133 hours CTEQ5L-LO_HardQCDSelectionQuark_380To10000_2017-03-01-123214
12272 seconds 3.40889 hours CTEQ5L-LO_HardQCDSelectionQuark_380To10000_2017-03-01-123214
12548 seconds 3.48556 hours CTEQ5L-LO_HardQCDSelectionQuark_380To10000_2017-03-01-123214
16698.2 seconds 4.63839 hours CTEQ5L-LO_HardQCDSelectionQuark_380To10000_2017-03-01-123214
12509.4 seconds 3.47483 hours CTEQ5L-LO_HardQCDSelectionQuark_380To10000_2017-03-01-123214
17529.5 seconds 4.86931 hours CTEQ5L-LO_HardQCDSelectionQuark_380To10000_2017-03-01-123214
16828.4 seconds 4.67456 hours CTEQ5L-LO_HardQCDSelectionQuark_380To10000_2017-03-01-123214
15775.3 seconds 4.38203 hours CTEQ5L-LO_HardQCDSelectionQuark_380To10000_2017-03-01-123214
18826 seconds 5.22944 hours CTEQ5L-LO_HardQCDSelectionQuark_380To10000_2017-03-01-123214
13463.3 seconds 3.73981 hours CTEQ5L-LO_HardQCDSelectionQuark_380To10000_2017-03-01-123214


13083.2 seconds 3.63422 hours CTEQ5L-LO_HardQCDSelectionQuark_50To80_2017-03-01-123214
13941.7 seconds 3.87269 hours CTEQ5L-LO_HardQCDSelectionQuark_50To80_2017-03-01-123214
12556.4 seconds 3.48789 hours CTEQ5L-LO_HardQCDSelectionQuark_50To80_2017-03-01-123214
12529.1 seconds 3.48031 hours CTEQ5L-LO_HardQCDSelectionQuark_50To80_2017-03-01-123214
12541.2 seconds 3.48367 hours CTEQ5L-LO_HardQCDSelectionQuark_50To80_2017-03-01-123214
14765.9 seconds 4.10164 hours CTEQ5L-LO_HardQCDSelectionQuark_50To80_2017-03-01-123214
14345.5 seconds 3.98486 hours CTEQ5L-LO_HardQCDSelectionQuark_50To80_2017-03-01-123214
14275.1 seconds 3.96531 hours CTEQ5L-LO_HardQCDSelectionQuark_50To80_2017-03-01-123214
10359.9 seconds 2.87775 hours CTEQ5L-LO_HardQCDSelectionQuark_50To80_2017-03-01-123214
10648.9 seconds 2.95803 hours CTEQ5L-LO_HardQCDSelectionQuark_50To80_2017-03-01-123214
9796.44 seconds 2.72123 hours CTEQ5L-LO_HardQCDSelectionQuark_50To80_2017-03-01-123214
12888.2 seconds 3.58006 hours CTEQ5L-LO_HardQCDSelectionQuark_50To80_2017-03-01-123214
9555.57 seconds 2.65433 hours CTEQ5L-LO_HardQCDSelectionQuark_50To80_2017-03-01-123214
9369.29 seconds 2.60258 hours CTEQ5L-LO_HardQCDSelectionQuark_50To80_2017-03-01-123214
9786.99 seconds 2.71861 hours CTEQ5L-LO_HardQCDSelectionQuark_50To80_2017-03-01-123214
9500.66 seconds 2.63907 hours CTEQ5L-LO_HardQCDSelectionQuark_50To80_2017-03-01-123214
9558.14 seconds 2.65504 hours CTEQ5L-LO_HardQCDSelectionQuark_50To80_2017-03-01-123214
14205.1 seconds 3.94586 hours CTEQ5L-LO_HardQCDSelectionQuark_50To80_2017-03-01-123214
13894.3 seconds 3.85953 hours CTEQ5L-LO_HardQCDSelectionQuark_50To80_2017-03-01-123214
13297.4 seconds 3.69372 hours CTEQ5L-LO_HardQCDSelectionQuark_50To80_2017-03-01-123214


10558.2 seconds 2.93283 hours CTEQ5L-LO_HardQCDSelectionQuark_80To120_2017-03-01-123214
13602.3 seconds 3.77842 hours CTEQ5L-LO_HardQCDSelectionQuark_80To120_2017-03-01-123214
12881.9 seconds 3.57831 hours CTEQ5L-LO_HardQCDSelectionQuark_80To120_2017-03-01-123214
11007.4 seconds 3.05761 hours CTEQ5L-LO_HardQCDSelectionQuark_80To120_2017-03-01-123214
12288.3 seconds 3.41342 hours CTEQ5L-LO_HardQCDSelectionQuark_80To120_2017-03-01-123214
10501.5 seconds 2.91708 hours CTEQ5L-LO_HardQCDSelectionQuark_80To120_2017-03-01-123214
11804.6 seconds 3.27906 hours CTEQ5L-LO_HardQCDSelectionQuark_80To120_2017-03-01-123214
11972.2 seconds 3.32561 hours CTEQ5L-LO_HardQCDSelectionQuark_80To120_2017-03-01-123214
11706 seconds 3.25167 hours CTEQ5L-LO_HardQCDSelectionQuark_80To120_2017-03-01-123214
10386.3 seconds 2.88508 hours CTEQ5L-LO_HardQCDSelectionQuark_80To120_2017-03-01-123214
10349.2 seconds 2.87478 hours CTEQ5L-LO_HardQCDSelectionQuark_80To120_2017-03-01-123214
10579.5 seconds 2.93875 hours CTEQ5L-LO_HardQCDSelectionQuark_80To120_2017-03-01-123214
10880 seconds 3.02222 hours CTEQ5L-LO_HardQCDSelectionQuark_80To120_2017-03-01-123214
10412.1 seconds 2.89225 hours CTEQ5L-LO_HardQCDSelectionQuark_80To120_2017-03-01-123214
10551.1 seconds 2.93086 hours CTEQ5L-LO_HardQCDSelectionQuark_80To120_2017-03-01-123214
11756.2 seconds 3.26561 hours CTEQ5L-LO_HardQCDSelectionQuark_80To120_2017-03-01-123214
11643.4 seconds 3.23428 hours CTEQ5L-LO_HardQCDSelectionQuark_80To120_2017-03-01-123214
11927.5 seconds 3.31319 hours CTEQ5L-LO_HardQCDSelectionQuark_80To120_2017-03-01-123214
12167.4 seconds 3.37983 hours CTEQ5L-LO_HardQCDSelectionQuark_80To120_2017-03-01-123214
12027.1 seconds 3.34086 hours CTEQ5L-LO_HardQCDSelectionQuark_80To120_2017-03-01-123214




