

Time taken to complete the job, Statistics
==========================================
2310.74 seconds 0.641872 hours CTEQ5L-LO_HardQCDSelectionQuark_10To20_2017-01-30-100828
2046.89 seconds 0.568581 hours CTEQ5L-LO_HardQCDSelectionQuark_10To20_2017-01-30-100828
1523.78 seconds 0.423272 hours CTEQ5L-LO_HardQCDSelectionQuark_10To20_2017-01-30-100828
2046.87 seconds 0.568575 hours CTEQ5L-LO_HardQCDSelectionQuark_10To20_2017-01-30-100828
1967.25 seconds 0.546458 hours CTEQ5L-LO_HardQCDSelectionQuark_10To20_2017-01-30-100828
2343.29 seconds 0.650914 hours CTEQ5L-LO_HardQCDSelectionQuark_10To20_2017-01-30-100828
2165.99 seconds 0.601664 hours CTEQ5L-LO_HardQCDSelectionQuark_10To20_2017-01-30-100828
1706.34 seconds 0.473983 hours CTEQ5L-LO_HardQCDSelectionQuark_10To20_2017-01-30-100828
2405.2 seconds 0.668111 hours CTEQ5L-LO_HardQCDSelectionQuark_10To20_2017-01-30-100828
1728.58 seconds 0.480161 hours CTEQ5L-LO_HardQCDSelectionQuark_10To20_2017-01-30-100828
1948.36 seconds 0.541211 hours CTEQ5L-LO_HardQCDSelectionQuark_10To20_2017-01-30-100828
2253.16 seconds 0.625878 hours CTEQ5L-LO_HardQCDSelectionQuark_10To20_2017-01-30-100828
1627.33 seconds 0.452036 hours CTEQ5L-LO_HardQCDSelectionQuark_10To20_2017-01-30-100828
1768.29 seconds 0.491192 hours CTEQ5L-LO_HardQCDSelectionQuark_10To20_2017-01-30-100828
1618.91 seconds 0.449697 hours CTEQ5L-LO_HardQCDSelectionQuark_10To20_2017-01-30-100828
2071.14 seconds 0.575317 hours CTEQ5L-LO_HardQCDSelectionQuark_10To20_2017-01-30-100828
2078.04 seconds 0.577233 hours CTEQ5L-LO_HardQCDSelectionQuark_10To20_2017-01-30-100828
1553.18 seconds 0.431439 hours CTEQ5L-LO_HardQCDSelectionQuark_10To20_2017-01-30-100828
1779.34 seconds 0.494261 hours CTEQ5L-LO_HardQCDSelectionQuark_10To20_2017-01-30-100828
2090.1 seconds 0.580583 hours CTEQ5L-LO_HardQCDSelectionQuark_10To20_2017-01-30-100828


2237.51 seconds 0.621531 hours CTEQ5L-LO_HardQCDSelectionQuark_120To170_2017-01-30-100828
2195.73 seconds 0.609925 hours CTEQ5L-LO_HardQCDSelectionQuark_120To170_2017-01-30-100828
2408.06 seconds 0.668906 hours CTEQ5L-LO_HardQCDSelectionQuark_120To170_2017-01-30-100828
2122.04 seconds 0.589456 hours CTEQ5L-LO_HardQCDSelectionQuark_120To170_2017-01-30-100828
1607.11 seconds 0.446419 hours CTEQ5L-LO_HardQCDSelectionQuark_120To170_2017-01-30-100828
2187.14 seconds 0.607539 hours CTEQ5L-LO_HardQCDSelectionQuark_120To170_2017-01-30-100828
2382.54 seconds 0.661817 hours CTEQ5L-LO_HardQCDSelectionQuark_120To170_2017-01-30-100828
1612.8 seconds 0.448 hours CTEQ5L-LO_HardQCDSelectionQuark_120To170_2017-01-30-100828
1849.57 seconds 0.513769 hours CTEQ5L-LO_HardQCDSelectionQuark_120To170_2017-01-30-100828
1861.79 seconds 0.517164 hours CTEQ5L-LO_HardQCDSelectionQuark_120To170_2017-01-30-100828
2240.98 seconds 0.622494 hours CTEQ5L-LO_HardQCDSelectionQuark_120To170_2017-01-30-100828
2248.2 seconds 0.6245 hours CTEQ5L-LO_HardQCDSelectionQuark_120To170_2017-01-30-100828
2238.72 seconds 0.621867 hours CTEQ5L-LO_HardQCDSelectionQuark_120To170_2017-01-30-100828
1654.48 seconds 0.459578 hours CTEQ5L-LO_HardQCDSelectionQuark_120To170_2017-01-30-100828
2283.3 seconds 0.63425 hours CTEQ5L-LO_HardQCDSelectionQuark_120To170_2017-01-30-100828
2379.85 seconds 0.661069 hours CTEQ5L-LO_HardQCDSelectionQuark_120To170_2017-01-30-100828
2271.61 seconds 0.631003 hours CTEQ5L-LO_HardQCDSelectionQuark_120To170_2017-01-30-100828
1771.05 seconds 0.491958 hours CTEQ5L-LO_HardQCDSelectionQuark_120To170_2017-01-30-100828
2249.48 seconds 0.624856 hours CTEQ5L-LO_HardQCDSelectionQuark_120To170_2017-01-30-100828
2346.13 seconds 0.651703 hours CTEQ5L-LO_HardQCDSelectionQuark_120To170_2017-01-30-100828


2165.97 seconds 0.601658 hours CTEQ5L-LO_HardQCDSelectionQuark_170To230_2017-01-30-100828
2266.76 seconds 0.629656 hours CTEQ5L-LO_HardQCDSelectionQuark_170To230_2017-01-30-100828
2252.53 seconds 0.625703 hours CTEQ5L-LO_HardQCDSelectionQuark_170To230_2017-01-30-100828
1656.61 seconds 0.460169 hours CTEQ5L-LO_HardQCDSelectionQuark_170To230_2017-01-30-100828
2167.28 seconds 0.602022 hours CTEQ5L-LO_HardQCDSelectionQuark_170To230_2017-01-30-100828
1777.84 seconds 0.493844 hours CTEQ5L-LO_HardQCDSelectionQuark_170To230_2017-01-30-100828
1684.22 seconds 0.467839 hours CTEQ5L-LO_HardQCDSelectionQuark_170To230_2017-01-30-100828
1682.11 seconds 0.467253 hours CTEQ5L-LO_HardQCDSelectionQuark_170To230_2017-01-30-100828
2362.68 seconds 0.6563 hours CTEQ5L-LO_HardQCDSelectionQuark_170To230_2017-01-30-100828
2289.83 seconds 0.636064 hours CTEQ5L-LO_HardQCDSelectionQuark_170To230_2017-01-30-100828
2213.64 seconds 0.6149 hours CTEQ5L-LO_HardQCDSelectionQuark_170To230_2017-01-30-100828
2264 seconds 0.628889 hours CTEQ5L-LO_HardQCDSelectionQuark_170To230_2017-01-30-100828
2348.44 seconds 0.652344 hours CTEQ5L-LO_HardQCDSelectionQuark_170To230_2017-01-30-100828
2247.75 seconds 0.624375 hours CTEQ5L-LO_HardQCDSelectionQuark_170To230_2017-01-30-100828
2208.25 seconds 0.613403 hours CTEQ5L-LO_HardQCDSelectionQuark_170To230_2017-01-30-100828
645.481 seconds 0.1793 hours CTEQ5L-LO_HardQCDSelectionQuark_170To230_2017-01-30-100828
2275.8 seconds 0.632167 hours CTEQ5L-LO_HardQCDSelectionQuark_170To230_2017-01-30-100828
2251.09 seconds 0.625303 hours CTEQ5L-LO_HardQCDSelectionQuark_170To230_2017-01-30-100828
2290.47 seconds 0.636242 hours CTEQ5L-LO_HardQCDSelectionQuark_170To230_2017-01-30-100828
2310.84 seconds 0.6419 hours CTEQ5L-LO_HardQCDSelectionQuark_170To230_2017-01-30-100828


2258.16 seconds 0.627267 hours CTEQ5L-LO_HardQCDSelectionQuark_20To30_2017-01-30-100828
1798.11 seconds 0.499475 hours CTEQ5L-LO_HardQCDSelectionQuark_20To30_2017-01-30-100828
1587.04 seconds 0.440844 hours CTEQ5L-LO_HardQCDSelectionQuark_20To30_2017-01-30-100828
1714.33 seconds 0.476203 hours CTEQ5L-LO_HardQCDSelectionQuark_20To30_2017-01-30-100828
1610.41 seconds 0.447336 hours CTEQ5L-LO_HardQCDSelectionQuark_20To30_2017-01-30-100828
1725.41 seconds 0.479281 hours CTEQ5L-LO_HardQCDSelectionQuark_20To30_2017-01-30-100828
1721.47 seconds 0.478186 hours CTEQ5L-LO_HardQCDSelectionQuark_20To30_2017-01-30-100828
2251.83 seconds 0.625508 hours CTEQ5L-LO_HardQCDSelectionQuark_20To30_2017-01-30-100828
1771.36 seconds 0.492044 hours CTEQ5L-LO_HardQCDSelectionQuark_20To30_2017-01-30-100828
1840.77 seconds 0.511325 hours CTEQ5L-LO_HardQCDSelectionQuark_20To30_2017-01-30-100828
1655.39 seconds 0.459831 hours CTEQ5L-LO_HardQCDSelectionQuark_20To30_2017-01-30-100828
2029.95 seconds 0.563875 hours CTEQ5L-LO_HardQCDSelectionQuark_20To30_2017-01-30-100828
1645.53 seconds 0.457092 hours CTEQ5L-LO_HardQCDSelectionQuark_20To30_2017-01-30-100828
1570.24 seconds 0.436178 hours CTEQ5L-LO_HardQCDSelectionQuark_20To30_2017-01-30-100828
1601.38 seconds 0.444828 hours CTEQ5L-LO_HardQCDSelectionQuark_20To30_2017-01-30-100828
2329.25 seconds 0.647014 hours CTEQ5L-LO_HardQCDSelectionQuark_20To30_2017-01-30-100828
1614.24 seconds 0.4484 hours CTEQ5L-LO_HardQCDSelectionQuark_20To30_2017-01-30-100828
2247.07 seconds 0.624186 hours CTEQ5L-LO_HardQCDSelectionQuark_20To30_2017-01-30-100828
2234.22 seconds 0.620617 hours CTEQ5L-LO_HardQCDSelectionQuark_20To30_2017-01-30-100828
1608.65 seconds 0.446847 hours CTEQ5L-LO_HardQCDSelectionQuark_20To30_2017-01-30-100828


2187.07 seconds 0.607519 hours CTEQ5L-LO_HardQCDSelectionQuark_230To300_2017-01-30-100828
2309.98 seconds 0.641661 hours CTEQ5L-LO_HardQCDSelectionQuark_230To300_2017-01-30-100828
2270.51 seconds 0.630697 hours CTEQ5L-LO_HardQCDSelectionQuark_230To300_2017-01-30-100828
2165.7 seconds 0.601583 hours CTEQ5L-LO_HardQCDSelectionQuark_230To300_2017-01-30-100828
2254.92 seconds 0.626367 hours CTEQ5L-LO_HardQCDSelectionQuark_230To300_2017-01-30-100828
2241.59 seconds 0.622664 hours CTEQ5L-LO_HardQCDSelectionQuark_230To300_2017-01-30-100828
2091.8 seconds 0.581056 hours CTEQ5L-LO_HardQCDSelectionQuark_230To300_2017-01-30-100828
2363.99 seconds 0.656664 hours CTEQ5L-LO_HardQCDSelectionQuark_230To300_2017-01-30-100828
2171.29 seconds 0.603136 hours CTEQ5L-LO_HardQCDSelectionQuark_230To300_2017-01-30-100828
2250.75 seconds 0.625208 hours CTEQ5L-LO_HardQCDSelectionQuark_230To300_2017-01-30-100828
2204.07 seconds 0.612242 hours CTEQ5L-LO_HardQCDSelectionQuark_230To300_2017-01-30-100828
2310.39 seconds 0.641775 hours CTEQ5L-LO_HardQCDSelectionQuark_230To300_2017-01-30-100828
2255.63 seconds 0.626564 hours CTEQ5L-LO_HardQCDSelectionQuark_230To300_2017-01-30-100828
1684.59 seconds 0.467942 hours CTEQ5L-LO_HardQCDSelectionQuark_230To300_2017-01-30-100828
2181.19 seconds 0.605886 hours CTEQ5L-LO_HardQCDSelectionQuark_230To300_2017-01-30-100828
2287.44 seconds 0.6354 hours CTEQ5L-LO_HardQCDSelectionQuark_230To300_2017-01-30-100828
2249.84 seconds 0.624956 hours CTEQ5L-LO_HardQCDSelectionQuark_230To300_2017-01-30-100828
2272.56 seconds 0.631267 hours CTEQ5L-LO_HardQCDSelectionQuark_230To300_2017-01-30-100828
1659.56 seconds 0.460989 hours CTEQ5L-LO_HardQCDSelectionQuark_230To300_2017-01-30-100828
2332.77 seconds 0.647992 hours CTEQ5L-LO_HardQCDSelectionQuark_230To300_2017-01-30-100828


2275.19 seconds 0.631997 hours CTEQ5L-LO_HardQCDSelectionQuark_300To380_2017-01-30-100828
2330.7 seconds 0.647417 hours CTEQ5L-LO_HardQCDSelectionQuark_300To380_2017-01-30-100828
2231.35 seconds 0.619819 hours CTEQ5L-LO_HardQCDSelectionQuark_300To380_2017-01-30-100828
2066.89 seconds 0.574136 hours CTEQ5L-LO_HardQCDSelectionQuark_300To380_2017-01-30-100828
2273.08 seconds 0.631411 hours CTEQ5L-LO_HardQCDSelectionQuark_300To380_2017-01-30-100828
2322.47 seconds 0.645131 hours CTEQ5L-LO_HardQCDSelectionQuark_300To380_2017-01-30-100828
1799.01 seconds 0.499725 hours CTEQ5L-LO_HardQCDSelectionQuark_300To380_2017-01-30-100828
2246.71 seconds 0.624086 hours CTEQ5L-LO_HardQCDSelectionQuark_300To380_2017-01-30-100828
2254.84 seconds 0.626344 hours CTEQ5L-LO_HardQCDSelectionQuark_300To380_2017-01-30-100828
1884.39 seconds 0.523442 hours CTEQ5L-LO_HardQCDSelectionQuark_300To380_2017-01-30-100828
2380.5 seconds 0.66125 hours CTEQ5L-LO_HardQCDSelectionQuark_300To380_2017-01-30-100828
2185.78 seconds 0.607161 hours CTEQ5L-LO_HardQCDSelectionQuark_300To380_2017-01-30-100828
2373.44 seconds 0.659289 hours CTEQ5L-LO_HardQCDSelectionQuark_300To380_2017-01-30-100828
1627.25 seconds 0.452014 hours CTEQ5L-LO_HardQCDSelectionQuark_300To380_2017-01-30-100828
2282.44 seconds 0.634011 hours CTEQ5L-LO_HardQCDSelectionQuark_300To380_2017-01-30-100828
2275.84 seconds 0.632178 hours CTEQ5L-LO_HardQCDSelectionQuark_300To380_2017-01-30-100828
2194.14 seconds 0.609483 hours CTEQ5L-LO_HardQCDSelectionQuark_300To380_2017-01-30-100828
2211.35 seconds 0.614264 hours CTEQ5L-LO_HardQCDSelectionQuark_300To380_2017-01-30-100828
2157.15 seconds 0.599208 hours CTEQ5L-LO_HardQCDSelectionQuark_300To380_2017-01-30-100828
2236.97 seconds 0.621381 hours CTEQ5L-LO_HardQCDSelectionQuark_300To380_2017-01-30-100828


1641.27 seconds 0.455908 hours CTEQ5L-LO_HardQCDSelectionQuark_30To50_2017-01-30-100828
2100.74 seconds 0.583539 hours CTEQ5L-LO_HardQCDSelectionQuark_30To50_2017-01-30-100828
2152.76 seconds 0.597989 hours CTEQ5L-LO_HardQCDSelectionQuark_30To50_2017-01-30-100828
2185.71 seconds 0.607142 hours CTEQ5L-LO_HardQCDSelectionQuark_30To50_2017-01-30-100828
1652.26 seconds 0.458961 hours CTEQ5L-LO_HardQCDSelectionQuark_30To50_2017-01-30-100828
1571.07 seconds 0.436408 hours CTEQ5L-LO_HardQCDSelectionQuark_30To50_2017-01-30-100828
2190.81 seconds 0.608558 hours CTEQ5L-LO_HardQCDSelectionQuark_30To50_2017-01-30-100828
1627.93 seconds 0.452203 hours CTEQ5L-LO_HardQCDSelectionQuark_30To50_2017-01-30-100828
1746.36 seconds 0.4851 hours CTEQ5L-LO_HardQCDSelectionQuark_30To50_2017-01-30-100828
2198.54 seconds 0.610706 hours CTEQ5L-LO_HardQCDSelectionQuark_30To50_2017-01-30-100828
1642.34 seconds 0.456206 hours CTEQ5L-LO_HardQCDSelectionQuark_30To50_2017-01-30-100828
2336.6 seconds 0.649056 hours CTEQ5L-LO_HardQCDSelectionQuark_30To50_2017-01-30-100828
1626.6 seconds 0.451833 hours CTEQ5L-LO_HardQCDSelectionQuark_30To50_2017-01-30-100828
2108.41 seconds 0.585669 hours CTEQ5L-LO_HardQCDSelectionQuark_30To50_2017-01-30-100828
2105.19 seconds 0.584775 hours CTEQ5L-LO_HardQCDSelectionQuark_30To50_2017-01-30-100828
2046.06 seconds 0.56835 hours CTEQ5L-LO_HardQCDSelectionQuark_30To50_2017-01-30-100828
2215.1 seconds 0.615306 hours CTEQ5L-LO_HardQCDSelectionQuark_30To50_2017-01-30-100828
1791.12 seconds 0.497533 hours CTEQ5L-LO_HardQCDSelectionQuark_30To50_2017-01-30-100828
1737.13 seconds 0.482536 hours CTEQ5L-LO_HardQCDSelectionQuark_30To50_2017-01-30-100828
2111.45 seconds 0.586514 hours CTEQ5L-LO_HardQCDSelectionQuark_30To50_2017-01-30-100828


2171.37 seconds 0.603158 hours CTEQ5L-LO_HardQCDSelectionQuark_380To10000_2017-01-30-100828
2280.07 seconds 0.633353 hours CTEQ5L-LO_HardQCDSelectionQuark_380To10000_2017-01-30-100828
1651.42 seconds 0.458728 hours CTEQ5L-LO_HardQCDSelectionQuark_380To10000_2017-01-30-100828
2428.62 seconds 0.674617 hours CTEQ5L-LO_HardQCDSelectionQuark_380To10000_2017-01-30-100828
2280.1 seconds 0.633361 hours CTEQ5L-LO_HardQCDSelectionQuark_380To10000_2017-01-30-100828
2157.14 seconds 0.599206 hours CTEQ5L-LO_HardQCDSelectionQuark_380To10000_2017-01-30-100828
2278.37 seconds 0.632881 hours CTEQ5L-LO_HardQCDSelectionQuark_380To10000_2017-01-30-100828
2231.53 seconds 0.619869 hours CTEQ5L-LO_HardQCDSelectionQuark_380To10000_2017-01-30-100828
2281.52 seconds 0.633756 hours CTEQ5L-LO_HardQCDSelectionQuark_380To10000_2017-01-30-100828
2389.01 seconds 0.663614 hours CTEQ5L-LO_HardQCDSelectionQuark_380To10000_2017-01-30-100828
2275.01 seconds 0.631947 hours CTEQ5L-LO_HardQCDSelectionQuark_380To10000_2017-01-30-100828
2259.82 seconds 0.627728 hours CTEQ5L-LO_HardQCDSelectionQuark_380To10000_2017-01-30-100828
2151.33 seconds 0.597592 hours CTEQ5L-LO_HardQCDSelectionQuark_380To10000_2017-01-30-100828
2290.04 seconds 0.636122 hours CTEQ5L-LO_HardQCDSelectionQuark_380To10000_2017-01-30-100828
2238.29 seconds 0.621747 hours CTEQ5L-LO_HardQCDSelectionQuark_380To10000_2017-01-30-100828
2295.22 seconds 0.637561 hours CTEQ5L-LO_HardQCDSelectionQuark_380To10000_2017-01-30-100828
2271.85 seconds 0.631069 hours CTEQ5L-LO_HardQCDSelectionQuark_380To10000_2017-01-30-100828
2383.94 seconds 0.662206 hours CTEQ5L-LO_HardQCDSelectionQuark_380To10000_2017-01-30-100828
2192.91 seconds 0.609142 hours CTEQ5L-LO_HardQCDSelectionQuark_380To10000_2017-01-30-100828
1802.98 seconds 0.500828 hours CTEQ5L-LO_HardQCDSelectionQuark_380To10000_2017-01-30-100828


1810.94 seconds 0.503039 hours CTEQ5L-LO_HardQCDSelectionQuark_50To80_2017-01-30-100828
2141.67 seconds 0.594908 hours CTEQ5L-LO_HardQCDSelectionQuark_50To80_2017-01-30-100828
2139.18 seconds 0.594217 hours CTEQ5L-LO_HardQCDSelectionQuark_50To80_2017-01-30-100828
2223.81 seconds 0.617725 hours CTEQ5L-LO_HardQCDSelectionQuark_50To80_2017-01-30-100828
1806.34 seconds 0.501761 hours CTEQ5L-LO_HardQCDSelectionQuark_50To80_2017-01-30-100828
2130.14 seconds 0.591706 hours CTEQ5L-LO_HardQCDSelectionQuark_50To80_2017-01-30-100828
2215.48 seconds 0.615411 hours CTEQ5L-LO_HardQCDSelectionQuark_50To80_2017-01-30-100828
2215 seconds 0.615278 hours CTEQ5L-LO_HardQCDSelectionQuark_50To80_2017-01-30-100828
2245.38 seconds 0.623717 hours CTEQ5L-LO_HardQCDSelectionQuark_50To80_2017-01-30-100828
2212.44 seconds 0.614567 hours CTEQ5L-LO_HardQCDSelectionQuark_50To80_2017-01-30-100828
2133.16 seconds 0.592544 hours CTEQ5L-LO_HardQCDSelectionQuark_50To80_2017-01-30-100828
1651.28 seconds 0.458689 hours CTEQ5L-LO_HardQCDSelectionQuark_50To80_2017-01-30-100828
2146.27 seconds 0.596186 hours CTEQ5L-LO_HardQCDSelectionQuark_50To80_2017-01-30-100828
2246.55 seconds 0.624042 hours CTEQ5L-LO_HardQCDSelectionQuark_50To80_2017-01-30-100828
1840.3 seconds 0.511194 hours CTEQ5L-LO_HardQCDSelectionQuark_50To80_2017-01-30-100828
2033.44 seconds 0.564844 hours CTEQ5L-LO_HardQCDSelectionQuark_50To80_2017-01-30-100828
1804.83 seconds 0.501342 hours CTEQ5L-LO_HardQCDSelectionQuark_50To80_2017-01-30-100828
1795.85 seconds 0.498847 hours CTEQ5L-LO_HardQCDSelectionQuark_50To80_2017-01-30-100828
1813.36 seconds 0.503711 hours CTEQ5L-LO_HardQCDSelectionQuark_50To80_2017-01-30-100828
1799.96 seconds 0.499989 hours CTEQ5L-LO_HardQCDSelectionQuark_50To80_2017-01-30-100828


2243.7 seconds 0.62325 hours CTEQ5L-LO_HardQCDSelectionQuark_80To120_2017-01-30-100828
2157.84 seconds 0.5994 hours CTEQ5L-LO_HardQCDSelectionQuark_80To120_2017-01-30-100828
2159.09 seconds 0.599747 hours CTEQ5L-LO_HardQCDSelectionQuark_80To120_2017-01-30-100828
2077.16 seconds 0.576989 hours CTEQ5L-LO_HardQCDSelectionQuark_80To120_2017-01-30-100828
2247.63 seconds 0.624342 hours CTEQ5L-LO_HardQCDSelectionQuark_80To120_2017-01-30-100828
1812.01 seconds 0.503336 hours CTEQ5L-LO_HardQCDSelectionQuark_80To120_2017-01-30-100828
2217.03 seconds 0.615842 hours CTEQ5L-LO_HardQCDSelectionQuark_80To120_2017-01-30-100828
2154.6 seconds 0.5985 hours CTEQ5L-LO_HardQCDSelectionQuark_80To120_2017-01-30-100828
1820.98 seconds 0.505828 hours CTEQ5L-LO_HardQCDSelectionQuark_80To120_2017-01-30-100828
2244.19 seconds 0.623386 hours CTEQ5L-LO_HardQCDSelectionQuark_80To120_2017-01-30-100828
2231.32 seconds 0.619811 hours CTEQ5L-LO_HardQCDSelectionQuark_80To120_2017-01-30-100828
1809.48 seconds 0.502633 hours CTEQ5L-LO_HardQCDSelectionQuark_80To120_2017-01-30-100828
2218.4 seconds 0.616222 hours CTEQ5L-LO_HardQCDSelectionQuark_80To120_2017-01-30-100828
2137.97 seconds 0.593881 hours CTEQ5L-LO_HardQCDSelectionQuark_80To120_2017-01-30-100828
2215.07 seconds 0.615297 hours CTEQ5L-LO_HardQCDSelectionQuark_80To120_2017-01-30-100828
2226.96 seconds 0.6186 hours CTEQ5L-LO_HardQCDSelectionQuark_80To120_2017-01-30-100828
2168.37 seconds 0.602325 hours CTEQ5L-LO_HardQCDSelectionQuark_80To120_2017-01-30-100828
2223.44 seconds 0.617622 hours CTEQ5L-LO_HardQCDSelectionQuark_80To120_2017-01-30-100828
1861.41 seconds 0.517058 hours CTEQ5L-LO_HardQCDSelectionQuark_80To120_2017-01-30-100828
2260.22 seconds 0.627839 hours CTEQ5L-LO_HardQCDSelectionQuark_80To120_2017-01-30-100828




