

Time taken to complete the job, Statistics
==========================================
6323.63 seconds 1.75656 hours CTEQ5L-LO_HardQCDMix_10To20_2017-02-06-105029
5013.99 seconds 1.39277 hours CTEQ5L-LO_HardQCDMix_10To20_2017-02-06-105029
4861.76 seconds 1.35049 hours CTEQ5L-LO_HardQCDMix_10To20_2017-02-06-105029
4974.5 seconds 1.38181 hours CTEQ5L-LO_HardQCDMix_10To20_2017-02-06-105029
4909.2 seconds 1.36367 hours CTEQ5L-LO_HardQCDMix_10To20_2017-02-06-105029
4931.05 seconds 1.36974 hours CTEQ5L-LO_HardQCDMix_10To20_2017-02-06-105029
4890.05 seconds 1.35835 hours CTEQ5L-LO_HardQCDMix_10To20_2017-02-06-105029
4858.4 seconds 1.34956 hours CTEQ5L-LO_HardQCDMix_10To20_2017-02-06-105029
4841.64 seconds 1.3449 hours CTEQ5L-LO_HardQCDMix_10To20_2017-02-06-105029
7053.47 seconds 1.9593 hours CTEQ5L-LO_HardQCDMix_10To20_2017-02-06-105029
4930.24 seconds 1.36951 hours CTEQ5L-LO_HardQCDMix_10To20_2017-02-06-105029
6272.43 seconds 1.74234 hours CTEQ5L-LO_HardQCDMix_10To20_2017-02-06-105029
4987.47 seconds 1.38541 hours CTEQ5L-LO_HardQCDMix_10To20_2017-02-06-105029
5115.81 seconds 1.42106 hours CTEQ5L-LO_HardQCDMix_10To20_2017-02-06-105029
8162.12 seconds 2.26726 hours CTEQ5L-LO_HardQCDMix_10To20_2017-02-06-105029
7539.3 seconds 2.09425 hours CTEQ5L-LO_HardQCDMix_10To20_2017-02-06-105029
7725.1 seconds 2.14586 hours CTEQ5L-LO_HardQCDMix_10To20_2017-02-06-105029
5022.78 seconds 1.39522 hours CTEQ5L-LO_HardQCDMix_10To20_2017-02-06-105029
5221.77 seconds 1.45049 hours CTEQ5L-LO_HardQCDMix_10To20_2017-02-06-105029
5040.38 seconds 1.40011 hours CTEQ5L-LO_HardQCDMix_10To20_2017-02-06-105029


7192.72 seconds 1.99798 hours CTEQ5L-LO_HardQCDMix_120To170_2017-02-06-105029
5513.63 seconds 1.53156 hours CTEQ5L-LO_HardQCDMix_120To170_2017-02-06-105029
5717.46 seconds 1.58818 hours CTEQ5L-LO_HardQCDMix_120To170_2017-02-06-105029
5524.88 seconds 1.53469 hours CTEQ5L-LO_HardQCDMix_120To170_2017-02-06-105029
7080.67 seconds 1.96685 hours CTEQ5L-LO_HardQCDMix_120To170_2017-02-06-105029
7001.99 seconds 1.945 hours CTEQ5L-LO_HardQCDMix_120To170_2017-02-06-105029
7060.21 seconds 1.96117 hours CTEQ5L-LO_HardQCDMix_120To170_2017-02-06-105029
7426.24 seconds 2.06284 hours CTEQ5L-LO_HardQCDMix_120To170_2017-02-06-105029
7202 seconds 2.00056 hours CTEQ5L-LO_HardQCDMix_120To170_2017-02-06-105029
7102.56 seconds 1.97293 hours CTEQ5L-LO_HardQCDMix_120To170_2017-02-06-105029
5880.31 seconds 1.63342 hours CTEQ5L-LO_HardQCDMix_120To170_2017-02-06-105029
7094.55 seconds 1.97071 hours CTEQ5L-LO_HardQCDMix_120To170_2017-02-06-105029
8155.22 seconds 2.26534 hours CTEQ5L-LO_HardQCDMix_120To170_2017-02-06-105029
7087.66 seconds 1.96879 hours CTEQ5L-LO_HardQCDMix_120To170_2017-02-06-105029
5872.44 seconds 1.63123 hours CTEQ5L-LO_HardQCDMix_120To170_2017-02-06-105029
5900.75 seconds 1.6391 hours CTEQ5L-LO_HardQCDMix_120To170_2017-02-06-105029
5517.7 seconds 1.53269 hours CTEQ5L-LO_HardQCDMix_120To170_2017-02-06-105029
5558.44 seconds 1.54401 hours CTEQ5L-LO_HardQCDMix_120To170_2017-02-06-105029
5503.08 seconds 1.52863 hours CTEQ5L-LO_HardQCDMix_120To170_2017-02-06-105029
5547.82 seconds 1.54106 hours CTEQ5L-LO_HardQCDMix_120To170_2017-02-06-105029


8149.35 seconds 2.26371 hours CTEQ5L-LO_HardQCDMix_170To230_2017-02-06-105029
5848.6 seconds 1.62461 hours CTEQ5L-LO_HardQCDMix_170To230_2017-02-06-105029
5832.81 seconds 1.62023 hours CTEQ5L-LO_HardQCDMix_170To230_2017-02-06-105029
8033.29 seconds 2.23147 hours CTEQ5L-LO_HardQCDMix_170To230_2017-02-06-105029
7210.28 seconds 2.00286 hours CTEQ5L-LO_HardQCDMix_170To230_2017-02-06-105029
7159.75 seconds 1.98882 hours CTEQ5L-LO_HardQCDMix_170To230_2017-02-06-105029
7086.39 seconds 1.96844 hours CTEQ5L-LO_HardQCDMix_170To230_2017-02-06-105029
7088.15 seconds 1.96893 hours CTEQ5L-LO_HardQCDMix_170To230_2017-02-06-105029
7104.86 seconds 1.97357 hours CTEQ5L-LO_HardQCDMix_170To230_2017-02-06-105029
7517.82 seconds 2.08828 hours CTEQ5L-LO_HardQCDMix_170To230_2017-02-06-105029
7198.81 seconds 1.99967 hours CTEQ5L-LO_HardQCDMix_170To230_2017-02-06-105029
8056.59 seconds 2.23794 hours CTEQ5L-LO_HardQCDMix_170To230_2017-02-06-105029
7178.85 seconds 1.99413 hours CTEQ5L-LO_HardQCDMix_170To230_2017-02-06-105029
8159.31 seconds 2.26648 hours CTEQ5L-LO_HardQCDMix_170To230_2017-02-06-105029
6152.09 seconds 1.70891 hours CTEQ5L-LO_HardQCDMix_170To230_2017-02-06-105029
5819.64 seconds 1.61657 hours CTEQ5L-LO_HardQCDMix_170To230_2017-02-06-105029
5719.02 seconds 1.58862 hours CTEQ5L-LO_HardQCDMix_170To230_2017-02-06-105029
5846.02 seconds 1.62389 hours CTEQ5L-LO_HardQCDMix_170To230_2017-02-06-105029
5823.54 seconds 1.61765 hours CTEQ5L-LO_HardQCDMix_170To230_2017-02-06-105029
5851.59 seconds 1.62544 hours CTEQ5L-LO_HardQCDMix_170To230_2017-02-06-105029


5441.76 seconds 1.5116 hours CTEQ5L-LO_HardQCDMix_20To30_2017-02-06-105029
5675.56 seconds 1.57654 hours CTEQ5L-LO_HardQCDMix_20To30_2017-02-06-105029
5640.78 seconds 1.56688 hours CTEQ5L-LO_HardQCDMix_20To30_2017-02-06-105029
5680.26 seconds 1.57785 hours CTEQ5L-LO_HardQCDMix_20To30_2017-02-06-105029
5649.98 seconds 1.56944 hours CTEQ5L-LO_HardQCDMix_20To30_2017-02-06-105029
5610.97 seconds 1.5586 hours CTEQ5L-LO_HardQCDMix_20To30_2017-02-06-105029
5598.87 seconds 1.55524 hours CTEQ5L-LO_HardQCDMix_20To30_2017-02-06-105029
5540.01 seconds 1.53889 hours CTEQ5L-LO_HardQCDMix_20To30_2017-02-06-105029
7257.62 seconds 2.01601 hours CTEQ5L-LO_HardQCDMix_20To30_2017-02-06-105029
6816.46 seconds 1.89346 hours CTEQ5L-LO_HardQCDMix_20To30_2017-02-06-105029
5568.69 seconds 1.54686 hours CTEQ5L-LO_HardQCDMix_20To30_2017-02-06-105029
5542.58 seconds 1.53961 hours CTEQ5L-LO_HardQCDMix_20To30_2017-02-06-105029
5087.55 seconds 1.41321 hours CTEQ5L-LO_HardQCDMix_20To30_2017-02-06-105029
5844.8 seconds 1.62356 hours CTEQ5L-LO_HardQCDMix_20To30_2017-02-06-105029
5757.15 seconds 1.59921 hours CTEQ5L-LO_HardQCDMix_20To30_2017-02-06-105029
5598.45 seconds 1.55512 hours CTEQ5L-LO_HardQCDMix_20To30_2017-02-06-105029
5778.18 seconds 1.60505 hours CTEQ5L-LO_HardQCDMix_20To30_2017-02-06-105029
5911.77 seconds 1.64216 hours CTEQ5L-LO_HardQCDMix_20To30_2017-02-06-105029
5829.49 seconds 1.6193 hours CTEQ5L-LO_HardQCDMix_20To30_2017-02-06-105029
5728.58 seconds 1.59127 hours CTEQ5L-LO_HardQCDMix_20To30_2017-02-06-105029


7171.24 seconds 1.99201 hours CTEQ5L-LO_HardQCDMix_230To300_2017-02-06-105029
5462.52 seconds 1.51737 hours CTEQ5L-LO_HardQCDMix_230To300_2017-02-06-105029
6753.32 seconds 1.87592 hours CTEQ5L-LO_HardQCDMix_230To300_2017-02-06-105029
7415.65 seconds 2.0599 hours CTEQ5L-LO_HardQCDMix_230To300_2017-02-06-105029
7189.77 seconds 1.99716 hours CTEQ5L-LO_HardQCDMix_230To300_2017-02-06-105029
7161.21 seconds 1.98923 hours CTEQ5L-LO_HardQCDMix_230To300_2017-02-06-105029
7141.92 seconds 1.98387 hours CTEQ5L-LO_HardQCDMix_230To300_2017-02-06-105029
5651.67 seconds 1.56991 hours CTEQ5L-LO_HardQCDMix_230To300_2017-02-06-105029
5668.07 seconds 1.57446 hours CTEQ5L-LO_HardQCDMix_230To300_2017-02-06-105029
5640.85 seconds 1.5669 hours CTEQ5L-LO_HardQCDMix_230To300_2017-02-06-105029
5700.59 seconds 1.5835 hours CTEQ5L-LO_HardQCDMix_230To300_2017-02-06-105029
5657.64 seconds 1.57157 hours CTEQ5L-LO_HardQCDMix_230To300_2017-02-06-105029
5784.33 seconds 1.60676 hours CTEQ5L-LO_HardQCDMix_230To300_2017-02-06-105029
5818.16 seconds 1.61616 hours CTEQ5L-LO_HardQCDMix_230To300_2017-02-06-105029
5495.27 seconds 1.52646 hours CTEQ5L-LO_HardQCDMix_230To300_2017-02-06-105029
5734.95 seconds 1.59304 hours CTEQ5L-LO_HardQCDMix_230To300_2017-02-06-105029
5797.57 seconds 1.61044 hours CTEQ5L-LO_HardQCDMix_230To300_2017-02-06-105029
5829.98 seconds 1.61944 hours CTEQ5L-LO_HardQCDMix_230To300_2017-02-06-105029
5812.89 seconds 1.61469 hours CTEQ5L-LO_HardQCDMix_230To300_2017-02-06-105029
5688.17 seconds 1.58005 hours CTEQ5L-LO_HardQCDMix_230To300_2017-02-06-105029


5766.97 seconds 1.60194 hours CTEQ5L-LO_HardQCDMix_300To380_2017-02-06-105029
8062.86 seconds 2.23968 hours CTEQ5L-LO_HardQCDMix_300To380_2017-02-06-105029
3735.39 seconds 1.03761 hours CTEQ5L-LO_HardQCDMix_300To380_2017-02-06-105029
7897.24 seconds 2.19368 hours CTEQ5L-LO_HardQCDMix_300To380_2017-02-06-105029
7302.45 seconds 2.02846 hours CTEQ5L-LO_HardQCDMix_300To380_2017-02-06-105029
8227.63 seconds 2.28545 hours CTEQ5L-LO_HardQCDMix_300To380_2017-02-06-105029
8151.92 seconds 2.26442 hours CTEQ5L-LO_HardQCDMix_300To380_2017-02-06-105029
8028.53 seconds 2.23015 hours CTEQ5L-LO_HardQCDMix_300To380_2017-02-06-105029
8229.9 seconds 2.28608 hours CTEQ5L-LO_HardQCDMix_300To380_2017-02-06-105029
5786.5 seconds 1.60736 hours CTEQ5L-LO_HardQCDMix_300To380_2017-02-06-105029
5763.22 seconds 1.60089 hours CTEQ5L-LO_HardQCDMix_300To380_2017-02-06-105029
5774.73 seconds 1.60409 hours CTEQ5L-LO_HardQCDMix_300To380_2017-02-06-105029
5725.13 seconds 1.59031 hours CTEQ5L-LO_HardQCDMix_300To380_2017-02-06-105029
5948.34 seconds 1.65232 hours CTEQ5L-LO_HardQCDMix_300To380_2017-02-06-105029
6000.3 seconds 1.66675 hours CTEQ5L-LO_HardQCDMix_300To380_2017-02-06-105029
7307.98 seconds 2.02999 hours CTEQ5L-LO_HardQCDMix_300To380_2017-02-06-105029
5756.46 seconds 1.59902 hours CTEQ5L-LO_HardQCDMix_300To380_2017-02-06-105029
5897.49 seconds 1.63819 hours CTEQ5L-LO_HardQCDMix_300To380_2017-02-06-105029
5941.51 seconds 1.65042 hours CTEQ5L-LO_HardQCDMix_300To380_2017-02-06-105029
5952.37 seconds 1.65344 hours CTEQ5L-LO_HardQCDMix_300To380_2017-02-06-105029


5982.61 seconds 1.66184 hours CTEQ5L-LO_HardQCDMix_30To50_2017-02-06-105029
5854.06 seconds 1.62613 hours CTEQ5L-LO_HardQCDMix_30To50_2017-02-06-105029
5926.62 seconds 1.64628 hours CTEQ5L-LO_HardQCDMix_30To50_2017-02-06-105029
5904.88 seconds 1.64024 hours CTEQ5L-LO_HardQCDMix_30To50_2017-02-06-105029
5953.83 seconds 1.65384 hours CTEQ5L-LO_HardQCDMix_30To50_2017-02-06-105029
5800.23 seconds 1.61117 hours CTEQ5L-LO_HardQCDMix_30To50_2017-02-06-105029
5821.24 seconds 1.61701 hours CTEQ5L-LO_HardQCDMix_30To50_2017-02-06-105029
7753.68 seconds 2.1538 hours CTEQ5L-LO_HardQCDMix_30To50_2017-02-06-105029
7658.12 seconds 2.12726 hours CTEQ5L-LO_HardQCDMix_30To50_2017-02-06-105029
6753.31 seconds 1.87592 hours CTEQ5L-LO_HardQCDMix_30To50_2017-02-06-105029
7642.2 seconds 2.12283 hours CTEQ5L-LO_HardQCDMix_30To50_2017-02-06-105029
5699.27 seconds 1.58313 hours CTEQ5L-LO_HardQCDMix_30To50_2017-02-06-105029
7567.8 seconds 2.10217 hours CTEQ5L-LO_HardQCDMix_30To50_2017-02-06-105029
5716.06 seconds 1.58779 hours CTEQ5L-LO_HardQCDMix_30To50_2017-02-06-105029
6100.91 seconds 1.6947 hours CTEQ5L-LO_HardQCDMix_30To50_2017-02-06-105029
6014.73 seconds 1.67076 hours CTEQ5L-LO_HardQCDMix_30To50_2017-02-06-105029
5904.44 seconds 1.64012 hours CTEQ5L-LO_HardQCDMix_30To50_2017-02-06-105029
5864.24 seconds 1.62896 hours CTEQ5L-LO_HardQCDMix_30To50_2017-02-06-105029
5822.67 seconds 1.61741 hours CTEQ5L-LO_HardQCDMix_30To50_2017-02-06-105029
5837.89 seconds 1.62164 hours CTEQ5L-LO_HardQCDMix_30To50_2017-02-06-105029


6021.29 seconds 1.67258 hours CTEQ5L-LO_HardQCDMix_380To10000_2017-02-06-105029
8199.64 seconds 2.27768 hours CTEQ5L-LO_HardQCDMix_380To10000_2017-02-06-105029
6848.85 seconds 1.90246 hours CTEQ5L-LO_HardQCDMix_380To10000_2017-02-06-105029
7032.45 seconds 1.95346 hours CTEQ5L-LO_HardQCDMix_380To10000_2017-02-06-105029
5328.11 seconds 1.48003 hours CTEQ5L-LO_HardQCDMix_380To10000_2017-02-06-105029
5628.57 seconds 1.56349 hours CTEQ5L-LO_HardQCDMix_380To10000_2017-02-06-105029
6259 seconds 1.73861 hours CTEQ5L-LO_HardQCDMix_380To10000_2017-02-06-105029
5595.71 seconds 1.55436 hours CTEQ5L-LO_HardQCDMix_380To10000_2017-02-06-105029
5681.67 seconds 1.57824 hours CTEQ5L-LO_HardQCDMix_380To10000_2017-02-06-105029
5535.42 seconds 1.53762 hours CTEQ5L-LO_HardQCDMix_380To10000_2017-02-06-105029
5677.35 seconds 1.57704 hours CTEQ5L-LO_HardQCDMix_380To10000_2017-02-06-105029
5676.13 seconds 1.5767 hours CTEQ5L-LO_HardQCDMix_380To10000_2017-02-06-105029
5616.72 seconds 1.5602 hours CTEQ5L-LO_HardQCDMix_380To10000_2017-02-06-105029
5654.29 seconds 1.57064 hours CTEQ5L-LO_HardQCDMix_380To10000_2017-02-06-105029
5615.8 seconds 1.55994 hours CTEQ5L-LO_HardQCDMix_380To10000_2017-02-06-105029
5600.15 seconds 1.5556 hours CTEQ5L-LO_HardQCDMix_380To10000_2017-02-06-105029
6070.35 seconds 1.68621 hours CTEQ5L-LO_HardQCDMix_380To10000_2017-02-06-105029
5823.37 seconds 1.6176 hours CTEQ5L-LO_HardQCDMix_380To10000_2017-02-06-105029
5843.19 seconds 1.62311 hours CTEQ5L-LO_HardQCDMix_380To10000_2017-02-06-105029
8090.41 seconds 2.24734 hours CTEQ5L-LO_HardQCDMix_380To10000_2017-02-06-105029


7625.05 seconds 2.11807 hours CTEQ5L-LO_HardQCDMix_50To80_2017-02-06-105029
6061.15 seconds 1.68365 hours CTEQ5L-LO_HardQCDMix_50To80_2017-02-06-105029
6022.38 seconds 1.67288 hours CTEQ5L-LO_HardQCDMix_50To80_2017-02-06-105029
5992.2 seconds 1.6645 hours CTEQ5L-LO_HardQCDMix_50To80_2017-02-06-105029
5860.65 seconds 1.62796 hours CTEQ5L-LO_HardQCDMix_50To80_2017-02-06-105029
5976.75 seconds 1.66021 hours CTEQ5L-LO_HardQCDMix_50To80_2017-02-06-105029
6803.61 seconds 1.88989 hours CTEQ5L-LO_HardQCDMix_50To80_2017-02-06-105029
7045.73 seconds 1.95715 hours CTEQ5L-LO_HardQCDMix_50To80_2017-02-06-105029
6607.95 seconds 1.83554 hours CTEQ5L-LO_HardQCDMix_50To80_2017-02-06-105029
7682.87 seconds 2.13413 hours CTEQ5L-LO_HardQCDMix_50To80_2017-02-06-105029
7724.28 seconds 2.14563 hours CTEQ5L-LO_HardQCDMix_50To80_2017-02-06-105029
7678.58 seconds 2.13294 hours CTEQ5L-LO_HardQCDMix_50To80_2017-02-06-105029
5998.96 seconds 1.66638 hours CTEQ5L-LO_HardQCDMix_50To80_2017-02-06-105029
7698.16 seconds 2.13838 hours CTEQ5L-LO_HardQCDMix_50To80_2017-02-06-105029
7748.02 seconds 2.15223 hours CTEQ5L-LO_HardQCDMix_50To80_2017-02-06-105029
5820.15 seconds 1.61671 hours CTEQ5L-LO_HardQCDMix_50To80_2017-02-06-105029
5635.96 seconds 1.56554 hours CTEQ5L-LO_HardQCDMix_50To80_2017-02-06-105029
6248.92 seconds 1.73581 hours CTEQ5L-LO_HardQCDMix_50To80_2017-02-06-105029
6188.21 seconds 1.71895 hours CTEQ5L-LO_HardQCDMix_50To80_2017-02-06-105029
6067.78 seconds 1.68549 hours CTEQ5L-LO_HardQCDMix_50To80_2017-02-06-105029


6110.38 seconds 1.69733 hours CTEQ5L-LO_HardQCDMix_80To120_2017-02-06-105029
5320.08 seconds 1.4778 hours CTEQ5L-LO_HardQCDMix_80To120_2017-02-06-105029
5365.4 seconds 1.49039 hours CTEQ5L-LO_HardQCDMix_80To120_2017-02-06-105029
5387.99 seconds 1.49666 hours CTEQ5L-LO_HardQCDMix_80To120_2017-02-06-105029
5366.44 seconds 1.49068 hours CTEQ5L-LO_HardQCDMix_80To120_2017-02-06-105029
8682 seconds 2.41167 hours CTEQ5L-LO_HardQCDMix_80To120_2017-02-06-105029
8062.11 seconds 2.23948 hours CTEQ5L-LO_HardQCDMix_80To120_2017-02-06-105029
8015.58 seconds 2.22655 hours CTEQ5L-LO_HardQCDMix_80To120_2017-02-06-105029
7171.98 seconds 1.99222 hours CTEQ5L-LO_HardQCDMix_80To120_2017-02-06-105029
7013.94 seconds 1.94832 hours CTEQ5L-LO_HardQCDMix_80To120_2017-02-06-105029
7034.71 seconds 1.95409 hours CTEQ5L-LO_HardQCDMix_80To120_2017-02-06-105029
6141.81 seconds 1.70606 hours CTEQ5L-LO_HardQCDMix_80To120_2017-02-06-105029
7089.85 seconds 1.9694 hours CTEQ5L-LO_HardQCDMix_80To120_2017-02-06-105029
6077.25 seconds 1.68813 hours CTEQ5L-LO_HardQCDMix_80To120_2017-02-06-105029
6066.73 seconds 1.6852 hours CTEQ5L-LO_HardQCDMix_80To120_2017-02-06-105029
5958.1 seconds 1.65503 hours CTEQ5L-LO_HardQCDMix_80To120_2017-02-06-105029
6130.32 seconds 1.70287 hours CTEQ5L-LO_HardQCDMix_80To120_2017-02-06-105029
5399.51 seconds 1.49986 hours CTEQ5L-LO_HardQCDMix_80To120_2017-02-06-105029
5345.1 seconds 1.48475 hours CTEQ5L-LO_HardQCDMix_80To120_2017-02-06-105029
5469.53 seconds 1.51931 hours CTEQ5L-LO_HardQCDMix_80To120_2017-02-06-105029




