

Time taken to complete the job, Statistics
==========================================
7196.66 seconds 1.99907 hours CTEQ5L-LO_HardQCDAll_10To20_2017-02-06-103655
7539.81 seconds 2.09439 hours CTEQ5L-LO_HardQCDAll_10To20_2017-02-06-103655
6258.89 seconds 1.73858 hours CTEQ5L-LO_HardQCDAll_10To20_2017-02-06-103655
6253.59 seconds 1.73711 hours CTEQ5L-LO_HardQCDAll_10To20_2017-02-06-103655
7385.67 seconds 2.05158 hours CTEQ5L-LO_HardQCDAll_10To20_2017-02-06-103655
7468.36 seconds 2.07454 hours CTEQ5L-LO_HardQCDAll_10To20_2017-02-06-103655
6315.54 seconds 1.75432 hours CTEQ5L-LO_HardQCDAll_10To20_2017-02-06-103655
6261.84 seconds 1.7394 hours CTEQ5L-LO_HardQCDAll_10To20_2017-02-06-103655
6344.14 seconds 1.76226 hours CTEQ5L-LO_HardQCDAll_10To20_2017-02-06-103655
6378.08 seconds 1.77169 hours CTEQ5L-LO_HardQCDAll_10To20_2017-02-06-103655
6291.91 seconds 1.74775 hours CTEQ5L-LO_HardQCDAll_10To20_2017-02-06-103655
7606.85 seconds 2.11301 hours CTEQ5L-LO_HardQCDAll_10To20_2017-02-06-103655
6273.98 seconds 1.74277 hours CTEQ5L-LO_HardQCDAll_10To20_2017-02-06-103655
7271.77 seconds 2.01994 hours CTEQ5L-LO_HardQCDAll_10To20_2017-02-06-103655
7183.36 seconds 1.99538 hours CTEQ5L-LO_HardQCDAll_10To20_2017-02-06-103655
7474.72 seconds 2.07631 hours CTEQ5L-LO_HardQCDAll_10To20_2017-02-06-103655
7216.31 seconds 2.00453 hours CTEQ5L-LO_HardQCDAll_10To20_2017-02-06-103655
7302.33 seconds 2.02842 hours CTEQ5L-LO_HardQCDAll_10To20_2017-02-06-103655
7364.88 seconds 2.0458 hours CTEQ5L-LO_HardQCDAll_10To20_2017-02-06-103655
7552.66 seconds 2.09796 hours CTEQ5L-LO_HardQCDAll_10To20_2017-02-06-103655


8239.4 seconds 2.28872 hours CTEQ5L-LO_HardQCDAll_120To170_2017-02-06-103655
8416.96 seconds 2.33804 hours CTEQ5L-LO_HardQCDAll_120To170_2017-02-06-103655
8377.44 seconds 2.32707 hours CTEQ5L-LO_HardQCDAll_120To170_2017-02-06-103655
8465.02 seconds 2.35139 hours CTEQ5L-LO_HardQCDAll_120To170_2017-02-06-103655
8330.37 seconds 2.31399 hours CTEQ5L-LO_HardQCDAll_120To170_2017-02-06-103655
8347.92 seconds 2.31887 hours CTEQ5L-LO_HardQCDAll_120To170_2017-02-06-103655
8545.11 seconds 2.37364 hours CTEQ5L-LO_HardQCDAll_120To170_2017-02-06-103655
8094.41 seconds 2.24845 hours CTEQ5L-LO_HardQCDAll_120To170_2017-02-06-103655
8019.06 seconds 2.22752 hours CTEQ5L-LO_HardQCDAll_120To170_2017-02-06-103655
8156.16 seconds 2.2656 hours CTEQ5L-LO_HardQCDAll_120To170_2017-02-06-103655
8161.46 seconds 2.26707 hours CTEQ5L-LO_HardQCDAll_120To170_2017-02-06-103655
8151.31 seconds 2.26425 hours CTEQ5L-LO_HardQCDAll_120To170_2017-02-06-103655
8203.92 seconds 2.27887 hours CTEQ5L-LO_HardQCDAll_120To170_2017-02-06-103655
8070.97 seconds 2.24194 hours CTEQ5L-LO_HardQCDAll_120To170_2017-02-06-103655
7948.57 seconds 2.20794 hours CTEQ5L-LO_HardQCDAll_120To170_2017-02-06-103655
8326.3 seconds 2.31286 hours CTEQ5L-LO_HardQCDAll_120To170_2017-02-06-103655
8110.21 seconds 2.25284 hours CTEQ5L-LO_HardQCDAll_120To170_2017-02-06-103655
8326.71 seconds 2.31297 hours CTEQ5L-LO_HardQCDAll_120To170_2017-02-06-103655
8643.87 seconds 2.40108 hours CTEQ5L-LO_HardQCDAll_120To170_2017-02-06-103655
8248.31 seconds 2.2912 hours CTEQ5L-LO_HardQCDAll_120To170_2017-02-06-103655


8090.83 seconds 2.24745 hours CTEQ5L-LO_HardQCDAll_170To230_2017-02-06-103655
7990.14 seconds 2.21948 hours CTEQ5L-LO_HardQCDAll_170To230_2017-02-06-103655
5792.57 seconds 1.60905 hours CTEQ5L-LO_HardQCDAll_170To230_2017-02-06-103655
5679.68 seconds 1.57769 hours CTEQ5L-LO_HardQCDAll_170To230_2017-02-06-103655
5654.53 seconds 1.5707 hours CTEQ5L-LO_HardQCDAll_170To230_2017-02-06-103655
8330.79 seconds 2.31411 hours CTEQ5L-LO_HardQCDAll_170To230_2017-02-06-103655
8408.54 seconds 2.33571 hours CTEQ5L-LO_HardQCDAll_170To230_2017-02-06-103655
8557.42 seconds 2.37706 hours CTEQ5L-LO_HardQCDAll_170To230_2017-02-06-103655
8276.16 seconds 2.29893 hours CTEQ5L-LO_HardQCDAll_170To230_2017-02-06-103655
5829.25 seconds 1.61924 hours CTEQ5L-LO_HardQCDAll_170To230_2017-02-06-103655
6405.08 seconds 1.77919 hours CTEQ5L-LO_HardQCDAll_170To230_2017-02-06-103655
8067.69 seconds 2.24103 hours CTEQ5L-LO_HardQCDAll_170To230_2017-02-06-103655
6394.81 seconds 1.77634 hours CTEQ5L-LO_HardQCDAll_170To230_2017-02-06-103655
8228.26 seconds 2.28563 hours CTEQ5L-LO_HardQCDAll_170To230_2017-02-06-103655
8051.09 seconds 2.23641 hours CTEQ5L-LO_HardQCDAll_170To230_2017-02-06-103655
7523.51 seconds 2.08986 hours CTEQ5L-LO_HardQCDAll_170To230_2017-02-06-103655
8214.37 seconds 2.28177 hours CTEQ5L-LO_HardQCDAll_170To230_2017-02-06-103655
8162.91 seconds 2.26748 hours CTEQ5L-LO_HardQCDAll_170To230_2017-02-06-103655
8196.2 seconds 2.27672 hours CTEQ5L-LO_HardQCDAll_170To230_2017-02-06-103655
7998.03 seconds 2.22167 hours CTEQ5L-LO_HardQCDAll_170To230_2017-02-06-103655


6782.28 seconds 1.88397 hours CTEQ5L-LO_HardQCDAll_20To30_2017-02-06-103655
7713.27 seconds 2.14258 hours CTEQ5L-LO_HardQCDAll_20To30_2017-02-06-103655
7640.81 seconds 2.12245 hours CTEQ5L-LO_HardQCDAll_20To30_2017-02-06-103655
7767 seconds 2.1575 hours CTEQ5L-LO_HardQCDAll_20To30_2017-02-06-103655
7799.05 seconds 2.1664 hours CTEQ5L-LO_HardQCDAll_20To30_2017-02-06-103655
7544.56 seconds 2.09571 hours CTEQ5L-LO_HardQCDAll_20To30_2017-02-06-103655
8200.19 seconds 2.27783 hours CTEQ5L-LO_HardQCDAll_20To30_2017-02-06-103655
7706.19 seconds 2.14061 hours CTEQ5L-LO_HardQCDAll_20To30_2017-02-06-103655
7936.43 seconds 2.20456 hours CTEQ5L-LO_HardQCDAll_20To30_2017-02-06-103655
7840.8 seconds 2.178 hours CTEQ5L-LO_HardQCDAll_20To30_2017-02-06-103655
7703.75 seconds 2.13993 hours CTEQ5L-LO_HardQCDAll_20To30_2017-02-06-103655
6533.58 seconds 1.81488 hours CTEQ5L-LO_HardQCDAll_20To30_2017-02-06-103655
7840.1 seconds 2.17781 hours CTEQ5L-LO_HardQCDAll_20To30_2017-02-06-103655
6464.94 seconds 1.79582 hours CTEQ5L-LO_HardQCDAll_20To30_2017-02-06-103655
6627.98 seconds 1.84111 hours CTEQ5L-LO_HardQCDAll_20To30_2017-02-06-103655
7983.09 seconds 2.21753 hours CTEQ5L-LO_HardQCDAll_20To30_2017-02-06-103655
7880.88 seconds 2.18913 hours CTEQ5L-LO_HardQCDAll_20To30_2017-02-06-103655
7812.89 seconds 2.17025 hours CTEQ5L-LO_HardQCDAll_20To30_2017-02-06-103655
7892.15 seconds 2.19226 hours CTEQ5L-LO_HardQCDAll_20To30_2017-02-06-103655
7657.2 seconds 2.127 hours CTEQ5L-LO_HardQCDAll_20To30_2017-02-06-103655


5694.65 seconds 1.58185 hours CTEQ5L-LO_HardQCDAll_230To300_2017-02-06-103655
5850.66 seconds 1.62518 hours CTEQ5L-LO_HardQCDAll_230To300_2017-02-06-103655
5852.4 seconds 1.62567 hours CTEQ5L-LO_HardQCDAll_230To300_2017-02-06-103655
5491.51 seconds 1.52542 hours CTEQ5L-LO_HardQCDAll_230To300_2017-02-06-103655
5728.9 seconds 1.59136 hours CTEQ5L-LO_HardQCDAll_230To300_2017-02-06-103655
5731.88 seconds 1.59219 hours CTEQ5L-LO_HardQCDAll_230To300_2017-02-06-103655
3054.68 seconds 0.848522 hours CTEQ5L-LO_HardQCDAll_230To300_2017-02-06-103655
5709.34 seconds 1.58593 hours CTEQ5L-LO_HardQCDAll_230To300_2017-02-06-103655
5701.66 seconds 1.58379 hours CTEQ5L-LO_HardQCDAll_230To300_2017-02-06-103655
5682.76 seconds 1.57854 hours CTEQ5L-LO_HardQCDAll_230To300_2017-02-06-103655
5902.18 seconds 1.63949 hours CTEQ5L-LO_HardQCDAll_230To300_2017-02-06-103655
5746.66 seconds 1.59629 hours CTEQ5L-LO_HardQCDAll_230To300_2017-02-06-103655
5954.69 seconds 1.65408 hours CTEQ5L-LO_HardQCDAll_230To300_2017-02-06-103655
8074.79 seconds 2.243 hours CTEQ5L-LO_HardQCDAll_230To300_2017-02-06-103655
8097.79 seconds 2.24939 hours CTEQ5L-LO_HardQCDAll_230To300_2017-02-06-103655
8059.67 seconds 2.2388 hours CTEQ5L-LO_HardQCDAll_230To300_2017-02-06-103655
5991.7 seconds 1.66436 hours CTEQ5L-LO_HardQCDAll_230To300_2017-02-06-103655
6045.6 seconds 1.67933 hours CTEQ5L-LO_HardQCDAll_230To300_2017-02-06-103655
855.881 seconds 0.237745 hours CTEQ5L-LO_HardQCDAll_230To300_2017-02-06-103655
5833.33 seconds 1.62037 hours CTEQ5L-LO_HardQCDAll_230To300_2017-02-06-103655


5950.47 seconds 1.65291 hours CTEQ5L-LO_HardQCDAll_300To380_2017-02-06-103655
5634.67 seconds 1.56519 hours CTEQ5L-LO_HardQCDAll_300To380_2017-02-06-103655
5729.13 seconds 1.59143 hours CTEQ5L-LO_HardQCDAll_300To380_2017-02-06-103655
5822.58 seconds 1.61738 hours CTEQ5L-LO_HardQCDAll_300To380_2017-02-06-103655
5843.69 seconds 1.62325 hours CTEQ5L-LO_HardQCDAll_300To380_2017-02-06-103655
5783.32 seconds 1.60648 hours CTEQ5L-LO_HardQCDAll_300To380_2017-02-06-103655
5476.12 seconds 1.52114 hours CTEQ5L-LO_HardQCDAll_300To380_2017-02-06-103655
5710.79 seconds 1.58633 hours CTEQ5L-LO_HardQCDAll_300To380_2017-02-06-103655
5688.16 seconds 1.58004 hours CTEQ5L-LO_HardQCDAll_300To380_2017-02-06-103655
5350.63 seconds 1.48629 hours CTEQ5L-LO_HardQCDAll_300To380_2017-02-06-103655
5421.25 seconds 1.5059 hours CTEQ5L-LO_HardQCDAll_300To380_2017-02-06-103655
7204.29 seconds 2.00119 hours CTEQ5L-LO_HardQCDAll_300To380_2017-02-06-103655
5441.67 seconds 1.51158 hours CTEQ5L-LO_HardQCDAll_300To380_2017-02-06-103655
5980.37 seconds 1.66121 hours CTEQ5L-LO_HardQCDAll_300To380_2017-02-06-103655
6075.79 seconds 1.68772 hours CTEQ5L-LO_HardQCDAll_300To380_2017-02-06-103655
6111.33 seconds 1.69759 hours CTEQ5L-LO_HardQCDAll_300To380_2017-02-06-103655
5534.94 seconds 1.53748 hours CTEQ5L-LO_HardQCDAll_300To380_2017-02-06-103655
5634.84 seconds 1.56523 hours CTEQ5L-LO_HardQCDAll_300To380_2017-02-06-103655
5610.38 seconds 1.55844 hours CTEQ5L-LO_HardQCDAll_300To380_2017-02-06-103655
5577.6 seconds 1.54933 hours CTEQ5L-LO_HardQCDAll_300To380_2017-02-06-103655


7972.52 seconds 2.21459 hours CTEQ5L-LO_HardQCDAll_30To50_2017-02-06-103655
8032.36 seconds 2.23121 hours CTEQ5L-LO_HardQCDAll_30To50_2017-02-06-103655
7951.96 seconds 2.20888 hours CTEQ5L-LO_HardQCDAll_30To50_2017-02-06-103655
7836.32 seconds 2.17676 hours CTEQ5L-LO_HardQCDAll_30To50_2017-02-06-103655
7931.93 seconds 2.20331 hours CTEQ5L-LO_HardQCDAll_30To50_2017-02-06-103655
7861.49 seconds 2.18375 hours CTEQ5L-LO_HardQCDAll_30To50_2017-02-06-103655
8025.22 seconds 2.22923 hours CTEQ5L-LO_HardQCDAll_30To50_2017-02-06-103655
8112.75 seconds 2.25354 hours CTEQ5L-LO_HardQCDAll_30To50_2017-02-06-103655
8181.09 seconds 2.27252 hours CTEQ5L-LO_HardQCDAll_30To50_2017-02-06-103655
8075.22 seconds 2.24312 hours CTEQ5L-LO_HardQCDAll_30To50_2017-02-06-103655
7972.79 seconds 2.21466 hours CTEQ5L-LO_HardQCDAll_30To50_2017-02-06-103655
7859.56 seconds 2.18321 hours CTEQ5L-LO_HardQCDAll_30To50_2017-02-06-103655
7918.52 seconds 2.19959 hours CTEQ5L-LO_HardQCDAll_30To50_2017-02-06-103655
7802.61 seconds 2.16739 hours CTEQ5L-LO_HardQCDAll_30To50_2017-02-06-103655
7957.16 seconds 2.21032 hours CTEQ5L-LO_HardQCDAll_30To50_2017-02-06-103655
7983.53 seconds 2.21765 hours CTEQ5L-LO_HardQCDAll_30To50_2017-02-06-103655
7981.85 seconds 2.21718 hours CTEQ5L-LO_HardQCDAll_30To50_2017-02-06-103655
7927.41 seconds 2.20206 hours CTEQ5L-LO_HardQCDAll_30To50_2017-02-06-103655
8029.36 seconds 2.23038 hours CTEQ5L-LO_HardQCDAll_30To50_2017-02-06-103655
8008.93 seconds 2.2247 hours CTEQ5L-LO_HardQCDAll_30To50_2017-02-06-103655


7821.11 seconds 2.17253 hours CTEQ5L-LO_HardQCDAll_380To10000_2017-02-06-103655
5470.03 seconds 1.51945 hours CTEQ5L-LO_HardQCDAll_380To10000_2017-02-06-103655
6009.32 seconds 1.66926 hours CTEQ5L-LO_HardQCDAll_380To10000_2017-02-06-103655
5604.73 seconds 1.55687 hours CTEQ5L-LO_HardQCDAll_380To10000_2017-02-06-103655
5982.75 seconds 1.66187 hours CTEQ5L-LO_HardQCDAll_380To10000_2017-02-06-103655
5972.98 seconds 1.65916 hours CTEQ5L-LO_HardQCDAll_380To10000_2017-02-06-103655
6053.07 seconds 1.68141 hours CTEQ5L-LO_HardQCDAll_380To10000_2017-02-06-103655
5464.52 seconds 1.51792 hours CTEQ5L-LO_HardQCDAll_380To10000_2017-02-06-103655
5359.28 seconds 1.48869 hours CTEQ5L-LO_HardQCDAll_380To10000_2017-02-06-103655
5399.14 seconds 1.49976 hours CTEQ5L-LO_HardQCDAll_380To10000_2017-02-06-103655
5377.83 seconds 1.49384 hours CTEQ5L-LO_HardQCDAll_380To10000_2017-02-06-103655
5315.13 seconds 1.47643 hours CTEQ5L-LO_HardQCDAll_380To10000_2017-02-06-103655
7745.54 seconds 2.15154 hours CTEQ5L-LO_HardQCDAll_380To10000_2017-02-06-103655
5416.44 seconds 1.50457 hours CTEQ5L-LO_HardQCDAll_380To10000_2017-02-06-103655
5612.87 seconds 1.55913 hours CTEQ5L-LO_HardQCDAll_380To10000_2017-02-06-103655
5541.55 seconds 1.53932 hours CTEQ5L-LO_HardQCDAll_380To10000_2017-02-06-103655
5382.63 seconds 1.49517 hours CTEQ5L-LO_HardQCDAll_380To10000_2017-02-06-103655
5397.42 seconds 1.49928 hours CTEQ5L-LO_HardQCDAll_380To10000_2017-02-06-103655
5358.76 seconds 1.48854 hours CTEQ5L-LO_HardQCDAll_380To10000_2017-02-06-103655
5491.7 seconds 1.52547 hours CTEQ5L-LO_HardQCDAll_380To10000_2017-02-06-103655


7901.77 seconds 2.19494 hours CTEQ5L-LO_HardQCDAll_50To80_2017-02-06-103655
6860.28 seconds 1.90563 hours CTEQ5L-LO_HardQCDAll_50To80_2017-02-06-103655
8520.77 seconds 2.36688 hours CTEQ5L-LO_HardQCDAll_50To80_2017-02-06-103655
8225.69 seconds 2.28491 hours CTEQ5L-LO_HardQCDAll_50To80_2017-02-06-103655
8109.89 seconds 2.25275 hours CTEQ5L-LO_HardQCDAll_50To80_2017-02-06-103655
8134.94 seconds 2.25971 hours CTEQ5L-LO_HardQCDAll_50To80_2017-02-06-103655
8232.22 seconds 2.28673 hours CTEQ5L-LO_HardQCDAll_50To80_2017-02-06-103655
8258.03 seconds 2.2939 hours CTEQ5L-LO_HardQCDAll_50To80_2017-02-06-103655
8418.13 seconds 2.33837 hours CTEQ5L-LO_HardQCDAll_50To80_2017-02-06-103655
8035.65 seconds 2.23212 hours CTEQ5L-LO_HardQCDAll_50To80_2017-02-06-103655
8006.59 seconds 2.22405 hours CTEQ5L-LO_HardQCDAll_50To80_2017-02-06-103655
8209.71 seconds 2.28047 hours CTEQ5L-LO_HardQCDAll_50To80_2017-02-06-103655
8261.97 seconds 2.29499 hours CTEQ5L-LO_HardQCDAll_50To80_2017-02-06-103655
8137.7 seconds 2.26047 hours CTEQ5L-LO_HardQCDAll_50To80_2017-02-06-103655
8154.15 seconds 2.26504 hours CTEQ5L-LO_HardQCDAll_50To80_2017-02-06-103655
8496.33 seconds 2.36009 hours CTEQ5L-LO_HardQCDAll_50To80_2017-02-06-103655
8206.84 seconds 2.27968 hours CTEQ5L-LO_HardQCDAll_50To80_2017-02-06-103655
8200.92 seconds 2.27803 hours CTEQ5L-LO_HardQCDAll_50To80_2017-02-06-103655
7123.49 seconds 1.97875 hours CTEQ5L-LO_HardQCDAll_50To80_2017-02-06-103655
6747.22 seconds 1.87423 hours CTEQ5L-LO_HardQCDAll_50To80_2017-02-06-103655


8300.51 seconds 2.3057 hours CTEQ5L-LO_HardQCDAll_80To120_2017-02-06-103655
8107.81 seconds 2.25217 hours CTEQ5L-LO_HardQCDAll_80To120_2017-02-06-103655
8031.37 seconds 2.23094 hours CTEQ5L-LO_HardQCDAll_80To120_2017-02-06-103655
7971.86 seconds 2.21441 hours CTEQ5L-LO_HardQCDAll_80To120_2017-02-06-103655
8001.56 seconds 2.22266 hours CTEQ5L-LO_HardQCDAll_80To120_2017-02-06-103655
7941.99 seconds 2.20611 hours CTEQ5L-LO_HardQCDAll_80To120_2017-02-06-103655
8080.02 seconds 2.24445 hours CTEQ5L-LO_HardQCDAll_80To120_2017-02-06-103655
8040.8 seconds 2.23356 hours CTEQ5L-LO_HardQCDAll_80To120_2017-02-06-103655
8039.52 seconds 2.2332 hours CTEQ5L-LO_HardQCDAll_80To120_2017-02-06-103655
8164.32 seconds 2.26787 hours CTEQ5L-LO_HardQCDAll_80To120_2017-02-06-103655
7950.67 seconds 2.20852 hours CTEQ5L-LO_HardQCDAll_80To120_2017-02-06-103655
8263.46 seconds 2.29541 hours CTEQ5L-LO_HardQCDAll_80To120_2017-02-06-103655
7949.63 seconds 2.20823 hours CTEQ5L-LO_HardQCDAll_80To120_2017-02-06-103655
8578.37 seconds 2.38288 hours CTEQ5L-LO_HardQCDAll_80To120_2017-02-06-103655
8809.76 seconds 2.44716 hours CTEQ5L-LO_HardQCDAll_80To120_2017-02-06-103655
8376.69 seconds 2.32686 hours CTEQ5L-LO_HardQCDAll_80To120_2017-02-06-103655
8171.7 seconds 2.26992 hours CTEQ5L-LO_HardQCDAll_80To120_2017-02-06-103655
7936.71 seconds 2.20464 hours CTEQ5L-LO_HardQCDAll_80To120_2017-02-06-103655
7124.63 seconds 1.97906 hours CTEQ5L-LO_HardQCDAll_80To120_2017-02-06-103655
7120.19 seconds 1.97783 hours CTEQ5L-LO_HardQCDAll_80To120_2017-02-06-103655




