

Time taken to complete the job, Statistics
==========================================
2543.81 seconds 0.706614 hours CTEQ5L-LO_HardQCDAll_10To20_2017-01-30-100413
1979.57 seconds 0.549881 hours CTEQ5L-LO_HardQCDAll_10To20_2017-01-30-100413
2287.53 seconds 0.635425 hours CTEQ5L-LO_HardQCDAll_10To20_2017-01-30-100413
2620.2 seconds 0.727833 hours CTEQ5L-LO_HardQCDAll_10To20_2017-01-30-100413
2006.06 seconds 0.557239 hours CTEQ5L-LO_HardQCDAll_10To20_2017-01-30-100413
1981.54 seconds 0.550428 hours CTEQ5L-LO_HardQCDAll_10To20_2017-01-30-100413
2470.3 seconds 0.686194 hours CTEQ5L-LO_HardQCDAll_10To20_2017-01-30-100413
2327.25 seconds 0.646458 hours CTEQ5L-LO_HardQCDAll_10To20_2017-01-30-100413
2313.68 seconds 0.642689 hours CTEQ5L-LO_HardQCDAll_10To20_2017-01-30-100413
2438.28 seconds 0.6773 hours CTEQ5L-LO_HardQCDAll_10To20_2017-01-30-100413
2443.21 seconds 0.678669 hours CTEQ5L-LO_HardQCDAll_10To20_2017-01-30-100413
2630.66 seconds 0.730739 hours CTEQ5L-LO_HardQCDAll_10To20_2017-01-30-100413
2428.98 seconds 0.674717 hours CTEQ5L-LO_HardQCDAll_10To20_2017-01-30-100413
2595.52 seconds 0.720978 hours CTEQ5L-LO_HardQCDAll_10To20_2017-01-30-100413
2707.02 seconds 0.75195 hours CTEQ5L-LO_HardQCDAll_10To20_2017-01-30-100413
2639.24 seconds 0.733122 hours CTEQ5L-LO_HardQCDAll_10To20_2017-01-30-100413
2636.12 seconds 0.732256 hours CTEQ5L-LO_HardQCDAll_10To20_2017-01-30-100413
2658.41 seconds 0.738447 hours CTEQ5L-LO_HardQCDAll_10To20_2017-01-30-100413
2032.77 seconds 0.564658 hours CTEQ5L-LO_HardQCDAll_10To20_2017-01-30-100413
2014.65 seconds 0.559625 hours CTEQ5L-LO_HardQCDAll_10To20_2017-01-30-100413


2759.89 seconds 0.766636 hours CTEQ5L-LO_HardQCDAll_120To170_2017-01-30-100413
2889.43 seconds 0.802619 hours CTEQ5L-LO_HardQCDAll_120To170_2017-01-30-100413
2810.99 seconds 0.780831 hours CTEQ5L-LO_HardQCDAll_120To170_2017-01-30-100413
2242.13 seconds 0.622814 hours CTEQ5L-LO_HardQCDAll_120To170_2017-01-30-100413
2638.66 seconds 0.732961 hours CTEQ5L-LO_HardQCDAll_120To170_2017-01-30-100413
2643.09 seconds 0.734192 hours CTEQ5L-LO_HardQCDAll_120To170_2017-01-30-100413
2654.89 seconds 0.737469 hours CTEQ5L-LO_HardQCDAll_120To170_2017-01-30-100413
2642.5 seconds 0.734028 hours CTEQ5L-LO_HardQCDAll_120To170_2017-01-30-100413
1986.6 seconds 0.551833 hours CTEQ5L-LO_HardQCDAll_120To170_2017-01-30-100413
2018.01 seconds 0.560558 hours CTEQ5L-LO_HardQCDAll_120To170_2017-01-30-100413
2855.48 seconds 0.793189 hours CTEQ5L-LO_HardQCDAll_120To170_2017-01-30-100413
2020.97 seconds 0.561381 hours CTEQ5L-LO_HardQCDAll_120To170_2017-01-30-100413
2809.88 seconds 0.780522 hours CTEQ5L-LO_HardQCDAll_120To170_2017-01-30-100413
2048.27 seconds 0.568964 hours CTEQ5L-LO_HardQCDAll_120To170_2017-01-30-100413
2645.94 seconds 0.734983 hours CTEQ5L-LO_HardQCDAll_120To170_2017-01-30-100413
2649.41 seconds 0.735947 hours CTEQ5L-LO_HardQCDAll_120To170_2017-01-30-100413
2733.35 seconds 0.759264 hours CTEQ5L-LO_HardQCDAll_120To170_2017-01-30-100413
2741.57 seconds 0.761547 hours CTEQ5L-LO_HardQCDAll_120To170_2017-01-30-100413
2917.95 seconds 0.810542 hours CTEQ5L-LO_HardQCDAll_120To170_2017-01-30-100413
2933.42 seconds 0.814839 hours CTEQ5L-LO_HardQCDAll_120To170_2017-01-30-100413


2843.65 seconds 0.789903 hours CTEQ5L-LO_HardQCDAll_170To230_2017-01-30-100413
2797.19 seconds 0.776997 hours CTEQ5L-LO_HardQCDAll_170To230_2017-01-30-100413
2706.59 seconds 0.751831 hours CTEQ5L-LO_HardQCDAll_170To230_2017-01-30-100413
2695.04 seconds 0.748622 hours CTEQ5L-LO_HardQCDAll_170To230_2017-01-30-100413
2660.78 seconds 0.739106 hours CTEQ5L-LO_HardQCDAll_170To230_2017-01-30-100413
2219.16 seconds 0.616433 hours CTEQ5L-LO_HardQCDAll_170To230_2017-01-30-100413
2212.38 seconds 0.61455 hours CTEQ5L-LO_HardQCDAll_170To230_2017-01-30-100413
2266.71 seconds 0.629642 hours CTEQ5L-LO_HardQCDAll_170To230_2017-01-30-100413
2013.03 seconds 0.559175 hours CTEQ5L-LO_HardQCDAll_170To230_2017-01-30-100413
2031.3 seconds 0.56425 hours CTEQ5L-LO_HardQCDAll_170To230_2017-01-30-100413
1967.34 seconds 0.546483 hours CTEQ5L-LO_HardQCDAll_170To230_2017-01-30-100413
2905.27 seconds 0.807019 hours CTEQ5L-LO_HardQCDAll_170To230_2017-01-30-100413
2036.61 seconds 0.565725 hours CTEQ5L-LO_HardQCDAll_170To230_2017-01-30-100413
2801.61 seconds 0.778225 hours CTEQ5L-LO_HardQCDAll_170To230_2017-01-30-100413
2822.62 seconds 0.784061 hours CTEQ5L-LO_HardQCDAll_170To230_2017-01-30-100413
2785.28 seconds 0.773689 hours CTEQ5L-LO_HardQCDAll_170To230_2017-01-30-100413
2793.99 seconds 0.776108 hours CTEQ5L-LO_HardQCDAll_170To230_2017-01-30-100413
2811.67 seconds 0.781019 hours CTEQ5L-LO_HardQCDAll_170To230_2017-01-30-100413
2800.37 seconds 0.777881 hours CTEQ5L-LO_HardQCDAll_170To230_2017-01-30-100413
2780.49 seconds 0.772358 hours CTEQ5L-LO_HardQCDAll_170To230_2017-01-30-100413


2033.5 seconds 0.564861 hours CTEQ5L-LO_HardQCDAll_20To30_2017-01-30-100413
2022.11 seconds 0.561697 hours CTEQ5L-LO_HardQCDAll_20To30_2017-01-30-100413
2013.54 seconds 0.559317 hours CTEQ5L-LO_HardQCDAll_20To30_2017-01-30-100413
2049.98 seconds 0.569439 hours CTEQ5L-LO_HardQCDAll_20To30_2017-01-30-100413
2079.85 seconds 0.577736 hours CTEQ5L-LO_HardQCDAll_20To30_2017-01-30-100413
2722.12 seconds 0.756144 hours CTEQ5L-LO_HardQCDAll_20To30_2017-01-30-100413
1806.33 seconds 0.501758 hours CTEQ5L-LO_HardQCDAll_20To30_2017-01-30-100413
2053.5 seconds 0.570417 hours CTEQ5L-LO_HardQCDAll_20To30_2017-01-30-100413
2123.07 seconds 0.589742 hours CTEQ5L-LO_HardQCDAll_20To30_2017-01-30-100413
1869.16 seconds 0.519211 hours CTEQ5L-LO_HardQCDAll_20To30_2017-01-30-100413
1831.54 seconds 0.508761 hours CTEQ5L-LO_HardQCDAll_20To30_2017-01-30-100413
1922.07 seconds 0.533908 hours CTEQ5L-LO_HardQCDAll_20To30_2017-01-30-100413
1878.01 seconds 0.521669 hours CTEQ5L-LO_HardQCDAll_20To30_2017-01-30-100413
2526.51 seconds 0.701808 hours CTEQ5L-LO_HardQCDAll_20To30_2017-01-30-100413
2555.09 seconds 0.709747 hours CTEQ5L-LO_HardQCDAll_20To30_2017-01-30-100413
2536.79 seconds 0.704664 hours CTEQ5L-LO_HardQCDAll_20To30_2017-01-30-100413
2835.5 seconds 0.787639 hours CTEQ5L-LO_HardQCDAll_20To30_2017-01-30-100413
2681.08 seconds 0.744744 hours CTEQ5L-LO_HardQCDAll_20To30_2017-01-30-100413
2810.46 seconds 0.780683 hours CTEQ5L-LO_HardQCDAll_20To30_2017-01-30-100413
2615.89 seconds 0.726636 hours CTEQ5L-LO_HardQCDAll_20To30_2017-01-30-100413


2659.69 seconds 0.738803 hours CTEQ5L-LO_HardQCDAll_230To300_2017-01-30-100413
2832.18 seconds 0.786717 hours CTEQ5L-LO_HardQCDAll_230To300_2017-01-30-100413
2668.51 seconds 0.741253 hours CTEQ5L-LO_HardQCDAll_230To300_2017-01-30-100413
2670.05 seconds 0.741681 hours CTEQ5L-LO_HardQCDAll_230To300_2017-01-30-100413
2800.14 seconds 0.777817 hours CTEQ5L-LO_HardQCDAll_230To300_2017-01-30-100413
2840.36 seconds 0.788989 hours CTEQ5L-LO_HardQCDAll_230To300_2017-01-30-100413
2017.93 seconds 0.560536 hours CTEQ5L-LO_HardQCDAll_230To300_2017-01-30-100413
2790.61 seconds 0.775169 hours CTEQ5L-LO_HardQCDAll_230To300_2017-01-30-100413
2664.16 seconds 0.740044 hours CTEQ5L-LO_HardQCDAll_230To300_2017-01-30-100413
2757.31 seconds 0.765919 hours CTEQ5L-LO_HardQCDAll_230To300_2017-01-30-100413
2770.2 seconds 0.7695 hours CTEQ5L-LO_HardQCDAll_230To300_2017-01-30-100413
2877.87 seconds 0.799408 hours CTEQ5L-LO_HardQCDAll_230To300_2017-01-30-100413
2790.3 seconds 0.775083 hours CTEQ5L-LO_HardQCDAll_230To300_2017-01-30-100413
2974.48 seconds 0.826244 hours CTEQ5L-LO_HardQCDAll_230To300_2017-01-30-100413
2196.29 seconds 0.610081 hours CTEQ5L-LO_HardQCDAll_230To300_2017-01-30-100413
2032.95 seconds 0.564708 hours CTEQ5L-LO_HardQCDAll_230To300_2017-01-30-100413
2048.52 seconds 0.569033 hours CTEQ5L-LO_HardQCDAll_230To300_2017-01-30-100413
2870.06 seconds 0.797239 hours CTEQ5L-LO_HardQCDAll_230To300_2017-01-30-100413
2852.96 seconds 0.792489 hours CTEQ5L-LO_HardQCDAll_230To300_2017-01-30-100413
2837.76 seconds 0.788267 hours CTEQ5L-LO_HardQCDAll_230To300_2017-01-30-100413


484.069 seconds 0.134464 hours CTEQ5L-LO_HardQCDAll_300To380_2017-01-30-100413
2818.02 seconds 0.782783 hours CTEQ5L-LO_HardQCDAll_300To380_2017-01-30-100413
1998.99 seconds 0.555275 hours CTEQ5L-LO_HardQCDAll_300To380_2017-01-30-100413
2265.44 seconds 0.629289 hours CTEQ5L-LO_HardQCDAll_300To380_2017-01-30-100413
2808.16 seconds 0.780044 hours CTEQ5L-LO_HardQCDAll_300To380_2017-01-30-100413
2723.55 seconds 0.756542 hours CTEQ5L-LO_HardQCDAll_300To380_2017-01-30-100413
2705.13 seconds 0.751425 hours CTEQ5L-LO_HardQCDAll_300To380_2017-01-30-100413
2729.15 seconds 0.758097 hours CTEQ5L-LO_HardQCDAll_300To380_2017-01-30-100413
2728.88 seconds 0.758022 hours CTEQ5L-LO_HardQCDAll_300To380_2017-01-30-100413
2725.32 seconds 0.757033 hours CTEQ5L-LO_HardQCDAll_300To380_2017-01-30-100413
2721.65 seconds 0.756014 hours CTEQ5L-LO_HardQCDAll_300To380_2017-01-30-100413
2007.87 seconds 0.557742 hours CTEQ5L-LO_HardQCDAll_300To380_2017-01-30-100413
2299.85 seconds 0.638847 hours CTEQ5L-LO_HardQCDAll_300To380_2017-01-30-100413
2105.95 seconds 0.584986 hours CTEQ5L-LO_HardQCDAll_300To380_2017-01-30-100413
2256.5 seconds 0.626806 hours CTEQ5L-LO_HardQCDAll_300To380_2017-01-30-100413
2024.99 seconds 0.562497 hours CTEQ5L-LO_HardQCDAll_300To380_2017-01-30-100413
2215.93 seconds 0.615536 hours CTEQ5L-LO_HardQCDAll_300To380_2017-01-30-100413
2184.85 seconds 0.606903 hours CTEQ5L-LO_HardQCDAll_300To380_2017-01-30-100413
2767.73 seconds 0.768814 hours CTEQ5L-LO_HardQCDAll_300To380_2017-01-30-100413
2777.34 seconds 0.771483 hours CTEQ5L-LO_HardQCDAll_300To380_2017-01-30-100413


1975.1 seconds 0.548639 hours CTEQ5L-LO_HardQCDAll_30To50_2017-01-30-100413
1905.53 seconds 0.529314 hours CTEQ5L-LO_HardQCDAll_30To50_2017-01-30-100413
1906.52 seconds 0.529589 hours CTEQ5L-LO_HardQCDAll_30To50_2017-01-30-100413
2506.2 seconds 0.696167 hours CTEQ5L-LO_HardQCDAll_30To50_2017-01-30-100413
2501.11 seconds 0.694753 hours CTEQ5L-LO_HardQCDAll_30To50_2017-01-30-100413
1992.31 seconds 0.553419 hours CTEQ5L-LO_HardQCDAll_30To50_2017-01-30-100413
1933.23 seconds 0.537008 hours CTEQ5L-LO_HardQCDAll_30To50_2017-01-30-100413
2589.12 seconds 0.7192 hours CTEQ5L-LO_HardQCDAll_30To50_2017-01-30-100413
2606.09 seconds 0.723914 hours CTEQ5L-LO_HardQCDAll_30To50_2017-01-30-100413
2594.74 seconds 0.720761 hours CTEQ5L-LO_HardQCDAll_30To50_2017-01-30-100413
2591.18 seconds 0.719772 hours CTEQ5L-LO_HardQCDAll_30To50_2017-01-30-100413
2242.24 seconds 0.622844 hours CTEQ5L-LO_HardQCDAll_30To50_2017-01-30-100413
1894.4 seconds 0.526222 hours CTEQ5L-LO_HardQCDAll_30To50_2017-01-30-100413
1860.8 seconds 0.516889 hours CTEQ5L-LO_HardQCDAll_30To50_2017-01-30-100413
1940.15 seconds 0.538931 hours CTEQ5L-LO_HardQCDAll_30To50_2017-01-30-100413
2149.38 seconds 0.59705 hours CTEQ5L-LO_HardQCDAll_30To50_2017-01-30-100413
2119.92 seconds 0.588867 hours CTEQ5L-LO_HardQCDAll_30To50_2017-01-30-100413
2461.71 seconds 0.683808 hours CTEQ5L-LO_HardQCDAll_30To50_2017-01-30-100413
2498.82 seconds 0.694117 hours CTEQ5L-LO_HardQCDAll_30To50_2017-01-30-100413
1902.62 seconds 0.528506 hours CTEQ5L-LO_HardQCDAll_30To50_2017-01-30-100413


2833.14 seconds 0.786983 hours CTEQ5L-LO_HardQCDAll_380To10000_2017-01-30-100413
2603.42 seconds 0.723172 hours CTEQ5L-LO_HardQCDAll_380To10000_2017-01-30-100413
2597.13 seconds 0.721425 hours CTEQ5L-LO_HardQCDAll_380To10000_2017-01-30-100413
2617.74 seconds 0.72715 hours CTEQ5L-LO_HardQCDAll_380To10000_2017-01-30-100413
2612.56 seconds 0.725711 hours CTEQ5L-LO_HardQCDAll_380To10000_2017-01-30-100413
2578.07 seconds 0.716131 hours CTEQ5L-LO_HardQCDAll_380To10000_2017-01-30-100413
2679.44 seconds 0.744289 hours CTEQ5L-LO_HardQCDAll_380To10000_2017-01-30-100413
2714.47 seconds 0.754019 hours CTEQ5L-LO_HardQCDAll_380To10000_2017-01-30-100413
2609.68 seconds 0.724911 hours CTEQ5L-LO_HardQCDAll_380To10000_2017-01-30-100413
2600.15 seconds 0.722264 hours CTEQ5L-LO_HardQCDAll_380To10000_2017-01-30-100413
2539.23 seconds 0.705342 hours CTEQ5L-LO_HardQCDAll_380To10000_2017-01-30-100413
2899.39 seconds 0.805386 hours CTEQ5L-LO_HardQCDAll_380To10000_2017-01-30-100413
2527.16 seconds 0.701989 hours CTEQ5L-LO_HardQCDAll_380To10000_2017-01-30-100413
2633.41 seconds 0.731503 hours CTEQ5L-LO_HardQCDAll_380To10000_2017-01-30-100413
2755.5 seconds 0.765417 hours CTEQ5L-LO_HardQCDAll_380To10000_2017-01-30-100413
2659.71 seconds 0.738808 hours CTEQ5L-LO_HardQCDAll_380To10000_2017-01-30-100413
2668.1 seconds 0.741139 hours CTEQ5L-LO_HardQCDAll_380To10000_2017-01-30-100413
2659.87 seconds 0.738853 hours CTEQ5L-LO_HardQCDAll_380To10000_2017-01-30-100413
2639.94 seconds 0.733317 hours CTEQ5L-LO_HardQCDAll_380To10000_2017-01-30-100413
2609.85 seconds 0.724958 hours CTEQ5L-LO_HardQCDAll_380To10000_2017-01-30-100413


2630.76 seconds 0.730767 hours CTEQ5L-LO_HardQCDAll_50To80_2017-01-30-100413
2659.91 seconds 0.738864 hours CTEQ5L-LO_HardQCDAll_50To80_2017-01-30-100413
2655.37 seconds 0.737603 hours CTEQ5L-LO_HardQCDAll_50To80_2017-01-30-100413
2694.65 seconds 0.748514 hours CTEQ5L-LO_HardQCDAll_50To80_2017-01-30-100413
2650.27 seconds 0.736186 hours CTEQ5L-LO_HardQCDAll_50To80_2017-01-30-100413
2652.6 seconds 0.736833 hours CTEQ5L-LO_HardQCDAll_50To80_2017-01-30-100413
2645.56 seconds 0.734878 hours CTEQ5L-LO_HardQCDAll_50To80_2017-01-30-100413
1901.62 seconds 0.528228 hours CTEQ5L-LO_HardQCDAll_50To80_2017-01-30-100413
2718.65 seconds 0.755181 hours CTEQ5L-LO_HardQCDAll_50To80_2017-01-30-100413
2689.69 seconds 0.747136 hours CTEQ5L-LO_HardQCDAll_50To80_2017-01-30-100413
2691.67 seconds 0.747686 hours CTEQ5L-LO_HardQCDAll_50To80_2017-01-30-100413
2626.23 seconds 0.729508 hours CTEQ5L-LO_HardQCDAll_50To80_2017-01-30-100413
2690.4 seconds 0.747333 hours CTEQ5L-LO_HardQCDAll_50To80_2017-01-30-100413
2624.65 seconds 0.729069 hours CTEQ5L-LO_HardQCDAll_50To80_2017-01-30-100413
2616.69 seconds 0.726858 hours CTEQ5L-LO_HardQCDAll_50To80_2017-01-30-100413
1919.71 seconds 0.533253 hours CTEQ5L-LO_HardQCDAll_50To80_2017-01-30-100413
1932.38 seconds 0.536772 hours CTEQ5L-LO_HardQCDAll_50To80_2017-01-30-100413
2191.3 seconds 0.608694 hours CTEQ5L-LO_HardQCDAll_50To80_2017-01-30-100413
2658.22 seconds 0.738394 hours CTEQ5L-LO_HardQCDAll_50To80_2017-01-30-100413
2655.94 seconds 0.737761 hours CTEQ5L-LO_HardQCDAll_50To80_2017-01-30-100413


2895.54 seconds 0.804317 hours CTEQ5L-LO_HardQCDAll_80To120_2017-01-30-100413
2755.57 seconds 0.765436 hours CTEQ5L-LO_HardQCDAll_80To120_2017-01-30-100413
2173.51 seconds 0.603753 hours CTEQ5L-LO_HardQCDAll_80To120_2017-01-30-100413
1955.23 seconds 0.543119 hours CTEQ5L-LO_HardQCDAll_80To120_2017-01-30-100413
2616.56 seconds 0.726822 hours CTEQ5L-LO_HardQCDAll_80To120_2017-01-30-100413
2626.03 seconds 0.729453 hours CTEQ5L-LO_HardQCDAll_80To120_2017-01-30-100413
2617.72 seconds 0.727144 hours CTEQ5L-LO_HardQCDAll_80To120_2017-01-30-100413
2600.22 seconds 0.722283 hours CTEQ5L-LO_HardQCDAll_80To120_2017-01-30-100413
2278.64 seconds 0.632956 hours CTEQ5L-LO_HardQCDAll_80To120_2017-01-30-100413
2621.69 seconds 0.728247 hours CTEQ5L-LO_HardQCDAll_80To120_2017-01-30-100413
2591.18 seconds 0.719772 hours CTEQ5L-LO_HardQCDAll_80To120_2017-01-30-100413
2810.54 seconds 0.780706 hours CTEQ5L-LO_HardQCDAll_80To120_2017-01-30-100413
2713.98 seconds 0.753883 hours CTEQ5L-LO_HardQCDAll_80To120_2017-01-30-100413
2825.23 seconds 0.784786 hours CTEQ5L-LO_HardQCDAll_80To120_2017-01-30-100413
2784.42 seconds 0.77345 hours CTEQ5L-LO_HardQCDAll_80To120_2017-01-30-100413
1943.27 seconds 0.539797 hours CTEQ5L-LO_HardQCDAll_80To120_2017-01-30-100413
2067.23 seconds 0.574231 hours CTEQ5L-LO_HardQCDAll_80To120_2017-01-30-100413
2785.19 seconds 0.773664 hours CTEQ5L-LO_HardQCDAll_80To120_2017-01-30-100413
2772.94 seconds 0.770261 hours CTEQ5L-LO_HardQCDAll_80To120_2017-01-30-100413
2793.78 seconds 0.77605 hours CTEQ5L-LO_HardQCDAll_80To120_2017-01-30-100413




