

Time taken to complete the job, Statistics
==========================================
CTEQ5L-LO_HardQCDSelectionGluon_10To20_2017-02-01-100752
CTEQ5L-LO_HardQCDSelectionGluon_10To20_2017-02-01-100752
CTEQ5L-LO_HardQCDSelectionGluon_10To20_2017-02-01-100752
CTEQ5L-LO_HardQCDSelectionGluon_10To20_2017-02-01-100752
CTEQ5L-LO_HardQCDSelectionGluon_10To20_2017-02-01-100752
CTEQ5L-LO_HardQCDSelectionGluon_10To20_2017-02-01-100752
CTEQ5L-LO_HardQCDSelectionGluon_10To20_2017-02-01-100752
CTEQ5L-LO_HardQCDSelectionGluon_10To20_2017-02-01-100752
CTEQ5L-LO_HardQCDSelectionGluon_10To20_2017-02-01-100752
CTEQ5L-LO_HardQCDSelectionGluon_10To20_2017-02-01-100752
CTEQ5L-LO_HardQCDSelectionGluon_10To20_2017-02-01-100752
CTEQ5L-LO_HardQCDSelectionGluon_10To20_2017-02-01-100752
CTEQ5L-LO_HardQCDSelectionGluon_10To20_2017-02-01-100752
CTEQ5L-LO_HardQCDSelectionGluon_10To20_2017-02-01-100752
CTEQ5L-LO_HardQCDSelectionGluon_10To20_2017-02-01-100752
CTEQ5L-LO_HardQCDSelectionGluon_10To20_2017-02-01-100752
CTEQ5L-LO_HardQCDSelectionGluon_10To20_2017-02-01-100752
CTEQ5L-LO_HardQCDSelectionGluon_10To20_2017-02-01-100752
CTEQ5L-LO_HardQCDSelectionGluon_10To20_2017-02-01-100752
CTEQ5L-LO_HardQCDSelectionGluon_10To20_2017-02-01-100752


CTEQ5L-LO_HardQCDSelectionGluon_120To170_2017-02-01-100752
CTEQ5L-LO_HardQCDSelectionGluon_120To170_2017-02-01-100752
CTEQ5L-LO_HardQCDSelectionGluon_120To170_2017-02-01-100752
CTEQ5L-LO_HardQCDSelectionGluon_120To170_2017-02-01-100752
CTEQ5L-LO_HardQCDSelectionGluon_120To170_2017-02-01-100752
CTEQ5L-LO_HardQCDSelectionGluon_120To170_2017-02-01-100752
CTEQ5L-LO_HardQCDSelectionGluon_120To170_2017-02-01-100752
CTEQ5L-LO_HardQCDSelectionGluon_120To170_2017-02-01-100752
CTEQ5L-LO_HardQCDSelectionGluon_120To170_2017-02-01-100752
CTEQ5L-LO_HardQCDSelectionGluon_120To170_2017-02-01-100752
CTEQ5L-LO_HardQCDSelectionGluon_120To170_2017-02-01-100752
CTEQ5L-LO_HardQCDSelectionGluon_120To170_2017-02-01-100752
CTEQ5L-LO_HardQCDSelectionGluon_120To170_2017-02-01-100752
CTEQ5L-LO_HardQCDSelectionGluon_120To170_2017-02-01-100752
CTEQ5L-LO_HardQCDSelectionGluon_120To170_2017-02-01-100752
CTEQ5L-LO_HardQCDSelectionGluon_120To170_2017-02-01-100752
CTEQ5L-LO_HardQCDSelectionGluon_120To170_2017-02-01-100752
CTEQ5L-LO_HardQCDSelectionGluon_120To170_2017-02-01-100752
CTEQ5L-LO_HardQCDSelectionGluon_120To170_2017-02-01-100752
CTEQ5L-LO_HardQCDSelectionGluon_120To170_2017-02-01-100752


CTEQ5L-LO_HardQCDSelectionGluon_170To230_2017-02-01-100752
CTEQ5L-LO_HardQCDSelectionGluon_170To230_2017-02-01-100752
CTEQ5L-LO_HardQCDSelectionGluon_170To230_2017-02-01-100752
CTEQ5L-LO_HardQCDSelectionGluon_170To230_2017-02-01-100752
CTEQ5L-LO_HardQCDSelectionGluon_170To230_2017-02-01-100752
CTEQ5L-LO_HardQCDSelectionGluon_170To230_2017-02-01-100752
CTEQ5L-LO_HardQCDSelectionGluon_170To230_2017-02-01-100752
CTEQ5L-LO_HardQCDSelectionGluon_170To230_2017-02-01-100752
CTEQ5L-LO_HardQCDSelectionGluon_170To230_2017-02-01-100752
CTEQ5L-LO_HardQCDSelectionGluon_170To230_2017-02-01-100752
CTEQ5L-LO_HardQCDSelectionGluon_170To230_2017-02-01-100752
CTEQ5L-LO_HardQCDSelectionGluon_170To230_2017-02-01-100752
CTEQ5L-LO_HardQCDSelectionGluon_170To230_2017-02-01-100752
CTEQ5L-LO_HardQCDSelectionGluon_170To230_2017-02-01-100752
CTEQ5L-LO_HardQCDSelectionGluon_170To230_2017-02-01-100752
CTEQ5L-LO_HardQCDSelectionGluon_170To230_2017-02-01-100752
CTEQ5L-LO_HardQCDSelectionGluon_170To230_2017-02-01-100752
CTEQ5L-LO_HardQCDSelectionGluon_170To230_2017-02-01-100752
CTEQ5L-LO_HardQCDSelectionGluon_170To230_2017-02-01-100752
CTEQ5L-LO_HardQCDSelectionGluon_170To230_2017-02-01-100752


CTEQ5L-LO_HardQCDSelectionGluon_20To30_2017-02-01-100752
CTEQ5L-LO_HardQCDSelectionGluon_20To30_2017-02-01-100752
CTEQ5L-LO_HardQCDSelectionGluon_20To30_2017-02-01-100752
CTEQ5L-LO_HardQCDSelectionGluon_20To30_2017-02-01-100752
CTEQ5L-LO_HardQCDSelectionGluon_20To30_2017-02-01-100752
CTEQ5L-LO_HardQCDSelectionGluon_20To30_2017-02-01-100752
CTEQ5L-LO_HardQCDSelectionGluon_20To30_2017-02-01-100752
CTEQ5L-LO_HardQCDSelectionGluon_20To30_2017-02-01-100752
CTEQ5L-LO_HardQCDSelectionGluon_20To30_2017-02-01-100752
CTEQ5L-LO_HardQCDSelectionGluon_20To30_2017-02-01-100752
CTEQ5L-LO_HardQCDSelectionGluon_20To30_2017-02-01-100752
CTEQ5L-LO_HardQCDSelectionGluon_20To30_2017-02-01-100752
CTEQ5L-LO_HardQCDSelectionGluon_20To30_2017-02-01-100752
CTEQ5L-LO_HardQCDSelectionGluon_20To30_2017-02-01-100752
CTEQ5L-LO_HardQCDSelectionGluon_20To30_2017-02-01-100752
CTEQ5L-LO_HardQCDSelectionGluon_20To30_2017-02-01-100752
CTEQ5L-LO_HardQCDSelectionGluon_20To30_2017-02-01-100752
CTEQ5L-LO_HardQCDSelectionGluon_20To30_2017-02-01-100752
CTEQ5L-LO_HardQCDSelectionGluon_20To30_2017-02-01-100752
CTEQ5L-LO_HardQCDSelectionGluon_20To30_2017-02-01-100752


CTEQ5L-LO_HardQCDSelectionGluon_230To300_2017-02-01-100752
CTEQ5L-LO_HardQCDSelectionGluon_230To300_2017-02-01-100752
CTEQ5L-LO_HardQCDSelectionGluon_230To300_2017-02-01-100752
CTEQ5L-LO_HardQCDSelectionGluon_230To300_2017-02-01-100752
CTEQ5L-LO_HardQCDSelectionGluon_230To300_2017-02-01-100752
CTEQ5L-LO_HardQCDSelectionGluon_230To300_2017-02-01-100752
CTEQ5L-LO_HardQCDSelectionGluon_230To300_2017-02-01-100752
CTEQ5L-LO_HardQCDSelectionGluon_230To300_2017-02-01-100752
CTEQ5L-LO_HardQCDSelectionGluon_230To300_2017-02-01-100752
CTEQ5L-LO_HardQCDSelectionGluon_230To300_2017-02-01-100752
CTEQ5L-LO_HardQCDSelectionGluon_230To300_2017-02-01-100752
CTEQ5L-LO_HardQCDSelectionGluon_230To300_2017-02-01-100752
CTEQ5L-LO_HardQCDSelectionGluon_230To300_2017-02-01-100752
CTEQ5L-LO_HardQCDSelectionGluon_230To300_2017-02-01-100752
CTEQ5L-LO_HardQCDSelectionGluon_230To300_2017-02-01-100752
CTEQ5L-LO_HardQCDSelectionGluon_230To300_2017-02-01-100752
CTEQ5L-LO_HardQCDSelectionGluon_230To300_2017-02-01-100752
CTEQ5L-LO_HardQCDSelectionGluon_230To300_2017-02-01-100752
CTEQ5L-LO_HardQCDSelectionGluon_230To300_2017-02-01-100752
CTEQ5L-LO_HardQCDSelectionGluon_230To300_2017-02-01-100752


CTEQ5L-LO_HardQCDSelectionGluon_300To380_2017-02-01-100752
CTEQ5L-LO_HardQCDSelectionGluon_300To380_2017-02-01-100752
CTEQ5L-LO_HardQCDSelectionGluon_300To380_2017-02-01-100752
CTEQ5L-LO_HardQCDSelectionGluon_300To380_2017-02-01-100752
CTEQ5L-LO_HardQCDSelectionGluon_300To380_2017-02-01-100752
CTEQ5L-LO_HardQCDSelectionGluon_300To380_2017-02-01-100752
CTEQ5L-LO_HardQCDSelectionGluon_300To380_2017-02-01-100752
CTEQ5L-LO_HardQCDSelectionGluon_300To380_2017-02-01-100752
CTEQ5L-LO_HardQCDSelectionGluon_300To380_2017-02-01-100752
CTEQ5L-LO_HardQCDSelectionGluon_300To380_2017-02-01-100752
CTEQ5L-LO_HardQCDSelectionGluon_300To380_2017-02-01-100752
CTEQ5L-LO_HardQCDSelectionGluon_300To380_2017-02-01-100752
CTEQ5L-LO_HardQCDSelectionGluon_300To380_2017-02-01-100752
CTEQ5L-LO_HardQCDSelectionGluon_300To380_2017-02-01-100752
CTEQ5L-LO_HardQCDSelectionGluon_300To380_2017-02-01-100752
CTEQ5L-LO_HardQCDSelectionGluon_300To380_2017-02-01-100752
CTEQ5L-LO_HardQCDSelectionGluon_300To380_2017-02-01-100752
CTEQ5L-LO_HardQCDSelectionGluon_300To380_2017-02-01-100752
CTEQ5L-LO_HardQCDSelectionGluon_300To380_2017-02-01-100752
CTEQ5L-LO_HardQCDSelectionGluon_300To380_2017-02-01-100752


CTEQ5L-LO_HardQCDSelectionGluon_30To50_2017-02-01-100752
CTEQ5L-LO_HardQCDSelectionGluon_30To50_2017-02-01-100752
CTEQ5L-LO_HardQCDSelectionGluon_30To50_2017-02-01-100752
CTEQ5L-LO_HardQCDSelectionGluon_30To50_2017-02-01-100752
CTEQ5L-LO_HardQCDSelectionGluon_30To50_2017-02-01-100752
CTEQ5L-LO_HardQCDSelectionGluon_30To50_2017-02-01-100752
CTEQ5L-LO_HardQCDSelectionGluon_30To50_2017-02-01-100752
CTEQ5L-LO_HardQCDSelectionGluon_30To50_2017-02-01-100752
CTEQ5L-LO_HardQCDSelectionGluon_30To50_2017-02-01-100752
CTEQ5L-LO_HardQCDSelectionGluon_30To50_2017-02-01-100752
CTEQ5L-LO_HardQCDSelectionGluon_30To50_2017-02-01-100752
CTEQ5L-LO_HardQCDSelectionGluon_30To50_2017-02-01-100752
CTEQ5L-LO_HardQCDSelectionGluon_30To50_2017-02-01-100752
CTEQ5L-LO_HardQCDSelectionGluon_30To50_2017-02-01-100752
CTEQ5L-LO_HardQCDSelectionGluon_30To50_2017-02-01-100752
CTEQ5L-LO_HardQCDSelectionGluon_30To50_2017-02-01-100752
CTEQ5L-LO_HardQCDSelectionGluon_30To50_2017-02-01-100752
CTEQ5L-LO_HardQCDSelectionGluon_30To50_2017-02-01-100752
CTEQ5L-LO_HardQCDSelectionGluon_30To50_2017-02-01-100752
CTEQ5L-LO_HardQCDSelectionGluon_30To50_2017-02-01-100752


CTEQ5L-LO_HardQCDSelectionGluon_380To10000_2017-02-01-100752
CTEQ5L-LO_HardQCDSelectionGluon_380To10000_2017-02-01-100752
CTEQ5L-LO_HardQCDSelectionGluon_380To10000_2017-02-01-100752
CTEQ5L-LO_HardQCDSelectionGluon_380To10000_2017-02-01-100752
CTEQ5L-LO_HardQCDSelectionGluon_380To10000_2017-02-01-100752
CTEQ5L-LO_HardQCDSelectionGluon_380To10000_2017-02-01-100752
CTEQ5L-LO_HardQCDSelectionGluon_380To10000_2017-02-01-100752
CTEQ5L-LO_HardQCDSelectionGluon_380To10000_2017-02-01-100752
CTEQ5L-LO_HardQCDSelectionGluon_380To10000_2017-02-01-100752
CTEQ5L-LO_HardQCDSelectionGluon_380To10000_2017-02-01-100752
CTEQ5L-LO_HardQCDSelectionGluon_380To10000_2017-02-01-100752
CTEQ5L-LO_HardQCDSelectionGluon_380To10000_2017-02-01-100752
CTEQ5L-LO_HardQCDSelectionGluon_380To10000_2017-02-01-100752
CTEQ5L-LO_HardQCDSelectionGluon_380To10000_2017-02-01-100752
CTEQ5L-LO_HardQCDSelectionGluon_380To10000_2017-02-01-100752
CTEQ5L-LO_HardQCDSelectionGluon_380To10000_2017-02-01-100752
CTEQ5L-LO_HardQCDSelectionGluon_380To10000_2017-02-01-100752
CTEQ5L-LO_HardQCDSelectionGluon_380To10000_2017-02-01-100752
CTEQ5L-LO_HardQCDSelectionGluon_380To10000_2017-02-01-100752
CTEQ5L-LO_HardQCDSelectionGluon_380To10000_2017-02-01-100752


CTEQ5L-LO_HardQCDSelectionGluon_50To80_2017-02-01-100752
CTEQ5L-LO_HardQCDSelectionGluon_50To80_2017-02-01-100752
CTEQ5L-LO_HardQCDSelectionGluon_50To80_2017-02-01-100752
CTEQ5L-LO_HardQCDSelectionGluon_50To80_2017-02-01-100752
CTEQ5L-LO_HardQCDSelectionGluon_50To80_2017-02-01-100752
CTEQ5L-LO_HardQCDSelectionGluon_50To80_2017-02-01-100752
CTEQ5L-LO_HardQCDSelectionGluon_50To80_2017-02-01-100752
CTEQ5L-LO_HardQCDSelectionGluon_50To80_2017-02-01-100752
CTEQ5L-LO_HardQCDSelectionGluon_50To80_2017-02-01-100752
CTEQ5L-LO_HardQCDSelectionGluon_50To80_2017-02-01-100752
CTEQ5L-LO_HardQCDSelectionGluon_50To80_2017-02-01-100752
CTEQ5L-LO_HardQCDSelectionGluon_50To80_2017-02-01-100752
CTEQ5L-LO_HardQCDSelectionGluon_50To80_2017-02-01-100752
CTEQ5L-LO_HardQCDSelectionGluon_50To80_2017-02-01-100752
CTEQ5L-LO_HardQCDSelectionGluon_50To80_2017-02-01-100752
CTEQ5L-LO_HardQCDSelectionGluon_50To80_2017-02-01-100752
CTEQ5L-LO_HardQCDSelectionGluon_50To80_2017-02-01-100752
CTEQ5L-LO_HardQCDSelectionGluon_50To80_2017-02-01-100752
CTEQ5L-LO_HardQCDSelectionGluon_50To80_2017-02-01-100752
CTEQ5L-LO_HardQCDSelectionGluon_50To80_2017-02-01-100752


CTEQ5L-LO_HardQCDSelectionGluon_80To120_2017-02-01-100752
CTEQ5L-LO_HardQCDSelectionGluon_80To120_2017-02-01-100752
CTEQ5L-LO_HardQCDSelectionGluon_80To120_2017-02-01-100752
CTEQ5L-LO_HardQCDSelectionGluon_80To120_2017-02-01-100752
CTEQ5L-LO_HardQCDSelectionGluon_80To120_2017-02-01-100752
CTEQ5L-LO_HardQCDSelectionGluon_80To120_2017-02-01-100752
CTEQ5L-LO_HardQCDSelectionGluon_80To120_2017-02-01-100752
CTEQ5L-LO_HardQCDSelectionGluon_80To120_2017-02-01-100752
CTEQ5L-LO_HardQCDSelectionGluon_80To120_2017-02-01-100752
CTEQ5L-LO_HardQCDSelectionGluon_80To120_2017-02-01-100752
CTEQ5L-LO_HardQCDSelectionGluon_80To120_2017-02-01-100752
CTEQ5L-LO_HardQCDSelectionGluon_80To120_2017-02-01-100752
CTEQ5L-LO_HardQCDSelectionGluon_80To120_2017-02-01-100752
CTEQ5L-LO_HardQCDSelectionGluon_80To120_2017-02-01-100752
CTEQ5L-LO_HardQCDSelectionGluon_80To120_2017-02-01-100752
CTEQ5L-LO_HardQCDSelectionGluon_80To120_2017-02-01-100752
CTEQ5L-LO_HardQCDSelectionGluon_80To120_2017-02-01-100752
CTEQ5L-LO_HardQCDSelectionGluon_80To120_2017-02-01-100752
CTEQ5L-LO_HardQCDSelectionGluon_80To120_2017-02-01-100752
CTEQ5L-LO_HardQCDSelectionGluon_80To120_2017-02-01-100752




