

Time taken to complete the job, Statistics
==========================================
3514.98 seconds 0.976383 hours CTEQ5L-LO_HardQCDAll_10To20_2017-01-31-105653
3599.97 seconds 0.999992 hours CTEQ5L-LO_HardQCDAll_10To20_2017-01-31-105653
3657.72 seconds 1.01603 hours CTEQ5L-LO_HardQCDAll_10To20_2017-01-31-105653
3647.54 seconds 1.01321 hours CTEQ5L-LO_HardQCDAll_10To20_2017-01-31-105653
3568.72 seconds 0.991311 hours CTEQ5L-LO_HardQCDAll_10To20_2017-01-31-105653
3598.75 seconds 0.999653 hours CTEQ5L-LO_HardQCDAll_10To20_2017-01-31-105653
3638.56 seconds 1.01071 hours CTEQ5L-LO_HardQCDAll_10To20_2017-01-31-105653
3538.11 seconds 0.982808 hours CTEQ5L-LO_HardQCDAll_10To20_2017-01-31-105653
3321.41 seconds 0.922614 hours CTEQ5L-LO_HardQCDAll_10To20_2017-01-31-105653
3249.59 seconds 0.902664 hours CTEQ5L-LO_HardQCDAll_10To20_2017-01-31-105653
3065.79 seconds 0.851608 hours CTEQ5L-LO_HardQCDAll_10To20_2017-01-31-105653
3597.62 seconds 0.999339 hours CTEQ5L-LO_HardQCDAll_10To20_2017-01-31-105653
3562 seconds 0.989444 hours CTEQ5L-LO_HardQCDAll_10To20_2017-01-31-105653
3592.71 seconds 0.997975 hours CTEQ5L-LO_HardQCDAll_10To20_2017-01-31-105653
3592.53 seconds 0.997925 hours CTEQ5L-LO_HardQCDAll_10To20_2017-01-31-105653
3206.41 seconds 0.890669 hours CTEQ5L-LO_HardQCDAll_10To20_2017-01-31-105653
3211.61 seconds 0.892114 hours CTEQ5L-LO_HardQCDAll_10To20_2017-01-31-105653
3566.83 seconds 0.990786 hours CTEQ5L-LO_HardQCDAll_10To20_2017-01-31-105653
3616.65 seconds 1.00463 hours CTEQ5L-LO_HardQCDAll_10To20_2017-01-31-105653
3598.47 seconds 0.999575 hours CTEQ5L-LO_HardQCDAll_10To20_2017-01-31-105653


4556.17 seconds 1.2656 hours CTEQ5L-LO_HardQCDAll_120To170_2017-01-31-105653
4609.65 seconds 1.28046 hours CTEQ5L-LO_HardQCDAll_120To170_2017-01-31-105653
4407.37 seconds 1.22427 hours CTEQ5L-LO_HardQCDAll_120To170_2017-01-31-105653
4424.86 seconds 1.22913 hours CTEQ5L-LO_HardQCDAll_120To170_2017-01-31-105653
4466.6 seconds 1.24072 hours CTEQ5L-LO_HardQCDAll_120To170_2017-01-31-105653
4455.42 seconds 1.23762 hours CTEQ5L-LO_HardQCDAll_120To170_2017-01-31-105653
3835.31 seconds 1.06536 hours CTEQ5L-LO_HardQCDAll_120To170_2017-01-31-105653
3972.81 seconds 1.10356 hours CTEQ5L-LO_HardQCDAll_120To170_2017-01-31-105653
3992.52 seconds 1.10903 hours CTEQ5L-LO_HardQCDAll_120To170_2017-01-31-105653
4655.41 seconds 1.29317 hours CTEQ5L-LO_HardQCDAll_120To170_2017-01-31-105653
4606.25 seconds 1.27951 hours CTEQ5L-LO_HardQCDAll_120To170_2017-01-31-105653
4470.02 seconds 1.24167 hours CTEQ5L-LO_HardQCDAll_120To170_2017-01-31-105653
4440.98 seconds 1.23361 hours CTEQ5L-LO_HardQCDAll_120To170_2017-01-31-105653
4011.25 seconds 1.11424 hours CTEQ5L-LO_HardQCDAll_120To170_2017-01-31-105653
4011.2 seconds 1.11422 hours CTEQ5L-LO_HardQCDAll_120To170_2017-01-31-105653
4012.25 seconds 1.11451 hours CTEQ5L-LO_HardQCDAll_120To170_2017-01-31-105653
3773.19 seconds 1.04811 hours CTEQ5L-LO_HardQCDAll_120To170_2017-01-31-105653
4511.32 seconds 1.25314 hours CTEQ5L-LO_HardQCDAll_120To170_2017-01-31-105653
4503.7 seconds 1.25103 hours CTEQ5L-LO_HardQCDAll_120To170_2017-01-31-105653
4482.86 seconds 1.24524 hours CTEQ5L-LO_HardQCDAll_120To170_2017-01-31-105653


4588.75 seconds 1.27465 hours CTEQ5L-LO_HardQCDAll_170To230_2017-01-31-105653
4376.31 seconds 1.21564 hours CTEQ5L-LO_HardQCDAll_170To230_2017-01-31-105653
4274.17 seconds 1.18727 hours CTEQ5L-LO_HardQCDAll_170To230_2017-01-31-105653
4344.78 seconds 1.20688 hours CTEQ5L-LO_HardQCDAll_170To230_2017-01-31-105653
4358.36 seconds 1.21066 hours CTEQ5L-LO_HardQCDAll_170To230_2017-01-31-105653
4634.01 seconds 1.28723 hours CTEQ5L-LO_HardQCDAll_170To230_2017-01-31-105653
4674.68 seconds 1.29852 hours CTEQ5L-LO_HardQCDAll_170To230_2017-01-31-105653
4612.26 seconds 1.28118 hours CTEQ5L-LO_HardQCDAll_170To230_2017-01-31-105653
4611.83 seconds 1.28106 hours CTEQ5L-LO_HardQCDAll_170To230_2017-01-31-105653
4561.21 seconds 1.267 hours CTEQ5L-LO_HardQCDAll_170To230_2017-01-31-105653
4515.57 seconds 1.25432 hours CTEQ5L-LO_HardQCDAll_170To230_2017-01-31-105653
4597.78 seconds 1.27716 hours CTEQ5L-LO_HardQCDAll_170To230_2017-01-31-105653
4568.74 seconds 1.26909 hours CTEQ5L-LO_HardQCDAll_170To230_2017-01-31-105653
4467.92 seconds 1.24109 hours CTEQ5L-LO_HardQCDAll_170To230_2017-01-31-105653
4064.26 seconds 1.12896 hours CTEQ5L-LO_HardQCDAll_170To230_2017-01-31-105653
4070.42 seconds 1.13067 hours CTEQ5L-LO_HardQCDAll_170To230_2017-01-31-105653
3850.25 seconds 1.06951 hours CTEQ5L-LO_HardQCDAll_170To230_2017-01-31-105653
4084.96 seconds 1.13471 hours CTEQ5L-LO_HardQCDAll_170To230_2017-01-31-105653
3870.32 seconds 1.07509 hours CTEQ5L-LO_HardQCDAll_170To230_2017-01-31-105653
4844.39 seconds 1.34566 hours CTEQ5L-LO_HardQCDAll_170To230_2017-01-31-105653


4037.94 seconds 1.12165 hours CTEQ5L-LO_HardQCDAll_20To30_2017-01-31-105653
3440.95 seconds 0.955819 hours CTEQ5L-LO_HardQCDAll_20To30_2017-01-31-105653
3483.99 seconds 0.967775 hours CTEQ5L-LO_HardQCDAll_20To30_2017-01-31-105653
3486.94 seconds 0.968594 hours CTEQ5L-LO_HardQCDAll_20To30_2017-01-31-105653
3447.6 seconds 0.957667 hours CTEQ5L-LO_HardQCDAll_20To30_2017-01-31-105653
3383.6 seconds 0.939889 hours CTEQ5L-LO_HardQCDAll_20To30_2017-01-31-105653
3468.87 seconds 0.963575 hours CTEQ5L-LO_HardQCDAll_20To30_2017-01-31-105653
3466.87 seconds 0.963019 hours CTEQ5L-LO_HardQCDAll_20To30_2017-01-31-105653
3538.69 seconds 0.982969 hours CTEQ5L-LO_HardQCDAll_20To30_2017-01-31-105653
3483.87 seconds 0.967742 hours CTEQ5L-LO_HardQCDAll_20To30_2017-01-31-105653
3921.39 seconds 1.08927 hours CTEQ5L-LO_HardQCDAll_20To30_2017-01-31-105653
3835.94 seconds 1.06554 hours CTEQ5L-LO_HardQCDAll_20To30_2017-01-31-105653
4016.59 seconds 1.11572 hours CTEQ5L-LO_HardQCDAll_20To30_2017-01-31-105653
3973.67 seconds 1.1038 hours CTEQ5L-LO_HardQCDAll_20To30_2017-01-31-105653
3843.63 seconds 1.06767 hours CTEQ5L-LO_HardQCDAll_20To30_2017-01-31-105653
3837.16 seconds 1.06588 hours CTEQ5L-LO_HardQCDAll_20To30_2017-01-31-105653
3484.76 seconds 0.967989 hours CTEQ5L-LO_HardQCDAll_20To30_2017-01-31-105653
3333.6 seconds 0.926 hours CTEQ5L-LO_HardQCDAll_20To30_2017-01-31-105653
3458.62 seconds 0.960728 hours CTEQ5L-LO_HardQCDAll_20To30_2017-01-31-105653
3336.77 seconds 0.926881 hours CTEQ5L-LO_HardQCDAll_20To30_2017-01-31-105653


4368.22 seconds 1.21339 hours CTEQ5L-LO_HardQCDAll_230To300_2017-01-31-105653
4032.99 seconds 1.12027 hours CTEQ5L-LO_HardQCDAll_230To300_2017-01-31-105653
3893.13 seconds 1.08143 hours CTEQ5L-LO_HardQCDAll_230To300_2017-01-31-105653
4698.13 seconds 1.30504 hours CTEQ5L-LO_HardQCDAll_230To300_2017-01-31-105653
4685.87 seconds 1.30163 hours CTEQ5L-LO_HardQCDAll_230To300_2017-01-31-105653
4610.42 seconds 1.28067 hours CTEQ5L-LO_HardQCDAll_230To300_2017-01-31-105653
4465.51 seconds 1.24042 hours CTEQ5L-LO_HardQCDAll_230To300_2017-01-31-105653
4028.1 seconds 1.11892 hours CTEQ5L-LO_HardQCDAll_230To300_2017-01-31-105653
3971.21 seconds 1.10311 hours CTEQ5L-LO_HardQCDAll_230To300_2017-01-31-105653
4654.53 seconds 1.29292 hours CTEQ5L-LO_HardQCDAll_230To300_2017-01-31-105653
4740.71 seconds 1.31686 hours CTEQ5L-LO_HardQCDAll_230To300_2017-01-31-105653
4600.79 seconds 1.278 hours CTEQ5L-LO_HardQCDAll_230To300_2017-01-31-105653
4689.04 seconds 1.30251 hours CTEQ5L-LO_HardQCDAll_230To300_2017-01-31-105653
4601.34 seconds 1.27815 hours CTEQ5L-LO_HardQCDAll_230To300_2017-01-31-105653
4578.04 seconds 1.27168 hours CTEQ5L-LO_HardQCDAll_230To300_2017-01-31-105653
4532.6 seconds 1.25906 hours CTEQ5L-LO_HardQCDAll_230To300_2017-01-31-105653
4619.64 seconds 1.28323 hours CTEQ5L-LO_HardQCDAll_230To300_2017-01-31-105653
4536.25 seconds 1.26007 hours CTEQ5L-LO_HardQCDAll_230To300_2017-01-31-105653
4642.04 seconds 1.28946 hours CTEQ5L-LO_HardQCDAll_230To300_2017-01-31-105653
4534.99 seconds 1.25972 hours CTEQ5L-LO_HardQCDAll_230To300_2017-01-31-105653


4555.06 seconds 1.26529 hours CTEQ5L-LO_HardQCDAll_300To380_2017-01-31-105653
3336.05 seconds 0.926681 hours CTEQ5L-LO_HardQCDAll_300To380_2017-01-31-105653
4109.97 seconds 1.14166 hours CTEQ5L-LO_HardQCDAll_300To380_2017-01-31-105653
4656.67 seconds 1.29352 hours CTEQ5L-LO_HardQCDAll_300To380_2017-01-31-105653
4592.03 seconds 1.27556 hours CTEQ5L-LO_HardQCDAll_300To380_2017-01-31-105653
4631.11 seconds 1.28642 hours CTEQ5L-LO_HardQCDAll_300To380_2017-01-31-105653
4684.08 seconds 1.30113 hours CTEQ5L-LO_HardQCDAll_300To380_2017-01-31-105653
4658.15 seconds 1.29393 hours CTEQ5L-LO_HardQCDAll_300To380_2017-01-31-105653
4668.96 seconds 1.29693 hours CTEQ5L-LO_HardQCDAll_300To380_2017-01-31-105653
4821.46 seconds 1.33929 hours CTEQ5L-LO_HardQCDAll_300To380_2017-01-31-105653
4650.88 seconds 1.29191 hours CTEQ5L-LO_HardQCDAll_300To380_2017-01-31-105653
4610.4 seconds 1.28067 hours CTEQ5L-LO_HardQCDAll_300To380_2017-01-31-105653
4537.7 seconds 1.26047 hours CTEQ5L-LO_HardQCDAll_300To380_2017-01-31-105653
4672.57 seconds 1.29794 hours CTEQ5L-LO_HardQCDAll_300To380_2017-01-31-105653
4591.25 seconds 1.27535 hours CTEQ5L-LO_HardQCDAll_300To380_2017-01-31-105653
4513.06 seconds 1.25363 hours CTEQ5L-LO_HardQCDAll_300To380_2017-01-31-105653
4487.24 seconds 1.24646 hours CTEQ5L-LO_HardQCDAll_300To380_2017-01-31-105653
3275.14 seconds 0.909761 hours CTEQ5L-LO_HardQCDAll_300To380_2017-01-31-105653
3343.42 seconds 0.928728 hours CTEQ5L-LO_HardQCDAll_300To380_2017-01-31-105653
3310.58 seconds 0.919606 hours CTEQ5L-LO_HardQCDAll_300To380_2017-01-31-105653


4266.49 seconds 1.18514 hours CTEQ5L-LO_HardQCDAll_30To50_2017-01-31-105653
4028.53 seconds 1.11904 hours CTEQ5L-LO_HardQCDAll_30To50_2017-01-31-105653
4098.67 seconds 1.13852 hours CTEQ5L-LO_HardQCDAll_30To50_2017-01-31-105653
4036.49 seconds 1.12125 hours CTEQ5L-LO_HardQCDAll_30To50_2017-01-31-105653
4051.93 seconds 1.12554 hours CTEQ5L-LO_HardQCDAll_30To50_2017-01-31-105653
4167.73 seconds 1.1577 hours CTEQ5L-LO_HardQCDAll_30To50_2017-01-31-105653
4055.79 seconds 1.12661 hours CTEQ5L-LO_HardQCDAll_30To50_2017-01-31-105653
4151.83 seconds 1.15329 hours CTEQ5L-LO_HardQCDAll_30To50_2017-01-31-105653
4043.62 seconds 1.12323 hours CTEQ5L-LO_HardQCDAll_30To50_2017-01-31-105653
4071.21 seconds 1.13089 hours CTEQ5L-LO_HardQCDAll_30To50_2017-01-31-105653
4120.23 seconds 1.14451 hours CTEQ5L-LO_HardQCDAll_30To50_2017-01-31-105653
4022.75 seconds 1.11743 hours CTEQ5L-LO_HardQCDAll_30To50_2017-01-31-105653
4092.97 seconds 1.13694 hours CTEQ5L-LO_HardQCDAll_30To50_2017-01-31-105653
4071.52 seconds 1.13098 hours CTEQ5L-LO_HardQCDAll_30To50_2017-01-31-105653
3733.12 seconds 1.03698 hours CTEQ5L-LO_HardQCDAll_30To50_2017-01-31-105653
3679.34 seconds 1.02204 hours CTEQ5L-LO_HardQCDAll_30To50_2017-01-31-105653
3553.83 seconds 0.987175 hours CTEQ5L-LO_HardQCDAll_30To50_2017-01-31-105653
3602.83 seconds 1.00079 hours CTEQ5L-LO_HardQCDAll_30To50_2017-01-31-105653
4247.85 seconds 1.17996 hours CTEQ5L-LO_HardQCDAll_30To50_2017-01-31-105653
4206.6 seconds 1.1685 hours CTEQ5L-LO_HardQCDAll_30To50_2017-01-31-105653


4440.17 seconds 1.23338 hours CTEQ5L-LO_HardQCDAll_380To10000_2017-01-31-105653
4105.59 seconds 1.14044 hours CTEQ5L-LO_HardQCDAll_380To10000_2017-01-31-105653
4856.71 seconds 1.34909 hours CTEQ5L-LO_HardQCDAll_380To10000_2017-01-31-105653
4721.08 seconds 1.31141 hours CTEQ5L-LO_HardQCDAll_380To10000_2017-01-31-105653
4472.49 seconds 1.24236 hours CTEQ5L-LO_HardQCDAll_380To10000_2017-01-31-105653
4469.36 seconds 1.24149 hours CTEQ5L-LO_HardQCDAll_380To10000_2017-01-31-105653
4515.31 seconds 1.25425 hours CTEQ5L-LO_HardQCDAll_380To10000_2017-01-31-105653
4534.24 seconds 1.25951 hours CTEQ5L-LO_HardQCDAll_380To10000_2017-01-31-105653
4531.66 seconds 1.25879 hours CTEQ5L-LO_HardQCDAll_380To10000_2017-01-31-105653
4496.58 seconds 1.24905 hours CTEQ5L-LO_HardQCDAll_380To10000_2017-01-31-105653
4576.65 seconds 1.27129 hours CTEQ5L-LO_HardQCDAll_380To10000_2017-01-31-105653
4508.08 seconds 1.25224 hours CTEQ5L-LO_HardQCDAll_380To10000_2017-01-31-105653
4579.74 seconds 1.27215 hours CTEQ5L-LO_HardQCDAll_380To10000_2017-01-31-105653
4445.82 seconds 1.23495 hours CTEQ5L-LO_HardQCDAll_380To10000_2017-01-31-105653
4247.1 seconds 1.17975 hours CTEQ5L-LO_HardQCDAll_380To10000_2017-01-31-105653
4146.67 seconds 1.15185 hours CTEQ5L-LO_HardQCDAll_380To10000_2017-01-31-105653
4035.76 seconds 1.12104 hours CTEQ5L-LO_HardQCDAll_380To10000_2017-01-31-105653
4140.22 seconds 1.15006 hours CTEQ5L-LO_HardQCDAll_380To10000_2017-01-31-105653
4042.01 seconds 1.12278 hours CTEQ5L-LO_HardQCDAll_380To10000_2017-01-31-105653
4198.15 seconds 1.16615 hours CTEQ5L-LO_HardQCDAll_380To10000_2017-01-31-105653


4323.68 seconds 1.20102 hours CTEQ5L-LO_HardQCDAll_50To80_2017-01-31-105653
3783.49 seconds 1.05097 hours CTEQ5L-LO_HardQCDAll_50To80_2017-01-31-105653
3834.01 seconds 1.065 hours CTEQ5L-LO_HardQCDAll_50To80_2017-01-31-105653
3839.61 seconds 1.06656 hours CTEQ5L-LO_HardQCDAll_50To80_2017-01-31-105653
3594.67 seconds 0.998519 hours CTEQ5L-LO_HardQCDAll_50To80_2017-01-31-105653
3863.74 seconds 1.07326 hours CTEQ5L-LO_HardQCDAll_50To80_2017-01-31-105653
3663.45 seconds 1.01763 hours CTEQ5L-LO_HardQCDAll_50To80_2017-01-31-105653
3747.79 seconds 1.04105 hours CTEQ5L-LO_HardQCDAll_50To80_2017-01-31-105653
3835.43 seconds 1.0654 hours CTEQ5L-LO_HardQCDAll_50To80_2017-01-31-105653
3965.06 seconds 1.10141 hours CTEQ5L-LO_HardQCDAll_50To80_2017-01-31-105653
3784.21 seconds 1.05117 hours CTEQ5L-LO_HardQCDAll_50To80_2017-01-31-105653
4237.7 seconds 1.17714 hours CTEQ5L-LO_HardQCDAll_50To80_2017-01-31-105653
4243.96 seconds 1.17888 hours CTEQ5L-LO_HardQCDAll_50To80_2017-01-31-105653
4489.59 seconds 1.24711 hours CTEQ5L-LO_HardQCDAll_50To80_2017-01-31-105653
4393.25 seconds 1.22035 hours CTEQ5L-LO_HardQCDAll_50To80_2017-01-31-105653
4224.38 seconds 1.17344 hours CTEQ5L-LO_HardQCDAll_50To80_2017-01-31-105653
4268.23 seconds 1.18562 hours CTEQ5L-LO_HardQCDAll_50To80_2017-01-31-105653
4231.6 seconds 1.17544 hours CTEQ5L-LO_HardQCDAll_50To80_2017-01-31-105653
4227.94 seconds 1.17443 hours CTEQ5L-LO_HardQCDAll_50To80_2017-01-31-105653
4249.26 seconds 1.18035 hours CTEQ5L-LO_HardQCDAll_50To80_2017-01-31-105653


4412.3 seconds 1.22564 hours CTEQ5L-LO_HardQCDAll_80To120_2017-01-31-105653
4386.51 seconds 1.21847 hours CTEQ5L-LO_HardQCDAll_80To120_2017-01-31-105653
4588.55 seconds 1.2746 hours CTEQ5L-LO_HardQCDAll_80To120_2017-01-31-105653
4590.67 seconds 1.27519 hours CTEQ5L-LO_HardQCDAll_80To120_2017-01-31-105653
4438.84 seconds 1.23301 hours CTEQ5L-LO_HardQCDAll_80To120_2017-01-31-105653
4328.91 seconds 1.20247 hours CTEQ5L-LO_HardQCDAll_80To120_2017-01-31-105653
4366.01 seconds 1.21278 hours CTEQ5L-LO_HardQCDAll_80To120_2017-01-31-105653
4386.25 seconds 1.2184 hours CTEQ5L-LO_HardQCDAll_80To120_2017-01-31-105653
4360 seconds 1.21111 hours CTEQ5L-LO_HardQCDAll_80To120_2017-01-31-105653
3877.74 seconds 1.07715 hours CTEQ5L-LO_HardQCDAll_80To120_2017-01-31-105653
4572.59 seconds 1.27016 hours CTEQ5L-LO_HardQCDAll_80To120_2017-01-31-105653
4433.42 seconds 1.23151 hours CTEQ5L-LO_HardQCDAll_80To120_2017-01-31-105653
4347.72 seconds 1.2077 hours CTEQ5L-LO_HardQCDAll_80To120_2017-01-31-105653
4520.24 seconds 1.25562 hours CTEQ5L-LO_HardQCDAll_80To120_2017-01-31-105653
4528.78 seconds 1.25799 hours CTEQ5L-LO_HardQCDAll_80To120_2017-01-31-105653
4336.09 seconds 1.20447 hours CTEQ5L-LO_HardQCDAll_80To120_2017-01-31-105653
4142.12 seconds 1.15059 hours CTEQ5L-LO_HardQCDAll_80To120_2017-01-31-105653
4509.66 seconds 1.25268 hours CTEQ5L-LO_HardQCDAll_80To120_2017-01-31-105653
4511.58 seconds 1.25322 hours CTEQ5L-LO_HardQCDAll_80To120_2017-01-31-105653
4364.37 seconds 1.21232 hours CTEQ5L-LO_HardQCDAll_80To120_2017-01-31-105653




