

Time taken to complete the job, Statistics
==========================================
13387.7 seconds 3.71881 hours CTEQ5L-LO_HardQCDSelectionQuark_10To20_2017-02-07-094503
12767.2 seconds 3.54644 hours CTEQ5L-LO_HardQCDSelectionQuark_10To20_2017-02-07-094503
12691.5 seconds 3.52542 hours CTEQ5L-LO_HardQCDSelectionQuark_10To20_2017-02-07-094503
12791.5 seconds 3.55319 hours CTEQ5L-LO_HardQCDSelectionQuark_10To20_2017-02-07-094503
12696.4 seconds 3.52678 hours CTEQ5L-LO_HardQCDSelectionQuark_10To20_2017-02-07-094503
12658.6 seconds 3.51628 hours CTEQ5L-LO_HardQCDSelectionQuark_10To20_2017-02-07-094503
12537.9 seconds 3.48275 hours CTEQ5L-LO_HardQCDSelectionQuark_10To20_2017-02-07-094503
12598.7 seconds 3.49964 hours CTEQ5L-LO_HardQCDSelectionQuark_10To20_2017-02-07-094503
12729.4 seconds 3.53594 hours CTEQ5L-LO_HardQCDSelectionQuark_10To20_2017-02-07-094503
13265.7 seconds 3.68492 hours CTEQ5L-LO_HardQCDSelectionQuark_10To20_2017-02-07-094503
12679.5 seconds 3.52208 hours CTEQ5L-LO_HardQCDSelectionQuark_10To20_2017-02-07-094503
14082.3 seconds 3.91175 hours CTEQ5L-LO_HardQCDSelectionQuark_10To20_2017-02-07-094503
9407.44 seconds 2.61318 hours CTEQ5L-LO_HardQCDSelectionQuark_10To20_2017-02-07-094503
9108.9 seconds 2.53025 hours CTEQ5L-LO_HardQCDSelectionQuark_10To20_2017-02-07-094503
12611.9 seconds 3.50331 hours CTEQ5L-LO_HardQCDSelectionQuark_10To20_2017-02-07-094503
12588.2 seconds 3.49672 hours CTEQ5L-LO_HardQCDSelectionQuark_10To20_2017-02-07-094503
13013.9 seconds 3.61497 hours CTEQ5L-LO_HardQCDSelectionQuark_10To20_2017-02-07-094503
12675.2 seconds 3.52089 hours CTEQ5L-LO_HardQCDSelectionQuark_10To20_2017-02-07-094503
12579.7 seconds 3.49436 hours CTEQ5L-LO_HardQCDSelectionQuark_10To20_2017-02-07-094503
12727.5 seconds 3.53542 hours CTEQ5L-LO_HardQCDSelectionQuark_10To20_2017-02-07-094503


16842.7 seconds 4.67853 hours CTEQ5L-LO_HardQCDSelectionQuark_120To170_2017-02-07-094503
13017.3 seconds 3.61592 hours CTEQ5L-LO_HardQCDSelectionQuark_120To170_2017-02-07-094503
16713.3 seconds 4.64258 hours CTEQ5L-LO_HardQCDSelectionQuark_120To170_2017-02-07-094503
16692.4 seconds 4.63678 hours CTEQ5L-LO_HardQCDSelectionQuark_120To170_2017-02-07-094503
16605.5 seconds 4.61264 hours CTEQ5L-LO_HardQCDSelectionQuark_120To170_2017-02-07-094503
16577.1 seconds 4.60475 hours CTEQ5L-LO_HardQCDSelectionQuark_120To170_2017-02-07-094503
16643.7 seconds 4.62325 hours CTEQ5L-LO_HardQCDSelectionQuark_120To170_2017-02-07-094503
16633 seconds 4.62028 hours CTEQ5L-LO_HardQCDSelectionQuark_120To170_2017-02-07-094503
16782.7 seconds 4.66186 hours CTEQ5L-LO_HardQCDSelectionQuark_120To170_2017-02-07-094503
16927.7 seconds 4.70214 hours CTEQ5L-LO_HardQCDSelectionQuark_120To170_2017-02-07-094503
16631.2 seconds 4.61978 hours CTEQ5L-LO_HardQCDSelectionQuark_120To170_2017-02-07-094503
16758.7 seconds 4.65519 hours CTEQ5L-LO_HardQCDSelectionQuark_120To170_2017-02-07-094503
16708.4 seconds 4.64122 hours CTEQ5L-LO_HardQCDSelectionQuark_120To170_2017-02-07-094503
13291.6 seconds 3.69211 hours CTEQ5L-LO_HardQCDSelectionQuark_120To170_2017-02-07-094503
13178.3 seconds 3.66064 hours CTEQ5L-LO_HardQCDSelectionQuark_120To170_2017-02-07-094503
13100.5 seconds 3.63903 hours CTEQ5L-LO_HardQCDSelectionQuark_120To170_2017-02-07-094503
13391.1 seconds 3.71975 hours CTEQ5L-LO_HardQCDSelectionQuark_120To170_2017-02-07-094503
13228 seconds 3.67444 hours CTEQ5L-LO_HardQCDSelectionQuark_120To170_2017-02-07-094503
13257.6 seconds 3.68267 hours CTEQ5L-LO_HardQCDSelectionQuark_120To170_2017-02-07-094503
13092.6 seconds 3.63683 hours CTEQ5L-LO_HardQCDSelectionQuark_120To170_2017-02-07-094503


17372.9 seconds 4.82581 hours CTEQ5L-LO_HardQCDSelectionQuark_170To230_2017-02-07-094503
17341.1 seconds 4.81697 hours CTEQ5L-LO_HardQCDSelectionQuark_170To230_2017-02-07-094503
17331.4 seconds 4.81428 hours CTEQ5L-LO_HardQCDSelectionQuark_170To230_2017-02-07-094503
17559.1 seconds 4.87753 hours CTEQ5L-LO_HardQCDSelectionQuark_170To230_2017-02-07-094503
17166.9 seconds 4.76858 hours CTEQ5L-LO_HardQCDSelectionQuark_170To230_2017-02-07-094503
17301.7 seconds 4.80603 hours CTEQ5L-LO_HardQCDSelectionQuark_170To230_2017-02-07-094503
17167.9 seconds 4.76886 hours CTEQ5L-LO_HardQCDSelectionQuark_170To230_2017-02-07-094503
17111.7 seconds 4.75325 hours CTEQ5L-LO_HardQCDSelectionQuark_170To230_2017-02-07-094503
17380.1 seconds 4.82781 hours CTEQ5L-LO_HardQCDSelectionQuark_170To230_2017-02-07-094503
17327.3 seconds 4.81314 hours CTEQ5L-LO_HardQCDSelectionQuark_170To230_2017-02-07-094503
17359.7 seconds 4.82214 hours CTEQ5L-LO_HardQCDSelectionQuark_170To230_2017-02-07-094503
17234.8 seconds 4.78744 hours CTEQ5L-LO_HardQCDSelectionQuark_170To230_2017-02-07-094503
17406.2 seconds 4.83506 hours CTEQ5L-LO_HardQCDSelectionQuark_170To230_2017-02-07-094503
17311.7 seconds 4.80881 hours CTEQ5L-LO_HardQCDSelectionQuark_170To230_2017-02-07-094503
17362.7 seconds 4.82297 hours CTEQ5L-LO_HardQCDSelectionQuark_170To230_2017-02-07-094503
17318.1 seconds 4.81058 hours CTEQ5L-LO_HardQCDSelectionQuark_170To230_2017-02-07-094503
17360.6 seconds 4.82239 hours CTEQ5L-LO_HardQCDSelectionQuark_170To230_2017-02-07-094503
17492.5 seconds 4.85903 hours CTEQ5L-LO_HardQCDSelectionQuark_170To230_2017-02-07-094503
17268.3 seconds 4.79675 hours CTEQ5L-LO_HardQCDSelectionQuark_170To230_2017-02-07-094503
17261 seconds 4.79472 hours CTEQ5L-LO_HardQCDSelectionQuark_170To230_2017-02-07-094503


10378.1 seconds 2.88281 hours CTEQ5L-LO_HardQCDSelectionQuark_20To30_2017-02-07-094503
13669.2 seconds 3.797 hours CTEQ5L-LO_HardQCDSelectionQuark_20To30_2017-02-07-094503
13592.2 seconds 3.77561 hours CTEQ5L-LO_HardQCDSelectionQuark_20To30_2017-02-07-094503
13642.9 seconds 3.78969 hours CTEQ5L-LO_HardQCDSelectionQuark_20To30_2017-02-07-094503
13721.2 seconds 3.81144 hours CTEQ5L-LO_HardQCDSelectionQuark_20To30_2017-02-07-094503
13592.7 seconds 3.77575 hours CTEQ5L-LO_HardQCDSelectionQuark_20To30_2017-02-07-094503
13577 seconds 3.77139 hours CTEQ5L-LO_HardQCDSelectionQuark_20To30_2017-02-07-094503
10177.4 seconds 2.82706 hours CTEQ5L-LO_HardQCDSelectionQuark_20To30_2017-02-07-094503
10333.2 seconds 2.87033 hours CTEQ5L-LO_HardQCDSelectionQuark_20To30_2017-02-07-094503
10399.4 seconds 2.88872 hours CTEQ5L-LO_HardQCDSelectionQuark_20To30_2017-02-07-094503
10289.8 seconds 2.85828 hours CTEQ5L-LO_HardQCDSelectionQuark_20To30_2017-02-07-094503
10453.3 seconds 2.90369 hours CTEQ5L-LO_HardQCDSelectionQuark_20To30_2017-02-07-094503
10346.1 seconds 2.87392 hours CTEQ5L-LO_HardQCDSelectionQuark_20To30_2017-02-07-094503
10521.6 seconds 2.92267 hours CTEQ5L-LO_HardQCDSelectionQuark_20To30_2017-02-07-094503
10452.1 seconds 2.90336 hours CTEQ5L-LO_HardQCDSelectionQuark_20To30_2017-02-07-094503
10443.2 seconds 2.90089 hours CTEQ5L-LO_HardQCDSelectionQuark_20To30_2017-02-07-094503
10484.9 seconds 2.91247 hours CTEQ5L-LO_HardQCDSelectionQuark_20To30_2017-02-07-094503
10351 seconds 2.87528 hours CTEQ5L-LO_HardQCDSelectionQuark_20To30_2017-02-07-094503
13529.4 seconds 3.75817 hours CTEQ5L-LO_HardQCDSelectionQuark_20To30_2017-02-07-094503
13687.4 seconds 3.80206 hours CTEQ5L-LO_HardQCDSelectionQuark_20To30_2017-02-07-094503


17845.8 seconds 4.95717 hours CTEQ5L-LO_HardQCDSelectionQuark_230To300_2017-02-07-094503
17892.2 seconds 4.97006 hours CTEQ5L-LO_HardQCDSelectionQuark_230To300_2017-02-07-094503
17984.6 seconds 4.99572 hours CTEQ5L-LO_HardQCDSelectionQuark_230To300_2017-02-07-094503
17675 seconds 4.90972 hours CTEQ5L-LO_HardQCDSelectionQuark_230To300_2017-02-07-094503
17766.7 seconds 4.93519 hours CTEQ5L-LO_HardQCDSelectionQuark_230To300_2017-02-07-094503
17800.7 seconds 4.94464 hours CTEQ5L-LO_HardQCDSelectionQuark_230To300_2017-02-07-094503
17823.5 seconds 4.95097 hours CTEQ5L-LO_HardQCDSelectionQuark_230To300_2017-02-07-094503
17855.4 seconds 4.95983 hours CTEQ5L-LO_HardQCDSelectionQuark_230To300_2017-02-07-094503
17939.9 seconds 4.98331 hours CTEQ5L-LO_HardQCDSelectionQuark_230To300_2017-02-07-094503
17729.5 seconds 4.92486 hours CTEQ5L-LO_HardQCDSelectionQuark_230To300_2017-02-07-094503
17702.5 seconds 4.91736 hours CTEQ5L-LO_HardQCDSelectionQuark_230To300_2017-02-07-094503
18040.4 seconds 5.01122 hours CTEQ5L-LO_HardQCDSelectionQuark_230To300_2017-02-07-094503
17610.3 seconds 4.89175 hours CTEQ5L-LO_HardQCDSelectionQuark_230To300_2017-02-07-094503
18001.9 seconds 5.00053 hours CTEQ5L-LO_HardQCDSelectionQuark_230To300_2017-02-07-094503
17796.3 seconds 4.94342 hours CTEQ5L-LO_HardQCDSelectionQuark_230To300_2017-02-07-094503
17799.3 seconds 4.94425 hours CTEQ5L-LO_HardQCDSelectionQuark_230To300_2017-02-07-094503
18195.6 seconds 5.05433 hours CTEQ5L-LO_HardQCDSelectionQuark_230To300_2017-02-07-094503
17893 seconds 4.97028 hours CTEQ5L-LO_HardQCDSelectionQuark_230To300_2017-02-07-094503
17912.6 seconds 4.97572 hours CTEQ5L-LO_HardQCDSelectionQuark_230To300_2017-02-07-094503
17703.1 seconds 4.91753 hours CTEQ5L-LO_HardQCDSelectionQuark_230To300_2017-02-07-094503


18307.2 seconds 5.08533 hours CTEQ5L-LO_HardQCDSelectionQuark_300To380_2017-02-07-094503
18382.7 seconds 5.10631 hours CTEQ5L-LO_HardQCDSelectionQuark_300To380_2017-02-07-094503
14712.5 seconds 4.08681 hours CTEQ5L-LO_HardQCDSelectionQuark_300To380_2017-02-07-094503
14775.5 seconds 4.10431 hours CTEQ5L-LO_HardQCDSelectionQuark_300To380_2017-02-07-094503
14847 seconds 4.12417 hours CTEQ5L-LO_HardQCDSelectionQuark_300To380_2017-02-07-094503
14794.6 seconds 4.10961 hours CTEQ5L-LO_HardQCDSelectionQuark_300To380_2017-02-07-094503
14912.8 seconds 4.14244 hours CTEQ5L-LO_HardQCDSelectionQuark_300To380_2017-02-07-094503
14993.5 seconds 4.16486 hours CTEQ5L-LO_HardQCDSelectionQuark_300To380_2017-02-07-094503
14846.4 seconds 4.124 hours CTEQ5L-LO_HardQCDSelectionQuark_300To380_2017-02-07-094503
14565.7 seconds 4.04603 hours CTEQ5L-LO_HardQCDSelectionQuark_300To380_2017-02-07-094503
18422.9 seconds 5.11747 hours CTEQ5L-LO_HardQCDSelectionQuark_300To380_2017-02-07-094503
18451.6 seconds 5.12544 hours CTEQ5L-LO_HardQCDSelectionQuark_300To380_2017-02-07-094503
18094 seconds 5.02611 hours CTEQ5L-LO_HardQCDSelectionQuark_300To380_2017-02-07-094503
18451.6 seconds 5.12544 hours CTEQ5L-LO_HardQCDSelectionQuark_300To380_2017-02-07-094503
18150 seconds 5.04167 hours CTEQ5L-LO_HardQCDSelectionQuark_300To380_2017-02-07-094503
18262.3 seconds 5.07286 hours CTEQ5L-LO_HardQCDSelectionQuark_300To380_2017-02-07-094503
18276 seconds 5.07667 hours CTEQ5L-LO_HardQCDSelectionQuark_300To380_2017-02-07-094503
18323.4 seconds 5.08983 hours CTEQ5L-LO_HardQCDSelectionQuark_300To380_2017-02-07-094503
18332.4 seconds 5.09233 hours CTEQ5L-LO_HardQCDSelectionQuark_300To380_2017-02-07-094503
18228 seconds 5.06333 hours CTEQ5L-LO_HardQCDSelectionQuark_300To380_2017-02-07-094503


10921.9 seconds 3.03386 hours CTEQ5L-LO_HardQCDSelectionQuark_30To50_2017-02-07-094503
14319.6 seconds 3.97767 hours CTEQ5L-LO_HardQCDSelectionQuark_30To50_2017-02-07-094503
14353.8 seconds 3.98717 hours CTEQ5L-LO_HardQCDSelectionQuark_30To50_2017-02-07-094503
14193.9 seconds 3.94275 hours CTEQ5L-LO_HardQCDSelectionQuark_30To50_2017-02-07-094503
14314.2 seconds 3.97617 hours CTEQ5L-LO_HardQCDSelectionQuark_30To50_2017-02-07-094503
14455 seconds 4.01528 hours CTEQ5L-LO_HardQCDSelectionQuark_30To50_2017-02-07-094503
14357.4 seconds 3.98817 hours CTEQ5L-LO_HardQCDSelectionQuark_30To50_2017-02-07-094503
14308.6 seconds 3.97461 hours CTEQ5L-LO_HardQCDSelectionQuark_30To50_2017-02-07-094503
14331.8 seconds 3.98106 hours CTEQ5L-LO_HardQCDSelectionQuark_30To50_2017-02-07-094503
14262.5 seconds 3.96181 hours CTEQ5L-LO_HardQCDSelectionQuark_30To50_2017-02-07-094503
14212 seconds 3.94778 hours CTEQ5L-LO_HardQCDSelectionQuark_30To50_2017-02-07-094503
11068.6 seconds 3.07461 hours CTEQ5L-LO_HardQCDSelectionQuark_30To50_2017-02-07-094503
14228.6 seconds 3.95239 hours CTEQ5L-LO_HardQCDSelectionQuark_30To50_2017-02-07-094503
11144.8 seconds 3.09578 hours CTEQ5L-LO_HardQCDSelectionQuark_30To50_2017-02-07-094503
14192.8 seconds 3.94244 hours CTEQ5L-LO_HardQCDSelectionQuark_30To50_2017-02-07-094503
14344.9 seconds 3.98469 hours CTEQ5L-LO_HardQCDSelectionQuark_30To50_2017-02-07-094503
14361.8 seconds 3.98939 hours CTEQ5L-LO_HardQCDSelectionQuark_30To50_2017-02-07-094503
14301.8 seconds 3.97272 hours CTEQ5L-LO_HardQCDSelectionQuark_30To50_2017-02-07-094503
14295.1 seconds 3.97086 hours CTEQ5L-LO_HardQCDSelectionQuark_30To50_2017-02-07-094503
14290.6 seconds 3.96961 hours CTEQ5L-LO_HardQCDSelectionQuark_30To50_2017-02-07-094503


18904.9 seconds 5.25136 hours CTEQ5L-LO_HardQCDSelectionQuark_380To10000_2017-02-07-094503
18428.2 seconds 5.11894 hours CTEQ5L-LO_HardQCDSelectionQuark_380To10000_2017-02-07-094503
18520.5 seconds 5.14458 hours CTEQ5L-LO_HardQCDSelectionQuark_380To10000_2017-02-07-094503
18496.7 seconds 5.13797 hours CTEQ5L-LO_HardQCDSelectionQuark_380To10000_2017-02-07-094503
18485.8 seconds 5.13494 hours CTEQ5L-LO_HardQCDSelectionQuark_380To10000_2017-02-07-094503
18677.9 seconds 5.18831 hours CTEQ5L-LO_HardQCDSelectionQuark_380To10000_2017-02-07-094503
18846.7 seconds 5.23519 hours CTEQ5L-LO_HardQCDSelectionQuark_380To10000_2017-02-07-094503
18497.7 seconds 5.13825 hours CTEQ5L-LO_HardQCDSelectionQuark_380To10000_2017-02-07-094503
18485 seconds 5.13472 hours CTEQ5L-LO_HardQCDSelectionQuark_380To10000_2017-02-07-094503
18824.4 seconds 5.229 hours CTEQ5L-LO_HardQCDSelectionQuark_380To10000_2017-02-07-094503
18628.1 seconds 5.17447 hours CTEQ5L-LO_HardQCDSelectionQuark_380To10000_2017-02-07-094503
18726.4 seconds 5.20178 hours CTEQ5L-LO_HardQCDSelectionQuark_380To10000_2017-02-07-094503
18822.2 seconds 5.22839 hours CTEQ5L-LO_HardQCDSelectionQuark_380To10000_2017-02-07-094503
18429.5 seconds 5.11931 hours CTEQ5L-LO_HardQCDSelectionQuark_380To10000_2017-02-07-094503
18721.5 seconds 5.20042 hours CTEQ5L-LO_HardQCDSelectionQuark_380To10000_2017-02-07-094503
18404 seconds 5.11222 hours CTEQ5L-LO_HardQCDSelectionQuark_380To10000_2017-02-07-094503
18363.9 seconds 5.10108 hours CTEQ5L-LO_HardQCDSelectionQuark_380To10000_2017-02-07-094503
18713 seconds 5.19806 hours CTEQ5L-LO_HardQCDSelectionQuark_380To10000_2017-02-07-094503
18491.6 seconds 5.13656 hours CTEQ5L-LO_HardQCDSelectionQuark_380To10000_2017-02-07-094503
18491.7 seconds 5.13658 hours CTEQ5L-LO_HardQCDSelectionQuark_380To10000_2017-02-07-094503


15431.6 seconds 4.28656 hours CTEQ5L-LO_HardQCDSelectionQuark_50To80_2017-02-07-094503
15279.6 seconds 4.24433 hours CTEQ5L-LO_HardQCDSelectionQuark_50To80_2017-02-07-094503
14021 seconds 3.89472 hours CTEQ5L-LO_HardQCDSelectionQuark_50To80_2017-02-07-094503
15013.3 seconds 4.17036 hours CTEQ5L-LO_HardQCDSelectionQuark_50To80_2017-02-07-094503
15084.7 seconds 4.19019 hours CTEQ5L-LO_HardQCDSelectionQuark_50To80_2017-02-07-094503
15220.4 seconds 4.22789 hours CTEQ5L-LO_HardQCDSelectionQuark_50To80_2017-02-07-094503
15027.1 seconds 4.17419 hours CTEQ5L-LO_HardQCDSelectionQuark_50To80_2017-02-07-094503
15288.9 seconds 4.24692 hours CTEQ5L-LO_HardQCDSelectionQuark_50To80_2017-02-07-094503
15192.1 seconds 4.22003 hours CTEQ5L-LO_HardQCDSelectionQuark_50To80_2017-02-07-094503
14995.9 seconds 4.16553 hours CTEQ5L-LO_HardQCDSelectionQuark_50To80_2017-02-07-094503
15042.9 seconds 4.17858 hours CTEQ5L-LO_HardQCDSelectionQuark_50To80_2017-02-07-094503
15328 seconds 4.25778 hours CTEQ5L-LO_HardQCDSelectionQuark_50To80_2017-02-07-094503
15226.4 seconds 4.22956 hours CTEQ5L-LO_HardQCDSelectionQuark_50To80_2017-02-07-094503
15009.6 seconds 4.16933 hours CTEQ5L-LO_HardQCDSelectionQuark_50To80_2017-02-07-094503
15152.9 seconds 4.20914 hours CTEQ5L-LO_HardQCDSelectionQuark_50To80_2017-02-07-094503
14990.9 seconds 4.16414 hours CTEQ5L-LO_HardQCDSelectionQuark_50To80_2017-02-07-094503
15134 seconds 4.20389 hours CTEQ5L-LO_HardQCDSelectionQuark_50To80_2017-02-07-094503
15317.5 seconds 4.25486 hours CTEQ5L-LO_HardQCDSelectionQuark_50To80_2017-02-07-094503
15056.9 seconds 4.18247 hours CTEQ5L-LO_HardQCDSelectionQuark_50To80_2017-02-07-094503
14841.1 seconds 4.12253 hours CTEQ5L-LO_HardQCDSelectionQuark_50To80_2017-02-07-094503


15910.8 seconds 4.41967 hours CTEQ5L-LO_HardQCDSelectionQuark_80To120_2017-02-07-094503
12517.7 seconds 3.47714 hours CTEQ5L-LO_HardQCDSelectionQuark_80To120_2017-02-07-094503
15926.8 seconds 4.42411 hours CTEQ5L-LO_HardQCDSelectionQuark_80To120_2017-02-07-094503
15910.3 seconds 4.41953 hours CTEQ5L-LO_HardQCDSelectionQuark_80To120_2017-02-07-094503
15893 seconds 4.41472 hours CTEQ5L-LO_HardQCDSelectionQuark_80To120_2017-02-07-094503
16066.8 seconds 4.463 hours CTEQ5L-LO_HardQCDSelectionQuark_80To120_2017-02-07-094503
15724.3 seconds 4.36786 hours CTEQ5L-LO_HardQCDSelectionQuark_80To120_2017-02-07-094503
15890.7 seconds 4.41408 hours CTEQ5L-LO_HardQCDSelectionQuark_80To120_2017-02-07-094503
15969.9 seconds 4.43608 hours CTEQ5L-LO_HardQCDSelectionQuark_80To120_2017-02-07-094503
15965.2 seconds 4.43478 hours CTEQ5L-LO_HardQCDSelectionQuark_80To120_2017-02-07-094503
16008.2 seconds 4.44672 hours CTEQ5L-LO_HardQCDSelectionQuark_80To120_2017-02-07-094503
15912.7 seconds 4.42019 hours CTEQ5L-LO_HardQCDSelectionQuark_80To120_2017-02-07-094503
15822.5 seconds 4.39514 hours CTEQ5L-LO_HardQCDSelectionQuark_80To120_2017-02-07-094503
15868.9 seconds 4.40803 hours CTEQ5L-LO_HardQCDSelectionQuark_80To120_2017-02-07-094503
15997 seconds 4.44361 hours CTEQ5L-LO_HardQCDSelectionQuark_80To120_2017-02-07-094503
15935.2 seconds 4.42644 hours CTEQ5L-LO_HardQCDSelectionQuark_80To120_2017-02-07-094503
15718.9 seconds 4.36636 hours CTEQ5L-LO_HardQCDSelectionQuark_80To120_2017-02-07-094503
16094 seconds 4.47056 hours CTEQ5L-LO_HardQCDSelectionQuark_80To120_2017-02-07-094503
16053.5 seconds 4.45931 hours CTEQ5L-LO_HardQCDSelectionQuark_80To120_2017-02-07-094503
13320.8 seconds 3.70022 hours CTEQ5L-LO_HardQCDSelectionQuark_80To120_2017-02-07-094503




