

Time taken to complete the job, Statistics
==========================================
2741.53 seconds 0.761536 hours CTEQ5L-LO_HardQCDSelectionQuark_10To20_2017-01-31-105825
2571.95 seconds 0.714431 hours CTEQ5L-LO_HardQCDSelectionQuark_10To20_2017-01-31-105825
3027.69 seconds 0.841025 hours CTEQ5L-LO_HardQCDSelectionQuark_10To20_2017-01-31-105825
3051.21 seconds 0.847558 hours CTEQ5L-LO_HardQCDSelectionQuark_10To20_2017-01-31-105825
3004.53 seconds 0.834592 hours CTEQ5L-LO_HardQCDSelectionQuark_10To20_2017-01-31-105825
2974.78 seconds 0.826328 hours CTEQ5L-LO_HardQCDSelectionQuark_10To20_2017-01-31-105825
2572.7 seconds 0.714639 hours CTEQ5L-LO_HardQCDSelectionQuark_10To20_2017-01-31-105825
2745.85 seconds 0.762736 hours CTEQ5L-LO_HardQCDSelectionQuark_10To20_2017-01-31-105825
2729.76 seconds 0.758267 hours CTEQ5L-LO_HardQCDSelectionQuark_10To20_2017-01-31-105825
3017.59 seconds 0.838219 hours CTEQ5L-LO_HardQCDSelectionQuark_10To20_2017-01-31-105825
3015.41 seconds 0.837614 hours CTEQ5L-LO_HardQCDSelectionQuark_10To20_2017-01-31-105825
2698.71 seconds 0.749642 hours CTEQ5L-LO_HardQCDSelectionQuark_10To20_2017-01-31-105825
2996 seconds 0.832222 hours CTEQ5L-LO_HardQCDSelectionQuark_10To20_2017-01-31-105825
2678.93 seconds 0.744147 hours CTEQ5L-LO_HardQCDSelectionQuark_10To20_2017-01-31-105825
2987.43 seconds 0.829842 hours CTEQ5L-LO_HardQCDSelectionQuark_10To20_2017-01-31-105825
3038.23 seconds 0.843953 hours CTEQ5L-LO_HardQCDSelectionQuark_10To20_2017-01-31-105825
3233.65 seconds 0.898236 hours CTEQ5L-LO_HardQCDSelectionQuark_10To20_2017-01-31-105825
2987.33 seconds 0.829814 hours CTEQ5L-LO_HardQCDSelectionQuark_10To20_2017-01-31-105825
2730.95 seconds 0.758597 hours CTEQ5L-LO_HardQCDSelectionQuark_10To20_2017-01-31-105825
2820.54 seconds 0.783483 hours CTEQ5L-LO_HardQCDSelectionQuark_10To20_2017-01-31-105825


3224.61 seconds 0.895725 hours CTEQ5L-LO_HardQCDSelectionQuark_120To170_2017-01-31-105825
2555.39 seconds 0.709831 hours CTEQ5L-LO_HardQCDSelectionQuark_120To170_2017-01-31-105825
2651.12 seconds 0.736422 hours CTEQ5L-LO_HardQCDSelectionQuark_120To170_2017-01-31-105825
3568.87 seconds 0.991353 hours CTEQ5L-LO_HardQCDSelectionQuark_120To170_2017-01-31-105825
3670.99 seconds 1.01972 hours CTEQ5L-LO_HardQCDSelectionQuark_120To170_2017-01-31-105825
3573.82 seconds 0.992728 hours CTEQ5L-LO_HardQCDSelectionQuark_120To170_2017-01-31-105825
3074.36 seconds 0.853989 hours CTEQ5L-LO_HardQCDSelectionQuark_120To170_2017-01-31-105825
3750.86 seconds 1.04191 hours CTEQ5L-LO_HardQCDSelectionQuark_120To170_2017-01-31-105825
3723 seconds 1.03417 hours CTEQ5L-LO_HardQCDSelectionQuark_120To170_2017-01-31-105825
3644.89 seconds 1.01247 hours CTEQ5L-LO_HardQCDSelectionQuark_120To170_2017-01-31-105825
3647.28 seconds 1.01313 hours CTEQ5L-LO_HardQCDSelectionQuark_120To170_2017-01-31-105825
3240.8 seconds 0.900222 hours CTEQ5L-LO_HardQCDSelectionQuark_120To170_2017-01-31-105825
3585.27 seconds 0.995908 hours CTEQ5L-LO_HardQCDSelectionQuark_120To170_2017-01-31-105825
3244.07 seconds 0.901131 hours CTEQ5L-LO_HardQCDSelectionQuark_120To170_2017-01-31-105825
3079.36 seconds 0.855378 hours CTEQ5L-LO_HardQCDSelectionQuark_120To170_2017-01-31-105825
3595.93 seconds 0.998869 hours CTEQ5L-LO_HardQCDSelectionQuark_120To170_2017-01-31-105825
3584.86 seconds 0.995794 hours CTEQ5L-LO_HardQCDSelectionQuark_120To170_2017-01-31-105825
3541.63 seconds 0.983786 hours CTEQ5L-LO_HardQCDSelectionQuark_120To170_2017-01-31-105825
3606.5 seconds 1.00181 hours CTEQ5L-LO_HardQCDSelectionQuark_120To170_2017-01-31-105825
3873.54 seconds 1.07598 hours CTEQ5L-LO_HardQCDSelectionQuark_120To170_2017-01-31-105825


3691.1 seconds 1.02531 hours CTEQ5L-LO_HardQCDSelectionQuark_170To230_2017-01-31-105825
3306.38 seconds 0.918439 hours CTEQ5L-LO_HardQCDSelectionQuark_170To230_2017-01-31-105825
3678.57 seconds 1.02182 hours CTEQ5L-LO_HardQCDSelectionQuark_170To230_2017-01-31-105825
3652.24 seconds 1.01451 hours CTEQ5L-LO_HardQCDSelectionQuark_170To230_2017-01-31-105825
3661.3 seconds 1.01703 hours CTEQ5L-LO_HardQCDSelectionQuark_170To230_2017-01-31-105825
3275.74 seconds 0.909928 hours CTEQ5L-LO_HardQCDSelectionQuark_170To230_2017-01-31-105825
3262.64 seconds 0.906289 hours CTEQ5L-LO_HardQCDSelectionQuark_170To230_2017-01-31-105825
3296.78 seconds 0.915772 hours CTEQ5L-LO_HardQCDSelectionQuark_170To230_2017-01-31-105825
3135.86 seconds 0.871072 hours CTEQ5L-LO_HardQCDSelectionQuark_170To230_2017-01-31-105825
3666.83 seconds 1.01856 hours CTEQ5L-LO_HardQCDSelectionQuark_170To230_2017-01-31-105825
3627.98 seconds 1.00777 hours CTEQ5L-LO_HardQCDSelectionQuark_170To230_2017-01-31-105825
3734.8 seconds 1.03744 hours CTEQ5L-LO_HardQCDSelectionQuark_170To230_2017-01-31-105825
3632.74 seconds 1.00909 hours CTEQ5L-LO_HardQCDSelectionQuark_170To230_2017-01-31-105825
3701.49 seconds 1.02819 hours CTEQ5L-LO_HardQCDSelectionQuark_170To230_2017-01-31-105825
3300.49 seconds 0.916803 hours CTEQ5L-LO_HardQCDSelectionQuark_170To230_2017-01-31-105825
3299.71 seconds 0.916586 hours CTEQ5L-LO_HardQCDSelectionQuark_170To230_2017-01-31-105825
3614.8 seconds 1.00411 hours CTEQ5L-LO_HardQCDSelectionQuark_170To230_2017-01-31-105825
3618.15 seconds 1.00504 hours CTEQ5L-LO_HardQCDSelectionQuark_170To230_2017-01-31-105825
3669.56 seconds 1.01932 hours CTEQ5L-LO_HardQCDSelectionQuark_170To230_2017-01-31-105825
3093.22 seconds 0.859228 hours CTEQ5L-LO_HardQCDSelectionQuark_170To230_2017-01-31-105825


3183.49 seconds 0.884303 hours CTEQ5L-LO_HardQCDSelectionQuark_20To30_2017-01-31-105825
3043.82 seconds 0.845506 hours CTEQ5L-LO_HardQCDSelectionQuark_20To30_2017-01-31-105825
2464.91 seconds 0.684697 hours CTEQ5L-LO_HardQCDSelectionQuark_20To30_2017-01-31-105825
2402.53 seconds 0.667369 hours CTEQ5L-LO_HardQCDSelectionQuark_20To30_2017-01-31-105825
3223.69 seconds 0.895469 hours CTEQ5L-LO_HardQCDSelectionQuark_20To30_2017-01-31-105825
3286.16 seconds 0.912822 hours CTEQ5L-LO_HardQCDSelectionQuark_20To30_2017-01-31-105825
3217.99 seconds 0.893886 hours CTEQ5L-LO_HardQCDSelectionQuark_20To30_2017-01-31-105825
3217.13 seconds 0.893647 hours CTEQ5L-LO_HardQCDSelectionQuark_20To30_2017-01-31-105825
3322.12 seconds 0.922811 hours CTEQ5L-LO_HardQCDSelectionQuark_20To30_2017-01-31-105825
3300.58 seconds 0.916828 hours CTEQ5L-LO_HardQCDSelectionQuark_20To30_2017-01-31-105825
2319.26 seconds 0.644239 hours CTEQ5L-LO_HardQCDSelectionQuark_20To30_2017-01-31-105825
3323.21 seconds 0.923114 hours CTEQ5L-LO_HardQCDSelectionQuark_20To30_2017-01-31-105825
2302.19 seconds 0.639497 hours CTEQ5L-LO_HardQCDSelectionQuark_20To30_2017-01-31-105825
3287.26 seconds 0.913128 hours CTEQ5L-LO_HardQCDSelectionQuark_20To30_2017-01-31-105825
3217.55 seconds 0.893764 hours CTEQ5L-LO_HardQCDSelectionQuark_20To30_2017-01-31-105825
3192.67 seconds 0.886853 hours CTEQ5L-LO_HardQCDSelectionQuark_20To30_2017-01-31-105825
3541.9 seconds 0.983861 hours CTEQ5L-LO_HardQCDSelectionQuark_20To30_2017-01-31-105825
3181.12 seconds 0.883644 hours CTEQ5L-LO_HardQCDSelectionQuark_20To30_2017-01-31-105825
3396.71 seconds 0.943531 hours CTEQ5L-LO_HardQCDSelectionQuark_20To30_2017-01-31-105825
3205.9 seconds 0.890528 hours CTEQ5L-LO_HardQCDSelectionQuark_20To30_2017-01-31-105825


3291.22 seconds 0.914228 hours CTEQ5L-LO_HardQCDSelectionQuark_230To300_2017-01-31-105825
3703.09 seconds 1.02864 hours CTEQ5L-LO_HardQCDSelectionQuark_230To300_2017-01-31-105825
3724.88 seconds 1.03469 hours CTEQ5L-LO_HardQCDSelectionQuark_230To300_2017-01-31-105825
3826 seconds 1.06278 hours CTEQ5L-LO_HardQCDSelectionQuark_230To300_2017-01-31-105825
3299.05 seconds 0.916403 hours CTEQ5L-LO_HardQCDSelectionQuark_230To300_2017-01-31-105825
3354.31 seconds 0.931753 hours CTEQ5L-LO_HardQCDSelectionQuark_230To300_2017-01-31-105825
3331.74 seconds 0.925483 hours CTEQ5L-LO_HardQCDSelectionQuark_230To300_2017-01-31-105825
3404.21 seconds 0.945614 hours CTEQ5L-LO_HardQCDSelectionQuark_230To300_2017-01-31-105825
3364.36 seconds 0.934544 hours CTEQ5L-LO_HardQCDSelectionQuark_230To300_2017-01-31-105825
3834.22 seconds 1.06506 hours CTEQ5L-LO_HardQCDSelectionQuark_230To300_2017-01-31-105825
3631.54 seconds 1.00876 hours CTEQ5L-LO_HardQCDSelectionQuark_230To300_2017-01-31-105825
3342.92 seconds 0.928589 hours CTEQ5L-LO_HardQCDSelectionQuark_230To300_2017-01-31-105825
3719.3 seconds 1.03314 hours CTEQ5L-LO_HardQCDSelectionQuark_230To300_2017-01-31-105825
3350.51 seconds 0.930697 hours CTEQ5L-LO_HardQCDSelectionQuark_230To300_2017-01-31-105825
3380.28 seconds 0.938967 hours CTEQ5L-LO_HardQCDSelectionQuark_230To300_2017-01-31-105825
3338.11 seconds 0.927253 hours CTEQ5L-LO_HardQCDSelectionQuark_230To300_2017-01-31-105825
3301.61 seconds 0.917114 hours CTEQ5L-LO_HardQCDSelectionQuark_230To300_2017-01-31-105825
3283.86 seconds 0.912183 hours CTEQ5L-LO_HardQCDSelectionQuark_230To300_2017-01-31-105825
3308.72 seconds 0.919089 hours CTEQ5L-LO_HardQCDSelectionQuark_230To300_2017-01-31-105825
3285.38 seconds 0.912606 hours CTEQ5L-LO_HardQCDSelectionQuark_230To300_2017-01-31-105825


3763.36 seconds 1.04538 hours CTEQ5L-LO_HardQCDSelectionQuark_300To380_2017-01-31-105825
3807.8 seconds 1.05772 hours CTEQ5L-LO_HardQCDSelectionQuark_300To380_2017-01-31-105825
3920.1 seconds 1.08892 hours CTEQ5L-LO_HardQCDSelectionQuark_300To380_2017-01-31-105825
3674.22 seconds 1.02062 hours CTEQ5L-LO_HardQCDSelectionQuark_300To380_2017-01-31-105825
3670.92 seconds 1.0197 hours CTEQ5L-LO_HardQCDSelectionQuark_300To380_2017-01-31-105825
3405.25 seconds 0.945903 hours CTEQ5L-LO_HardQCDSelectionQuark_300To380_2017-01-31-105825
3198.92 seconds 0.888589 hours CTEQ5L-LO_HardQCDSelectionQuark_300To380_2017-01-31-105825
3451.7 seconds 0.958806 hours CTEQ5L-LO_HardQCDSelectionQuark_300To380_2017-01-31-105825
3810.04 seconds 1.05834 hours CTEQ5L-LO_HardQCDSelectionQuark_300To380_2017-01-31-105825
3691.03 seconds 1.02529 hours CTEQ5L-LO_HardQCDSelectionQuark_300To380_2017-01-31-105825
3740.44 seconds 1.03901 hours CTEQ5L-LO_HardQCDSelectionQuark_300To380_2017-01-31-105825
3840.07 seconds 1.06669 hours CTEQ5L-LO_HardQCDSelectionQuark_300To380_2017-01-31-105825
3687.04 seconds 1.02418 hours CTEQ5L-LO_HardQCDSelectionQuark_300To380_2017-01-31-105825
3813.22 seconds 1.05923 hours CTEQ5L-LO_HardQCDSelectionQuark_300To380_2017-01-31-105825
3862.7 seconds 1.07297 hours CTEQ5L-LO_HardQCDSelectionQuark_300To380_2017-01-31-105825
3707.5 seconds 1.02986 hours CTEQ5L-LO_HardQCDSelectionQuark_300To380_2017-01-31-105825
3873.81 seconds 1.07606 hours CTEQ5L-LO_HardQCDSelectionQuark_300To380_2017-01-31-105825
3914.96 seconds 1.08749 hours CTEQ5L-LO_HardQCDSelectionQuark_300To380_2017-01-31-105825
3784.6 seconds 1.05128 hours CTEQ5L-LO_HardQCDSelectionQuark_300To380_2017-01-31-105825
3671.1 seconds 1.01975 hours CTEQ5L-LO_HardQCDSelectionQuark_300To380_2017-01-31-105825


3454.53 seconds 0.959592 hours CTEQ5L-LO_HardQCDSelectionQuark_30To50_2017-01-31-105825
2975.84 seconds 0.826622 hours CTEQ5L-LO_HardQCDSelectionQuark_30To50_2017-01-31-105825
3015.49 seconds 0.837636 hours CTEQ5L-LO_HardQCDSelectionQuark_30To50_2017-01-31-105825
3463.8 seconds 0.962167 hours CTEQ5L-LO_HardQCDSelectionQuark_30To50_2017-01-31-105825
3279.61 seconds 0.911003 hours CTEQ5L-LO_HardQCDSelectionQuark_30To50_2017-01-31-105825
3319.06 seconds 0.921961 hours CTEQ5L-LO_HardQCDSelectionQuark_30To50_2017-01-31-105825
3337.01 seconds 0.926947 hours CTEQ5L-LO_HardQCDSelectionQuark_30To50_2017-01-31-105825
3404.64 seconds 0.945733 hours CTEQ5L-LO_HardQCDSelectionQuark_30To50_2017-01-31-105825
3332.94 seconds 0.925817 hours CTEQ5L-LO_HardQCDSelectionQuark_30To50_2017-01-31-105825
3410.63 seconds 0.947397 hours CTEQ5L-LO_HardQCDSelectionQuark_30To50_2017-01-31-105825
3498.36 seconds 0.971767 hours CTEQ5L-LO_HardQCDSelectionQuark_30To50_2017-01-31-105825
3369.94 seconds 0.936094 hours CTEQ5L-LO_HardQCDSelectionQuark_30To50_2017-01-31-105825
3348.72 seconds 0.9302 hours CTEQ5L-LO_HardQCDSelectionQuark_30To50_2017-01-31-105825
3343.8 seconds 0.928833 hours CTEQ5L-LO_HardQCDSelectionQuark_30To50_2017-01-31-105825
3331.7 seconds 0.925472 hours CTEQ5L-LO_HardQCDSelectionQuark_30To50_2017-01-31-105825
3305.49 seconds 0.918192 hours CTEQ5L-LO_HardQCDSelectionQuark_30To50_2017-01-31-105825
3426.95 seconds 0.951931 hours CTEQ5L-LO_HardQCDSelectionQuark_30To50_2017-01-31-105825
3288.26 seconds 0.913406 hours CTEQ5L-LO_HardQCDSelectionQuark_30To50_2017-01-31-105825
2998.45 seconds 0.832903 hours CTEQ5L-LO_HardQCDSelectionQuark_30To50_2017-01-31-105825
3006.94 seconds 0.835261 hours CTEQ5L-LO_HardQCDSelectionQuark_30To50_2017-01-31-105825


3797.28 seconds 1.0548 hours CTEQ5L-LO_HardQCDSelectionQuark_380To10000_2017-01-31-105825
3903.8 seconds 1.08439 hours CTEQ5L-LO_HardQCDSelectionQuark_380To10000_2017-01-31-105825
3796.67 seconds 1.05463 hours CTEQ5L-LO_HardQCDSelectionQuark_380To10000_2017-01-31-105825
3726.88 seconds 1.03524 hours CTEQ5L-LO_HardQCDSelectionQuark_380To10000_2017-01-31-105825
3724 seconds 1.03444 hours CTEQ5L-LO_HardQCDSelectionQuark_380To10000_2017-01-31-105825
3682.87 seconds 1.02302 hours CTEQ5L-LO_HardQCDSelectionQuark_380To10000_2017-01-31-105825
3367.69 seconds 0.935469 hours CTEQ5L-LO_HardQCDSelectionQuark_380To10000_2017-01-31-105825
3323.65 seconds 0.923236 hours CTEQ5L-LO_HardQCDSelectionQuark_380To10000_2017-01-31-105825
3442.75 seconds 0.956319 hours CTEQ5L-LO_HardQCDSelectionQuark_380To10000_2017-01-31-105825
3344.26 seconds 0.928961 hours CTEQ5L-LO_HardQCDSelectionQuark_380To10000_2017-01-31-105825
3206.25 seconds 0.890625 hours CTEQ5L-LO_HardQCDSelectionQuark_380To10000_2017-01-31-105825
3798.53 seconds 1.05515 hours CTEQ5L-LO_HardQCDSelectionQuark_380To10000_2017-01-31-105825
3370.5 seconds 0.93625 hours CTEQ5L-LO_HardQCDSelectionQuark_380To10000_2017-01-31-105825
3842.77 seconds 1.06744 hours CTEQ5L-LO_HardQCDSelectionQuark_380To10000_2017-01-31-105825
3741.89 seconds 1.03941 hours CTEQ5L-LO_HardQCDSelectionQuark_380To10000_2017-01-31-105825
3408.37 seconds 0.946769 hours CTEQ5L-LO_HardQCDSelectionQuark_380To10000_2017-01-31-105825
3424.69 seconds 0.951303 hours CTEQ5L-LO_HardQCDSelectionQuark_380To10000_2017-01-31-105825
3727.89 seconds 1.03553 hours CTEQ5L-LO_HardQCDSelectionQuark_380To10000_2017-01-31-105825
3783.54 seconds 1.05098 hours CTEQ5L-LO_HardQCDSelectionQuark_380To10000_2017-01-31-105825
3890.11 seconds 1.08059 hours CTEQ5L-LO_HardQCDSelectionQuark_380To10000_2017-01-31-105825


3498.81 seconds 0.971892 hours CTEQ5L-LO_HardQCDSelectionQuark_50To80_2017-01-31-105825
3414.95 seconds 0.948597 hours CTEQ5L-LO_HardQCDSelectionQuark_50To80_2017-01-31-105825
3455.26 seconds 0.959794 hours CTEQ5L-LO_HardQCDSelectionQuark_50To80_2017-01-31-105825
3094.53 seconds 0.859592 hours CTEQ5L-LO_HardQCDSelectionQuark_50To80_2017-01-31-105825
2997.33 seconds 0.832592 hours CTEQ5L-LO_HardQCDSelectionQuark_50To80_2017-01-31-105825
3174.96 seconds 0.881933 hours CTEQ5L-LO_HardQCDSelectionQuark_50To80_2017-01-31-105825
3100.27 seconds 0.861186 hours CTEQ5L-LO_HardQCDSelectionQuark_50To80_2017-01-31-105825
3129.38 seconds 0.869272 hours CTEQ5L-LO_HardQCDSelectionQuark_50To80_2017-01-31-105825
3081.4 seconds 0.855944 hours CTEQ5L-LO_HardQCDSelectionQuark_50To80_2017-01-31-105825
3522.55 seconds 0.978486 hours CTEQ5L-LO_HardQCDSelectionQuark_50To80_2017-01-31-105825
3462.06 seconds 0.961683 hours CTEQ5L-LO_HardQCDSelectionQuark_50To80_2017-01-31-105825
3448.62 seconds 0.95795 hours CTEQ5L-LO_HardQCDSelectionQuark_50To80_2017-01-31-105825
3415.33 seconds 0.948703 hours CTEQ5L-LO_HardQCDSelectionQuark_50To80_2017-01-31-105825
3386.39 seconds 0.940664 hours CTEQ5L-LO_HardQCDSelectionQuark_50To80_2017-01-31-105825
3699.15 seconds 1.02754 hours CTEQ5L-LO_HardQCDSelectionQuark_50To80_2017-01-31-105825
3592.01 seconds 0.997781 hours CTEQ5L-LO_HardQCDSelectionQuark_50To80_2017-01-31-105825
3417.99 seconds 0.949442 hours CTEQ5L-LO_HardQCDSelectionQuark_50To80_2017-01-31-105825
3448.88 seconds 0.958022 hours CTEQ5L-LO_HardQCDSelectionQuark_50To80_2017-01-31-105825
3521.49 seconds 0.978192 hours CTEQ5L-LO_HardQCDSelectionQuark_50To80_2017-01-31-105825
3556.24 seconds 0.987844 hours CTEQ5L-LO_HardQCDSelectionQuark_50To80_2017-01-31-105825


3702.56 seconds 1.02849 hours CTEQ5L-LO_HardQCDSelectionQuark_80To120_2017-01-31-105825
3138.02 seconds 0.871672 hours CTEQ5L-LO_HardQCDSelectionQuark_80To120_2017-01-31-105825
3018.48 seconds 0.838467 hours CTEQ5L-LO_HardQCDSelectionQuark_80To120_2017-01-31-105825
3155.06 seconds 0.876406 hours CTEQ5L-LO_HardQCDSelectionQuark_80To120_2017-01-31-105825
3638.86 seconds 1.01079 hours CTEQ5L-LO_HardQCDSelectionQuark_80To120_2017-01-31-105825
3229.18 seconds 0.896994 hours CTEQ5L-LO_HardQCDSelectionQuark_80To120_2017-01-31-105825
3566.77 seconds 0.990769 hours CTEQ5L-LO_HardQCDSelectionQuark_80To120_2017-01-31-105825
3490.8 seconds 0.969667 hours CTEQ5L-LO_HardQCDSelectionQuark_80To120_2017-01-31-105825
3561.33 seconds 0.989258 hours CTEQ5L-LO_HardQCDSelectionQuark_80To120_2017-01-31-105825
3537.2 seconds 0.982556 hours CTEQ5L-LO_HardQCDSelectionQuark_80To120_2017-01-31-105825
3212.93 seconds 0.892481 hours CTEQ5L-LO_HardQCDSelectionQuark_80To120_2017-01-31-105825
3556.06 seconds 0.987794 hours CTEQ5L-LO_HardQCDSelectionQuark_80To120_2017-01-31-105825
3161.58 seconds 0.878217 hours CTEQ5L-LO_HardQCDSelectionQuark_80To120_2017-01-31-105825
3525.56 seconds 0.979322 hours CTEQ5L-LO_HardQCDSelectionQuark_80To120_2017-01-31-105825
3747.08 seconds 1.04086 hours CTEQ5L-LO_HardQCDSelectionQuark_80To120_2017-01-31-105825
3575.02 seconds 0.993061 hours CTEQ5L-LO_HardQCDSelectionQuark_80To120_2017-01-31-105825
3584.61 seconds 0.995725 hours CTEQ5L-LO_HardQCDSelectionQuark_80To120_2017-01-31-105825
3602.7 seconds 1.00075 hours CTEQ5L-LO_HardQCDSelectionQuark_80To120_2017-01-31-105825
3590.96 seconds 0.997489 hours CTEQ5L-LO_HardQCDSelectionQuark_80To120_2017-01-31-105825
3158.95 seconds 0.877486 hours CTEQ5L-LO_HardQCDSelectionQuark_80To120_2017-01-31-105825




