

Script to fetch cross-section info from Log files /store/user/rjanjam/Folder/*.log
==================================================================================
Sum(cross-section/pTHat), Sqrt(Sum(error/pTHat*error/pTHat)), Avg(cross-section/pTHat), Avg(Error/pTHat), filename 
---------------------------------------------------------------------------
18.7465	  9.90501e-06	  0.937325	  0.000722022	  CT09MC1-LO_HardQCDMix_10To20_2016-09-23-124415
0.00069026	  1.07625e-14	  3.4513e-05	  2.38001e-08	  CT09MC1-LO_HardQCDMix_120To170_2016-09-23-124415
0.000113778	  2.71452e-16	  5.6889e-06	  3.77981e-09	  CT09MC1-LO_HardQCDMix_170To230_2016-09-23-124415
1.3689	  5.62055e-08	  0.068445	  5.43892e-05	  CT09MC1-LO_HardQCDMix_20To30_2016-09-23-124415
2.1143e-05	  9.39643e-18	  1.05715e-06	  7.03242e-10	  CT09MC1-LO_HardQCDMix_230To300_2016-09-23-124415
4.276e-06	  3.86142e-19	  2.138e-07	  1.4256e-10	  CT09MC1-LO_HardQCDMix_300To380_2016-09-23-124415
0.31977	  3.02026e-09	  0.0159885	  1.2608e-05	  CT09MC1-LO_HardQCDMix_30To50_2016-09-23-124415
1.1781e-06	  3.52515e-20	  5.8905e-08	  4.30737e-11	  CT09MC1-LO_HardQCDMix_380To10000_2016-09-23-124415
0.039324	  3.75271e-11	  0.0019662	  1.40539e-06	  CT09MC1-LO_HardQCDMix_50To80_2016-09-23-124415
0.0048497	  5.42226e-13	  0.000242485	  1.68933e-07	  CT09MC1-LO_HardQCDMix_80To120_2016-09-23-124415
