

Time taken to complete the job, Statistics
==========================================
5752.53 seconds 1.59793 hours CTEQ5L-LO_HardQCDSelectionGluon_10To20_2017-02-06-103716
5882.26 seconds 1.63396 hours CTEQ5L-LO_HardQCDSelectionGluon_10To20_2017-02-06-103716
5833.86 seconds 1.62052 hours CTEQ5L-LO_HardQCDSelectionGluon_10To20_2017-02-06-103716
5022.42 seconds 1.39512 hours CTEQ5L-LO_HardQCDSelectionGluon_10To20_2017-02-06-103716
4965.68 seconds 1.37936 hours CTEQ5L-LO_HardQCDSelectionGluon_10To20_2017-02-06-103716
5121.72 seconds 1.4227 hours CTEQ5L-LO_HardQCDSelectionGluon_10To20_2017-02-06-103716
5223.48 seconds 1.45097 hours CTEQ5L-LO_HardQCDSelectionGluon_10To20_2017-02-06-103716
5179.3 seconds 1.43869 hours CTEQ5L-LO_HardQCDSelectionGluon_10To20_2017-02-06-103716
5248.83 seconds 1.45801 hours CTEQ5L-LO_HardQCDSelectionGluon_10To20_2017-02-06-103716
5239.94 seconds 1.45554 hours CTEQ5L-LO_HardQCDSelectionGluon_10To20_2017-02-06-103716
5160.32 seconds 1.43342 hours CTEQ5L-LO_HardQCDSelectionGluon_10To20_2017-02-06-103716
5679.66 seconds 1.57768 hours CTEQ5L-LO_HardQCDSelectionGluon_10To20_2017-02-06-103716
5183.42 seconds 1.43984 hours CTEQ5L-LO_HardQCDSelectionGluon_10To20_2017-02-06-103716
5632.65 seconds 1.56462 hours CTEQ5L-LO_HardQCDSelectionGluon_10To20_2017-02-06-103716
5850.4 seconds 1.62511 hours CTEQ5L-LO_HardQCDSelectionGluon_10To20_2017-02-06-103716
5836.77 seconds 1.62133 hours CTEQ5L-LO_HardQCDSelectionGluon_10To20_2017-02-06-103716
5851.15 seconds 1.62532 hours CTEQ5L-LO_HardQCDSelectionGluon_10To20_2017-02-06-103716
5757.33 seconds 1.59926 hours CTEQ5L-LO_HardQCDSelectionGluon_10To20_2017-02-06-103716
5101.86 seconds 1.41718 hours CTEQ5L-LO_HardQCDSelectionGluon_10To20_2017-02-06-103716
5535.05 seconds 1.53751 hours CTEQ5L-LO_HardQCDSelectionGluon_10To20_2017-02-06-103716


5951.83 seconds 1.65329 hours CTEQ5L-LO_HardQCDSelectionGluon_120To170_2017-02-06-103716
7923.49 seconds 2.20097 hours CTEQ5L-LO_HardQCDSelectionGluon_120To170_2017-02-06-103716
7575.2 seconds 2.10422 hours CTEQ5L-LO_HardQCDSelectionGluon_120To170_2017-02-06-103716
7730.64 seconds 2.1474 hours CTEQ5L-LO_HardQCDSelectionGluon_120To170_2017-02-06-103716
7913.9 seconds 2.19831 hours CTEQ5L-LO_HardQCDSelectionGluon_120To170_2017-02-06-103716
7921.44 seconds 2.2004 hours CTEQ5L-LO_HardQCDSelectionGluon_120To170_2017-02-06-103716
7629.8 seconds 2.11939 hours CTEQ5L-LO_HardQCDSelectionGluon_120To170_2017-02-06-103716
7908.91 seconds 2.19692 hours CTEQ5L-LO_HardQCDSelectionGluon_120To170_2017-02-06-103716
7641.09 seconds 2.12252 hours CTEQ5L-LO_HardQCDSelectionGluon_120To170_2017-02-06-103716
7769.42 seconds 2.15817 hours CTEQ5L-LO_HardQCDSelectionGluon_120To170_2017-02-06-103716
7652.35 seconds 2.12565 hours CTEQ5L-LO_HardQCDSelectionGluon_120To170_2017-02-06-103716
6068.55 seconds 1.68571 hours CTEQ5L-LO_HardQCDSelectionGluon_120To170_2017-02-06-103716
7596.84 seconds 2.11023 hours CTEQ5L-LO_HardQCDSelectionGluon_120To170_2017-02-06-103716
6065.06 seconds 1.68474 hours CTEQ5L-LO_HardQCDSelectionGluon_120To170_2017-02-06-103716
8930.12 seconds 2.48059 hours CTEQ5L-LO_HardQCDSelectionGluon_120To170_2017-02-06-103716
7996.51 seconds 2.22125 hours CTEQ5L-LO_HardQCDSelectionGluon_120To170_2017-02-06-103716
8866.11 seconds 2.46281 hours CTEQ5L-LO_HardQCDSelectionGluon_120To170_2017-02-06-103716
8840.37 seconds 2.45566 hours CTEQ5L-LO_HardQCDSelectionGluon_120To170_2017-02-06-103716
8698.26 seconds 2.41618 hours CTEQ5L-LO_HardQCDSelectionGluon_120To170_2017-02-06-103716
9022.35 seconds 2.50621 hours CTEQ5L-LO_HardQCDSelectionGluon_120To170_2017-02-06-103716


7864.38 seconds 2.18455 hours CTEQ5L-LO_HardQCDSelectionGluon_170To230_2017-02-06-103716
7619.38 seconds 2.11649 hours CTEQ5L-LO_HardQCDSelectionGluon_170To230_2017-02-06-103716
7932.82 seconds 2.20356 hours CTEQ5L-LO_HardQCDSelectionGluon_170To230_2017-02-06-103716
8033.89 seconds 2.23164 hours CTEQ5L-LO_HardQCDSelectionGluon_170To230_2017-02-06-103716
7919.69 seconds 2.19991 hours CTEQ5L-LO_HardQCDSelectionGluon_170To230_2017-02-06-103716
8075.81 seconds 2.24328 hours CTEQ5L-LO_HardQCDSelectionGluon_170To230_2017-02-06-103716
8138.69 seconds 2.26075 hours CTEQ5L-LO_HardQCDSelectionGluon_170To230_2017-02-06-103716
7699.3 seconds 2.13869 hours CTEQ5L-LO_HardQCDSelectionGluon_170To230_2017-02-06-103716
7750.44 seconds 2.1529 hours CTEQ5L-LO_HardQCDSelectionGluon_170To230_2017-02-06-103716
7679.75 seconds 2.13326 hours CTEQ5L-LO_HardQCDSelectionGluon_170To230_2017-02-06-103716
7652.27 seconds 2.12563 hours CTEQ5L-LO_HardQCDSelectionGluon_170To230_2017-02-06-103716
8019.9 seconds 2.22775 hours CTEQ5L-LO_HardQCDSelectionGluon_170To230_2017-02-06-103716
7799.17 seconds 2.16644 hours CTEQ5L-LO_HardQCDSelectionGluon_170To230_2017-02-06-103716
8689.79 seconds 2.41383 hours CTEQ5L-LO_HardQCDSelectionGluon_170To230_2017-02-06-103716
8834.08 seconds 2.45391 hours CTEQ5L-LO_HardQCDSelectionGluon_170To230_2017-02-06-103716
8822.3 seconds 2.45064 hours CTEQ5L-LO_HardQCDSelectionGluon_170To230_2017-02-06-103716
7932.56 seconds 2.20349 hours CTEQ5L-LO_HardQCDSelectionGluon_170To230_2017-02-06-103716
7977.83 seconds 2.21606 hours CTEQ5L-LO_HardQCDSelectionGluon_170To230_2017-02-06-103716
7763.08 seconds 2.15641 hours CTEQ5L-LO_HardQCDSelectionGluon_170To230_2017-02-06-103716
7991.97 seconds 2.21999 hours CTEQ5L-LO_HardQCDSelectionGluon_170To230_2017-02-06-103716


6110 seconds 1.69722 hours CTEQ5L-LO_HardQCDSelectionGluon_20To30_2017-02-06-103716
6011 seconds 1.66972 hours CTEQ5L-LO_HardQCDSelectionGluon_20To30_2017-02-06-103716
6023.4 seconds 1.67317 hours CTEQ5L-LO_HardQCDSelectionGluon_20To30_2017-02-06-103716
5919.98 seconds 1.64444 hours CTEQ5L-LO_HardQCDSelectionGluon_20To30_2017-02-06-103716
5393.9 seconds 1.49831 hours CTEQ5L-LO_HardQCDSelectionGluon_20To30_2017-02-06-103716
5624.67 seconds 1.56241 hours CTEQ5L-LO_HardQCDSelectionGluon_20To30_2017-02-06-103716
5239.02 seconds 1.45528 hours CTEQ5L-LO_HardQCDSelectionGluon_20To30_2017-02-06-103716
5537.27 seconds 1.53813 hours CTEQ5L-LO_HardQCDSelectionGluon_20To30_2017-02-06-103716
5961.01 seconds 1.65584 hours CTEQ5L-LO_HardQCDSelectionGluon_20To30_2017-02-06-103716
5931.74 seconds 1.64771 hours CTEQ5L-LO_HardQCDSelectionGluon_20To30_2017-02-06-103716
6043.5 seconds 1.67875 hours CTEQ5L-LO_HardQCDSelectionGluon_20To30_2017-02-06-103716
6104.35 seconds 1.69565 hours CTEQ5L-LO_HardQCDSelectionGluon_20To30_2017-02-06-103716
6056.01 seconds 1.68223 hours CTEQ5L-LO_HardQCDSelectionGluon_20To30_2017-02-06-103716
6033.29 seconds 1.67591 hours CTEQ5L-LO_HardQCDSelectionGluon_20To30_2017-02-06-103716
6021.27 seconds 1.67258 hours CTEQ5L-LO_HardQCDSelectionGluon_20To30_2017-02-06-103716
6163.7 seconds 1.71214 hours CTEQ5L-LO_HardQCDSelectionGluon_20To30_2017-02-06-103716
5953.26 seconds 1.65368 hours CTEQ5L-LO_HardQCDSelectionGluon_20To30_2017-02-06-103716
6205 seconds 1.72361 hours CTEQ5L-LO_HardQCDSelectionGluon_20To30_2017-02-06-103716
7985.08 seconds 2.21808 hours CTEQ5L-LO_HardQCDSelectionGluon_20To30_2017-02-06-103716
5465.85 seconds 1.51829 hours CTEQ5L-LO_HardQCDSelectionGluon_20To30_2017-02-06-103716


7845.44 seconds 2.17929 hours CTEQ5L-LO_HardQCDSelectionGluon_230To300_2017-02-06-103716
8840.01 seconds 2.45556 hours CTEQ5L-LO_HardQCDSelectionGluon_230To300_2017-02-06-103716
8788.03 seconds 2.44112 hours CTEQ5L-LO_HardQCDSelectionGluon_230To300_2017-02-06-103716
7712.22 seconds 2.14228 hours CTEQ5L-LO_HardQCDSelectionGluon_230To300_2017-02-06-103716
7913.85 seconds 2.19829 hours CTEQ5L-LO_HardQCDSelectionGluon_230To300_2017-02-06-103716
7539.61 seconds 2.09434 hours CTEQ5L-LO_HardQCDSelectionGluon_230To300_2017-02-06-103716
8838.09 seconds 2.45503 hours CTEQ5L-LO_HardQCDSelectionGluon_230To300_2017-02-06-103716
8855.77 seconds 2.45994 hours CTEQ5L-LO_HardQCDSelectionGluon_230To300_2017-02-06-103716
8806.82 seconds 2.44634 hours CTEQ5L-LO_HardQCDSelectionGluon_230To300_2017-02-06-103716
8784.44 seconds 2.44012 hours CTEQ5L-LO_HardQCDSelectionGluon_230To300_2017-02-06-103716
8939.84 seconds 2.48329 hours CTEQ5L-LO_HardQCDSelectionGluon_230To300_2017-02-06-103716
8868.67 seconds 2.46352 hours CTEQ5L-LO_HardQCDSelectionGluon_230To300_2017-02-06-103716
8852.93 seconds 2.45915 hours CTEQ5L-LO_HardQCDSelectionGluon_230To300_2017-02-06-103716
8822.09 seconds 2.45058 hours CTEQ5L-LO_HardQCDSelectionGluon_230To300_2017-02-06-103716
7589.29 seconds 2.10814 hours CTEQ5L-LO_HardQCDSelectionGluon_230To300_2017-02-06-103716
8943.19 seconds 2.48422 hours CTEQ5L-LO_HardQCDSelectionGluon_230To300_2017-02-06-103716
8922.39 seconds 2.47844 hours CTEQ5L-LO_HardQCDSelectionGluon_230To300_2017-02-06-103716
8984.19 seconds 2.49561 hours CTEQ5L-LO_HardQCDSelectionGluon_230To300_2017-02-06-103716
8928.85 seconds 2.48024 hours CTEQ5L-LO_HardQCDSelectionGluon_230To300_2017-02-06-103716
8994.53 seconds 2.49848 hours CTEQ5L-LO_HardQCDSelectionGluon_230To300_2017-02-06-103716


9003.66 seconds 2.50102 hours CTEQ5L-LO_HardQCDSelectionGluon_300To380_2017-02-06-103716
9369.53 seconds 2.60265 hours CTEQ5L-LO_HardQCDSelectionGluon_300To380_2017-02-06-103716
8213.4 seconds 2.2815 hours CTEQ5L-LO_HardQCDSelectionGluon_300To380_2017-02-06-103716
7871.95 seconds 2.18665 hours CTEQ5L-LO_HardQCDSelectionGluon_300To380_2017-02-06-103716
8893.12 seconds 2.47031 hours CTEQ5L-LO_HardQCDSelectionGluon_300To380_2017-02-06-103716
8849.56 seconds 2.45821 hours CTEQ5L-LO_HardQCDSelectionGluon_300To380_2017-02-06-103716
9065.02 seconds 2.51806 hours CTEQ5L-LO_HardQCDSelectionGluon_300To380_2017-02-06-103716
6225.31 seconds 1.72925 hours CTEQ5L-LO_HardQCDSelectionGluon_300To380_2017-02-06-103716
6410.5 seconds 1.78069 hours CTEQ5L-LO_HardQCDSelectionGluon_300To380_2017-02-06-103716
6428.66 seconds 1.78574 hours CTEQ5L-LO_HardQCDSelectionGluon_300To380_2017-02-06-103716
6683.93 seconds 1.85665 hours CTEQ5L-LO_HardQCDSelectionGluon_300To380_2017-02-06-103716
7902.66 seconds 2.19518 hours CTEQ5L-LO_HardQCDSelectionGluon_300To380_2017-02-06-103716
8950.97 seconds 2.48638 hours CTEQ5L-LO_HardQCDSelectionGluon_300To380_2017-02-06-103716
7925.61 seconds 2.20156 hours CTEQ5L-LO_HardQCDSelectionGluon_300To380_2017-02-06-103716
7681.3 seconds 2.13369 hours CTEQ5L-LO_HardQCDSelectionGluon_300To380_2017-02-06-103716
9072.38 seconds 2.52011 hours CTEQ5L-LO_HardQCDSelectionGluon_300To380_2017-02-06-103716
9142.07 seconds 2.53946 hours CTEQ5L-LO_HardQCDSelectionGluon_300To380_2017-02-06-103716
9057.45 seconds 2.51596 hours CTEQ5L-LO_HardQCDSelectionGluon_300To380_2017-02-06-103716
8725.53 seconds 2.42376 hours CTEQ5L-LO_HardQCDSelectionGluon_300To380_2017-02-06-103716
8979.43 seconds 2.49429 hours CTEQ5L-LO_HardQCDSelectionGluon_300To380_2017-02-06-103716


6354.73 seconds 1.7652 hours CTEQ5L-LO_HardQCDSelectionGluon_30To50_2017-02-06-103716
7998.44 seconds 2.22179 hours CTEQ5L-LO_HardQCDSelectionGluon_30To50_2017-02-06-103716
5340.24 seconds 1.4834 hours CTEQ5L-LO_HardQCDSelectionGluon_30To50_2017-02-06-103716
5797.96 seconds 1.61054 hours CTEQ5L-LO_HardQCDSelectionGluon_30To50_2017-02-06-103716
5827.34 seconds 1.61871 hours CTEQ5L-LO_HardQCDSelectionGluon_30To50_2017-02-06-103716
5938.08 seconds 1.64947 hours CTEQ5L-LO_HardQCDSelectionGluon_30To50_2017-02-06-103716
5361.96 seconds 1.48943 hours CTEQ5L-LO_HardQCDSelectionGluon_30To50_2017-02-06-103716
5770.63 seconds 1.60295 hours CTEQ5L-LO_HardQCDSelectionGluon_30To50_2017-02-06-103716
5507.73 seconds 1.52992 hours CTEQ5L-LO_HardQCDSelectionGluon_30To50_2017-02-06-103716
5559.45 seconds 1.54429 hours CTEQ5L-LO_HardQCDSelectionGluon_30To50_2017-02-06-103716
5424.73 seconds 1.50687 hours CTEQ5L-LO_HardQCDSelectionGluon_30To50_2017-02-06-103716
6299.98 seconds 1.74999 hours CTEQ5L-LO_HardQCDSelectionGluon_30To50_2017-02-06-103716
5719.9 seconds 1.58886 hours CTEQ5L-LO_HardQCDSelectionGluon_30To50_2017-02-06-103716
6397.66 seconds 1.77713 hours CTEQ5L-LO_HardQCDSelectionGluon_30To50_2017-02-06-103716
5311.79 seconds 1.4755 hours CTEQ5L-LO_HardQCDSelectionGluon_30To50_2017-02-06-103716
5504.64 seconds 1.52907 hours CTEQ5L-LO_HardQCDSelectionGluon_30To50_2017-02-06-103716
5500.78 seconds 1.52799 hours CTEQ5L-LO_HardQCDSelectionGluon_30To50_2017-02-06-103716
7948.5 seconds 2.20792 hours CTEQ5L-LO_HardQCDSelectionGluon_30To50_2017-02-06-103716
8033.56 seconds 2.23154 hours CTEQ5L-LO_HardQCDSelectionGluon_30To50_2017-02-06-103716
8119.46 seconds 2.25541 hours CTEQ5L-LO_HardQCDSelectionGluon_30To50_2017-02-06-103716


8002.56 seconds 2.22293 hours CTEQ5L-LO_HardQCDSelectionGluon_380To10000_2017-02-06-103716
9188.11 seconds 2.55225 hours CTEQ5L-LO_HardQCDSelectionGluon_380To10000_2017-02-06-103716
9527.07 seconds 2.64641 hours CTEQ5L-LO_HardQCDSelectionGluon_380To10000_2017-02-06-103716
9215.31 seconds 2.55981 hours CTEQ5L-LO_HardQCDSelectionGluon_380To10000_2017-02-06-103716
9104.06 seconds 2.52891 hours CTEQ5L-LO_HardQCDSelectionGluon_380To10000_2017-02-06-103716
6344.51 seconds 1.76236 hours CTEQ5L-LO_HardQCDSelectionGluon_380To10000_2017-02-06-103716
6422.89 seconds 1.78414 hours CTEQ5L-LO_HardQCDSelectionGluon_380To10000_2017-02-06-103716
6426.7 seconds 1.78519 hours CTEQ5L-LO_HardQCDSelectionGluon_380To10000_2017-02-06-103716
6255.2 seconds 1.73756 hours CTEQ5L-LO_HardQCDSelectionGluon_380To10000_2017-02-06-103716
6291.61 seconds 1.74767 hours CTEQ5L-LO_HardQCDSelectionGluon_380To10000_2017-02-06-103716
7872.89 seconds 2.18691 hours CTEQ5L-LO_HardQCDSelectionGluon_380To10000_2017-02-06-103716
7944.83 seconds 2.2069 hours CTEQ5L-LO_HardQCDSelectionGluon_380To10000_2017-02-06-103716
8164.25 seconds 2.26785 hours CTEQ5L-LO_HardQCDSelectionGluon_380To10000_2017-02-06-103716
7706.03 seconds 2.14056 hours CTEQ5L-LO_HardQCDSelectionGluon_380To10000_2017-02-06-103716
8059.93 seconds 2.23887 hours CTEQ5L-LO_HardQCDSelectionGluon_380To10000_2017-02-06-103716
9260.68 seconds 2.57241 hours CTEQ5L-LO_HardQCDSelectionGluon_380To10000_2017-02-06-103716
9245.86 seconds 2.56829 hours CTEQ5L-LO_HardQCDSelectionGluon_380To10000_2017-02-06-103716
8986.74 seconds 2.49632 hours CTEQ5L-LO_HardQCDSelectionGluon_380To10000_2017-02-06-103716
9426.73 seconds 2.61854 hours CTEQ5L-LO_HardQCDSelectionGluon_380To10000_2017-02-06-103716
9241.38 seconds 2.56705 hours CTEQ5L-LO_HardQCDSelectionGluon_380To10000_2017-02-06-103716


5826.95 seconds 1.6186 hours CTEQ5L-LO_HardQCDSelectionGluon_50To80_2017-02-06-103716
6390.1 seconds 1.77503 hours CTEQ5L-LO_HardQCDSelectionGluon_50To80_2017-02-06-103716
6478.68 seconds 1.79963 hours CTEQ5L-LO_HardQCDSelectionGluon_50To80_2017-02-06-103716
6475.35 seconds 1.79871 hours CTEQ5L-LO_HardQCDSelectionGluon_50To80_2017-02-06-103716
5468.32 seconds 1.51898 hours CTEQ5L-LO_HardQCDSelectionGluon_50To80_2017-02-06-103716
5850.88 seconds 1.62524 hours CTEQ5L-LO_HardQCDSelectionGluon_50To80_2017-02-06-103716
6106.4 seconds 1.69622 hours CTEQ5L-LO_HardQCDSelectionGluon_50To80_2017-02-06-103716
5598.14 seconds 1.55504 hours CTEQ5L-LO_HardQCDSelectionGluon_50To80_2017-02-06-103716
5544.3 seconds 1.54008 hours CTEQ5L-LO_HardQCDSelectionGluon_50To80_2017-02-06-103716
5641.77 seconds 1.56716 hours CTEQ5L-LO_HardQCDSelectionGluon_50To80_2017-02-06-103716
5708.7 seconds 1.58575 hours CTEQ5L-LO_HardQCDSelectionGluon_50To80_2017-02-06-103716
5881.57 seconds 1.63377 hours CTEQ5L-LO_HardQCDSelectionGluon_50To80_2017-02-06-103716
5726.29 seconds 1.59064 hours CTEQ5L-LO_HardQCDSelectionGluon_50To80_2017-02-06-103716
5849.95 seconds 1.62499 hours CTEQ5L-LO_HardQCDSelectionGluon_50To80_2017-02-06-103716
5893.56 seconds 1.6371 hours CTEQ5L-LO_HardQCDSelectionGluon_50To80_2017-02-06-103716
5817.66 seconds 1.61602 hours CTEQ5L-LO_HardQCDSelectionGluon_50To80_2017-02-06-103716
8390.78 seconds 2.33077 hours CTEQ5L-LO_HardQCDSelectionGluon_50To80_2017-02-06-103716
8379.99 seconds 2.32777 hours CTEQ5L-LO_HardQCDSelectionGluon_50To80_2017-02-06-103716
8480.77 seconds 2.35577 hours CTEQ5L-LO_HardQCDSelectionGluon_50To80_2017-02-06-103716
8388.21 seconds 2.33006 hours CTEQ5L-LO_HardQCDSelectionGluon_50To80_2017-02-06-103716


5963.28 seconds 1.65647 hours CTEQ5L-LO_HardQCDSelectionGluon_80To120_2017-02-06-103716
7454.86 seconds 2.07079 hours CTEQ5L-LO_HardQCDSelectionGluon_80To120_2017-02-06-103716
6135.74 seconds 1.70437 hours CTEQ5L-LO_HardQCDSelectionGluon_80To120_2017-02-06-103716
5942.51 seconds 1.6507 hours CTEQ5L-LO_HardQCDSelectionGluon_80To120_2017-02-06-103716
6110.01 seconds 1.69722 hours CTEQ5L-LO_HardQCDSelectionGluon_80To120_2017-02-06-103716
5943.85 seconds 1.65107 hours CTEQ5L-LO_HardQCDSelectionGluon_80To120_2017-02-06-103716
6014.22 seconds 1.67062 hours CTEQ5L-LO_HardQCDSelectionGluon_80To120_2017-02-06-103716
5816.55 seconds 1.61571 hours CTEQ5L-LO_HardQCDSelectionGluon_80To120_2017-02-06-103716
8863.45 seconds 2.46207 hours CTEQ5L-LO_HardQCDSelectionGluon_80To120_2017-02-06-103716
5822.03 seconds 1.61723 hours CTEQ5L-LO_HardQCDSelectionGluon_80To120_2017-02-06-103716
5884.17 seconds 1.63449 hours CTEQ5L-LO_HardQCDSelectionGluon_80To120_2017-02-06-103716
5897.26 seconds 1.63813 hours CTEQ5L-LO_HardQCDSelectionGluon_80To120_2017-02-06-103716
5883.64 seconds 1.63434 hours CTEQ5L-LO_HardQCDSelectionGluon_80To120_2017-02-06-103716
5809.55 seconds 1.61376 hours CTEQ5L-LO_HardQCDSelectionGluon_80To120_2017-02-06-103716
5814.82 seconds 1.61523 hours CTEQ5L-LO_HardQCDSelectionGluon_80To120_2017-02-06-103716
8635.85 seconds 2.39885 hours CTEQ5L-LO_HardQCDSelectionGluon_80To120_2017-02-06-103716
8855.8 seconds 2.45994 hours CTEQ5L-LO_HardQCDSelectionGluon_80To120_2017-02-06-103716
8558.41 seconds 2.37734 hours CTEQ5L-LO_HardQCDSelectionGluon_80To120_2017-02-06-103716
8976.82 seconds 2.49356 hours CTEQ5L-LO_HardQCDSelectionGluon_80To120_2017-02-06-103716
8804.98 seconds 2.44583 hours CTEQ5L-LO_HardQCDSelectionGluon_80To120_2017-02-06-103716




