

Time taken to complete the job, Statistics
==========================================
6630.59 seconds 1.84183 hours CTEQ5L-LO_HardQCDSelectionQuark_10To20_2017-02-06-105319
6853.56 seconds 1.90377 hours CTEQ5L-LO_HardQCDSelectionQuark_10To20_2017-02-06-105319
6779.91 seconds 1.88331 hours CTEQ5L-LO_HardQCDSelectionQuark_10To20_2017-02-06-105319
7382.49 seconds 2.05069 hours CTEQ5L-LO_HardQCDSelectionQuark_10To20_2017-02-06-105319
6859.83 seconds 1.90551 hours CTEQ5L-LO_HardQCDSelectionQuark_10To20_2017-02-06-105319
7627.96 seconds 2.11888 hours CTEQ5L-LO_HardQCDSelectionQuark_10To20_2017-02-06-105319
7001.18 seconds 1.94477 hours CTEQ5L-LO_HardQCDSelectionQuark_10To20_2017-02-06-105319
6723.23 seconds 1.86756 hours CTEQ5L-LO_HardQCDSelectionQuark_10To20_2017-02-06-105319
5730.44 seconds 1.59179 hours CTEQ5L-LO_HardQCDSelectionQuark_10To20_2017-02-06-105319
5976.42 seconds 1.66012 hours CTEQ5L-LO_HardQCDSelectionQuark_10To20_2017-02-06-105319
6988.89 seconds 1.94136 hours CTEQ5L-LO_HardQCDSelectionQuark_10To20_2017-02-06-105319
6776.94 seconds 1.88248 hours CTEQ5L-LO_HardQCDSelectionQuark_10To20_2017-02-06-105319
7208.62 seconds 2.00239 hours CTEQ5L-LO_HardQCDSelectionQuark_10To20_2017-02-06-105319
6737.46 seconds 1.87152 hours CTEQ5L-LO_HardQCDSelectionQuark_10To20_2017-02-06-105319
6774.38 seconds 1.88177 hours CTEQ5L-LO_HardQCDSelectionQuark_10To20_2017-02-06-105319
6930.53 seconds 1.92515 hours CTEQ5L-LO_HardQCDSelectionQuark_10To20_2017-02-06-105319
6872 seconds 1.90889 hours CTEQ5L-LO_HardQCDSelectionQuark_10To20_2017-02-06-105319
6855.96 seconds 1.90443 hours CTEQ5L-LO_HardQCDSelectionQuark_10To20_2017-02-06-105319
6769.29 seconds 1.88036 hours CTEQ5L-LO_HardQCDSelectionQuark_10To20_2017-02-06-105319
6812.9 seconds 1.89247 hours CTEQ5L-LO_HardQCDSelectionQuark_10To20_2017-02-06-105319


5828.01 seconds 1.61889 hours CTEQ5L-LO_HardQCDSelectionQuark_120To170_2017-02-06-105319
5091.21 seconds 1.41423 hours CTEQ5L-LO_HardQCDSelectionQuark_120To170_2017-02-06-105319
7354.29 seconds 2.04286 hours CTEQ5L-LO_HardQCDSelectionQuark_120To170_2017-02-06-105319
7467.6 seconds 2.07433 hours CTEQ5L-LO_HardQCDSelectionQuark_120To170_2017-02-06-105319
7543.12 seconds 2.09531 hours CTEQ5L-LO_HardQCDSelectionQuark_120To170_2017-02-06-105319
7305.92 seconds 2.02942 hours CTEQ5L-LO_HardQCDSelectionQuark_120To170_2017-02-06-105319
5054.19 seconds 1.40394 hours CTEQ5L-LO_HardQCDSelectionQuark_120To170_2017-02-06-105319
5010.62 seconds 1.39184 hours CTEQ5L-LO_HardQCDSelectionQuark_120To170_2017-02-06-105319
5117.89 seconds 1.42164 hours CTEQ5L-LO_HardQCDSelectionQuark_120To170_2017-02-06-105319
5132.21 seconds 1.42561 hours CTEQ5L-LO_HardQCDSelectionQuark_120To170_2017-02-06-105319
4995.45 seconds 1.38762 hours CTEQ5L-LO_HardQCDSelectionQuark_120To170_2017-02-06-105319
5630.7 seconds 1.56408 hours CTEQ5L-LO_HardQCDSelectionQuark_120To170_2017-02-06-105319
5015.4 seconds 1.39317 hours CTEQ5L-LO_HardQCDSelectionQuark_120To170_2017-02-06-105319
5574.02 seconds 1.54834 hours CTEQ5L-LO_HardQCDSelectionQuark_120To170_2017-02-06-105319
5054.99 seconds 1.40416 hours CTEQ5L-LO_HardQCDSelectionQuark_120To170_2017-02-06-105319
4976.08 seconds 1.38224 hours CTEQ5L-LO_HardQCDSelectionQuark_120To170_2017-02-06-105319
5066.95 seconds 1.40749 hours CTEQ5L-LO_HardQCDSelectionQuark_120To170_2017-02-06-105319
4965.63 seconds 1.37934 hours CTEQ5L-LO_HardQCDSelectionQuark_120To170_2017-02-06-105319
5144.61 seconds 1.42906 hours CTEQ5L-LO_HardQCDSelectionQuark_120To170_2017-02-06-105319
5054.98 seconds 1.40416 hours CTEQ5L-LO_HardQCDSelectionQuark_120To170_2017-02-06-105319


5051.37 seconds 1.40316 hours CTEQ5L-LO_HardQCDSelectionQuark_170To230_2017-02-06-105319
7280.01 seconds 2.02223 hours CTEQ5L-LO_HardQCDSelectionQuark_170To230_2017-02-06-105319
7676 seconds 2.13222 hours CTEQ5L-LO_HardQCDSelectionQuark_170To230_2017-02-06-105319
6586.76 seconds 1.82966 hours CTEQ5L-LO_HardQCDSelectionQuark_170To230_2017-02-06-105319
5175.72 seconds 1.4377 hours CTEQ5L-LO_HardQCDSelectionQuark_170To230_2017-02-06-105319
5017.02 seconds 1.39362 hours CTEQ5L-LO_HardQCDSelectionQuark_170To230_2017-02-06-105319
4998.93 seconds 1.38859 hours CTEQ5L-LO_HardQCDSelectionQuark_170To230_2017-02-06-105319
4984 seconds 1.38444 hours CTEQ5L-LO_HardQCDSelectionQuark_170To230_2017-02-06-105319
4947.72 seconds 1.37437 hours CTEQ5L-LO_HardQCDSelectionQuark_170To230_2017-02-06-105319
4900.52 seconds 1.36126 hours CTEQ5L-LO_HardQCDSelectionQuark_170To230_2017-02-06-105319
5330.6 seconds 1.48072 hours CTEQ5L-LO_HardQCDSelectionQuark_170To230_2017-02-06-105319
5118.84 seconds 1.4219 hours CTEQ5L-LO_HardQCDSelectionQuark_170To230_2017-02-06-105319
5100.13 seconds 1.4167 hours CTEQ5L-LO_HardQCDSelectionQuark_170To230_2017-02-06-105319
5202.69 seconds 1.44519 hours CTEQ5L-LO_HardQCDSelectionQuark_170To230_2017-02-06-105319
5340.57 seconds 1.48349 hours CTEQ5L-LO_HardQCDSelectionQuark_170To230_2017-02-06-105319
5716.78 seconds 1.58799 hours CTEQ5L-LO_HardQCDSelectionQuark_170To230_2017-02-06-105319
5688.14 seconds 1.58004 hours CTEQ5L-LO_HardQCDSelectionQuark_170To230_2017-02-06-105319
5672.35 seconds 1.57565 hours CTEQ5L-LO_HardQCDSelectionQuark_170To230_2017-02-06-105319
5514.85 seconds 1.5319 hours CTEQ5L-LO_HardQCDSelectionQuark_170To230_2017-02-06-105319
5287.77 seconds 1.46883 hours CTEQ5L-LO_HardQCDSelectionQuark_170To230_2017-02-06-105319


4930.47 seconds 1.36957 hours CTEQ5L-LO_HardQCDSelectionQuark_20To30_2017-02-06-105319
5168.94 seconds 1.43582 hours CTEQ5L-LO_HardQCDSelectionQuark_20To30_2017-02-06-105319
5080.02 seconds 1.41112 hours CTEQ5L-LO_HardQCDSelectionQuark_20To30_2017-02-06-105319
4882.21 seconds 1.35617 hours CTEQ5L-LO_HardQCDSelectionQuark_20To30_2017-02-06-105319
5726.33 seconds 1.59065 hours CTEQ5L-LO_HardQCDSelectionQuark_20To30_2017-02-06-105319
5528.16 seconds 1.5356 hours CTEQ5L-LO_HardQCDSelectionQuark_20To30_2017-02-06-105319
7118.38 seconds 1.97733 hours CTEQ5L-LO_HardQCDSelectionQuark_20To30_2017-02-06-105319
6294.53 seconds 1.74848 hours CTEQ5L-LO_HardQCDSelectionQuark_20To30_2017-02-06-105319
6229.43 seconds 1.7304 hours CTEQ5L-LO_HardQCDSelectionQuark_20To30_2017-02-06-105319
6256.29 seconds 1.73786 hours CTEQ5L-LO_HardQCDSelectionQuark_20To30_2017-02-06-105319
6213.19 seconds 1.72589 hours CTEQ5L-LO_HardQCDSelectionQuark_20To30_2017-02-06-105319
7313.4 seconds 2.0315 hours CTEQ5L-LO_HardQCDSelectionQuark_20To30_2017-02-06-105319
7141.02 seconds 1.98362 hours CTEQ5L-LO_HardQCDSelectionQuark_20To30_2017-02-06-105319
7013.56 seconds 1.94821 hours CTEQ5L-LO_HardQCDSelectionQuark_20To30_2017-02-06-105319
7200.79 seconds 2.00022 hours CTEQ5L-LO_HardQCDSelectionQuark_20To30_2017-02-06-105319
6957.23 seconds 1.93256 hours CTEQ5L-LO_HardQCDSelectionQuark_20To30_2017-02-06-105319
5184.75 seconds 1.44021 hours CTEQ5L-LO_HardQCDSelectionQuark_20To30_2017-02-06-105319
5118.02 seconds 1.42167 hours CTEQ5L-LO_HardQCDSelectionQuark_20To30_2017-02-06-105319
5272.54 seconds 1.46459 hours CTEQ5L-LO_HardQCDSelectionQuark_20To30_2017-02-06-105319
5193.79 seconds 1.44272 hours CTEQ5L-LO_HardQCDSelectionQuark_20To30_2017-02-06-105319


5104.05 seconds 1.41779 hours CTEQ5L-LO_HardQCDSelectionQuark_230To300_2017-02-06-105319
5049.03 seconds 1.40251 hours CTEQ5L-LO_HardQCDSelectionQuark_230To300_2017-02-06-105319
5136.74 seconds 1.42687 hours CTEQ5L-LO_HardQCDSelectionQuark_230To300_2017-02-06-105319
5008.63 seconds 1.39129 hours CTEQ5L-LO_HardQCDSelectionQuark_230To300_2017-02-06-105319
4988.58 seconds 1.38572 hours CTEQ5L-LO_HardQCDSelectionQuark_230To300_2017-02-06-105319
5670.33 seconds 1.57509 hours CTEQ5L-LO_HardQCDSelectionQuark_230To300_2017-02-06-105319
3445.12 seconds 0.956978 hours CTEQ5L-LO_HardQCDSelectionQuark_230To300_2017-02-06-105319
5647.86 seconds 1.56885 hours CTEQ5L-LO_HardQCDSelectionQuark_230To300_2017-02-06-105319
5683.46 seconds 1.57874 hours CTEQ5L-LO_HardQCDSelectionQuark_230To300_2017-02-06-105319
5707.74 seconds 1.58548 hours CTEQ5L-LO_HardQCDSelectionQuark_230To300_2017-02-06-105319
5610.14 seconds 1.55837 hours CTEQ5L-LO_HardQCDSelectionQuark_230To300_2017-02-06-105319
5068.82 seconds 1.40801 hours CTEQ5L-LO_HardQCDSelectionQuark_230To300_2017-02-06-105319
5743.17 seconds 1.59533 hours CTEQ5L-LO_HardQCDSelectionQuark_230To300_2017-02-06-105319
5068.73 seconds 1.40798 hours CTEQ5L-LO_HardQCDSelectionQuark_230To300_2017-02-06-105319
5142.89 seconds 1.42858 hours CTEQ5L-LO_HardQCDSelectionQuark_230To300_2017-02-06-105319
5730.48 seconds 1.5918 hours CTEQ5L-LO_HardQCDSelectionQuark_230To300_2017-02-06-105319
5696.26 seconds 1.58229 hours CTEQ5L-LO_HardQCDSelectionQuark_230To300_2017-02-06-105319
5645.99 seconds 1.56833 hours CTEQ5L-LO_HardQCDSelectionQuark_230To300_2017-02-06-105319
5825.36 seconds 1.61816 hours CTEQ5L-LO_HardQCDSelectionQuark_230To300_2017-02-06-105319
5116.07 seconds 1.42113 hours CTEQ5L-LO_HardQCDSelectionQuark_230To300_2017-02-06-105319


5673.3 seconds 1.57592 hours CTEQ5L-LO_HardQCDSelectionQuark_300To380_2017-02-06-105319
5183.46 seconds 1.43985 hours CTEQ5L-LO_HardQCDSelectionQuark_300To380_2017-02-06-105319
5210.52 seconds 1.44737 hours CTEQ5L-LO_HardQCDSelectionQuark_300To380_2017-02-06-105319
5076.49 seconds 1.41014 hours CTEQ5L-LO_HardQCDSelectionQuark_300To380_2017-02-06-105319
5602.45 seconds 1.55624 hours CTEQ5L-LO_HardQCDSelectionQuark_300To380_2017-02-06-105319
5583.23 seconds 1.5509 hours CTEQ5L-LO_HardQCDSelectionQuark_300To380_2017-02-06-105319
4942.74 seconds 1.37298 hours CTEQ5L-LO_HardQCDSelectionQuark_300To380_2017-02-06-105319
5054.9 seconds 1.40414 hours CTEQ5L-LO_HardQCDSelectionQuark_300To380_2017-02-06-105319
5071.27 seconds 1.40869 hours CTEQ5L-LO_HardQCDSelectionQuark_300To380_2017-02-06-105319
5045.83 seconds 1.40162 hours CTEQ5L-LO_HardQCDSelectionQuark_300To380_2017-02-06-105319
5167.07 seconds 1.4353 hours CTEQ5L-LO_HardQCDSelectionQuark_300To380_2017-02-06-105319
5809.95 seconds 1.61387 hours CTEQ5L-LO_HardQCDSelectionQuark_300To380_2017-02-06-105319
5072.74 seconds 1.40909 hours CTEQ5L-LO_HardQCDSelectionQuark_300To380_2017-02-06-105319
5610.99 seconds 1.55861 hours CTEQ5L-LO_HardQCDSelectionQuark_300To380_2017-02-06-105319
5720.66 seconds 1.58907 hours CTEQ5L-LO_HardQCDSelectionQuark_300To380_2017-02-06-105319
5737.78 seconds 1.59383 hours CTEQ5L-LO_HardQCDSelectionQuark_300To380_2017-02-06-105319
5602.33 seconds 1.5562 hours CTEQ5L-LO_HardQCDSelectionQuark_300To380_2017-02-06-105319
5603.98 seconds 1.55666 hours CTEQ5L-LO_HardQCDSelectionQuark_300To380_2017-02-06-105319
7217.58 seconds 2.00488 hours CTEQ5L-LO_HardQCDSelectionQuark_300To380_2017-02-06-105319
5157.63 seconds 1.43267 hours CTEQ5L-LO_HardQCDSelectionQuark_300To380_2017-02-06-105319


7167.84 seconds 1.99107 hours CTEQ5L-LO_HardQCDSelectionQuark_30To50_2017-02-06-105319
5496.21 seconds 1.52673 hours CTEQ5L-LO_HardQCDSelectionQuark_30To50_2017-02-06-105319
5472.87 seconds 1.52024 hours CTEQ5L-LO_HardQCDSelectionQuark_30To50_2017-02-06-105319
5380.82 seconds 1.49467 hours CTEQ5L-LO_HardQCDSelectionQuark_30To50_2017-02-06-105319
5382.49 seconds 1.49514 hours CTEQ5L-LO_HardQCDSelectionQuark_30To50_2017-02-06-105319
7098.66 seconds 1.97185 hours CTEQ5L-LO_HardQCDSelectionQuark_30To50_2017-02-06-105319
7486.09 seconds 2.07947 hours CTEQ5L-LO_HardQCDSelectionQuark_30To50_2017-02-06-105319
7019.19 seconds 1.94977 hours CTEQ5L-LO_HardQCDSelectionQuark_30To50_2017-02-06-105319
7268.95 seconds 2.01915 hours CTEQ5L-LO_HardQCDSelectionQuark_30To50_2017-02-06-105319
7112.19 seconds 1.97561 hours CTEQ5L-LO_HardQCDSelectionQuark_30To50_2017-02-06-105319
6413.68 seconds 1.78158 hours CTEQ5L-LO_HardQCDSelectionQuark_30To50_2017-02-06-105319
7307.93 seconds 2.02998 hours CTEQ5L-LO_HardQCDSelectionQuark_30To50_2017-02-06-105319
6334.91 seconds 1.7597 hours CTEQ5L-LO_HardQCDSelectionQuark_30To50_2017-02-06-105319
7122.3 seconds 1.97842 hours CTEQ5L-LO_HardQCDSelectionQuark_30To50_2017-02-06-105319
5663.52 seconds 1.5732 hours CTEQ5L-LO_HardQCDSelectionQuark_30To50_2017-02-06-105319
5619.92 seconds 1.56109 hours CTEQ5L-LO_HardQCDSelectionQuark_30To50_2017-02-06-105319
4876.31 seconds 1.35453 hours CTEQ5L-LO_HardQCDSelectionQuark_30To50_2017-02-06-105319
4939.98 seconds 1.37222 hours CTEQ5L-LO_HardQCDSelectionQuark_30To50_2017-02-06-105319
5304.15 seconds 1.47337 hours CTEQ5L-LO_HardQCDSelectionQuark_30To50_2017-02-06-105319
5036.93 seconds 1.39915 hours CTEQ5L-LO_HardQCDSelectionQuark_30To50_2017-02-06-105319


5104.1 seconds 1.41781 hours CTEQ5L-LO_HardQCDSelectionQuark_380To10000_2017-02-06-105319
5408.28 seconds 1.5023 hours CTEQ5L-LO_HardQCDSelectionQuark_380To10000_2017-02-06-105319
5279.27 seconds 1.46646 hours CTEQ5L-LO_HardQCDSelectionQuark_380To10000_2017-02-06-105319
5355.38 seconds 1.48761 hours CTEQ5L-LO_HardQCDSelectionQuark_380To10000_2017-02-06-105319
4747.57 seconds 1.31877 hours CTEQ5L-LO_HardQCDSelectionQuark_380To10000_2017-02-06-105319
4930.54 seconds 1.36959 hours CTEQ5L-LO_HardQCDSelectionQuark_380To10000_2017-02-06-105319
4757.32 seconds 1.32148 hours CTEQ5L-LO_HardQCDSelectionQuark_380To10000_2017-02-06-105319
4781.56 seconds 1.32821 hours CTEQ5L-LO_HardQCDSelectionQuark_380To10000_2017-02-06-105319
4873.78 seconds 1.35383 hours CTEQ5L-LO_HardQCDSelectionQuark_380To10000_2017-02-06-105319
4937.44 seconds 1.37151 hours CTEQ5L-LO_HardQCDSelectionQuark_380To10000_2017-02-06-105319
4880.96 seconds 1.35582 hours CTEQ5L-LO_HardQCDSelectionQuark_380To10000_2017-02-06-105319
4996.5 seconds 1.38792 hours CTEQ5L-LO_HardQCDSelectionQuark_380To10000_2017-02-06-105319
4825.23 seconds 1.34034 hours CTEQ5L-LO_HardQCDSelectionQuark_380To10000_2017-02-06-105319
4871.52 seconds 1.3532 hours CTEQ5L-LO_HardQCDSelectionQuark_380To10000_2017-02-06-105319
4836.77 seconds 1.34355 hours CTEQ5L-LO_HardQCDSelectionQuark_380To10000_2017-02-06-105319
4927.95 seconds 1.36887 hours CTEQ5L-LO_HardQCDSelectionQuark_380To10000_2017-02-06-105319
4829.3 seconds 1.34147 hours CTEQ5L-LO_HardQCDSelectionQuark_380To10000_2017-02-06-105319
7087.86 seconds 1.96885 hours CTEQ5L-LO_HardQCDSelectionQuark_380To10000_2017-02-06-105319
5439.94 seconds 1.51109 hours CTEQ5L-LO_HardQCDSelectionQuark_380To10000_2017-02-06-105319
5357.87 seconds 1.4883 hours CTEQ5L-LO_HardQCDSelectionQuark_380To10000_2017-02-06-105319


6477.22 seconds 1.79923 hours CTEQ5L-LO_HardQCDSelectionQuark_50To80_2017-02-06-105319
5016.59 seconds 1.3935 hours CTEQ5L-LO_HardQCDSelectionQuark_50To80_2017-02-06-105319
5003.98 seconds 1.38999 hours CTEQ5L-LO_HardQCDSelectionQuark_50To80_2017-02-06-105319
5171.64 seconds 1.43657 hours CTEQ5L-LO_HardQCDSelectionQuark_50To80_2017-02-06-105319
7164.37 seconds 1.9901 hours CTEQ5L-LO_HardQCDSelectionQuark_50To80_2017-02-06-105319
7190.06 seconds 1.99724 hours CTEQ5L-LO_HardQCDSelectionQuark_50To80_2017-02-06-105319
7114.3 seconds 1.97619 hours CTEQ5L-LO_HardQCDSelectionQuark_50To80_2017-02-06-105319
7275.76 seconds 2.02104 hours CTEQ5L-LO_HardQCDSelectionQuark_50To80_2017-02-06-105319
7473.7 seconds 2.07603 hours CTEQ5L-LO_HardQCDSelectionQuark_50To80_2017-02-06-105319
7291.33 seconds 2.02537 hours CTEQ5L-LO_HardQCDSelectionQuark_50To80_2017-02-06-105319
7257.88 seconds 2.01608 hours CTEQ5L-LO_HardQCDSelectionQuark_50To80_2017-02-06-105319
7237.75 seconds 2.01049 hours CTEQ5L-LO_HardQCDSelectionQuark_50To80_2017-02-06-105319
7151.12 seconds 1.98642 hours CTEQ5L-LO_HardQCDSelectionQuark_50To80_2017-02-06-105319
7420.09 seconds 2.06114 hours CTEQ5L-LO_HardQCDSelectionQuark_50To80_2017-02-06-105319
7328.04 seconds 2.03557 hours CTEQ5L-LO_HardQCDSelectionQuark_50To80_2017-02-06-105319
7424.35 seconds 2.06232 hours CTEQ5L-LO_HardQCDSelectionQuark_50To80_2017-02-06-105319
7306.05 seconds 2.02946 hours CTEQ5L-LO_HardQCDSelectionQuark_50To80_2017-02-06-105319
7336.16 seconds 2.03782 hours CTEQ5L-LO_HardQCDSelectionQuark_50To80_2017-02-06-105319
5724.17 seconds 1.59005 hours CTEQ5L-LO_HardQCDSelectionQuark_50To80_2017-02-06-105319
4979.11 seconds 1.38309 hours CTEQ5L-LO_HardQCDSelectionQuark_50To80_2017-02-06-105319


7129.14 seconds 1.98032 hours CTEQ5L-LO_HardQCDSelectionQuark_80To120_2017-02-06-105319
5685.6 seconds 1.57933 hours CTEQ5L-LO_HardQCDSelectionQuark_80To120_2017-02-06-105319
5864.61 seconds 1.62906 hours CTEQ5L-LO_HardQCDSelectionQuark_80To120_2017-02-06-105319
7161.59 seconds 1.98933 hours CTEQ5L-LO_HardQCDSelectionQuark_80To120_2017-02-06-105319
7434.72 seconds 2.0652 hours CTEQ5L-LO_HardQCDSelectionQuark_80To120_2017-02-06-105319
7614.24 seconds 2.11507 hours CTEQ5L-LO_HardQCDSelectionQuark_80To120_2017-02-06-105319
7467.38 seconds 2.07427 hours CTEQ5L-LO_HardQCDSelectionQuark_80To120_2017-02-06-105319
7287.88 seconds 2.02441 hours CTEQ5L-LO_HardQCDSelectionQuark_80To120_2017-02-06-105319
6742.72 seconds 1.87298 hours CTEQ5L-LO_HardQCDSelectionQuark_80To120_2017-02-06-105319
5671.11 seconds 1.57531 hours CTEQ5L-LO_HardQCDSelectionQuark_80To120_2017-02-06-105319
5793 seconds 1.60917 hours CTEQ5L-LO_HardQCDSelectionQuark_80To120_2017-02-06-105319
7457.73 seconds 2.07159 hours CTEQ5L-LO_HardQCDSelectionQuark_80To120_2017-02-06-105319
5491.59 seconds 1.52544 hours CTEQ5L-LO_HardQCDSelectionQuark_80To120_2017-02-06-105319
7146.15 seconds 1.98504 hours CTEQ5L-LO_HardQCDSelectionQuark_80To120_2017-02-06-105319
7127.32 seconds 1.97981 hours CTEQ5L-LO_HardQCDSelectionQuark_80To120_2017-02-06-105319
5128.84 seconds 1.42468 hours CTEQ5L-LO_HardQCDSelectionQuark_80To120_2017-02-06-105319
5711.62 seconds 1.58656 hours CTEQ5L-LO_HardQCDSelectionQuark_80To120_2017-02-06-105319
5636.5 seconds 1.56569 hours CTEQ5L-LO_HardQCDSelectionQuark_80To120_2017-02-06-105319
5545.7 seconds 1.54047 hours CTEQ5L-LO_HardQCDSelectionQuark_80To120_2017-02-06-105319
5697.75 seconds 1.58271 hours CTEQ5L-LO_HardQCDSelectionQuark_80To120_2017-02-06-105319




