

Time taken to complete the job, Statistics
==========================================
4449.35 seconds 1.23593 hours CTEQ5L-LO_HardQCDAll_10To20_2017-02-01-140504
4128.56 seconds 1.14682 hours CTEQ5L-LO_HardQCDAll_10To20_2017-02-01-140504
3988.29 seconds 1.10786 hours CTEQ5L-LO_HardQCDAll_10To20_2017-02-01-140504
3907.94 seconds 1.08554 hours CTEQ5L-LO_HardQCDAll_10To20_2017-02-01-140504
4501.38 seconds 1.25038 hours CTEQ5L-LO_HardQCDAll_10To20_2017-02-01-140504
3323.28 seconds 0.923133 hours CTEQ5L-LO_HardQCDAll_10To20_2017-02-01-140504
3204.27 seconds 0.890075 hours CTEQ5L-LO_HardQCDAll_10To20_2017-02-01-140504
3312.67 seconds 0.920186 hours CTEQ5L-LO_HardQCDAll_10To20_2017-02-01-140504
3248.6 seconds 0.902389 hours CTEQ5L-LO_HardQCDAll_10To20_2017-02-01-140504
3188.4 seconds 0.885667 hours CTEQ5L-LO_HardQCDAll_10To20_2017-02-01-140504
3176.04 seconds 0.882233 hours CTEQ5L-LO_HardQCDAll_10To20_2017-02-01-140504
4670.54 seconds 1.29737 hours CTEQ5L-LO_HardQCDAll_10To20_2017-02-01-140504
3009.22 seconds 0.835894 hours CTEQ5L-LO_HardQCDAll_10To20_2017-02-01-140504
4427.77 seconds 1.22994 hours CTEQ5L-LO_HardQCDAll_10To20_2017-02-01-140504
4439.17 seconds 1.2331 hours CTEQ5L-LO_HardQCDAll_10To20_2017-02-01-140504
4536.29 seconds 1.26008 hours CTEQ5L-LO_HardQCDAll_10To20_2017-02-01-140504
4411.99 seconds 1.22555 hours CTEQ5L-LO_HardQCDAll_10To20_2017-02-01-140504
4481.87 seconds 1.24496 hours CTEQ5L-LO_HardQCDAll_10To20_2017-02-01-140504
4393.25 seconds 1.22035 hours CTEQ5L-LO_HardQCDAll_10To20_2017-02-01-140504
4032.83 seconds 1.12023 hours CTEQ5L-LO_HardQCDAll_10To20_2017-02-01-140504


3590.89 seconds 0.997469 hours CTEQ5L-LO_HardQCDAll_120To170_2017-02-01-140504
3446.42 seconds 0.957339 hours CTEQ5L-LO_HardQCDAll_120To170_2017-02-01-140504
3423.75 seconds 0.951042 hours CTEQ5L-LO_HardQCDAll_120To170_2017-02-01-140504
3382.53 seconds 0.939592 hours CTEQ5L-LO_HardQCDAll_120To170_2017-02-01-140504
3347.7 seconds 0.929917 hours CTEQ5L-LO_HardQCDAll_120To170_2017-02-01-140504
3326.59 seconds 0.924053 hours CTEQ5L-LO_HardQCDAll_120To170_2017-02-01-140504
3322.28 seconds 0.922856 hours CTEQ5L-LO_HardQCDAll_120To170_2017-02-01-140504
3346.91 seconds 0.929697 hours CTEQ5L-LO_HardQCDAll_120To170_2017-02-01-140504
3311.33 seconds 0.919814 hours CTEQ5L-LO_HardQCDAll_120To170_2017-02-01-140504
3470.31 seconds 0.963975 hours CTEQ5L-LO_HardQCDAll_120To170_2017-02-01-140504
3249.21 seconds 0.902558 hours CTEQ5L-LO_HardQCDAll_120To170_2017-02-01-140504
3440.59 seconds 0.955719 hours CTEQ5L-LO_HardQCDAll_120To170_2017-02-01-140504
3273.01 seconds 0.909169 hours CTEQ5L-LO_HardQCDAll_120To170_2017-02-01-140504
3341.93 seconds 0.928314 hours CTEQ5L-LO_HardQCDAll_120To170_2017-02-01-140504
3412.7 seconds 0.947972 hours CTEQ5L-LO_HardQCDAll_120To170_2017-02-01-140504
3324.88 seconds 0.923578 hours CTEQ5L-LO_HardQCDAll_120To170_2017-02-01-140504
3375.07 seconds 0.937519 hours CTEQ5L-LO_HardQCDAll_120To170_2017-02-01-140504
3305.92 seconds 0.918311 hours CTEQ5L-LO_HardQCDAll_120To170_2017-02-01-140504
3445.38 seconds 0.95705 hours CTEQ5L-LO_HardQCDAll_120To170_2017-02-01-140504
3446.08 seconds 0.957244 hours CTEQ5L-LO_HardQCDAll_120To170_2017-02-01-140504


3246.3 seconds 0.90175 hours CTEQ5L-LO_HardQCDAll_170To230_2017-02-01-140504
3319.55 seconds 0.922097 hours CTEQ5L-LO_HardQCDAll_170To230_2017-02-01-140504
3305.94 seconds 0.918317 hours CTEQ5L-LO_HardQCDAll_170To230_2017-02-01-140504
3303.24 seconds 0.917567 hours CTEQ5L-LO_HardQCDAll_170To230_2017-02-01-140504
3278.2 seconds 0.910611 hours CTEQ5L-LO_HardQCDAll_170To230_2017-02-01-140504
3311.21 seconds 0.919781 hours CTEQ5L-LO_HardQCDAll_170To230_2017-02-01-140504
3326.26 seconds 0.923961 hours CTEQ5L-LO_HardQCDAll_170To230_2017-02-01-140504
3339.5 seconds 0.927639 hours CTEQ5L-LO_HardQCDAll_170To230_2017-02-01-140504
3301.15 seconds 0.916986 hours CTEQ5L-LO_HardQCDAll_170To230_2017-02-01-140504
3341.33 seconds 0.928147 hours CTEQ5L-LO_HardQCDAll_170To230_2017-02-01-140504
3338.17 seconds 0.927269 hours CTEQ5L-LO_HardQCDAll_170To230_2017-02-01-140504
3257.12 seconds 0.904756 hours CTEQ5L-LO_HardQCDAll_170To230_2017-02-01-140504
3301.23 seconds 0.917008 hours CTEQ5L-LO_HardQCDAll_170To230_2017-02-01-140504
3387.42 seconds 0.94095 hours CTEQ5L-LO_HardQCDAll_170To230_2017-02-01-140504
3358.29 seconds 0.932858 hours CTEQ5L-LO_HardQCDAll_170To230_2017-02-01-140504
3375.5 seconds 0.937639 hours CTEQ5L-LO_HardQCDAll_170To230_2017-02-01-140504
3325.6 seconds 0.923778 hours CTEQ5L-LO_HardQCDAll_170To230_2017-02-01-140504
3317.72 seconds 0.921589 hours CTEQ5L-LO_HardQCDAll_170To230_2017-02-01-140504
3318.57 seconds 0.921825 hours CTEQ5L-LO_HardQCDAll_170To230_2017-02-01-140504
3405.45 seconds 0.945958 hours CTEQ5L-LO_HardQCDAll_170To230_2017-02-01-140504


3145.65 seconds 0.873792 hours CTEQ5L-LO_HardQCDAll_20To30_2017-02-01-140504
4594.54 seconds 1.27626 hours CTEQ5L-LO_HardQCDAll_20To30_2017-02-01-140504
4637.07 seconds 1.28807 hours CTEQ5L-LO_HardQCDAll_20To30_2017-02-01-140504
4422.62 seconds 1.22851 hours CTEQ5L-LO_HardQCDAll_20To30_2017-02-01-140504
4525.05 seconds 1.25696 hours CTEQ5L-LO_HardQCDAll_20To30_2017-02-01-140504
4630.31 seconds 1.2862 hours CTEQ5L-LO_HardQCDAll_20To30_2017-02-01-140504
4446.59 seconds 1.23516 hours CTEQ5L-LO_HardQCDAll_20To30_2017-02-01-140504
3975.35 seconds 1.10426 hours CTEQ5L-LO_HardQCDAll_20To30_2017-02-01-140504
4436.8 seconds 1.23244 hours CTEQ5L-LO_HardQCDAll_20To30_2017-02-01-140504
4293.84 seconds 1.19273 hours CTEQ5L-LO_HardQCDAll_20To30_2017-02-01-140504
4535.51 seconds 1.25986 hours CTEQ5L-LO_HardQCDAll_20To30_2017-02-01-140504
3320.28 seconds 0.9223 hours CTEQ5L-LO_HardQCDAll_20To30_2017-02-01-140504
4433.26 seconds 1.23146 hours CTEQ5L-LO_HardQCDAll_20To30_2017-02-01-140504
3194.4 seconds 0.887333 hours CTEQ5L-LO_HardQCDAll_20To30_2017-02-01-140504
3272.57 seconds 0.909047 hours CTEQ5L-LO_HardQCDAll_20To30_2017-02-01-140504
3180.65 seconds 0.883514 hours CTEQ5L-LO_HardQCDAll_20To30_2017-02-01-140504
3123.65 seconds 0.867681 hours CTEQ5L-LO_HardQCDAll_20To30_2017-02-01-140504
3143.46 seconds 0.873183 hours CTEQ5L-LO_HardQCDAll_20To30_2017-02-01-140504
3095.08 seconds 0.859744 hours CTEQ5L-LO_HardQCDAll_20To30_2017-02-01-140504
3109.61 seconds 0.863781 hours CTEQ5L-LO_HardQCDAll_20To30_2017-02-01-140504


3287.92 seconds 0.913311 hours CTEQ5L-LO_HardQCDAll_230To300_2017-02-01-140504
3301.73 seconds 0.917147 hours CTEQ5L-LO_HardQCDAll_230To300_2017-02-01-140504
3286.61 seconds 0.912947 hours CTEQ5L-LO_HardQCDAll_230To300_2017-02-01-140504
3373.65 seconds 0.937125 hours CTEQ5L-LO_HardQCDAll_230To300_2017-02-01-140504
3305.2 seconds 0.918111 hours CTEQ5L-LO_HardQCDAll_230To300_2017-02-01-140504
3348.83 seconds 0.930231 hours CTEQ5L-LO_HardQCDAll_230To300_2017-02-01-140504
3339.03 seconds 0.927508 hours CTEQ5L-LO_HardQCDAll_230To300_2017-02-01-140504
3345.72 seconds 0.929367 hours CTEQ5L-LO_HardQCDAll_230To300_2017-02-01-140504
3306.44 seconds 0.918456 hours CTEQ5L-LO_HardQCDAll_230To300_2017-02-01-140504
3287.47 seconds 0.913186 hours CTEQ5L-LO_HardQCDAll_230To300_2017-02-01-140504
3281.82 seconds 0.911617 hours CTEQ5L-LO_HardQCDAll_230To300_2017-02-01-140504
3290.07 seconds 0.913908 hours CTEQ5L-LO_HardQCDAll_230To300_2017-02-01-140504
3333.3 seconds 0.925917 hours CTEQ5L-LO_HardQCDAll_230To300_2017-02-01-140504
3374.3 seconds 0.937306 hours CTEQ5L-LO_HardQCDAll_230To300_2017-02-01-140504
3277.26 seconds 0.91035 hours CTEQ5L-LO_HardQCDAll_230To300_2017-02-01-140504
3289.12 seconds 0.913644 hours CTEQ5L-LO_HardQCDAll_230To300_2017-02-01-140504
3296.48 seconds 0.915689 hours CTEQ5L-LO_HardQCDAll_230To300_2017-02-01-140504
3286.07 seconds 0.912797 hours CTEQ5L-LO_HardQCDAll_230To300_2017-02-01-140504
3294.29 seconds 0.915081 hours CTEQ5L-LO_HardQCDAll_230To300_2017-02-01-140504
3301.44 seconds 0.917067 hours CTEQ5L-LO_HardQCDAll_230To300_2017-02-01-140504


3304.09 seconds 0.917803 hours CTEQ5L-LO_HardQCDAll_300To380_2017-02-01-140504
3346.27 seconds 0.929519 hours CTEQ5L-LO_HardQCDAll_300To380_2017-02-01-140504
3349.7 seconds 0.930472 hours CTEQ5L-LO_HardQCDAll_300To380_2017-02-01-140504
3277.99 seconds 0.910553 hours CTEQ5L-LO_HardQCDAll_300To380_2017-02-01-140504
3259.23 seconds 0.905342 hours CTEQ5L-LO_HardQCDAll_300To380_2017-02-01-140504
3260.19 seconds 0.905608 hours CTEQ5L-LO_HardQCDAll_300To380_2017-02-01-140504
3298.75 seconds 0.916319 hours CTEQ5L-LO_HardQCDAll_300To380_2017-02-01-140504
3285.95 seconds 0.912764 hours CTEQ5L-LO_HardQCDAll_300To380_2017-02-01-140504
3273.23 seconds 0.909231 hours CTEQ5L-LO_HardQCDAll_300To380_2017-02-01-140504
3263.97 seconds 0.906658 hours CTEQ5L-LO_HardQCDAll_300To380_2017-02-01-140504
3270.09 seconds 0.908358 hours CTEQ5L-LO_HardQCDAll_300To380_2017-02-01-140504
3285.42 seconds 0.912617 hours CTEQ5L-LO_HardQCDAll_300To380_2017-02-01-140504
3309.07 seconds 0.919186 hours CTEQ5L-LO_HardQCDAll_300To380_2017-02-01-140504
3314.89 seconds 0.920803 hours CTEQ5L-LO_HardQCDAll_300To380_2017-02-01-140504
3265.8 seconds 0.907167 hours CTEQ5L-LO_HardQCDAll_300To380_2017-02-01-140504
3268.25 seconds 0.907847 hours CTEQ5L-LO_HardQCDAll_300To380_2017-02-01-140504
3320.59 seconds 0.922386 hours CTEQ5L-LO_HardQCDAll_300To380_2017-02-01-140504
3317.26 seconds 0.921461 hours CTEQ5L-LO_HardQCDAll_300To380_2017-02-01-140504
3289.04 seconds 0.913622 hours CTEQ5L-LO_HardQCDAll_300To380_2017-02-01-140504
3311.05 seconds 0.919736 hours CTEQ5L-LO_HardQCDAll_300To380_2017-02-01-140504


4481.32 seconds 1.24481 hours CTEQ5L-LO_HardQCDAll_30To50_2017-02-01-140504
4377.22 seconds 1.21589 hours CTEQ5L-LO_HardQCDAll_30To50_2017-02-01-140504
4242.41 seconds 1.17845 hours CTEQ5L-LO_HardQCDAll_30To50_2017-02-01-140504
4220.25 seconds 1.17229 hours CTEQ5L-LO_HardQCDAll_30To50_2017-02-01-140504
4535.42 seconds 1.25984 hours CTEQ5L-LO_HardQCDAll_30To50_2017-02-01-140504
4476.23 seconds 1.2434 hours CTEQ5L-LO_HardQCDAll_30To50_2017-02-01-140504
4455.55 seconds 1.23765 hours CTEQ5L-LO_HardQCDAll_30To50_2017-02-01-140504
4433.19 seconds 1.23144 hours CTEQ5L-LO_HardQCDAll_30To50_2017-02-01-140504
4681.11 seconds 1.30031 hours CTEQ5L-LO_HardQCDAll_30To50_2017-02-01-140504
4657.56 seconds 1.29377 hours CTEQ5L-LO_HardQCDAll_30To50_2017-02-01-140504
4524.64 seconds 1.25684 hours CTEQ5L-LO_HardQCDAll_30To50_2017-02-01-140504
4489.02 seconds 1.24695 hours CTEQ5L-LO_HardQCDAll_30To50_2017-02-01-140504
4544.15 seconds 1.26226 hours CTEQ5L-LO_HardQCDAll_30To50_2017-02-01-140504
4475.17 seconds 1.2431 hours CTEQ5L-LO_HardQCDAll_30To50_2017-02-01-140504
4590.66 seconds 1.27518 hours CTEQ5L-LO_HardQCDAll_30To50_2017-02-01-140504
4595.53 seconds 1.27654 hours CTEQ5L-LO_HardQCDAll_30To50_2017-02-01-140504
4715.58 seconds 1.30988 hours CTEQ5L-LO_HardQCDAll_30To50_2017-02-01-140504
4611.93 seconds 1.28109 hours CTEQ5L-LO_HardQCDAll_30To50_2017-02-01-140504
4287.08 seconds 1.19086 hours CTEQ5L-LO_HardQCDAll_30To50_2017-02-01-140504
4414.57 seconds 1.22627 hours CTEQ5L-LO_HardQCDAll_30To50_2017-02-01-140504


3332.65 seconds 0.925736 hours CTEQ5L-LO_HardQCDAll_380To10000_2017-02-01-140504
3232.26 seconds 0.89785 hours CTEQ5L-LO_HardQCDAll_380To10000_2017-02-01-140504
3221.47 seconds 0.894853 hours CTEQ5L-LO_HardQCDAll_380To10000_2017-02-01-140504
3221.49 seconds 0.894858 hours CTEQ5L-LO_HardQCDAll_380To10000_2017-02-01-140504
3208.68 seconds 0.8913 hours CTEQ5L-LO_HardQCDAll_380To10000_2017-02-01-140504
3246.56 seconds 0.901822 hours CTEQ5L-LO_HardQCDAll_380To10000_2017-02-01-140504
3247.28 seconds 0.902022 hours CTEQ5L-LO_HardQCDAll_380To10000_2017-02-01-140504
3273.15 seconds 0.909208 hours CTEQ5L-LO_HardQCDAll_380To10000_2017-02-01-140504
3238.14 seconds 0.899483 hours CTEQ5L-LO_HardQCDAll_380To10000_2017-02-01-140504
3205.93 seconds 0.890536 hours CTEQ5L-LO_HardQCDAll_380To10000_2017-02-01-140504
3254.55 seconds 0.904042 hours CTEQ5L-LO_HardQCDAll_380To10000_2017-02-01-140504
3331.15 seconds 0.925319 hours CTEQ5L-LO_HardQCDAll_380To10000_2017-02-01-140504
3198.42 seconds 0.88845 hours CTEQ5L-LO_HardQCDAll_380To10000_2017-02-01-140504
3224.97 seconds 0.895825 hours CTEQ5L-LO_HardQCDAll_380To10000_2017-02-01-140504
3196.1 seconds 0.887806 hours CTEQ5L-LO_HardQCDAll_380To10000_2017-02-01-140504
3220.4 seconds 0.894556 hours CTEQ5L-LO_HardQCDAll_380To10000_2017-02-01-140504
3262.87 seconds 0.906353 hours CTEQ5L-LO_HardQCDAll_380To10000_2017-02-01-140504
3231.34 seconds 0.897594 hours CTEQ5L-LO_HardQCDAll_380To10000_2017-02-01-140504
3227.09 seconds 0.896414 hours CTEQ5L-LO_HardQCDAll_380To10000_2017-02-01-140504
3237.95 seconds 0.899431 hours CTEQ5L-LO_HardQCDAll_380To10000_2017-02-01-140504


4486.08 seconds 1.24613 hours CTEQ5L-LO_HardQCDAll_50To80_2017-02-01-140504
3263.88 seconds 0.906633 hours CTEQ5L-LO_HardQCDAll_50To80_2017-02-01-140504
3260.43 seconds 0.905675 hours CTEQ5L-LO_HardQCDAll_50To80_2017-02-01-140504
3260.44 seconds 0.905678 hours CTEQ5L-LO_HardQCDAll_50To80_2017-02-01-140504
3559.89 seconds 0.988858 hours CTEQ5L-LO_HardQCDAll_50To80_2017-02-01-140504
3577.59 seconds 0.993775 hours CTEQ5L-LO_HardQCDAll_50To80_2017-02-01-140504
3463.28 seconds 0.962022 hours CTEQ5L-LO_HardQCDAll_50To80_2017-02-01-140504
3375.6 seconds 0.937667 hours CTEQ5L-LO_HardQCDAll_50To80_2017-02-01-140504
3259.41 seconds 0.905392 hours CTEQ5L-LO_HardQCDAll_50To80_2017-02-01-140504
3262.65 seconds 0.906292 hours CTEQ5L-LO_HardQCDAll_50To80_2017-02-01-140504
3204.72 seconds 0.8902 hours CTEQ5L-LO_HardQCDAll_50To80_2017-02-01-140504
4496.22 seconds 1.24895 hours CTEQ5L-LO_HardQCDAll_50To80_2017-02-01-140504
3181.44 seconds 0.883733 hours CTEQ5L-LO_HardQCDAll_50To80_2017-02-01-140504
4458.44 seconds 1.23846 hours CTEQ5L-LO_HardQCDAll_50To80_2017-02-01-140504
4447.69 seconds 1.23547 hours CTEQ5L-LO_HardQCDAll_50To80_2017-02-01-140504
4449.58 seconds 1.23599 hours CTEQ5L-LO_HardQCDAll_50To80_2017-02-01-140504
3301.21 seconds 0.917003 hours CTEQ5L-LO_HardQCDAll_50To80_2017-02-01-140504
3271.03 seconds 0.908619 hours CTEQ5L-LO_HardQCDAll_50To80_2017-02-01-140504
3259.97 seconds 0.905547 hours CTEQ5L-LO_HardQCDAll_50To80_2017-02-01-140504
3249.04 seconds 0.902511 hours CTEQ5L-LO_HardQCDAll_50To80_2017-02-01-140504


3293.32 seconds 0.914811 hours CTEQ5L-LO_HardQCDAll_80To120_2017-02-01-140504
3287.75 seconds 0.913264 hours CTEQ5L-LO_HardQCDAll_80To120_2017-02-01-140504
3303.05 seconds 0.917514 hours CTEQ5L-LO_HardQCDAll_80To120_2017-02-01-140504
3352.6 seconds 0.931278 hours CTEQ5L-LO_HardQCDAll_80To120_2017-02-01-140504
3320.15 seconds 0.922264 hours CTEQ5L-LO_HardQCDAll_80To120_2017-02-01-140504
3334.34 seconds 0.926206 hours CTEQ5L-LO_HardQCDAll_80To120_2017-02-01-140504
3366.91 seconds 0.935253 hours CTEQ5L-LO_HardQCDAll_80To120_2017-02-01-140504
6430.88 seconds 1.78636 hours CTEQ5L-LO_HardQCDAll_80To120_2017-02-01-140504
6447.51 seconds 1.79097 hours CTEQ5L-LO_HardQCDAll_80To120_2017-02-01-140504
6446.59 seconds 1.79072 hours CTEQ5L-LO_HardQCDAll_80To120_2017-02-01-140504
6429.09 seconds 1.78586 hours CTEQ5L-LO_HardQCDAll_80To120_2017-02-01-140504
3286.81 seconds 0.913003 hours CTEQ5L-LO_HardQCDAll_80To120_2017-02-01-140504
3566.36 seconds 0.990656 hours CTEQ5L-LO_HardQCDAll_80To120_2017-02-01-140504
3267.59 seconds 0.907664 hours CTEQ5L-LO_HardQCDAll_80To120_2017-02-01-140504
3284.58 seconds 0.912383 hours CTEQ5L-LO_HardQCDAll_80To120_2017-02-01-140504
3397.78 seconds 0.943828 hours CTEQ5L-LO_HardQCDAll_80To120_2017-02-01-140504
3314.37 seconds 0.920658 hours CTEQ5L-LO_HardQCDAll_80To120_2017-02-01-140504
3282.57 seconds 0.911825 hours CTEQ5L-LO_HardQCDAll_80To120_2017-02-01-140504
3285.3 seconds 0.912583 hours CTEQ5L-LO_HardQCDAll_80To120_2017-02-01-140504
3332.6 seconds 0.925722 hours CTEQ5L-LO_HardQCDAll_80To120_2017-02-01-140504




