

Time taken to complete the job, Statistics
==========================================
3070.53 seconds 0.852925 hours CTEQ5L-LO_HardQCDSelectionGluon_10To20_2017-02-01-140536
3187.93 seconds 0.885536 hours CTEQ5L-LO_HardQCDSelectionGluon_10To20_2017-02-01-140536
3113.48 seconds 0.864856 hours CTEQ5L-LO_HardQCDSelectionGluon_10To20_2017-02-01-140536
3122.76 seconds 0.867433 hours CTEQ5L-LO_HardQCDSelectionGluon_10To20_2017-02-01-140536
3085.83 seconds 0.857175 hours CTEQ5L-LO_HardQCDSelectionGluon_10To20_2017-02-01-140536
3068.69 seconds 0.852414 hours CTEQ5L-LO_HardQCDSelectionGluon_10To20_2017-02-01-140536
3153.28 seconds 0.875911 hours CTEQ5L-LO_HardQCDSelectionGluon_10To20_2017-02-01-140536
3126.76 seconds 0.868544 hours CTEQ5L-LO_HardQCDSelectionGluon_10To20_2017-02-01-140536
3084.73 seconds 0.856869 hours CTEQ5L-LO_HardQCDSelectionGluon_10To20_2017-02-01-140536
3098.47 seconds 0.860686 hours CTEQ5L-LO_HardQCDSelectionGluon_10To20_2017-02-01-140536
3072.77 seconds 0.853547 hours CTEQ5L-LO_HardQCDSelectionGluon_10To20_2017-02-01-140536
3098.61 seconds 0.860725 hours CTEQ5L-LO_HardQCDSelectionGluon_10To20_2017-02-01-140536
3113.69 seconds 0.864914 hours CTEQ5L-LO_HardQCDSelectionGluon_10To20_2017-02-01-140536
3153.31 seconds 0.875919 hours CTEQ5L-LO_HardQCDSelectionGluon_10To20_2017-02-01-140536
3114.13 seconds 0.865036 hours CTEQ5L-LO_HardQCDSelectionGluon_10To20_2017-02-01-140536
3098.29 seconds 0.860636 hours CTEQ5L-LO_HardQCDSelectionGluon_10To20_2017-02-01-140536
3088.47 seconds 0.857908 hours CTEQ5L-LO_HardQCDSelectionGluon_10To20_2017-02-01-140536
3089.65 seconds 0.858236 hours CTEQ5L-LO_HardQCDSelectionGluon_10To20_2017-02-01-140536
3090.09 seconds 0.858358 hours CTEQ5L-LO_HardQCDSelectionGluon_10To20_2017-02-01-140536
3104.59 seconds 0.862386 hours CTEQ5L-LO_HardQCDSelectionGluon_10To20_2017-02-01-140536


2934.52 seconds 0.815144 hours CTEQ5L-LO_HardQCDSelectionGluon_120To170_2017-02-01-140536
2962.15 seconds 0.822819 hours CTEQ5L-LO_HardQCDSelectionGluon_120To170_2017-02-01-140536
2950.29 seconds 0.819525 hours CTEQ5L-LO_HardQCDSelectionGluon_120To170_2017-02-01-140536
2988.02 seconds 0.830006 hours CTEQ5L-LO_HardQCDSelectionGluon_120To170_2017-02-01-140536
2986.11 seconds 0.829475 hours CTEQ5L-LO_HardQCDSelectionGluon_120To170_2017-02-01-140536
2952 seconds 0.82 hours CTEQ5L-LO_HardQCDSelectionGluon_120To170_2017-02-01-140536
2976.68 seconds 0.826856 hours CTEQ5L-LO_HardQCDSelectionGluon_120To170_2017-02-01-140536
2930.02 seconds 0.813894 hours CTEQ5L-LO_HardQCDSelectionGluon_120To170_2017-02-01-140536
2945.99 seconds 0.818331 hours CTEQ5L-LO_HardQCDSelectionGluon_120To170_2017-02-01-140536
2941.02 seconds 0.81695 hours CTEQ5L-LO_HardQCDSelectionGluon_120To170_2017-02-01-140536
2980.34 seconds 0.827872 hours CTEQ5L-LO_HardQCDSelectionGluon_120To170_2017-02-01-140536
2939.15 seconds 0.816431 hours CTEQ5L-LO_HardQCDSelectionGluon_120To170_2017-02-01-140536
2947.53 seconds 0.818758 hours CTEQ5L-LO_HardQCDSelectionGluon_120To170_2017-02-01-140536
2939.02 seconds 0.816394 hours CTEQ5L-LO_HardQCDSelectionGluon_120To170_2017-02-01-140536
2935.42 seconds 0.815394 hours CTEQ5L-LO_HardQCDSelectionGluon_120To170_2017-02-01-140536
2949.17 seconds 0.819214 hours CTEQ5L-LO_HardQCDSelectionGluon_120To170_2017-02-01-140536
2969.35 seconds 0.824819 hours CTEQ5L-LO_HardQCDSelectionGluon_120To170_2017-02-01-140536
2973.93 seconds 0.826092 hours CTEQ5L-LO_HardQCDSelectionGluon_120To170_2017-02-01-140536
2957.29 seconds 0.821469 hours CTEQ5L-LO_HardQCDSelectionGluon_120To170_2017-02-01-140536
2948.58 seconds 0.81905 hours CTEQ5L-LO_HardQCDSelectionGluon_120To170_2017-02-01-140536


3015.47 seconds 0.837631 hours CTEQ5L-LO_HardQCDSelectionGluon_170To230_2017-02-01-140536
3069.11 seconds 0.852531 hours CTEQ5L-LO_HardQCDSelectionGluon_170To230_2017-02-01-140536
3018.53 seconds 0.838481 hours CTEQ5L-LO_HardQCDSelectionGluon_170To230_2017-02-01-140536
3034.76 seconds 0.842989 hours CTEQ5L-LO_HardQCDSelectionGluon_170To230_2017-02-01-140536
2991.87 seconds 0.831075 hours CTEQ5L-LO_HardQCDSelectionGluon_170To230_2017-02-01-140536
3028.1 seconds 0.841139 hours CTEQ5L-LO_HardQCDSelectionGluon_170To230_2017-02-01-140536
3000.37 seconds 0.833436 hours CTEQ5L-LO_HardQCDSelectionGluon_170To230_2017-02-01-140536
3017.18 seconds 0.838106 hours CTEQ5L-LO_HardQCDSelectionGluon_170To230_2017-02-01-140536
3011.12 seconds 0.836422 hours CTEQ5L-LO_HardQCDSelectionGluon_170To230_2017-02-01-140536
3004.08 seconds 0.834467 hours CTEQ5L-LO_HardQCDSelectionGluon_170To230_2017-02-01-140536
3016.25 seconds 0.837847 hours CTEQ5L-LO_HardQCDSelectionGluon_170To230_2017-02-01-140536
2999.72 seconds 0.833256 hours CTEQ5L-LO_HardQCDSelectionGluon_170To230_2017-02-01-140536
3020.81 seconds 0.839114 hours CTEQ5L-LO_HardQCDSelectionGluon_170To230_2017-02-01-140536
3026.87 seconds 0.840797 hours CTEQ5L-LO_HardQCDSelectionGluon_170To230_2017-02-01-140536
2986.39 seconds 0.829553 hours CTEQ5L-LO_HardQCDSelectionGluon_170To230_2017-02-01-140536
3005.19 seconds 0.834775 hours CTEQ5L-LO_HardQCDSelectionGluon_170To230_2017-02-01-140536
2987.2 seconds 0.829778 hours CTEQ5L-LO_HardQCDSelectionGluon_170To230_2017-02-01-140536
3037.79 seconds 0.843831 hours CTEQ5L-LO_HardQCDSelectionGluon_170To230_2017-02-01-140536
2982.52 seconds 0.828478 hours CTEQ5L-LO_HardQCDSelectionGluon_170To230_2017-02-01-140536
3091.26 seconds 0.858683 hours CTEQ5L-LO_HardQCDSelectionGluon_170To230_2017-02-01-140536


3237.23 seconds 0.899231 hours CTEQ5L-LO_HardQCDSelectionGluon_20To30_2017-02-01-140536
3211.61 seconds 0.892114 hours CTEQ5L-LO_HardQCDSelectionGluon_20To30_2017-02-01-140536
3177.88 seconds 0.882744 hours CTEQ5L-LO_HardQCDSelectionGluon_20To30_2017-02-01-140536
3186.25 seconds 0.885069 hours CTEQ5L-LO_HardQCDSelectionGluon_20To30_2017-02-01-140536
3220.69 seconds 0.894636 hours CTEQ5L-LO_HardQCDSelectionGluon_20To30_2017-02-01-140536
3227.73 seconds 0.896592 hours CTEQ5L-LO_HardQCDSelectionGluon_20To30_2017-02-01-140536
3243.45 seconds 0.900958 hours CTEQ5L-LO_HardQCDSelectionGluon_20To30_2017-02-01-140536
3218.53 seconds 0.894036 hours CTEQ5L-LO_HardQCDSelectionGluon_20To30_2017-02-01-140536
3177.41 seconds 0.882614 hours CTEQ5L-LO_HardQCDSelectionGluon_20To30_2017-02-01-140536
3210.29 seconds 0.891747 hours CTEQ5L-LO_HardQCDSelectionGluon_20To30_2017-02-01-140536
3218.97 seconds 0.894158 hours CTEQ5L-LO_HardQCDSelectionGluon_20To30_2017-02-01-140536
3247.54 seconds 0.902094 hours CTEQ5L-LO_HardQCDSelectionGluon_20To30_2017-02-01-140536
3186.35 seconds 0.885097 hours CTEQ5L-LO_HardQCDSelectionGluon_20To30_2017-02-01-140536
3221.69 seconds 0.894914 hours CTEQ5L-LO_HardQCDSelectionGluon_20To30_2017-02-01-140536
3204.03 seconds 0.890008 hours CTEQ5L-LO_HardQCDSelectionGluon_20To30_2017-02-01-140536
3225.66 seconds 0.896017 hours CTEQ5L-LO_HardQCDSelectionGluon_20To30_2017-02-01-140536
3204.97 seconds 0.890269 hours CTEQ5L-LO_HardQCDSelectionGluon_20To30_2017-02-01-140536
3248.1 seconds 0.90225 hours CTEQ5L-LO_HardQCDSelectionGluon_20To30_2017-02-01-140536
3252.66 seconds 0.903517 hours CTEQ5L-LO_HardQCDSelectionGluon_20To30_2017-02-01-140536
3241.77 seconds 0.900492 hours CTEQ5L-LO_HardQCDSelectionGluon_20To30_2017-02-01-140536


3040.44 seconds 0.844567 hours CTEQ5L-LO_HardQCDSelectionGluon_230To300_2017-02-01-140536
3115.28 seconds 0.865356 hours CTEQ5L-LO_HardQCDSelectionGluon_230To300_2017-02-01-140536
3080.01 seconds 0.855558 hours CTEQ5L-LO_HardQCDSelectionGluon_230To300_2017-02-01-140536
3055.13 seconds 0.848647 hours CTEQ5L-LO_HardQCDSelectionGluon_230To300_2017-02-01-140536
6189.26 seconds 1.71924 hours CTEQ5L-LO_HardQCDSelectionGluon_230To300_2017-02-01-140536
6146.3 seconds 1.70731 hours CTEQ5L-LO_HardQCDSelectionGluon_230To300_2017-02-01-140536
3214.47 seconds 0.892908 hours CTEQ5L-LO_HardQCDSelectionGluon_230To300_2017-02-01-140536
3080.58 seconds 0.855717 hours CTEQ5L-LO_HardQCDSelectionGluon_230To300_2017-02-01-140536
3106.56 seconds 0.862933 hours CTEQ5L-LO_HardQCDSelectionGluon_230To300_2017-02-01-140536
4585.13 seconds 1.27365 hours CTEQ5L-LO_HardQCDSelectionGluon_230To300_2017-02-01-140536
4412.22 seconds 1.22562 hours CTEQ5L-LO_HardQCDSelectionGluon_230To300_2017-02-01-140536
3078.41 seconds 0.855114 hours CTEQ5L-LO_HardQCDSelectionGluon_230To300_2017-02-01-140536
4263.67 seconds 1.18435 hours CTEQ5L-LO_HardQCDSelectionGluon_230To300_2017-02-01-140536
3065.27 seconds 0.851464 hours CTEQ5L-LO_HardQCDSelectionGluon_230To300_2017-02-01-140536
3051.14 seconds 0.847539 hours CTEQ5L-LO_HardQCDSelectionGluon_230To300_2017-02-01-140536
3079.74 seconds 0.855483 hours CTEQ5L-LO_HardQCDSelectionGluon_230To300_2017-02-01-140536
3050.21 seconds 0.847281 hours CTEQ5L-LO_HardQCDSelectionGluon_230To300_2017-02-01-140536
3026.57 seconds 0.840714 hours CTEQ5L-LO_HardQCDSelectionGluon_230To300_2017-02-01-140536
3084.76 seconds 0.856878 hours CTEQ5L-LO_HardQCDSelectionGluon_230To300_2017-02-01-140536
3052.45 seconds 0.847903 hours CTEQ5L-LO_HardQCDSelectionGluon_230To300_2017-02-01-140536


4468.35 seconds 1.24121 hours CTEQ5L-LO_HardQCDSelectionGluon_300To380_2017-02-01-140536
6145.07 seconds 1.70696 hours CTEQ5L-LO_HardQCDSelectionGluon_300To380_2017-02-01-140536
6137.43 seconds 1.70484 hours CTEQ5L-LO_HardQCDSelectionGluon_300To380_2017-02-01-140536
6157.67 seconds 1.71046 hours CTEQ5L-LO_HardQCDSelectionGluon_300To380_2017-02-01-140536
3099.66 seconds 0.861017 hours CTEQ5L-LO_HardQCDSelectionGluon_300To380_2017-02-01-140536
3106.41 seconds 0.862892 hours CTEQ5L-LO_HardQCDSelectionGluon_300To380_2017-02-01-140536
3081.76 seconds 0.856044 hours CTEQ5L-LO_HardQCDSelectionGluon_300To380_2017-02-01-140536
3076.44 seconds 0.854567 hours CTEQ5L-LO_HardQCDSelectionGluon_300To380_2017-02-01-140536
3163.07 seconds 0.878631 hours CTEQ5L-LO_HardQCDSelectionGluon_300To380_2017-02-01-140536
3090.52 seconds 0.858478 hours CTEQ5L-LO_HardQCDSelectionGluon_300To380_2017-02-01-140536
3140 seconds 0.872222 hours CTEQ5L-LO_HardQCDSelectionGluon_300To380_2017-02-01-140536
4408.91 seconds 1.2247 hours CTEQ5L-LO_HardQCDSelectionGluon_300To380_2017-02-01-140536
3173.82 seconds 0.881617 hours CTEQ5L-LO_HardQCDSelectionGluon_300To380_2017-02-01-140536
4452.22 seconds 1.23673 hours CTEQ5L-LO_HardQCDSelectionGluon_300To380_2017-02-01-140536
4372.55 seconds 1.2146 hours CTEQ5L-LO_HardQCDSelectionGluon_300To380_2017-02-01-140536
5589.34 seconds 1.55259 hours CTEQ5L-LO_HardQCDSelectionGluon_300To380_2017-02-01-140536
5590.74 seconds 1.55298 hours CTEQ5L-LO_HardQCDSelectionGluon_300To380_2017-02-01-140536
6200.53 seconds 1.72237 hours CTEQ5L-LO_HardQCDSelectionGluon_300To380_2017-02-01-140536
6121.86 seconds 1.70052 hours CTEQ5L-LO_HardQCDSelectionGluon_300To380_2017-02-01-140536
6129.63 seconds 1.70267 hours CTEQ5L-LO_HardQCDSelectionGluon_300To380_2017-02-01-140536


3358.28 seconds 0.932856 hours CTEQ5L-LO_HardQCDSelectionGluon_30To50_2017-02-01-140536
3279 seconds 0.910833 hours CTEQ5L-LO_HardQCDSelectionGluon_30To50_2017-02-01-140536
3383.46 seconds 0.93985 hours CTEQ5L-LO_HardQCDSelectionGluon_30To50_2017-02-01-140536
3289.16 seconds 0.913656 hours CTEQ5L-LO_HardQCDSelectionGluon_30To50_2017-02-01-140536
3279.57 seconds 0.910992 hours CTEQ5L-LO_HardQCDSelectionGluon_30To50_2017-02-01-140536
3267.5 seconds 0.907639 hours CTEQ5L-LO_HardQCDSelectionGluon_30To50_2017-02-01-140536
3263.33 seconds 0.906481 hours CTEQ5L-LO_HardQCDSelectionGluon_30To50_2017-02-01-140536
3674.43 seconds 1.02067 hours CTEQ5L-LO_HardQCDSelectionGluon_30To50_2017-02-01-140536
4789.69 seconds 1.33047 hours CTEQ5L-LO_HardQCDSelectionGluon_30To50_2017-02-01-140536
4935.27 seconds 1.37091 hours CTEQ5L-LO_HardQCDSelectionGluon_30To50_2017-02-01-140536
3295.72 seconds 0.915478 hours CTEQ5L-LO_HardQCDSelectionGluon_30To50_2017-02-01-140536
3242.43 seconds 0.900675 hours CTEQ5L-LO_HardQCDSelectionGluon_30To50_2017-02-01-140536
4697.43 seconds 1.30484 hours CTEQ5L-LO_HardQCDSelectionGluon_30To50_2017-02-01-140536
3290.76 seconds 0.9141 hours CTEQ5L-LO_HardQCDSelectionGluon_30To50_2017-02-01-140536
3267.79 seconds 0.907719 hours CTEQ5L-LO_HardQCDSelectionGluon_30To50_2017-02-01-140536
3268.28 seconds 0.907856 hours CTEQ5L-LO_HardQCDSelectionGluon_30To50_2017-02-01-140536
3250.62 seconds 0.90295 hours CTEQ5L-LO_HardQCDSelectionGluon_30To50_2017-02-01-140536
3260.18 seconds 0.905606 hours CTEQ5L-LO_HardQCDSelectionGluon_30To50_2017-02-01-140536
3255.35 seconds 0.904264 hours CTEQ5L-LO_HardQCDSelectionGluon_30To50_2017-02-01-140536
3311.19 seconds 0.919775 hours CTEQ5L-LO_HardQCDSelectionGluon_30To50_2017-02-01-140536


3118.56 seconds 0.866267 hours CTEQ5L-LO_HardQCDSelectionGluon_380To10000_2017-02-01-140536
3140.49 seconds 0.872358 hours CTEQ5L-LO_HardQCDSelectionGluon_380To10000_2017-02-01-140536
3120.2 seconds 0.866722 hours CTEQ5L-LO_HardQCDSelectionGluon_380To10000_2017-02-01-140536
3149.18 seconds 0.874772 hours CTEQ5L-LO_HardQCDSelectionGluon_380To10000_2017-02-01-140536
3112.25 seconds 0.864514 hours CTEQ5L-LO_HardQCDSelectionGluon_380To10000_2017-02-01-140536
3146.6 seconds 0.874056 hours CTEQ5L-LO_HardQCDSelectionGluon_380To10000_2017-02-01-140536
3143.71 seconds 0.873253 hours CTEQ5L-LO_HardQCDSelectionGluon_380To10000_2017-02-01-140536
3122.98 seconds 0.867494 hours CTEQ5L-LO_HardQCDSelectionGluon_380To10000_2017-02-01-140536
3141.37 seconds 0.872603 hours CTEQ5L-LO_HardQCDSelectionGluon_380To10000_2017-02-01-140536
3117.87 seconds 0.866075 hours CTEQ5L-LO_HardQCDSelectionGluon_380To10000_2017-02-01-140536
3140.97 seconds 0.872492 hours CTEQ5L-LO_HardQCDSelectionGluon_380To10000_2017-02-01-140536
3159.78 seconds 0.877717 hours CTEQ5L-LO_HardQCDSelectionGluon_380To10000_2017-02-01-140536
3133.17 seconds 0.870325 hours CTEQ5L-LO_HardQCDSelectionGluon_380To10000_2017-02-01-140536
3123.27 seconds 0.867575 hours CTEQ5L-LO_HardQCDSelectionGluon_380To10000_2017-02-01-140536
3156.94 seconds 0.876928 hours CTEQ5L-LO_HardQCDSelectionGluon_380To10000_2017-02-01-140536
3138.94 seconds 0.871928 hours CTEQ5L-LO_HardQCDSelectionGluon_380To10000_2017-02-01-140536
3122.65 seconds 0.867403 hours CTEQ5L-LO_HardQCDSelectionGluon_380To10000_2017-02-01-140536
3152.55 seconds 0.875708 hours CTEQ5L-LO_HardQCDSelectionGluon_380To10000_2017-02-01-140536
3131.68 seconds 0.869911 hours CTEQ5L-LO_HardQCDSelectionGluon_380To10000_2017-02-01-140536
3167.26 seconds 0.879794 hours CTEQ5L-LO_HardQCDSelectionGluon_380To10000_2017-02-01-140536


4672.57 seconds 1.29794 hours CTEQ5L-LO_HardQCDSelectionGluon_50To80_2017-02-01-140536
3381.07 seconds 0.939186 hours CTEQ5L-LO_HardQCDSelectionGluon_50To80_2017-02-01-140536
3466.95 seconds 0.963042 hours CTEQ5L-LO_HardQCDSelectionGluon_50To80_2017-02-01-140536
3366.76 seconds 0.935211 hours CTEQ5L-LO_HardQCDSelectionGluon_50To80_2017-02-01-140536
3359.35 seconds 0.933153 hours CTEQ5L-LO_HardQCDSelectionGluon_50To80_2017-02-01-140536
3354.06 seconds 0.931683 hours CTEQ5L-LO_HardQCDSelectionGluon_50To80_2017-02-01-140536
2816.91 seconds 0.782475 hours CTEQ5L-LO_HardQCDSelectionGluon_50To80_2017-02-01-140536
2812.4 seconds 0.781222 hours CTEQ5L-LO_HardQCDSelectionGluon_50To80_2017-02-01-140536
2815.01 seconds 0.781947 hours CTEQ5L-LO_HardQCDSelectionGluon_50To80_2017-02-01-140536
2834.71 seconds 0.787419 hours CTEQ5L-LO_HardQCDSelectionGluon_50To80_2017-02-01-140536
2819.83 seconds 0.783286 hours CTEQ5L-LO_HardQCDSelectionGluon_50To80_2017-02-01-140536
4658.2 seconds 1.29394 hours CTEQ5L-LO_HardQCDSelectionGluon_50To80_2017-02-01-140536
2832.9 seconds 0.786917 hours CTEQ5L-LO_HardQCDSelectionGluon_50To80_2017-02-01-140536
4636.62 seconds 1.28795 hours CTEQ5L-LO_HardQCDSelectionGluon_50To80_2017-02-01-140536
4673.04 seconds 1.29807 hours CTEQ5L-LO_HardQCDSelectionGluon_50To80_2017-02-01-140536
4734.54 seconds 1.31515 hours CTEQ5L-LO_HardQCDSelectionGluon_50To80_2017-02-01-140536
3568.08 seconds 0.991133 hours CTEQ5L-LO_HardQCDSelectionGluon_50To80_2017-02-01-140536
3572.44 seconds 0.992344 hours CTEQ5L-LO_HardQCDSelectionGluon_50To80_2017-02-01-140536
3414.73 seconds 0.948536 hours CTEQ5L-LO_HardQCDSelectionGluon_50To80_2017-02-01-140536
3357.92 seconds 0.932756 hours CTEQ5L-LO_HardQCDSelectionGluon_50To80_2017-02-01-140536


2932.31 seconds 0.814531 hours CTEQ5L-LO_HardQCDSelectionGluon_80To120_2017-02-01-140536
2905.89 seconds 0.807192 hours CTEQ5L-LO_HardQCDSelectionGluon_80To120_2017-02-01-140536
2938.16 seconds 0.816156 hours CTEQ5L-LO_HardQCDSelectionGluon_80To120_2017-02-01-140536
2887.07 seconds 0.801964 hours CTEQ5L-LO_HardQCDSelectionGluon_80To120_2017-02-01-140536
2886.34 seconds 0.801761 hours CTEQ5L-LO_HardQCDSelectionGluon_80To120_2017-02-01-140536
2878.16 seconds 0.799489 hours CTEQ5L-LO_HardQCDSelectionGluon_80To120_2017-02-01-140536
2890.68 seconds 0.802967 hours CTEQ5L-LO_HardQCDSelectionGluon_80To120_2017-02-01-140536
2895.37 seconds 0.804269 hours CTEQ5L-LO_HardQCDSelectionGluon_80To120_2017-02-01-140536
2935.7 seconds 0.815472 hours CTEQ5L-LO_HardQCDSelectionGluon_80To120_2017-02-01-140536
2948.65 seconds 0.819069 hours CTEQ5L-LO_HardQCDSelectionGluon_80To120_2017-02-01-140536
2900.08 seconds 0.805578 hours CTEQ5L-LO_HardQCDSelectionGluon_80To120_2017-02-01-140536
2918.28 seconds 0.810633 hours CTEQ5L-LO_HardQCDSelectionGluon_80To120_2017-02-01-140536
2875.58 seconds 0.798772 hours CTEQ5L-LO_HardQCDSelectionGluon_80To120_2017-02-01-140536
2872.62 seconds 0.79795 hours CTEQ5L-LO_HardQCDSelectionGluon_80To120_2017-02-01-140536
2877.63 seconds 0.799342 hours CTEQ5L-LO_HardQCDSelectionGluon_80To120_2017-02-01-140536
2881.69 seconds 0.800469 hours CTEQ5L-LO_HardQCDSelectionGluon_80To120_2017-02-01-140536
2907.44 seconds 0.807622 hours CTEQ5L-LO_HardQCDSelectionGluon_80To120_2017-02-01-140536
2925.52 seconds 0.812644 hours CTEQ5L-LO_HardQCDSelectionGluon_80To120_2017-02-01-140536
2882.55 seconds 0.800708 hours CTEQ5L-LO_HardQCDSelectionGluon_80To120_2017-02-01-140536
2902.14 seconds 0.80615 hours CTEQ5L-LO_HardQCDSelectionGluon_80To120_2017-02-01-140536




