

Script to fetch cross-section info from Log files /store/user/rjanjam/Folder/*.log
==================================================================================
Sum(cross-section/pTHat), Sqrt(Sum(error/pTHat*error/pTHat)), Avg(cross-section/pTHat), Avg(Error/pTHat), filename 
---------------------------------------------------------------------------
37.279	  3.70737e-05	  1.86395	  0.00139687	  NNPDF2.3-QCD+QED-NLO_HardQCDAll_10To20_2016-09-16-150446
0.00124179	  3.56421e-14	  6.20895e-05	  4.33117e-08	  NNPDF2.3-QCD+QED-NLO_HardQCDAll_120To170_2016-09-16-150446
0.0002006	  8.72891e-16	  1.003e-05	  6.77803e-09	  NNPDF2.3-QCD+QED-NLO_HardQCDAll_170To230_2016-09-16-150446
2.73	  1.99475e-07	  0.1365	  0.000102463	  NNPDF2.3-QCD+QED-NLO_HardQCDAll_20To30_2016-09-16-150446
3.6906e-05	  2.98364e-17	  1.8453e-06	  1.25313e-09	  NNPDF2.3-QCD+QED-NLO_HardQCDAll_230To300_2016-09-16-150446
7.4899e-06	  1.19957e-18	  3.74495e-07	  2.51267e-10	  NNPDF2.3-QCD+QED-NLO_HardQCDAll_300To380_2016-09-16-150446
0.62893	  1.03974e-08	  0.0314465	  2.3393e-05	  NNPDF2.3-QCD+QED-NLO_HardQCDAll_30To50_2016-09-16-150446
2.1136e-06	  1.11464e-19	  1.0568e-07	  7.65934e-11	  NNPDF2.3-QCD+QED-NLO_HardQCDAll_380To10000_2016-09-16-150446
0.07526	  1.36733e-10	  0.003763	  2.68263e-06	  NNPDF2.3-QCD+QED-NLO_HardQCDAll_50To80_2016-09-16-150446
0.0089829	  1.89654e-12	  0.000449145	  3.1594e-07	  NNPDF2.3-QCD+QED-NLO_HardQCDAll_80To120_2016-09-16-150446
