

Time taken to complete the job, Statistics
==========================================
3787.62 seconds 1.05212 hours CTEQ5L-LO_HardQCDSelectionQuark_10To20_2017-02-03-125526
4983.73 seconds 1.38437 hours CTEQ5L-LO_HardQCDSelectionQuark_10To20_2017-02-03-125526
4887.07 seconds 1.35752 hours CTEQ5L-LO_HardQCDSelectionQuark_10To20_2017-02-03-125526
4937.41 seconds 1.3715 hours CTEQ5L-LO_HardQCDSelectionQuark_10To20_2017-02-03-125526
3486.33 seconds 0.968425 hours CTEQ5L-LO_HardQCDSelectionQuark_10To20_2017-02-03-125526
3531.84 seconds 0.981067 hours CTEQ5L-LO_HardQCDSelectionQuark_10To20_2017-02-03-125526
3892.13 seconds 1.08115 hours CTEQ5L-LO_HardQCDSelectionQuark_10To20_2017-02-03-125526
4455.74 seconds 1.23771 hours CTEQ5L-LO_HardQCDSelectionQuark_10To20_2017-02-03-125526
3871.09 seconds 1.0753 hours CTEQ5L-LO_HardQCDSelectionQuark_10To20_2017-02-03-125526
3870.25 seconds 1.07507 hours CTEQ5L-LO_HardQCDSelectionQuark_10To20_2017-02-03-125526
3520.59 seconds 0.977942 hours CTEQ5L-LO_HardQCDSelectionQuark_10To20_2017-02-03-125526
4820.77 seconds 1.3391 hours CTEQ5L-LO_HardQCDSelectionQuark_10To20_2017-02-03-125526
3622.92 seconds 1.00637 hours CTEQ5L-LO_HardQCDSelectionQuark_10To20_2017-02-03-125526
3381.58 seconds 0.939328 hours CTEQ5L-LO_HardQCDSelectionQuark_10To20_2017-02-03-125526
3341.2 seconds 0.928111 hours CTEQ5L-LO_HardQCDSelectionQuark_10To20_2017-02-03-125526
3895.07 seconds 1.08196 hours CTEQ5L-LO_HardQCDSelectionQuark_10To20_2017-02-03-125526
4990.15 seconds 1.38615 hours CTEQ5L-LO_HardQCDSelectionQuark_10To20_2017-02-03-125526
4770.89 seconds 1.32525 hours CTEQ5L-LO_HardQCDSelectionQuark_10To20_2017-02-03-125526
4935.73 seconds 1.37104 hours CTEQ5L-LO_HardQCDSelectionQuark_10To20_2017-02-03-125526
4854.83 seconds 1.34856 hours CTEQ5L-LO_HardQCDSelectionQuark_10To20_2017-02-03-125526


5957.35 seconds 1.65482 hours CTEQ5L-LO_HardQCDSelectionQuark_120To170_2017-02-03-125526
6340.19 seconds 1.76116 hours CTEQ5L-LO_HardQCDSelectionQuark_120To170_2017-02-03-125526
8715.97 seconds 2.4211 hours CTEQ5L-LO_HardQCDSelectionQuark_120To170_2017-02-03-125526
8687.53 seconds 2.4132 hours CTEQ5L-LO_HardQCDSelectionQuark_120To170_2017-02-03-125526
6804.85 seconds 1.89024 hours CTEQ5L-LO_HardQCDSelectionQuark_120To170_2017-02-03-125526
8702.09 seconds 2.41725 hours CTEQ5L-LO_HardQCDSelectionQuark_120To170_2017-02-03-125526
8685.57 seconds 2.41266 hours CTEQ5L-LO_HardQCDSelectionQuark_120To170_2017-02-03-125526
6904.2 seconds 1.91783 hours CTEQ5L-LO_HardQCDSelectionQuark_120To170_2017-02-03-125526
6925.93 seconds 1.92387 hours CTEQ5L-LO_HardQCDSelectionQuark_120To170_2017-02-03-125526
7828.35 seconds 2.17454 hours CTEQ5L-LO_HardQCDSelectionQuark_120To170_2017-02-03-125526
6191.55 seconds 1.71988 hours CTEQ5L-LO_HardQCDSelectionQuark_120To170_2017-02-03-125526
6198.91 seconds 1.72192 hours CTEQ5L-LO_HardQCDSelectionQuark_120To170_2017-02-03-125526
5723.54 seconds 1.58987 hours CTEQ5L-LO_HardQCDSelectionQuark_120To170_2017-02-03-125526
7610.29 seconds 2.11397 hours CTEQ5L-LO_HardQCDSelectionQuark_120To170_2017-02-03-125526
8633.39 seconds 2.39816 hours CTEQ5L-LO_HardQCDSelectionQuark_120To170_2017-02-03-125526
6038.96 seconds 1.67749 hours CTEQ5L-LO_HardQCDSelectionQuark_120To170_2017-02-03-125526
5810.89 seconds 1.61414 hours CTEQ5L-LO_HardQCDSelectionQuark_120To170_2017-02-03-125526
7622.66 seconds 2.11741 hours CTEQ5L-LO_HardQCDSelectionQuark_120To170_2017-02-03-125526
6154.11 seconds 1.70947 hours CTEQ5L-LO_HardQCDSelectionQuark_120To170_2017-02-03-125526
8833.53 seconds 2.45376 hours CTEQ5L-LO_HardQCDSelectionQuark_120To170_2017-02-03-125526


6362.46 seconds 1.76735 hours CTEQ5L-LO_HardQCDSelectionQuark_170To230_2017-02-03-125526
6556.54 seconds 1.82126 hours CTEQ5L-LO_HardQCDSelectionQuark_170To230_2017-02-03-125526
6554.45 seconds 1.82068 hours CTEQ5L-LO_HardQCDSelectionQuark_170To230_2017-02-03-125526
8535.48 seconds 2.37097 hours CTEQ5L-LO_HardQCDSelectionQuark_170To230_2017-02-03-125526
9209.88 seconds 2.5583 hours CTEQ5L-LO_HardQCDSelectionQuark_170To230_2017-02-03-125526
9278.99 seconds 2.5775 hours CTEQ5L-LO_HardQCDSelectionQuark_170To230_2017-02-03-125526
9133 seconds 2.53694 hours CTEQ5L-LO_HardQCDSelectionQuark_170To230_2017-02-03-125526
6556.23 seconds 1.82117 hours CTEQ5L-LO_HardQCDSelectionQuark_170To230_2017-02-03-125526
6641.7 seconds 1.84492 hours CTEQ5L-LO_HardQCDSelectionQuark_170To230_2017-02-03-125526
9233.88 seconds 2.56497 hours CTEQ5L-LO_HardQCDSelectionQuark_170To230_2017-02-03-125526
8352 seconds 2.32 hours CTEQ5L-LO_HardQCDSelectionQuark_170To230_2017-02-03-125526
6193.49 seconds 1.72041 hours CTEQ5L-LO_HardQCDSelectionQuark_170To230_2017-02-03-125526
9097.92 seconds 2.5272 hours CTEQ5L-LO_HardQCDSelectionQuark_170To230_2017-02-03-125526
9108.98 seconds 2.53027 hours CTEQ5L-LO_HardQCDSelectionQuark_170To230_2017-02-03-125526
9129.29 seconds 2.53591 hours CTEQ5L-LO_HardQCDSelectionQuark_170To230_2017-02-03-125526
6355.57 seconds 1.76544 hours CTEQ5L-LO_HardQCDSelectionQuark_170To230_2017-02-03-125526
9199.93 seconds 2.55554 hours CTEQ5L-LO_HardQCDSelectionQuark_170To230_2017-02-03-125526
9014.94 seconds 2.50415 hours CTEQ5L-LO_HardQCDSelectionQuark_170To230_2017-02-03-125526
6431.01 seconds 1.78639 hours CTEQ5L-LO_HardQCDSelectionQuark_170To230_2017-02-03-125526
6547.13 seconds 1.81865 hours CTEQ5L-LO_HardQCDSelectionQuark_170To230_2017-02-03-125526


4447.8 seconds 1.2355 hours CTEQ5L-LO_HardQCDSelectionQuark_20To30_2017-02-03-125526
4121.65 seconds 1.1449 hours CTEQ5L-LO_HardQCDSelectionQuark_20To30_2017-02-03-125526
5964.13 seconds 1.6567 hours CTEQ5L-LO_HardQCDSelectionQuark_20To30_2017-02-03-125526
5569.81 seconds 1.54717 hours CTEQ5L-LO_HardQCDSelectionQuark_20To30_2017-02-03-125526
5110.62 seconds 1.41962 hours CTEQ5L-LO_HardQCDSelectionQuark_20To30_2017-02-03-125526
4086.53 seconds 1.13515 hours CTEQ5L-LO_HardQCDSelectionQuark_20To30_2017-02-03-125526
5720.41 seconds 1.589 hours CTEQ5L-LO_HardQCDSelectionQuark_20To30_2017-02-03-125526
5088.62 seconds 1.41351 hours CTEQ5L-LO_HardQCDSelectionQuark_20To30_2017-02-03-125526
5726.26 seconds 1.59063 hours CTEQ5L-LO_HardQCDSelectionQuark_20To30_2017-02-03-125526
4134.85 seconds 1.14857 hours CTEQ5L-LO_HardQCDSelectionQuark_20To30_2017-02-03-125526
5138.31 seconds 1.42731 hours CTEQ5L-LO_HardQCDSelectionQuark_20To30_2017-02-03-125526
4613.33 seconds 1.28148 hours CTEQ5L-LO_HardQCDSelectionQuark_20To30_2017-02-03-125526
5866.15 seconds 1.62949 hours CTEQ5L-LO_HardQCDSelectionQuark_20To30_2017-02-03-125526
4553.51 seconds 1.26486 hours CTEQ5L-LO_HardQCDSelectionQuark_20To30_2017-02-03-125526
5166.78 seconds 1.43522 hours CTEQ5L-LO_HardQCDSelectionQuark_20To30_2017-02-03-125526
4035.54 seconds 1.12098 hours CTEQ5L-LO_HardQCDSelectionQuark_20To30_2017-02-03-125526
4132.76 seconds 1.14799 hours CTEQ5L-LO_HardQCDSelectionQuark_20To30_2017-02-03-125526
4099.59 seconds 1.13878 hours CTEQ5L-LO_HardQCDSelectionQuark_20To30_2017-02-03-125526
4049.66 seconds 1.12491 hours CTEQ5L-LO_HardQCDSelectionQuark_20To30_2017-02-03-125526
4215.88 seconds 1.17108 hours CTEQ5L-LO_HardQCDSelectionQuark_20To30_2017-02-03-125526


7039.07 seconds 1.9553 hours CTEQ5L-LO_HardQCDSelectionQuark_230To300_2017-02-03-125526
6976.52 seconds 1.93792 hours CTEQ5L-LO_HardQCDSelectionQuark_230To300_2017-02-03-125526
7029.89 seconds 1.95275 hours CTEQ5L-LO_HardQCDSelectionQuark_230To300_2017-02-03-125526
7732.39 seconds 2.14789 hours CTEQ5L-LO_HardQCDSelectionQuark_230To300_2017-02-03-125526
8783.17 seconds 2.43977 hours CTEQ5L-LO_HardQCDSelectionQuark_230To300_2017-02-03-125526
7273.14 seconds 2.02032 hours CTEQ5L-LO_HardQCDSelectionQuark_230To300_2017-02-03-125526
9823.09 seconds 2.72864 hours CTEQ5L-LO_HardQCDSelectionQuark_230To300_2017-02-03-125526
9743.75 seconds 2.7066 hours CTEQ5L-LO_HardQCDSelectionQuark_230To300_2017-02-03-125526
6905.23 seconds 1.91812 hours CTEQ5L-LO_HardQCDSelectionQuark_230To300_2017-02-03-125526
8549.86 seconds 2.37496 hours CTEQ5L-LO_HardQCDSelectionQuark_230To300_2017-02-03-125526
9677.48 seconds 2.68819 hours CTEQ5L-LO_HardQCDSelectionQuark_230To300_2017-02-03-125526
9584.37 seconds 2.66233 hours CTEQ5L-LO_HardQCDSelectionQuark_230To300_2017-02-03-125526
8863.71 seconds 2.46214 hours CTEQ5L-LO_HardQCDSelectionQuark_230To300_2017-02-03-125526
9412.96 seconds 2.61471 hours CTEQ5L-LO_HardQCDSelectionQuark_230To300_2017-02-03-125526
9388.97 seconds 2.60805 hours CTEQ5L-LO_HardQCDSelectionQuark_230To300_2017-02-03-125526
9794.51 seconds 2.7207 hours CTEQ5L-LO_HardQCDSelectionQuark_230To300_2017-02-03-125526
7008.17 seconds 1.94671 hours CTEQ5L-LO_HardQCDSelectionQuark_230To300_2017-02-03-125526
9379.22 seconds 2.60534 hours CTEQ5L-LO_HardQCDSelectionQuark_230To300_2017-02-03-125526
9864.88 seconds 2.74024 hours CTEQ5L-LO_HardQCDSelectionQuark_230To300_2017-02-03-125526
9963.2 seconds 2.76756 hours CTEQ5L-LO_HardQCDSelectionQuark_230To300_2017-02-03-125526


9181.32 seconds 2.55037 hours CTEQ5L-LO_HardQCDSelectionQuark_300To380_2017-02-03-125526
7168.19 seconds 1.99116 hours CTEQ5L-LO_HardQCDSelectionQuark_300To380_2017-02-03-125526
9187.66 seconds 2.55213 hours CTEQ5L-LO_HardQCDSelectionQuark_300To380_2017-02-03-125526
7309.57 seconds 2.03044 hours CTEQ5L-LO_HardQCDSelectionQuark_300To380_2017-02-03-125526
10002 seconds 2.77833 hours CTEQ5L-LO_HardQCDSelectionQuark_300To380_2017-02-03-125526
8367.64 seconds 2.32434 hours CTEQ5L-LO_HardQCDSelectionQuark_300To380_2017-02-03-125526
6733.59 seconds 1.87044 hours CTEQ5L-LO_HardQCDSelectionQuark_300To380_2017-02-03-125526
6857.23 seconds 1.90479 hours CTEQ5L-LO_HardQCDSelectionQuark_300To380_2017-02-03-125526
10323.8 seconds 2.86772 hours CTEQ5L-LO_HardQCDSelectionQuark_300To380_2017-02-03-125526
7002.28 seconds 1.94508 hours CTEQ5L-LO_HardQCDSelectionQuark_300To380_2017-02-03-125526
7020.83 seconds 1.95023 hours CTEQ5L-LO_HardQCDSelectionQuark_300To380_2017-02-03-125526
10422.1 seconds 2.89503 hours CTEQ5L-LO_HardQCDSelectionQuark_300To380_2017-02-03-125526
6777.57 seconds 1.88266 hours CTEQ5L-LO_HardQCDSelectionQuark_300To380_2017-02-03-125526
8136.62 seconds 2.26017 hours CTEQ5L-LO_HardQCDSelectionQuark_300To380_2017-02-03-125526
9032.63 seconds 2.50906 hours CTEQ5L-LO_HardQCDSelectionQuark_300To380_2017-02-03-125526
10634.9 seconds 2.95414 hours CTEQ5L-LO_HardQCDSelectionQuark_300To380_2017-02-03-125526
4748.47 seconds 1.31902 hours CTEQ5L-LO_HardQCDSelectionQuark_300To380_2017-02-03-125526
7706.67 seconds 2.14074 hours CTEQ5L-LO_HardQCDSelectionQuark_300To380_2017-02-03-125526
7742.45 seconds 2.15068 hours CTEQ5L-LO_HardQCDSelectionQuark_300To380_2017-02-03-125526
7467.08 seconds 2.07419 hours CTEQ5L-LO_HardQCDSelectionQuark_300To380_2017-02-03-125526


4544.25 seconds 1.26229 hours CTEQ5L-LO_HardQCDSelectionQuark_30To50_2017-02-03-125526
4514.03 seconds 1.2539 hours CTEQ5L-LO_HardQCDSelectionQuark_30To50_2017-02-03-125526
4505.76 seconds 1.2516 hours CTEQ5L-LO_HardQCDSelectionQuark_30To50_2017-02-03-125526
5769.86 seconds 1.60274 hours CTEQ5L-LO_HardQCDSelectionQuark_30To50_2017-02-03-125526
4439.6 seconds 1.23322 hours CTEQ5L-LO_HardQCDSelectionQuark_30To50_2017-02-03-125526
6451.65 seconds 1.79212 hours CTEQ5L-LO_HardQCDSelectionQuark_30To50_2017-02-03-125526
4527.8 seconds 1.25772 hours CTEQ5L-LO_HardQCDSelectionQuark_30To50_2017-02-03-125526
4627.68 seconds 1.28547 hours CTEQ5L-LO_HardQCDSelectionQuark_30To50_2017-02-03-125526
4450.58 seconds 1.23627 hours CTEQ5L-LO_HardQCDSelectionQuark_30To50_2017-02-03-125526
6276.99 seconds 1.74361 hours CTEQ5L-LO_HardQCDSelectionQuark_30To50_2017-02-03-125526
4311.14 seconds 1.19754 hours CTEQ5L-LO_HardQCDSelectionQuark_30To50_2017-02-03-125526
4479.67 seconds 1.24435 hours CTEQ5L-LO_HardQCDSelectionQuark_30To50_2017-02-03-125526
6736.6 seconds 1.87128 hours CTEQ5L-LO_HardQCDSelectionQuark_30To50_2017-02-03-125526
4424.95 seconds 1.22915 hours CTEQ5L-LO_HardQCDSelectionQuark_30To50_2017-02-03-125526
4276.2 seconds 1.18783 hours CTEQ5L-LO_HardQCDSelectionQuark_30To50_2017-02-03-125526
4242.7 seconds 1.17853 hours CTEQ5L-LO_HardQCDSelectionQuark_30To50_2017-02-03-125526
4194 seconds 1.165 hours CTEQ5L-LO_HardQCDSelectionQuark_30To50_2017-02-03-125526
4274.86 seconds 1.18746 hours CTEQ5L-LO_HardQCDSelectionQuark_30To50_2017-02-03-125526
4190.28 seconds 1.16397 hours CTEQ5L-LO_HardQCDSelectionQuark_30To50_2017-02-03-125526
5058.62 seconds 1.40517 hours CTEQ5L-LO_HardQCDSelectionQuark_30To50_2017-02-03-125526


9748.66 seconds 2.70796 hours CTEQ5L-LO_HardQCDSelectionQuark_380To10000_2017-02-03-125526
7650.24 seconds 2.12507 hours CTEQ5L-LO_HardQCDSelectionQuark_380To10000_2017-02-03-125526
7569.82 seconds 2.10273 hours CTEQ5L-LO_HardQCDSelectionQuark_380To10000_2017-02-03-125526
10818.4 seconds 3.00511 hours CTEQ5L-LO_HardQCDSelectionQuark_380To10000_2017-02-03-125526
10829.1 seconds 3.00808 hours CTEQ5L-LO_HardQCDSelectionQuark_380To10000_2017-02-03-125526
10874.2 seconds 3.02061 hours CTEQ5L-LO_HardQCDSelectionQuark_380To10000_2017-02-03-125526
7445.98 seconds 2.06833 hours CTEQ5L-LO_HardQCDSelectionQuark_380To10000_2017-02-03-125526
9548.33 seconds 2.65231 hours CTEQ5L-LO_HardQCDSelectionQuark_380To10000_2017-02-03-125526
11013.2 seconds 3.05922 hours CTEQ5L-LO_HardQCDSelectionQuark_380To10000_2017-02-03-125526
7709.62 seconds 2.14156 hours CTEQ5L-LO_HardQCDSelectionQuark_380To10000_2017-02-03-125526
9803.94 seconds 2.72332 hours CTEQ5L-LO_HardQCDSelectionQuark_380To10000_2017-02-03-125526
11005.3 seconds 3.05703 hours CTEQ5L-LO_HardQCDSelectionQuark_380To10000_2017-02-03-125526
10633.7 seconds 2.95381 hours CTEQ5L-LO_HardQCDSelectionQuark_380To10000_2017-02-03-125526
7702.66 seconds 2.13963 hours CTEQ5L-LO_HardQCDSelectionQuark_380To10000_2017-02-03-125526
7475.63 seconds 2.07656 hours CTEQ5L-LO_HardQCDSelectionQuark_380To10000_2017-02-03-125526
11269.2 seconds 3.13033 hours CTEQ5L-LO_HardQCDSelectionQuark_380To10000_2017-02-03-125526
7776.06 seconds 2.16002 hours CTEQ5L-LO_HardQCDSelectionQuark_380To10000_2017-02-03-125526
9601.29 seconds 2.66703 hours CTEQ5L-LO_HardQCDSelectionQuark_380To10000_2017-02-03-125526
10741.9 seconds 2.98386 hours CTEQ5L-LO_HardQCDSelectionQuark_380To10000_2017-02-03-125526
7844.54 seconds 2.17904 hours CTEQ5L-LO_HardQCDSelectionQuark_380To10000_2017-02-03-125526


7083.85 seconds 1.96774 hours CTEQ5L-LO_HardQCDSelectionQuark_50To80_2017-02-03-125526
7173.6 seconds 1.99267 hours CTEQ5L-LO_HardQCDSelectionQuark_50To80_2017-02-03-125526
7215.57 seconds 2.00433 hours CTEQ5L-LO_HardQCDSelectionQuark_50To80_2017-02-03-125526
7107.01 seconds 1.97417 hours CTEQ5L-LO_HardQCDSelectionQuark_50To80_2017-02-03-125526
6076.53 seconds 1.68792 hours CTEQ5L-LO_HardQCDSelectionQuark_50To80_2017-02-03-125526
7370.5 seconds 2.04736 hours CTEQ5L-LO_HardQCDSelectionQuark_50To80_2017-02-03-125526
6410.99 seconds 1.78083 hours CTEQ5L-LO_HardQCDSelectionQuark_50To80_2017-02-03-125526
5076.95 seconds 1.41026 hours CTEQ5L-LO_HardQCDSelectionQuark_50To80_2017-02-03-125526
5335.7 seconds 1.48214 hours CTEQ5L-LO_HardQCDSelectionQuark_50To80_2017-02-03-125526
5064.78 seconds 1.40688 hours CTEQ5L-LO_HardQCDSelectionQuark_50To80_2017-02-03-125526
5019.2 seconds 1.39422 hours CTEQ5L-LO_HardQCDSelectionQuark_50To80_2017-02-03-125526
7061.29 seconds 1.96147 hours CTEQ5L-LO_HardQCDSelectionQuark_50To80_2017-02-03-125526
5095.1 seconds 1.41531 hours CTEQ5L-LO_HardQCDSelectionQuark_50To80_2017-02-03-125526
7003.66 seconds 1.94546 hours CTEQ5L-LO_HardQCDSelectionQuark_50To80_2017-02-03-125526
5005.63 seconds 1.39045 hours CTEQ5L-LO_HardQCDSelectionQuark_50To80_2017-02-03-125526
5265.18 seconds 1.46255 hours CTEQ5L-LO_HardQCDSelectionQuark_50To80_2017-02-03-125526
7287.74 seconds 2.02437 hours CTEQ5L-LO_HardQCDSelectionQuark_50To80_2017-02-03-125526
5340.73 seconds 1.48354 hours CTEQ5L-LO_HardQCDSelectionQuark_50To80_2017-02-03-125526
7175.21 seconds 1.99311 hours CTEQ5L-LO_HardQCDSelectionQuark_50To80_2017-02-03-125526
7460.09 seconds 2.07225 hours CTEQ5L-LO_HardQCDSelectionQuark_50To80_2017-02-03-125526


8000.62 seconds 2.22239 hours CTEQ5L-LO_HardQCDSelectionQuark_80To120_2017-02-03-125526
5912.78 seconds 1.64244 hours CTEQ5L-LO_HardQCDSelectionQuark_80To120_2017-02-03-125526
6904.95 seconds 1.91804 hours CTEQ5L-LO_HardQCDSelectionQuark_80To120_2017-02-03-125526
6926.78 seconds 1.92411 hours CTEQ5L-LO_HardQCDSelectionQuark_80To120_2017-02-03-125526
5981.8 seconds 1.66161 hours CTEQ5L-LO_HardQCDSelectionQuark_80To120_2017-02-03-125526
5865.02 seconds 1.62917 hours CTEQ5L-LO_HardQCDSelectionQuark_80To120_2017-02-03-125526
5699.91 seconds 1.58331 hours CTEQ5L-LO_HardQCDSelectionQuark_80To120_2017-02-03-125526
5644.43 seconds 1.5679 hours CTEQ5L-LO_HardQCDSelectionQuark_80To120_2017-02-03-125526
5694.13 seconds 1.5817 hours CTEQ5L-LO_HardQCDSelectionQuark_80To120_2017-02-03-125526
5620.28 seconds 1.56119 hours CTEQ5L-LO_HardQCDSelectionQuark_80To120_2017-02-03-125526
6142.69 seconds 1.7063 hours CTEQ5L-LO_HardQCDSelectionQuark_80To120_2017-02-03-125526
8343.29 seconds 2.31758 hours CTEQ5L-LO_HardQCDSelectionQuark_80To120_2017-02-03-125526
7866.51 seconds 2.18514 hours CTEQ5L-LO_HardQCDSelectionQuark_80To120_2017-02-03-125526
7629.56 seconds 2.11932 hours CTEQ5L-LO_HardQCDSelectionQuark_80To120_2017-02-03-125526
7562.53 seconds 2.1007 hours CTEQ5L-LO_HardQCDSelectionQuark_80To120_2017-02-03-125526
5599.47 seconds 1.55541 hours CTEQ5L-LO_HardQCDSelectionQuark_80To120_2017-02-03-125526
5396.77 seconds 1.4991 hours CTEQ5L-LO_HardQCDSelectionQuark_80To120_2017-02-03-125526
5638.73 seconds 1.56631 hours CTEQ5L-LO_HardQCDSelectionQuark_80To120_2017-02-03-125526
7023.05 seconds 1.95085 hours CTEQ5L-LO_HardQCDSelectionQuark_80To120_2017-02-03-125526
5911.83 seconds 1.64217 hours CTEQ5L-LO_HardQCDSelectionQuark_80To120_2017-02-03-125526




