

Time taken to complete the job, Statistics
==========================================
5720.4 seconds 1.589 hours BoundAndFreeProton_EPPS16_CT14nlo_10To20_2017-05-06-215546
6767.18 seconds 1.87977 hours BoundAndFreeProton_EPPS16_CT14nlo_10To20_2017-05-06-215546
6732.34 seconds 1.87009 hours BoundAndFreeProton_EPPS16_CT14nlo_10To20_2017-05-06-215546
6723.22 seconds 1.86756 hours BoundAndFreeProton_EPPS16_CT14nlo_10To20_2017-05-06-215546
5818.84 seconds 1.61634 hours BoundAndFreeProton_EPPS16_CT14nlo_10To20_2017-05-06-215546
5530.82 seconds 1.53634 hours BoundAndFreeProton_EPPS16_CT14nlo_10To20_2017-05-06-215546
5303.96 seconds 1.47332 hours BoundAndFreeProton_EPPS16_CT14nlo_10To20_2017-05-06-215546
5503.85 seconds 1.52885 hours BoundAndFreeProton_EPPS16_CT14nlo_10To20_2017-05-06-215546
6863.59 seconds 1.90655 hours BoundAndFreeProton_EPPS16_CT14nlo_10To20_2017-05-06-215546
6750.41 seconds 1.87511 hours BoundAndFreeProton_EPPS16_CT14nlo_10To20_2017-05-06-215546
5295.44 seconds 1.47096 hours BoundAndFreeProton_EPPS16_CT14nlo_10To20_2017-05-06-215546
5814.82 seconds 1.61523 hours BoundAndFreeProton_EPPS16_CT14nlo_10To20_2017-05-06-215546
6794.37 seconds 1.88732 hours BoundAndFreeProton_EPPS16_CT14nlo_10To20_2017-05-06-215546
5660.89 seconds 1.57247 hours BoundAndFreeProton_EPPS16_CT14nlo_10To20_2017-05-06-215546
7595.29 seconds 2.1098 hours BoundAndFreeProton_EPPS16_CT14nlo_10To20_2017-05-06-215546
6921.17 seconds 1.92255 hours BoundAndFreeProton_EPPS16_CT14nlo_10To20_2017-05-06-215546
6803.3 seconds 1.88981 hours BoundAndFreeProton_EPPS16_CT14nlo_10To20_2017-05-06-215546
6862.3 seconds 1.90619 hours BoundAndFreeProton_EPPS16_CT14nlo_10To20_2017-05-06-215546
6865.66 seconds 1.90713 hours BoundAndFreeProton_EPPS16_CT14nlo_10To20_2017-05-06-215546
6885.18 seconds 1.91255 hours BoundAndFreeProton_EPPS16_CT14nlo_10To20_2017-05-06-215546


7147.66 seconds 1.98546 hours BoundAndFreeProton_EPPS16_CT14nlo_120To170_2017-05-06-215546
7217.84 seconds 2.00496 hours BoundAndFreeProton_EPPS16_CT14nlo_120To170_2017-05-06-215546
9489.94 seconds 2.63609 hours BoundAndFreeProton_EPPS16_CT14nlo_120To170_2017-05-06-215546
7402.51 seconds 2.05625 hours BoundAndFreeProton_EPPS16_CT14nlo_120To170_2017-05-06-215546
7349.18 seconds 2.04144 hours BoundAndFreeProton_EPPS16_CT14nlo_120To170_2017-05-06-215546
9402.23 seconds 2.61173 hours BoundAndFreeProton_EPPS16_CT14nlo_120To170_2017-05-06-215546
7375.14 seconds 2.04865 hours BoundAndFreeProton_EPPS16_CT14nlo_120To170_2017-05-06-215546
10671.6 seconds 2.96433 hours BoundAndFreeProton_EPPS16_CT14nlo_120To170_2017-05-06-215546
7627.16 seconds 2.11866 hours BoundAndFreeProton_EPPS16_CT14nlo_120To170_2017-05-06-215546
7661.41 seconds 2.12817 hours BoundAndFreeProton_EPPS16_CT14nlo_120To170_2017-05-06-215546
7511.6 seconds 2.08656 hours BoundAndFreeProton_EPPS16_CT14nlo_120To170_2017-05-06-215546
7054.37 seconds 1.95955 hours BoundAndFreeProton_EPPS16_CT14nlo_120To170_2017-05-06-215546
7632.8 seconds 2.12022 hours BoundAndFreeProton_EPPS16_CT14nlo_120To170_2017-05-06-215546
7193.33 seconds 1.99815 hours BoundAndFreeProton_EPPS16_CT14nlo_120To170_2017-05-06-215546
7329.38 seconds 2.03594 hours BoundAndFreeProton_EPPS16_CT14nlo_120To170_2017-05-06-215546
7218.01 seconds 2.005 hours BoundAndFreeProton_EPPS16_CT14nlo_120To170_2017-05-06-215546
10913.5 seconds 3.03153 hours BoundAndFreeProton_EPPS16_CT14nlo_120To170_2017-05-06-215546
7595.15 seconds 2.10976 hours BoundAndFreeProton_EPPS16_CT14nlo_120To170_2017-05-06-215546
7607.49 seconds 2.11319 hours BoundAndFreeProton_EPPS16_CT14nlo_120To170_2017-05-06-215546
10768.6 seconds 2.99128 hours BoundAndFreeProton_EPPS16_CT14nlo_120To170_2017-05-06-215546


7813.66 seconds 2.17046 hours BoundAndFreeProton_EPPS16_CT14nlo_170To230_2017-05-06-215546
7626.14 seconds 2.11837 hours BoundAndFreeProton_EPPS16_CT14nlo_170To230_2017-05-06-215546
8069.09 seconds 2.24141 hours BoundAndFreeProton_EPPS16_CT14nlo_170To230_2017-05-06-215546
10882 seconds 3.02278 hours BoundAndFreeProton_EPPS16_CT14nlo_170To230_2017-05-06-215546
7502.82 seconds 2.08412 hours BoundAndFreeProton_EPPS16_CT14nlo_170To230_2017-05-06-215546
7536.1 seconds 2.09336 hours BoundAndFreeProton_EPPS16_CT14nlo_170To230_2017-05-06-215546
10808.8 seconds 3.00244 hours BoundAndFreeProton_EPPS16_CT14nlo_170To230_2017-05-06-215546
11049.3 seconds 3.06925 hours BoundAndFreeProton_EPPS16_CT14nlo_170To230_2017-05-06-215546
7784.61 seconds 2.16239 hours BoundAndFreeProton_EPPS16_CT14nlo_170To230_2017-05-06-215546
9870.5 seconds 2.74181 hours BoundAndFreeProton_EPPS16_CT14nlo_170To230_2017-05-06-215546
7816.09 seconds 2.17114 hours BoundAndFreeProton_EPPS16_CT14nlo_170To230_2017-05-06-215546
7765.87 seconds 2.15719 hours BoundAndFreeProton_EPPS16_CT14nlo_170To230_2017-05-06-215546
7873.3 seconds 2.18703 hours BoundAndFreeProton_EPPS16_CT14nlo_170To230_2017-05-06-215546
7918.46 seconds 2.19957 hours BoundAndFreeProton_EPPS16_CT14nlo_170To230_2017-05-06-215546
11286.6 seconds 3.13517 hours BoundAndFreeProton_EPPS16_CT14nlo_170To230_2017-05-06-215546
10947.4 seconds 3.04094 hours BoundAndFreeProton_EPPS16_CT14nlo_170To230_2017-05-06-215546
7726.6 seconds 2.14628 hours BoundAndFreeProton_EPPS16_CT14nlo_170To230_2017-05-06-215546
7522.7 seconds 2.08964 hours BoundAndFreeProton_EPPS16_CT14nlo_170To230_2017-05-06-215546
11042.7 seconds 3.06742 hours BoundAndFreeProton_EPPS16_CT14nlo_170To230_2017-05-06-215546
9585.81 seconds 2.66273 hours BoundAndFreeProton_EPPS16_CT14nlo_170To230_2017-05-06-215546


5762.3 seconds 1.60064 hours BoundAndFreeProton_EPPS16_CT14nlo_20To30_2017-05-06-215546
7934.44 seconds 2.20401 hours BoundAndFreeProton_EPPS16_CT14nlo_20To30_2017-05-06-215546
7145.22 seconds 1.98478 hours BoundAndFreeProton_EPPS16_CT14nlo_20To30_2017-05-06-215546
7967.62 seconds 2.21323 hours BoundAndFreeProton_EPPS16_CT14nlo_20To30_2017-05-06-215546
7392.96 seconds 2.0536 hours BoundAndFreeProton_EPPS16_CT14nlo_20To30_2017-05-06-215546
8029.56 seconds 2.23043 hours BoundAndFreeProton_EPPS16_CT14nlo_20To30_2017-05-06-215546
8017.34 seconds 2.22704 hours BoundAndFreeProton_EPPS16_CT14nlo_20To30_2017-05-06-215546
8009.51 seconds 2.22486 hours BoundAndFreeProton_EPPS16_CT14nlo_20To30_2017-05-06-215546
5763.75 seconds 1.60104 hours BoundAndFreeProton_EPPS16_CT14nlo_20To30_2017-05-06-215546
5815.97 seconds 1.61555 hours BoundAndFreeProton_EPPS16_CT14nlo_20To30_2017-05-06-215546
6233.21 seconds 1.73145 hours BoundAndFreeProton_EPPS16_CT14nlo_20To30_2017-05-06-215546
5815.17 seconds 1.61533 hours BoundAndFreeProton_EPPS16_CT14nlo_20To30_2017-05-06-215546
6180.52 seconds 1.71681 hours BoundAndFreeProton_EPPS16_CT14nlo_20To30_2017-05-06-215546
7125.77 seconds 1.97938 hours BoundAndFreeProton_EPPS16_CT14nlo_20To30_2017-05-06-215546
6013.75 seconds 1.67049 hours BoundAndFreeProton_EPPS16_CT14nlo_20To30_2017-05-06-215546
6362.24 seconds 1.76729 hours BoundAndFreeProton_EPPS16_CT14nlo_20To30_2017-05-06-215546
6346.92 seconds 1.76303 hours BoundAndFreeProton_EPPS16_CT14nlo_20To30_2017-05-06-215546
7395.21 seconds 2.05423 hours BoundAndFreeProton_EPPS16_CT14nlo_20To30_2017-05-06-215546
6277.56 seconds 1.74377 hours BoundAndFreeProton_EPPS16_CT14nlo_20To30_2017-05-06-215546
8109.78 seconds 2.25272 hours BoundAndFreeProton_EPPS16_CT14nlo_20To30_2017-05-06-215546


8230.85 seconds 2.28635 hours BoundAndFreeProton_EPPS16_CT14nlo_230To300_2017-05-06-215546
7866.81 seconds 2.18522 hours BoundAndFreeProton_EPPS16_CT14nlo_230To300_2017-05-06-215546
8281.36 seconds 2.30038 hours BoundAndFreeProton_EPPS16_CT14nlo_230To300_2017-05-06-215546
7545.79 seconds 2.09605 hours BoundAndFreeProton_EPPS16_CT14nlo_230To300_2017-05-06-215546
8568.2 seconds 2.38006 hours BoundAndFreeProton_EPPS16_CT14nlo_230To300_2017-05-06-215546
10061.1 seconds 2.79475 hours BoundAndFreeProton_EPPS16_CT14nlo_230To300_2017-05-06-215546
10218.4 seconds 2.83844 hours BoundAndFreeProton_EPPS16_CT14nlo_230To300_2017-05-06-215546
8005.32 seconds 2.2237 hours BoundAndFreeProton_EPPS16_CT14nlo_230To300_2017-05-06-215546
8158.23 seconds 2.26618 hours BoundAndFreeProton_EPPS16_CT14nlo_230To300_2017-05-06-215546
8866.19 seconds 2.46283 hours BoundAndFreeProton_EPPS16_CT14nlo_230To300_2017-05-06-215546
8216.73 seconds 2.28242 hours BoundAndFreeProton_EPPS16_CT14nlo_230To300_2017-05-06-215546
8040.53 seconds 2.23348 hours BoundAndFreeProton_EPPS16_CT14nlo_230To300_2017-05-06-215546
8232.23 seconds 2.28673 hours BoundAndFreeProton_EPPS16_CT14nlo_230To300_2017-05-06-215546
8691.78 seconds 2.41438 hours BoundAndFreeProton_EPPS16_CT14nlo_230To300_2017-05-06-215546
8384.37 seconds 2.32899 hours BoundAndFreeProton_EPPS16_CT14nlo_230To300_2017-05-06-215546
8069.32 seconds 2.24148 hours BoundAndFreeProton_EPPS16_CT14nlo_230To300_2017-05-06-215546
8580.04 seconds 2.38334 hours BoundAndFreeProton_EPPS16_CT14nlo_230To300_2017-05-06-215546
8568.97 seconds 2.38027 hours BoundAndFreeProton_EPPS16_CT14nlo_230To300_2017-05-06-215546
8302.87 seconds 2.30635 hours BoundAndFreeProton_EPPS16_CT14nlo_230To300_2017-05-06-215546
8237.78 seconds 2.28827 hours BoundAndFreeProton_EPPS16_CT14nlo_230To300_2017-05-06-215546


7838.79 seconds 2.17744 hours BoundAndFreeProton_EPPS16_CT14nlo_300To380_2017-05-06-215546
11831 seconds 3.28639 hours BoundAndFreeProton_EPPS16_CT14nlo_300To380_2017-05-06-215546
8242.04 seconds 2.28946 hours BoundAndFreeProton_EPPS16_CT14nlo_300To380_2017-05-06-215546
8427 seconds 2.34083 hours BoundAndFreeProton_EPPS16_CT14nlo_300To380_2017-05-06-215546
7846.21 seconds 2.1795 hours BoundAndFreeProton_EPPS16_CT14nlo_300To380_2017-05-06-215546
10546 seconds 2.92944 hours BoundAndFreeProton_EPPS16_CT14nlo_300To380_2017-05-06-215546
10701.3 seconds 2.97258 hours BoundAndFreeProton_EPPS16_CT14nlo_300To380_2017-05-06-215546
7799.4 seconds 2.1665 hours BoundAndFreeProton_EPPS16_CT14nlo_300To380_2017-05-06-215546
10376 seconds 2.88222 hours BoundAndFreeProton_EPPS16_CT14nlo_300To380_2017-05-06-215546
10457.3 seconds 2.90481 hours BoundAndFreeProton_EPPS16_CT14nlo_300To380_2017-05-06-215546
10612.6 seconds 2.94794 hours BoundAndFreeProton_EPPS16_CT14nlo_300To380_2017-05-06-215546
8194.75 seconds 2.27632 hours BoundAndFreeProton_EPPS16_CT14nlo_300To380_2017-05-06-215546
10568.1 seconds 2.93558 hours BoundAndFreeProton_EPPS16_CT14nlo_300To380_2017-05-06-215546
8235.77 seconds 2.28771 hours BoundAndFreeProton_EPPS16_CT14nlo_300To380_2017-05-06-215546
8319.14 seconds 2.31087 hours BoundAndFreeProton_EPPS16_CT14nlo_300To380_2017-05-06-215546
10396.7 seconds 2.88797 hours BoundAndFreeProton_EPPS16_CT14nlo_300To380_2017-05-06-215546
8187.72 seconds 2.27437 hours BoundAndFreeProton_EPPS16_CT14nlo_300To380_2017-05-06-215546
8264.04 seconds 2.29557 hours BoundAndFreeProton_EPPS16_CT14nlo_300To380_2017-05-06-215546
8300.29 seconds 2.30564 hours BoundAndFreeProton_EPPS16_CT14nlo_300To380_2017-05-06-215546
8184.02 seconds 2.27334 hours BoundAndFreeProton_EPPS16_CT14nlo_300To380_2017-05-06-215546


8556.78 seconds 2.37688 hours BoundAndFreeProton_EPPS16_CT14nlo_30To50_2017-05-06-215546
6716.83 seconds 1.86579 hours BoundAndFreeProton_EPPS16_CT14nlo_30To50_2017-05-06-215546
7795.9 seconds 2.16553 hours BoundAndFreeProton_EPPS16_CT14nlo_30To50_2017-05-06-215546
6426.3 seconds 1.78508 hours BoundAndFreeProton_EPPS16_CT14nlo_30To50_2017-05-06-215546
6951.22 seconds 1.93089 hours BoundAndFreeProton_EPPS16_CT14nlo_30To50_2017-05-06-215546
6397.89 seconds 1.77719 hours BoundAndFreeProton_EPPS16_CT14nlo_30To50_2017-05-06-215546
6424.99 seconds 1.78472 hours BoundAndFreeProton_EPPS16_CT14nlo_30To50_2017-05-06-215546
8570.57 seconds 2.38071 hours BoundAndFreeProton_EPPS16_CT14nlo_30To50_2017-05-06-215546
8610.11 seconds 2.3917 hours BoundAndFreeProton_EPPS16_CT14nlo_30To50_2017-05-06-215546
8409.25 seconds 2.3359 hours BoundAndFreeProton_EPPS16_CT14nlo_30To50_2017-05-06-215546
8846.4 seconds 2.45733 hours BoundAndFreeProton_EPPS16_CT14nlo_30To50_2017-05-06-215546
8571.71 seconds 2.38103 hours BoundAndFreeProton_EPPS16_CT14nlo_30To50_2017-05-06-215546
7694.87 seconds 2.13746 hours BoundAndFreeProton_EPPS16_CT14nlo_30To50_2017-05-06-215546
8718.41 seconds 2.42178 hours BoundAndFreeProton_EPPS16_CT14nlo_30To50_2017-05-06-215546
8586.37 seconds 2.3851 hours BoundAndFreeProton_EPPS16_CT14nlo_30To50_2017-05-06-215546
6614.03 seconds 1.83723 hours BoundAndFreeProton_EPPS16_CT14nlo_30To50_2017-05-06-215546
6599.73 seconds 1.83326 hours BoundAndFreeProton_EPPS16_CT14nlo_30To50_2017-05-06-215546
6596.69 seconds 1.83241 hours BoundAndFreeProton_EPPS16_CT14nlo_30To50_2017-05-06-215546
7738.87 seconds 2.14969 hours BoundAndFreeProton_EPPS16_CT14nlo_30To50_2017-05-06-215546
8546.88 seconds 2.37413 hours BoundAndFreeProton_EPPS16_CT14nlo_30To50_2017-05-06-215546


10713.3 seconds 2.97592 hours BoundAndFreeProton_EPPS16_CT14nlo_380To10000_2017-05-06-215546
8131.79 seconds 2.25883 hours BoundAndFreeProton_EPPS16_CT14nlo_380To10000_2017-05-06-215546
8078.13 seconds 2.24392 hours BoundAndFreeProton_EPPS16_CT14nlo_380To10000_2017-05-06-215546
8390.9 seconds 2.33081 hours BoundAndFreeProton_EPPS16_CT14nlo_380To10000_2017-05-06-215546
11582.2 seconds 3.21728 hours BoundAndFreeProton_EPPS16_CT14nlo_380To10000_2017-05-06-215546
7952.16 seconds 2.20893 hours BoundAndFreeProton_EPPS16_CT14nlo_380To10000_2017-05-06-215546
11772.6 seconds 3.27017 hours BoundAndFreeProton_EPPS16_CT14nlo_380To10000_2017-05-06-215546
8045.98 seconds 2.23499 hours BoundAndFreeProton_EPPS16_CT14nlo_380To10000_2017-05-06-215546
8055.57 seconds 2.23766 hours BoundAndFreeProton_EPPS16_CT14nlo_380To10000_2017-05-06-215546
11597.2 seconds 3.22144 hours BoundAndFreeProton_EPPS16_CT14nlo_380To10000_2017-05-06-215546
8333.5 seconds 2.31486 hours BoundAndFreeProton_EPPS16_CT14nlo_380To10000_2017-05-06-215546
11545.6 seconds 3.20711 hours BoundAndFreeProton_EPPS16_CT14nlo_380To10000_2017-05-06-215546
8207.72 seconds 2.27992 hours BoundAndFreeProton_EPPS16_CT14nlo_380To10000_2017-05-06-215546
11528.4 seconds 3.20233 hours BoundAndFreeProton_EPPS16_CT14nlo_380To10000_2017-05-06-215546
10680.2 seconds 2.96672 hours BoundAndFreeProton_EPPS16_CT14nlo_380To10000_2017-05-06-215546
10529 seconds 2.92472 hours BoundAndFreeProton_EPPS16_CT14nlo_380To10000_2017-05-06-215546
10738.1 seconds 2.98281 hours BoundAndFreeProton_EPPS16_CT14nlo_380To10000_2017-05-06-215546
8267.55 seconds 2.29654 hours BoundAndFreeProton_EPPS16_CT14nlo_380To10000_2017-05-06-215546
8276.09 seconds 2.29891 hours BoundAndFreeProton_EPPS16_CT14nlo_380To10000_2017-05-06-215546
10725.4 seconds 2.97928 hours BoundAndFreeProton_EPPS16_CT14nlo_380To10000_2017-05-06-215546


6300.11 seconds 1.75003 hours BoundAndFreeProton_EPPS16_CT14nlo_50To80_2017-05-06-215546
6608.6 seconds 1.83572 hours BoundAndFreeProton_EPPS16_CT14nlo_50To80_2017-05-06-215546
6433.78 seconds 1.78716 hours BoundAndFreeProton_EPPS16_CT14nlo_50To80_2017-05-06-215546
6596.26 seconds 1.83229 hours BoundAndFreeProton_EPPS16_CT14nlo_50To80_2017-05-06-215546
6526.36 seconds 1.81288 hours BoundAndFreeProton_EPPS16_CT14nlo_50To80_2017-05-06-215546
6488.96 seconds 1.80249 hours BoundAndFreeProton_EPPS16_CT14nlo_50To80_2017-05-06-215546
6437.24 seconds 1.78812 hours BoundAndFreeProton_EPPS16_CT14nlo_50To80_2017-05-06-215546
6351.77 seconds 1.76438 hours BoundAndFreeProton_EPPS16_CT14nlo_50To80_2017-05-06-215546
7115.92 seconds 1.97664 hours BoundAndFreeProton_EPPS16_CT14nlo_50To80_2017-05-06-215546
6696.41 seconds 1.86011 hours BoundAndFreeProton_EPPS16_CT14nlo_50To80_2017-05-06-215546
6412.72 seconds 1.78131 hours BoundAndFreeProton_EPPS16_CT14nlo_50To80_2017-05-06-215546
6562.71 seconds 1.82298 hours BoundAndFreeProton_EPPS16_CT14nlo_50To80_2017-05-06-215546
6449.32 seconds 1.79148 hours BoundAndFreeProton_EPPS16_CT14nlo_50To80_2017-05-06-215546
9116.71 seconds 2.53242 hours BoundAndFreeProton_EPPS16_CT14nlo_50To80_2017-05-06-215546
7311 seconds 2.03083 hours BoundAndFreeProton_EPPS16_CT14nlo_50To80_2017-05-06-215546
8398.7 seconds 2.33297 hours BoundAndFreeProton_EPPS16_CT14nlo_50To80_2017-05-06-215546
8349.23 seconds 2.31923 hours BoundAndFreeProton_EPPS16_CT14nlo_50To80_2017-05-06-215546
7263.6 seconds 2.01767 hours BoundAndFreeProton_EPPS16_CT14nlo_50To80_2017-05-06-215546
6383.85 seconds 1.77329 hours BoundAndFreeProton_EPPS16_CT14nlo_50To80_2017-05-06-215546
6690.23 seconds 1.8584 hours BoundAndFreeProton_EPPS16_CT14nlo_50To80_2017-05-06-215546


7719.46 seconds 2.14429 hours BoundAndFreeProton_EPPS16_CT14nlo_80To120_2017-05-06-215546
10007.4 seconds 2.77983 hours BoundAndFreeProton_EPPS16_CT14nlo_80To120_2017-05-06-215546
9938.32 seconds 2.76064 hours BoundAndFreeProton_EPPS16_CT14nlo_80To120_2017-05-06-215546
10223.2 seconds 2.83978 hours BoundAndFreeProton_EPPS16_CT14nlo_80To120_2017-05-06-215546
9799.5 seconds 2.72208 hours BoundAndFreeProton_EPPS16_CT14nlo_80To120_2017-05-06-215546
6911.1 seconds 1.91975 hours BoundAndFreeProton_EPPS16_CT14nlo_80To120_2017-05-06-215546
6944.73 seconds 1.92909 hours BoundAndFreeProton_EPPS16_CT14nlo_80To120_2017-05-06-215546
6728.18 seconds 1.86894 hours BoundAndFreeProton_EPPS16_CT14nlo_80To120_2017-05-06-215546
6879.53 seconds 1.91098 hours BoundAndFreeProton_EPPS16_CT14nlo_80To120_2017-05-06-215546
7885.43 seconds 2.1904 hours BoundAndFreeProton_EPPS16_CT14nlo_80To120_2017-05-06-215546
7602.43 seconds 2.11179 hours BoundAndFreeProton_EPPS16_CT14nlo_80To120_2017-05-06-215546
7255.4 seconds 2.01539 hours BoundAndFreeProton_EPPS16_CT14nlo_80To120_2017-05-06-215546
7512.26 seconds 2.08674 hours BoundAndFreeProton_EPPS16_CT14nlo_80To120_2017-05-06-215546
9839.94 seconds 2.73332 hours BoundAndFreeProton_EPPS16_CT14nlo_80To120_2017-05-06-215546
9758.11 seconds 2.71059 hours BoundAndFreeProton_EPPS16_CT14nlo_80To120_2017-05-06-215546
9664.18 seconds 2.68449 hours BoundAndFreeProton_EPPS16_CT14nlo_80To120_2017-05-06-215546
10099.1 seconds 2.80531 hours BoundAndFreeProton_EPPS16_CT14nlo_80To120_2017-05-06-215546
9876.09 seconds 2.74336 hours BoundAndFreeProton_EPPS16_CT14nlo_80To120_2017-05-06-215546
7541.57 seconds 2.09488 hours BoundAndFreeProton_EPPS16_CT14nlo_80To120_2017-05-06-215546
9752.93 seconds 2.70915 hours BoundAndFreeProton_EPPS16_CT14nlo_80To120_2017-05-06-215546




