

Time taken to complete the job, Statistics
==========================================
CTEQ5L-LO_HardQCDSelectionQuark_10To20_2017-02-01-100719
CTEQ5L-LO_HardQCDSelectionQuark_10To20_2017-02-01-100719
CTEQ5L-LO_HardQCDSelectionQuark_10To20_2017-02-01-100719
CTEQ5L-LO_HardQCDSelectionQuark_10To20_2017-02-01-100719
CTEQ5L-LO_HardQCDSelectionQuark_10To20_2017-02-01-100719
CTEQ5L-LO_HardQCDSelectionQuark_10To20_2017-02-01-100719
CTEQ5L-LO_HardQCDSelectionQuark_10To20_2017-02-01-100719
CTEQ5L-LO_HardQCDSelectionQuark_10To20_2017-02-01-100719
CTEQ5L-LO_HardQCDSelectionQuark_10To20_2017-02-01-100719
CTEQ5L-LO_HardQCDSelectionQuark_10To20_2017-02-01-100719
CTEQ5L-LO_HardQCDSelectionQuark_10To20_2017-02-01-100719
CTEQ5L-LO_HardQCDSelectionQuark_10To20_2017-02-01-100719
CTEQ5L-LO_HardQCDSelectionQuark_10To20_2017-02-01-100719
CTEQ5L-LO_HardQCDSelectionQuark_10To20_2017-02-01-100719
CTEQ5L-LO_HardQCDSelectionQuark_10To20_2017-02-01-100719
CTEQ5L-LO_HardQCDSelectionQuark_10To20_2017-02-01-100719
CTEQ5L-LO_HardQCDSelectionQuark_10To20_2017-02-01-100719
CTEQ5L-LO_HardQCDSelectionQuark_10To20_2017-02-01-100719
CTEQ5L-LO_HardQCDSelectionQuark_10To20_2017-02-01-100719
CTEQ5L-LO_HardQCDSelectionQuark_10To20_2017-02-01-100719


CTEQ5L-LO_HardQCDSelectionQuark_120To170_2017-02-01-100719
CTEQ5L-LO_HardQCDSelectionQuark_120To170_2017-02-01-100719
CTEQ5L-LO_HardQCDSelectionQuark_120To170_2017-02-01-100719
CTEQ5L-LO_HardQCDSelectionQuark_120To170_2017-02-01-100719
CTEQ5L-LO_HardQCDSelectionQuark_120To170_2017-02-01-100719
CTEQ5L-LO_HardQCDSelectionQuark_120To170_2017-02-01-100719
CTEQ5L-LO_HardQCDSelectionQuark_120To170_2017-02-01-100719
CTEQ5L-LO_HardQCDSelectionQuark_120To170_2017-02-01-100719
CTEQ5L-LO_HardQCDSelectionQuark_120To170_2017-02-01-100719
CTEQ5L-LO_HardQCDSelectionQuark_120To170_2017-02-01-100719
CTEQ5L-LO_HardQCDSelectionQuark_120To170_2017-02-01-100719
CTEQ5L-LO_HardQCDSelectionQuark_120To170_2017-02-01-100719
CTEQ5L-LO_HardQCDSelectionQuark_120To170_2017-02-01-100719
CTEQ5L-LO_HardQCDSelectionQuark_120To170_2017-02-01-100719
CTEQ5L-LO_HardQCDSelectionQuark_120To170_2017-02-01-100719
CTEQ5L-LO_HardQCDSelectionQuark_120To170_2017-02-01-100719
CTEQ5L-LO_HardQCDSelectionQuark_120To170_2017-02-01-100719
CTEQ5L-LO_HardQCDSelectionQuark_120To170_2017-02-01-100719
CTEQ5L-LO_HardQCDSelectionQuark_120To170_2017-02-01-100719
CTEQ5L-LO_HardQCDSelectionQuark_120To170_2017-02-01-100719


CTEQ5L-LO_HardQCDSelectionQuark_170To230_2017-02-01-100719
CTEQ5L-LO_HardQCDSelectionQuark_170To230_2017-02-01-100719
CTEQ5L-LO_HardQCDSelectionQuark_170To230_2017-02-01-100719
CTEQ5L-LO_HardQCDSelectionQuark_170To230_2017-02-01-100719
CTEQ5L-LO_HardQCDSelectionQuark_170To230_2017-02-01-100719
CTEQ5L-LO_HardQCDSelectionQuark_170To230_2017-02-01-100719
CTEQ5L-LO_HardQCDSelectionQuark_170To230_2017-02-01-100719
CTEQ5L-LO_HardQCDSelectionQuark_170To230_2017-02-01-100719
CTEQ5L-LO_HardQCDSelectionQuark_170To230_2017-02-01-100719
CTEQ5L-LO_HardQCDSelectionQuark_170To230_2017-02-01-100719
CTEQ5L-LO_HardQCDSelectionQuark_170To230_2017-02-01-100719
CTEQ5L-LO_HardQCDSelectionQuark_170To230_2017-02-01-100719
CTEQ5L-LO_HardQCDSelectionQuark_170To230_2017-02-01-100719
CTEQ5L-LO_HardQCDSelectionQuark_170To230_2017-02-01-100719
CTEQ5L-LO_HardQCDSelectionQuark_170To230_2017-02-01-100719
CTEQ5L-LO_HardQCDSelectionQuark_170To230_2017-02-01-100719
CTEQ5L-LO_HardQCDSelectionQuark_170To230_2017-02-01-100719
CTEQ5L-LO_HardQCDSelectionQuark_170To230_2017-02-01-100719
CTEQ5L-LO_HardQCDSelectionQuark_170To230_2017-02-01-100719
CTEQ5L-LO_HardQCDSelectionQuark_170To230_2017-02-01-100719


CTEQ5L-LO_HardQCDSelectionQuark_20To30_2017-02-01-100719
CTEQ5L-LO_HardQCDSelectionQuark_20To30_2017-02-01-100719
CTEQ5L-LO_HardQCDSelectionQuark_20To30_2017-02-01-100719
CTEQ5L-LO_HardQCDSelectionQuark_20To30_2017-02-01-100719
CTEQ5L-LO_HardQCDSelectionQuark_20To30_2017-02-01-100719
CTEQ5L-LO_HardQCDSelectionQuark_20To30_2017-02-01-100719
CTEQ5L-LO_HardQCDSelectionQuark_20To30_2017-02-01-100719
CTEQ5L-LO_HardQCDSelectionQuark_20To30_2017-02-01-100719
CTEQ5L-LO_HardQCDSelectionQuark_20To30_2017-02-01-100719
CTEQ5L-LO_HardQCDSelectionQuark_20To30_2017-02-01-100719
CTEQ5L-LO_HardQCDSelectionQuark_20To30_2017-02-01-100719
CTEQ5L-LO_HardQCDSelectionQuark_20To30_2017-02-01-100719
CTEQ5L-LO_HardQCDSelectionQuark_20To30_2017-02-01-100719
CTEQ5L-LO_HardQCDSelectionQuark_20To30_2017-02-01-100719
CTEQ5L-LO_HardQCDSelectionQuark_20To30_2017-02-01-100719
CTEQ5L-LO_HardQCDSelectionQuark_20To30_2017-02-01-100719
CTEQ5L-LO_HardQCDSelectionQuark_20To30_2017-02-01-100719
CTEQ5L-LO_HardQCDSelectionQuark_20To30_2017-02-01-100719
CTEQ5L-LO_HardQCDSelectionQuark_20To30_2017-02-01-100719
CTEQ5L-LO_HardQCDSelectionQuark_20To30_2017-02-01-100719


CTEQ5L-LO_HardQCDSelectionQuark_230To300_2017-02-01-100719
CTEQ5L-LO_HardQCDSelectionQuark_230To300_2017-02-01-100719
CTEQ5L-LO_HardQCDSelectionQuark_230To300_2017-02-01-100719
CTEQ5L-LO_HardQCDSelectionQuark_230To300_2017-02-01-100719
CTEQ5L-LO_HardQCDSelectionQuark_230To300_2017-02-01-100719
CTEQ5L-LO_HardQCDSelectionQuark_230To300_2017-02-01-100719
CTEQ5L-LO_HardQCDSelectionQuark_230To300_2017-02-01-100719
CTEQ5L-LO_HardQCDSelectionQuark_230To300_2017-02-01-100719
CTEQ5L-LO_HardQCDSelectionQuark_230To300_2017-02-01-100719
CTEQ5L-LO_HardQCDSelectionQuark_230To300_2017-02-01-100719
CTEQ5L-LO_HardQCDSelectionQuark_230To300_2017-02-01-100719
CTEQ5L-LO_HardQCDSelectionQuark_230To300_2017-02-01-100719
CTEQ5L-LO_HardQCDSelectionQuark_230To300_2017-02-01-100719
CTEQ5L-LO_HardQCDSelectionQuark_230To300_2017-02-01-100719
CTEQ5L-LO_HardQCDSelectionQuark_230To300_2017-02-01-100719
CTEQ5L-LO_HardQCDSelectionQuark_230To300_2017-02-01-100719
CTEQ5L-LO_HardQCDSelectionQuark_230To300_2017-02-01-100719
CTEQ5L-LO_HardQCDSelectionQuark_230To300_2017-02-01-100719
CTEQ5L-LO_HardQCDSelectionQuark_230To300_2017-02-01-100719
CTEQ5L-LO_HardQCDSelectionQuark_230To300_2017-02-01-100719


CTEQ5L-LO_HardQCDSelectionQuark_300To380_2017-02-01-100719
CTEQ5L-LO_HardQCDSelectionQuark_300To380_2017-02-01-100719
CTEQ5L-LO_HardQCDSelectionQuark_300To380_2017-02-01-100719
CTEQ5L-LO_HardQCDSelectionQuark_300To380_2017-02-01-100719
CTEQ5L-LO_HardQCDSelectionQuark_300To380_2017-02-01-100719
CTEQ5L-LO_HardQCDSelectionQuark_300To380_2017-02-01-100719
CTEQ5L-LO_HardQCDSelectionQuark_300To380_2017-02-01-100719
CTEQ5L-LO_HardQCDSelectionQuark_300To380_2017-02-01-100719
CTEQ5L-LO_HardQCDSelectionQuark_300To380_2017-02-01-100719
CTEQ5L-LO_HardQCDSelectionQuark_300To380_2017-02-01-100719
CTEQ5L-LO_HardQCDSelectionQuark_300To380_2017-02-01-100719
CTEQ5L-LO_HardQCDSelectionQuark_300To380_2017-02-01-100719
CTEQ5L-LO_HardQCDSelectionQuark_300To380_2017-02-01-100719
CTEQ5L-LO_HardQCDSelectionQuark_300To380_2017-02-01-100719
CTEQ5L-LO_HardQCDSelectionQuark_300To380_2017-02-01-100719
CTEQ5L-LO_HardQCDSelectionQuark_300To380_2017-02-01-100719
CTEQ5L-LO_HardQCDSelectionQuark_300To380_2017-02-01-100719
CTEQ5L-LO_HardQCDSelectionQuark_300To380_2017-02-01-100719
CTEQ5L-LO_HardQCDSelectionQuark_300To380_2017-02-01-100719
CTEQ5L-LO_HardQCDSelectionQuark_300To380_2017-02-01-100719


CTEQ5L-LO_HardQCDSelectionQuark_30To50_2017-02-01-100719
CTEQ5L-LO_HardQCDSelectionQuark_30To50_2017-02-01-100719
CTEQ5L-LO_HardQCDSelectionQuark_30To50_2017-02-01-100719
CTEQ5L-LO_HardQCDSelectionQuark_30To50_2017-02-01-100719
CTEQ5L-LO_HardQCDSelectionQuark_30To50_2017-02-01-100719
CTEQ5L-LO_HardQCDSelectionQuark_30To50_2017-02-01-100719
CTEQ5L-LO_HardQCDSelectionQuark_30To50_2017-02-01-100719
CTEQ5L-LO_HardQCDSelectionQuark_30To50_2017-02-01-100719
CTEQ5L-LO_HardQCDSelectionQuark_30To50_2017-02-01-100719
CTEQ5L-LO_HardQCDSelectionQuark_30To50_2017-02-01-100719
CTEQ5L-LO_HardQCDSelectionQuark_30To50_2017-02-01-100719
CTEQ5L-LO_HardQCDSelectionQuark_30To50_2017-02-01-100719
CTEQ5L-LO_HardQCDSelectionQuark_30To50_2017-02-01-100719
CTEQ5L-LO_HardQCDSelectionQuark_30To50_2017-02-01-100719
CTEQ5L-LO_HardQCDSelectionQuark_30To50_2017-02-01-100719
CTEQ5L-LO_HardQCDSelectionQuark_30To50_2017-02-01-100719
CTEQ5L-LO_HardQCDSelectionQuark_30To50_2017-02-01-100719
CTEQ5L-LO_HardQCDSelectionQuark_30To50_2017-02-01-100719
CTEQ5L-LO_HardQCDSelectionQuark_30To50_2017-02-01-100719
CTEQ5L-LO_HardQCDSelectionQuark_30To50_2017-02-01-100719


CTEQ5L-LO_HardQCDSelectionQuark_380To10000_2017-02-01-100719
CTEQ5L-LO_HardQCDSelectionQuark_380To10000_2017-02-01-100719
CTEQ5L-LO_HardQCDSelectionQuark_380To10000_2017-02-01-100719
CTEQ5L-LO_HardQCDSelectionQuark_380To10000_2017-02-01-100719
CTEQ5L-LO_HardQCDSelectionQuark_380To10000_2017-02-01-100719
CTEQ5L-LO_HardQCDSelectionQuark_380To10000_2017-02-01-100719
CTEQ5L-LO_HardQCDSelectionQuark_380To10000_2017-02-01-100719
CTEQ5L-LO_HardQCDSelectionQuark_380To10000_2017-02-01-100719
CTEQ5L-LO_HardQCDSelectionQuark_380To10000_2017-02-01-100719
CTEQ5L-LO_HardQCDSelectionQuark_380To10000_2017-02-01-100719
CTEQ5L-LO_HardQCDSelectionQuark_380To10000_2017-02-01-100719
CTEQ5L-LO_HardQCDSelectionQuark_380To10000_2017-02-01-100719
CTEQ5L-LO_HardQCDSelectionQuark_380To10000_2017-02-01-100719
CTEQ5L-LO_HardQCDSelectionQuark_380To10000_2017-02-01-100719
CTEQ5L-LO_HardQCDSelectionQuark_380To10000_2017-02-01-100719
CTEQ5L-LO_HardQCDSelectionQuark_380To10000_2017-02-01-100719
CTEQ5L-LO_HardQCDSelectionQuark_380To10000_2017-02-01-100719
CTEQ5L-LO_HardQCDSelectionQuark_380To10000_2017-02-01-100719
CTEQ5L-LO_HardQCDSelectionQuark_380To10000_2017-02-01-100719
CTEQ5L-LO_HardQCDSelectionQuark_380To10000_2017-02-01-100719


CTEQ5L-LO_HardQCDSelectionQuark_50To80_2017-02-01-100719
CTEQ5L-LO_HardQCDSelectionQuark_50To80_2017-02-01-100719
CTEQ5L-LO_HardQCDSelectionQuark_50To80_2017-02-01-100719
CTEQ5L-LO_HardQCDSelectionQuark_50To80_2017-02-01-100719
CTEQ5L-LO_HardQCDSelectionQuark_50To80_2017-02-01-100719
CTEQ5L-LO_HardQCDSelectionQuark_50To80_2017-02-01-100719
CTEQ5L-LO_HardQCDSelectionQuark_50To80_2017-02-01-100719
CTEQ5L-LO_HardQCDSelectionQuark_50To80_2017-02-01-100719
CTEQ5L-LO_HardQCDSelectionQuark_50To80_2017-02-01-100719
CTEQ5L-LO_HardQCDSelectionQuark_50To80_2017-02-01-100719
CTEQ5L-LO_HardQCDSelectionQuark_50To80_2017-02-01-100719
CTEQ5L-LO_HardQCDSelectionQuark_50To80_2017-02-01-100719
CTEQ5L-LO_HardQCDSelectionQuark_50To80_2017-02-01-100719
CTEQ5L-LO_HardQCDSelectionQuark_50To80_2017-02-01-100719
CTEQ5L-LO_HardQCDSelectionQuark_50To80_2017-02-01-100719
CTEQ5L-LO_HardQCDSelectionQuark_50To80_2017-02-01-100719
CTEQ5L-LO_HardQCDSelectionQuark_50To80_2017-02-01-100719
CTEQ5L-LO_HardQCDSelectionQuark_50To80_2017-02-01-100719
CTEQ5L-LO_HardQCDSelectionQuark_50To80_2017-02-01-100719
CTEQ5L-LO_HardQCDSelectionQuark_50To80_2017-02-01-100719


CTEQ5L-LO_HardQCDSelectionQuark_80To120_2017-02-01-100719
CTEQ5L-LO_HardQCDSelectionQuark_80To120_2017-02-01-100719
CTEQ5L-LO_HardQCDSelectionQuark_80To120_2017-02-01-100719
CTEQ5L-LO_HardQCDSelectionQuark_80To120_2017-02-01-100719
CTEQ5L-LO_HardQCDSelectionQuark_80To120_2017-02-01-100719
CTEQ5L-LO_HardQCDSelectionQuark_80To120_2017-02-01-100719
CTEQ5L-LO_HardQCDSelectionQuark_80To120_2017-02-01-100719
CTEQ5L-LO_HardQCDSelectionQuark_80To120_2017-02-01-100719
CTEQ5L-LO_HardQCDSelectionQuark_80To120_2017-02-01-100719
CTEQ5L-LO_HardQCDSelectionQuark_80To120_2017-02-01-100719
CTEQ5L-LO_HardQCDSelectionQuark_80To120_2017-02-01-100719
CTEQ5L-LO_HardQCDSelectionQuark_80To120_2017-02-01-100719
CTEQ5L-LO_HardQCDSelectionQuark_80To120_2017-02-01-100719
CTEQ5L-LO_HardQCDSelectionQuark_80To120_2017-02-01-100719
CTEQ5L-LO_HardQCDSelectionQuark_80To120_2017-02-01-100719
CTEQ5L-LO_HardQCDSelectionQuark_80To120_2017-02-01-100719
CTEQ5L-LO_HardQCDSelectionQuark_80To120_2017-02-01-100719
CTEQ5L-LO_HardQCDSelectionQuark_80To120_2017-02-01-100719
CTEQ5L-LO_HardQCDSelectionQuark_80To120_2017-02-01-100719
CTEQ5L-LO_HardQCDSelectionQuark_80To120_2017-02-01-100719




