

Time taken to complete the job, Statistics
==========================================
5683.93 seconds 1.57887 hours CTEQ5L-LO_HardQCDMix_10To20_2017-02-06-163053
4991.12 seconds 1.38642 hours CTEQ5L-LO_HardQCDMix_10To20_2017-02-06-163053
5769.23 seconds 1.60256 hours CTEQ5L-LO_HardQCDMix_10To20_2017-02-06-163053
6364.63 seconds 1.76795 hours CTEQ5L-LO_HardQCDMix_10To20_2017-02-06-163053
4958.07 seconds 1.37724 hours CTEQ5L-LO_HardQCDMix_10To20_2017-02-06-163053
5697.7 seconds 1.58269 hours CTEQ5L-LO_HardQCDMix_10To20_2017-02-06-163053
4370.35 seconds 1.21399 hours CTEQ5L-LO_HardQCDMix_10To20_2017-02-06-163053
4822.45 seconds 1.33957 hours CTEQ5L-LO_HardQCDMix_10To20_2017-02-06-163053
6486.45 seconds 1.80179 hours CTEQ5L-LO_HardQCDMix_10To20_2017-02-06-163053
4443.6 seconds 1.23433 hours CTEQ5L-LO_HardQCDMix_10To20_2017-02-06-163053
4853.06 seconds 1.34807 hours CTEQ5L-LO_HardQCDMix_10To20_2017-02-06-163053
5650.67 seconds 1.56963 hours CTEQ5L-LO_HardQCDMix_10To20_2017-02-06-163053
4862.86 seconds 1.35079 hours CTEQ5L-LO_HardQCDMix_10To20_2017-02-06-163053
5678.22 seconds 1.57728 hours CTEQ5L-LO_HardQCDMix_10To20_2017-02-06-163053
6683.61 seconds 1.85656 hours CTEQ5L-LO_HardQCDMix_10To20_2017-02-06-163053
6499.68 seconds 1.80547 hours CTEQ5L-LO_HardQCDMix_10To20_2017-02-06-163053
5710.3 seconds 1.58619 hours CTEQ5L-LO_HardQCDMix_10To20_2017-02-06-163053
5781.58 seconds 1.60599 hours CTEQ5L-LO_HardQCDMix_10To20_2017-02-06-163053
4529.11 seconds 1.25809 hours CTEQ5L-LO_HardQCDMix_10To20_2017-02-06-163053
4460.64 seconds 1.23907 hours CTEQ5L-LO_HardQCDMix_10To20_2017-02-06-163053


7593.45 seconds 2.10929 hours CTEQ5L-LO_HardQCDMix_120To170_2017-02-06-163053
8017.48 seconds 2.22708 hours CTEQ5L-LO_HardQCDMix_120To170_2017-02-06-163053
7513.35 seconds 2.08704 hours CTEQ5L-LO_HardQCDMix_120To170_2017-02-06-163053
7947.74 seconds 2.20771 hours CTEQ5L-LO_HardQCDMix_120To170_2017-02-06-163053
9129.16 seconds 2.53588 hours CTEQ5L-LO_HardQCDMix_120To170_2017-02-06-163053
7638.8 seconds 2.12189 hours CTEQ5L-LO_HardQCDMix_120To170_2017-02-06-163053
8753.3 seconds 2.43147 hours CTEQ5L-LO_HardQCDMix_120To170_2017-02-06-163053
7907.6 seconds 2.19656 hours CTEQ5L-LO_HardQCDMix_120To170_2017-02-06-163053
8948.57 seconds 2.48571 hours CTEQ5L-LO_HardQCDMix_120To170_2017-02-06-163053
8868.17 seconds 2.46338 hours CTEQ5L-LO_HardQCDMix_120To170_2017-02-06-163053
8975.16 seconds 2.4931 hours CTEQ5L-LO_HardQCDMix_120To170_2017-02-06-163053
9005.49 seconds 2.50152 hours CTEQ5L-LO_HardQCDMix_120To170_2017-02-06-163053
8808.82 seconds 2.44689 hours CTEQ5L-LO_HardQCDMix_120To170_2017-02-06-163053
6955.12 seconds 1.93198 hours CTEQ5L-LO_HardQCDMix_120To170_2017-02-06-163053
8923.14 seconds 2.47865 hours CTEQ5L-LO_HardQCDMix_120To170_2017-02-06-163053
7887.37 seconds 2.19094 hours CTEQ5L-LO_HardQCDMix_120To170_2017-02-06-163053
6529.01 seconds 1.81361 hours CTEQ5L-LO_HardQCDMix_120To170_2017-02-06-163053
8050.35 seconds 2.23621 hours CTEQ5L-LO_HardQCDMix_120To170_2017-02-06-163053
8960.05 seconds 2.4889 hours CTEQ5L-LO_HardQCDMix_120To170_2017-02-06-163053
7990.27 seconds 2.21952 hours CTEQ5L-LO_HardQCDMix_120To170_2017-02-06-163053


8407.69 seconds 2.33547 hours CTEQ5L-LO_HardQCDMix_170To230_2017-02-06-163053
8090.77 seconds 2.24744 hours CTEQ5L-LO_HardQCDMix_170To230_2017-02-06-163053
8407.64 seconds 2.33546 hours CTEQ5L-LO_HardQCDMix_170To230_2017-02-06-163053
9421.89 seconds 2.61719 hours CTEQ5L-LO_HardQCDMix_170To230_2017-02-06-163053
9647.66 seconds 2.67991 hours CTEQ5L-LO_HardQCDMix_170To230_2017-02-06-163053
9458.61 seconds 2.62739 hours CTEQ5L-LO_HardQCDMix_170To230_2017-02-06-163053
6888.4 seconds 1.91344 hours CTEQ5L-LO_HardQCDMix_170To230_2017-02-06-163053
9527.66 seconds 2.64657 hours CTEQ5L-LO_HardQCDMix_170To230_2017-02-06-163053
9463.71 seconds 2.62881 hours CTEQ5L-LO_HardQCDMix_170To230_2017-02-06-163053
9548.89 seconds 2.65247 hours CTEQ5L-LO_HardQCDMix_170To230_2017-02-06-163053
9275.33 seconds 2.57648 hours CTEQ5L-LO_HardQCDMix_170To230_2017-02-06-163053
9471.81 seconds 2.63106 hours CTEQ5L-LO_HardQCDMix_170To230_2017-02-06-163053
9488.57 seconds 2.63571 hours CTEQ5L-LO_HardQCDMix_170To230_2017-02-06-163053
8542.22 seconds 2.37284 hours CTEQ5L-LO_HardQCDMix_170To230_2017-02-06-163053
7012.99 seconds 1.94805 hours CTEQ5L-LO_HardQCDMix_170To230_2017-02-06-163053
6364.69 seconds 1.76797 hours CTEQ5L-LO_HardQCDMix_170To230_2017-02-06-163053
6416.44 seconds 1.78234 hours CTEQ5L-LO_HardQCDMix_170To230_2017-02-06-163053
6482.4 seconds 1.80067 hours CTEQ5L-LO_HardQCDMix_170To230_2017-02-06-163053
6738.18 seconds 1.87172 hours CTEQ5L-LO_HardQCDMix_170To230_2017-02-06-163053
9467.61 seconds 2.62989 hours CTEQ5L-LO_HardQCDMix_170To230_2017-02-06-163053


5300.7 seconds 1.47242 hours CTEQ5L-LO_HardQCDMix_20To30_2017-02-06-163053
6134.91 seconds 1.70414 hours CTEQ5L-LO_HardQCDMix_20To30_2017-02-06-163053
5807.04 seconds 1.61307 hours CTEQ5L-LO_HardQCDMix_20To30_2017-02-06-163053
5176.75 seconds 1.43799 hours CTEQ5L-LO_HardQCDMix_20To30_2017-02-06-163053
5013.44 seconds 1.39262 hours CTEQ5L-LO_HardQCDMix_20To30_2017-02-06-163053
5070.47 seconds 1.40846 hours CTEQ5L-LO_HardQCDMix_20To30_2017-02-06-163053
6205.77 seconds 1.72383 hours CTEQ5L-LO_HardQCDMix_20To30_2017-02-06-163053
4984.16 seconds 1.38449 hours CTEQ5L-LO_HardQCDMix_20To30_2017-02-06-163053
5013.48 seconds 1.39263 hours CTEQ5L-LO_HardQCDMix_20To30_2017-02-06-163053
6821.27 seconds 1.8948 hours CTEQ5L-LO_HardQCDMix_20To30_2017-02-06-163053
6883.71 seconds 1.91214 hours CTEQ5L-LO_HardQCDMix_20To30_2017-02-06-163053
5301.8 seconds 1.47272 hours CTEQ5L-LO_HardQCDMix_20To30_2017-02-06-163053
6892.06 seconds 1.91446 hours CTEQ5L-LO_HardQCDMix_20To30_2017-02-06-163053
6837.43 seconds 1.89929 hours CTEQ5L-LO_HardQCDMix_20To30_2017-02-06-163053
6965.72 seconds 1.93492 hours CTEQ5L-LO_HardQCDMix_20To30_2017-02-06-163053
4839.52 seconds 1.34431 hours CTEQ5L-LO_HardQCDMix_20To30_2017-02-06-163053
6113.44 seconds 1.69818 hours CTEQ5L-LO_HardQCDMix_20To30_2017-02-06-163053
6855.89 seconds 1.90441 hours CTEQ5L-LO_HardQCDMix_20To30_2017-02-06-163053
6336.48 seconds 1.76013 hours CTEQ5L-LO_HardQCDMix_20To30_2017-02-06-163053
6874.91 seconds 1.9097 hours CTEQ5L-LO_HardQCDMix_20To30_2017-02-06-163053


9048.73 seconds 2.51354 hours CTEQ5L-LO_HardQCDMix_230To300_2017-02-06-163053
8934.25 seconds 2.48174 hours CTEQ5L-LO_HardQCDMix_230To300_2017-02-06-163053
8819.18 seconds 2.44977 hours CTEQ5L-LO_HardQCDMix_230To300_2017-02-06-163053
9856.1 seconds 2.73781 hours CTEQ5L-LO_HardQCDMix_230To300_2017-02-06-163053
9948.92 seconds 2.76359 hours CTEQ5L-LO_HardQCDMix_230To300_2017-02-06-163053
10320.7 seconds 2.86686 hours CTEQ5L-LO_HardQCDMix_230To300_2017-02-06-163053
8674.67 seconds 2.40963 hours CTEQ5L-LO_HardQCDMix_230To300_2017-02-06-163053
7095.78 seconds 1.97105 hours CTEQ5L-LO_HardQCDMix_230To300_2017-02-06-163053
8931.4 seconds 2.48094 hours CTEQ5L-LO_HardQCDMix_230To300_2017-02-06-163053
8903.33 seconds 2.47315 hours CTEQ5L-LO_HardQCDMix_230To300_2017-02-06-163053
9174.48 seconds 2.54847 hours CTEQ5L-LO_HardQCDMix_230To300_2017-02-06-163053
10278.9 seconds 2.85525 hours CTEQ5L-LO_HardQCDMix_230To300_2017-02-06-163053
6620.43 seconds 1.83901 hours CTEQ5L-LO_HardQCDMix_230To300_2017-02-06-163053
10033.5 seconds 2.78708 hours CTEQ5L-LO_HardQCDMix_230To300_2017-02-06-163053
7595.31 seconds 2.10981 hours CTEQ5L-LO_HardQCDMix_230To300_2017-02-06-163053
10111.3 seconds 2.80869 hours CTEQ5L-LO_HardQCDMix_230To300_2017-02-06-163053
7684.18 seconds 2.13449 hours CTEQ5L-LO_HardQCDMix_230To300_2017-02-06-163053
10137.5 seconds 2.81597 hours CTEQ5L-LO_HardQCDMix_230To300_2017-02-06-163053
10051.6 seconds 2.79211 hours CTEQ5L-LO_HardQCDMix_230To300_2017-02-06-163053
8366.11 seconds 2.32392 hours CTEQ5L-LO_HardQCDMix_230To300_2017-02-06-163053


9346.06 seconds 2.59613 hours CTEQ5L-LO_HardQCDMix_300To380_2017-02-06-163053
9552.36 seconds 2.65343 hours CTEQ5L-LO_HardQCDMix_300To380_2017-02-06-163053
9397.84 seconds 2.61051 hours CTEQ5L-LO_HardQCDMix_300To380_2017-02-06-163053
9543.79 seconds 2.65105 hours CTEQ5L-LO_HardQCDMix_300To380_2017-02-06-163053
7313.93 seconds 2.03165 hours CTEQ5L-LO_HardQCDMix_300To380_2017-02-06-163053
9448.71 seconds 2.62464 hours CTEQ5L-LO_HardQCDMix_300To380_2017-02-06-163053
9327.85 seconds 2.59107 hours CTEQ5L-LO_HardQCDMix_300To380_2017-02-06-163053
9450.49 seconds 2.62514 hours CTEQ5L-LO_HardQCDMix_300To380_2017-02-06-163053
9428.68 seconds 2.61908 hours CTEQ5L-LO_HardQCDMix_300To380_2017-02-06-163053
10318.5 seconds 2.86625 hours CTEQ5L-LO_HardQCDMix_300To380_2017-02-06-163053
10543.1 seconds 2.92864 hours CTEQ5L-LO_HardQCDMix_300To380_2017-02-06-163053
9465.61 seconds 2.62934 hours CTEQ5L-LO_HardQCDMix_300To380_2017-02-06-163053
9311.68 seconds 2.58658 hours CTEQ5L-LO_HardQCDMix_300To380_2017-02-06-163053
10672.6 seconds 2.96461 hours CTEQ5L-LO_HardQCDMix_300To380_2017-02-06-163053
9404.95 seconds 2.61249 hours CTEQ5L-LO_HardQCDMix_300To380_2017-02-06-163053
9413.24 seconds 2.61479 hours CTEQ5L-LO_HardQCDMix_300To380_2017-02-06-163053
10531 seconds 2.92528 hours CTEQ5L-LO_HardQCDMix_300To380_2017-02-06-163053
9146.26 seconds 2.54063 hours CTEQ5L-LO_HardQCDMix_300To380_2017-02-06-163053
7823.39 seconds 2.17316 hours CTEQ5L-LO_HardQCDMix_300To380_2017-02-06-163053
9407.27 seconds 2.61313 hours CTEQ5L-LO_HardQCDMix_300To380_2017-02-06-163053


6541.99 seconds 1.81722 hours CTEQ5L-LO_HardQCDMix_30To50_2017-02-06-163053
7313.09 seconds 2.03141 hours CTEQ5L-LO_HardQCDMix_30To50_2017-02-06-163053
6167.14 seconds 1.71309 hours CTEQ5L-LO_HardQCDMix_30To50_2017-02-06-163053
6520.4 seconds 1.81122 hours CTEQ5L-LO_HardQCDMix_30To50_2017-02-06-163053
5302.48 seconds 1.47291 hours CTEQ5L-LO_HardQCDMix_30To50_2017-02-06-163053
7216.24 seconds 2.00451 hours CTEQ5L-LO_HardQCDMix_30To50_2017-02-06-163053
7337.9 seconds 2.03831 hours CTEQ5L-LO_HardQCDMix_30To50_2017-02-06-163053
6439.12 seconds 1.78864 hours CTEQ5L-LO_HardQCDMix_30To50_2017-02-06-163053
4940.48 seconds 1.37236 hours CTEQ5L-LO_HardQCDMix_30To50_2017-02-06-163053
6491.11 seconds 1.80309 hours CTEQ5L-LO_HardQCDMix_30To50_2017-02-06-163053
6459.72 seconds 1.79437 hours CTEQ5L-LO_HardQCDMix_30To50_2017-02-06-163053
5416.24 seconds 1.50451 hours CTEQ5L-LO_HardQCDMix_30To50_2017-02-06-163053
6516.82 seconds 1.81023 hours CTEQ5L-LO_HardQCDMix_30To50_2017-02-06-163053
6988.98 seconds 1.94138 hours CTEQ5L-LO_HardQCDMix_30To50_2017-02-06-163053
5604.79 seconds 1.55689 hours CTEQ5L-LO_HardQCDMix_30To50_2017-02-06-163053
5653.09 seconds 1.5703 hours CTEQ5L-LO_HardQCDMix_30To50_2017-02-06-163053
5160.74 seconds 1.43354 hours CTEQ5L-LO_HardQCDMix_30To50_2017-02-06-163053
4928.64 seconds 1.36907 hours CTEQ5L-LO_HardQCDMix_30To50_2017-02-06-163053
7550.99 seconds 2.0975 hours CTEQ5L-LO_HardQCDMix_30To50_2017-02-06-163053
7277.39 seconds 2.0215 hours CTEQ5L-LO_HardQCDMix_30To50_2017-02-06-163053


7474.3 seconds 2.07619 hours CTEQ5L-LO_HardQCDMix_380To10000_2017-02-06-163053
9986.93 seconds 2.77415 hours CTEQ5L-LO_HardQCDMix_380To10000_2017-02-06-163053
9734.98 seconds 2.70416 hours CTEQ5L-LO_HardQCDMix_380To10000_2017-02-06-163053
10963.3 seconds 3.04536 hours CTEQ5L-LO_HardQCDMix_380To10000_2017-02-06-163053
11151.3 seconds 3.09758 hours CTEQ5L-LO_HardQCDMix_380To10000_2017-02-06-163053
9873.74 seconds 2.74271 hours CTEQ5L-LO_HardQCDMix_380To10000_2017-02-06-163053
10899.7 seconds 3.02769 hours CTEQ5L-LO_HardQCDMix_380To10000_2017-02-06-163053
10866.5 seconds 3.01847 hours CTEQ5L-LO_HardQCDMix_380To10000_2017-02-06-163053
8740.15 seconds 2.42782 hours CTEQ5L-LO_HardQCDMix_380To10000_2017-02-06-163053
8694.2 seconds 2.41506 hours CTEQ5L-LO_HardQCDMix_380To10000_2017-02-06-163053
8491.44 seconds 2.35873 hours CTEQ5L-LO_HardQCDMix_380To10000_2017-02-06-163053
7503.57 seconds 2.08432 hours CTEQ5L-LO_HardQCDMix_380To10000_2017-02-06-163053
8450.63 seconds 2.3474 hours CTEQ5L-LO_HardQCDMix_380To10000_2017-02-06-163053
7548.58 seconds 2.09683 hours CTEQ5L-LO_HardQCDMix_380To10000_2017-02-06-163053
7561.42 seconds 2.10039 hours CTEQ5L-LO_HardQCDMix_380To10000_2017-02-06-163053
8526.05 seconds 2.36835 hours CTEQ5L-LO_HardQCDMix_380To10000_2017-02-06-163053
9678.45 seconds 2.68846 hours CTEQ5L-LO_HardQCDMix_380To10000_2017-02-06-163053
9843.08 seconds 2.73419 hours CTEQ5L-LO_HardQCDMix_380To10000_2017-02-06-163053
11097.5 seconds 3.08264 hours CTEQ5L-LO_HardQCDMix_380To10000_2017-02-06-163053
11215.5 seconds 3.11542 hours CTEQ5L-LO_HardQCDMix_380To10000_2017-02-06-163053


5824.82 seconds 1.61801 hours CTEQ5L-LO_HardQCDMix_50To80_2017-02-06-163053
6882.94 seconds 1.91193 hours CTEQ5L-LO_HardQCDMix_50To80_2017-02-06-163053
6940.56 seconds 1.92793 hours CTEQ5L-LO_HardQCDMix_50To80_2017-02-06-163053
7860.22 seconds 2.18339 hours CTEQ5L-LO_HardQCDMix_50To80_2017-02-06-163053
5676.85 seconds 1.5769 hours CTEQ5L-LO_HardQCDMix_50To80_2017-02-06-163053
7809.22 seconds 2.16923 hours CTEQ5L-LO_HardQCDMix_50To80_2017-02-06-163053
5861.83 seconds 1.62829 hours CTEQ5L-LO_HardQCDMix_50To80_2017-02-06-163053
5921.17 seconds 1.64477 hours CTEQ5L-LO_HardQCDMix_50To80_2017-02-06-163053
5759.22 seconds 1.59978 hours CTEQ5L-LO_HardQCDMix_50To80_2017-02-06-163053
5770.21 seconds 1.60284 hours CTEQ5L-LO_HardQCDMix_50To80_2017-02-06-163053
7767.26 seconds 2.15757 hours CTEQ5L-LO_HardQCDMix_50To80_2017-02-06-163053
7708.6 seconds 2.14128 hours CTEQ5L-LO_HardQCDMix_50To80_2017-02-06-163053
7704.79 seconds 2.14022 hours CTEQ5L-LO_HardQCDMix_50To80_2017-02-06-163053
6918.59 seconds 1.92183 hours CTEQ5L-LO_HardQCDMix_50To80_2017-02-06-163053
6123.49 seconds 1.70097 hours CTEQ5L-LO_HardQCDMix_50To80_2017-02-06-163053
5739.28 seconds 1.59424 hours CTEQ5L-LO_HardQCDMix_50To80_2017-02-06-163053
7105.74 seconds 1.97382 hours CTEQ5L-LO_HardQCDMix_50To80_2017-02-06-163053
7893.33 seconds 2.19259 hours CTEQ5L-LO_HardQCDMix_50To80_2017-02-06-163053
7855.81 seconds 2.18217 hours CTEQ5L-LO_HardQCDMix_50To80_2017-02-06-163053
6703.05 seconds 1.86196 hours CTEQ5L-LO_HardQCDMix_50To80_2017-02-06-163053


7381.75 seconds 2.05049 hours CTEQ5L-LO_HardQCDMix_80To120_2017-02-06-163053
8363.41 seconds 2.32317 hours CTEQ5L-LO_HardQCDMix_80To120_2017-02-06-163053
6009.99 seconds 1.66944 hours CTEQ5L-LO_HardQCDMix_80To120_2017-02-06-163053
7463.02 seconds 2.07306 hours CTEQ5L-LO_HardQCDMix_80To120_2017-02-06-163053
6040.25 seconds 1.67785 hours CTEQ5L-LO_HardQCDMix_80To120_2017-02-06-163053
8421.28 seconds 2.33924 hours CTEQ5L-LO_HardQCDMix_80To120_2017-02-06-163053
5983.07 seconds 1.66196 hours CTEQ5L-LO_HardQCDMix_80To120_2017-02-06-163053
5984.99 seconds 1.6625 hours CTEQ5L-LO_HardQCDMix_80To120_2017-02-06-163053
7543.8 seconds 2.0955 hours CTEQ5L-LO_HardQCDMix_80To120_2017-02-06-163053
7056.36 seconds 1.9601 hours CTEQ5L-LO_HardQCDMix_80To120_2017-02-06-163053
5903.52 seconds 1.63987 hours CTEQ5L-LO_HardQCDMix_80To120_2017-02-06-163053
7598.58 seconds 2.11072 hours CTEQ5L-LO_HardQCDMix_80To120_2017-02-06-163053
8451.28 seconds 2.34758 hours CTEQ5L-LO_HardQCDMix_80To120_2017-02-06-163053
7409.25 seconds 2.05812 hours CTEQ5L-LO_HardQCDMix_80To120_2017-02-06-163053
5987 seconds 1.66306 hours CTEQ5L-LO_HardQCDMix_80To120_2017-02-06-163053
8288.61 seconds 2.30239 hours CTEQ5L-LO_HardQCDMix_80To120_2017-02-06-163053
7524.2 seconds 2.09006 hours CTEQ5L-LO_HardQCDMix_80To120_2017-02-06-163053
7423.29 seconds 2.06202 hours CTEQ5L-LO_HardQCDMix_80To120_2017-02-06-163053
7496.37 seconds 2.08232 hours CTEQ5L-LO_HardQCDMix_80To120_2017-02-06-163053
6008.01 seconds 1.66889 hours CTEQ5L-LO_HardQCDMix_80To120_2017-02-06-163053




