

Time taken to complete the job, Statistics
==========================================
4054.6 seconds 1.12628 hours CTEQ5L-LO_HardQCDAll_10To20_2017-02-06-162217
5827.08 seconds 1.61863 hours CTEQ5L-LO_HardQCDAll_10To20_2017-02-06-162217
5801.81 seconds 1.61161 hours CTEQ5L-LO_HardQCDAll_10To20_2017-02-06-162217
5760.36 seconds 1.6001 hours CTEQ5L-LO_HardQCDAll_10To20_2017-02-06-162217
5813.21 seconds 1.61478 hours CTEQ5L-LO_HardQCDAll_10To20_2017-02-06-162217
5843.74 seconds 1.62326 hours CTEQ5L-LO_HardQCDAll_10To20_2017-02-06-162217
5775.41 seconds 1.60428 hours CTEQ5L-LO_HardQCDAll_10To20_2017-02-06-162217
5486.42 seconds 1.52401 hours CTEQ5L-LO_HardQCDAll_10To20_2017-02-06-162217
5957.41 seconds 1.65484 hours CTEQ5L-LO_HardQCDAll_10To20_2017-02-06-162217
5828.13 seconds 1.61892 hours CTEQ5L-LO_HardQCDAll_10To20_2017-02-06-162217
6564.27 seconds 1.82341 hours CTEQ5L-LO_HardQCDAll_10To20_2017-02-06-162217
5925.17 seconds 1.64588 hours CTEQ5L-LO_HardQCDAll_10To20_2017-02-06-162217
6501.44 seconds 1.80596 hours CTEQ5L-LO_HardQCDAll_10To20_2017-02-06-162217
6488.05 seconds 1.80224 hours CTEQ5L-LO_HardQCDAll_10To20_2017-02-06-162217
6509.42 seconds 1.80817 hours CTEQ5L-LO_HardQCDAll_10To20_2017-02-06-162217
6553.27 seconds 1.82035 hours CTEQ5L-LO_HardQCDAll_10To20_2017-02-06-162217
5786.04 seconds 1.60723 hours CTEQ5L-LO_HardQCDAll_10To20_2017-02-06-162217
5863.47 seconds 1.62874 hours CTEQ5L-LO_HardQCDAll_10To20_2017-02-06-162217
5752.22 seconds 1.59784 hours CTEQ5L-LO_HardQCDAll_10To20_2017-02-06-162217
5795.49 seconds 1.60986 hours CTEQ5L-LO_HardQCDAll_10To20_2017-02-06-162217


9136.38 seconds 2.53788 hours CTEQ5L-LO_HardQCDAll_120To170_2017-02-06-162217
9262.34 seconds 2.57287 hours CTEQ5L-LO_HardQCDAll_120To170_2017-02-06-162217
9052.47 seconds 2.51457 hours CTEQ5L-LO_HardQCDAll_120To170_2017-02-06-162217
9220 seconds 2.56111 hours CTEQ5L-LO_HardQCDAll_120To170_2017-02-06-162217
9161.98 seconds 2.54499 hours CTEQ5L-LO_HardQCDAll_120To170_2017-02-06-162217
9199.11 seconds 2.55531 hours CTEQ5L-LO_HardQCDAll_120To170_2017-02-06-162217
9097.59 seconds 2.52711 hours CTEQ5L-LO_HardQCDAll_120To170_2017-02-06-162217
9115.32 seconds 2.53203 hours CTEQ5L-LO_HardQCDAll_120To170_2017-02-06-162217
9416.85 seconds 2.61579 hours CTEQ5L-LO_HardQCDAll_120To170_2017-02-06-162217
9090.28 seconds 2.52508 hours CTEQ5L-LO_HardQCDAll_120To170_2017-02-06-162217
9167.24 seconds 2.54646 hours CTEQ5L-LO_HardQCDAll_120To170_2017-02-06-162217
9065.91 seconds 2.51831 hours CTEQ5L-LO_HardQCDAll_120To170_2017-02-06-162217
9087.57 seconds 2.52432 hours CTEQ5L-LO_HardQCDAll_120To170_2017-02-06-162217
9034.28 seconds 2.50952 hours CTEQ5L-LO_HardQCDAll_120To170_2017-02-06-162217
9188.66 seconds 2.55241 hours CTEQ5L-LO_HardQCDAll_120To170_2017-02-06-162217
9233.89 seconds 2.56497 hours CTEQ5L-LO_HardQCDAll_120To170_2017-02-06-162217
9054.78 seconds 2.51522 hours CTEQ5L-LO_HardQCDAll_120To170_2017-02-06-162217
9248.58 seconds 2.56905 hours CTEQ5L-LO_HardQCDAll_120To170_2017-02-06-162217
9212.3 seconds 2.55897 hours CTEQ5L-LO_HardQCDAll_120To170_2017-02-06-162217
9052.6 seconds 2.51461 hours CTEQ5L-LO_HardQCDAll_120To170_2017-02-06-162217


9584.87 seconds 2.66246 hours CTEQ5L-LO_HardQCDAll_170To230_2017-02-06-162217
9499.07 seconds 2.63863 hours CTEQ5L-LO_HardQCDAll_170To230_2017-02-06-162217
9445.03 seconds 2.62362 hours CTEQ5L-LO_HardQCDAll_170To230_2017-02-06-162217
9650.45 seconds 2.68068 hours CTEQ5L-LO_HardQCDAll_170To230_2017-02-06-162217
9749.12 seconds 2.70809 hours CTEQ5L-LO_HardQCDAll_170To230_2017-02-06-162217
9701.36 seconds 2.69482 hours CTEQ5L-LO_HardQCDAll_170To230_2017-02-06-162217
9848.51 seconds 2.7357 hours CTEQ5L-LO_HardQCDAll_170To230_2017-02-06-162217
9539.98 seconds 2.64999 hours CTEQ5L-LO_HardQCDAll_170To230_2017-02-06-162217
9768.07 seconds 2.71335 hours CTEQ5L-LO_HardQCDAll_170To230_2017-02-06-162217
9835.01 seconds 2.73195 hours CTEQ5L-LO_HardQCDAll_170To230_2017-02-06-162217
9633.45 seconds 2.67596 hours CTEQ5L-LO_HardQCDAll_170To230_2017-02-06-162217
9598.75 seconds 2.66632 hours CTEQ5L-LO_HardQCDAll_170To230_2017-02-06-162217
9679 seconds 2.68861 hours CTEQ5L-LO_HardQCDAll_170To230_2017-02-06-162217
9570 seconds 2.65833 hours CTEQ5L-LO_HardQCDAll_170To230_2017-02-06-162217
9720.24 seconds 2.70007 hours CTEQ5L-LO_HardQCDAll_170To230_2017-02-06-162217
9591.03 seconds 2.66418 hours CTEQ5L-LO_HardQCDAll_170To230_2017-02-06-162217
9515.96 seconds 2.64332 hours CTEQ5L-LO_HardQCDAll_170To230_2017-02-06-162217
9665.61 seconds 2.68489 hours CTEQ5L-LO_HardQCDAll_170To230_2017-02-06-162217
9644.27 seconds 2.67896 hours CTEQ5L-LO_HardQCDAll_170To230_2017-02-06-162217
9824.45 seconds 2.72901 hours CTEQ5L-LO_HardQCDAll_170To230_2017-02-06-162217


6983.97 seconds 1.93999 hours CTEQ5L-LO_HardQCDAll_20To30_2017-02-06-162217
6522.39 seconds 1.81178 hours CTEQ5L-LO_HardQCDAll_20To30_2017-02-06-162217
7067.26 seconds 1.96313 hours CTEQ5L-LO_HardQCDAll_20To30_2017-02-06-162217
7049.29 seconds 1.95814 hours CTEQ5L-LO_HardQCDAll_20To30_2017-02-06-162217
6382.45 seconds 1.7729 hours CTEQ5L-LO_HardQCDAll_20To30_2017-02-06-162217
6380.06 seconds 1.77224 hours CTEQ5L-LO_HardQCDAll_20To30_2017-02-06-162217
6470.79 seconds 1.79744 hours CTEQ5L-LO_HardQCDAll_20To30_2017-02-06-162217
6447.01 seconds 1.79084 hours CTEQ5L-LO_HardQCDAll_20To30_2017-02-06-162217
6410.89 seconds 1.7808 hours CTEQ5L-LO_HardQCDAll_20To30_2017-02-06-162217
6265.8 seconds 1.7405 hours CTEQ5L-LO_HardQCDAll_20To30_2017-02-06-162217
7227.49 seconds 2.00764 hours CTEQ5L-LO_HardQCDAll_20To30_2017-02-06-162217
7079.76 seconds 1.9666 hours CTEQ5L-LO_HardQCDAll_20To30_2017-02-06-162217
7023.52 seconds 1.95098 hours CTEQ5L-LO_HardQCDAll_20To30_2017-02-06-162217
7203.18 seconds 2.00088 hours CTEQ5L-LO_HardQCDAll_20To30_2017-02-06-162217
7077.66 seconds 1.96602 hours CTEQ5L-LO_HardQCDAll_20To30_2017-02-06-162217
7225.16 seconds 2.00699 hours CTEQ5L-LO_HardQCDAll_20To30_2017-02-06-162217
7132.75 seconds 1.98132 hours CTEQ5L-LO_HardQCDAll_20To30_2017-02-06-162217
6524.87 seconds 1.81246 hours CTEQ5L-LO_HardQCDAll_20To30_2017-02-06-162217
6325.45 seconds 1.75707 hours CTEQ5L-LO_HardQCDAll_20To30_2017-02-06-162217
6407.75 seconds 1.77993 hours CTEQ5L-LO_HardQCDAll_20To30_2017-02-06-162217


10533.3 seconds 2.92592 hours CTEQ5L-LO_HardQCDAll_230To300_2017-02-06-162217
10489.2 seconds 2.91367 hours CTEQ5L-LO_HardQCDAll_230To300_2017-02-06-162217
10088.9 seconds 2.80247 hours CTEQ5L-LO_HardQCDAll_230To300_2017-02-06-162217
10043.5 seconds 2.78986 hours CTEQ5L-LO_HardQCDAll_230To300_2017-02-06-162217
10236.2 seconds 2.84339 hours CTEQ5L-LO_HardQCDAll_230To300_2017-02-06-162217
10221.7 seconds 2.83936 hours CTEQ5L-LO_HardQCDAll_230To300_2017-02-06-162217
8886.61 seconds 2.4685 hours CTEQ5L-LO_HardQCDAll_230To300_2017-02-06-162217
10174.4 seconds 2.82622 hours CTEQ5L-LO_HardQCDAll_230To300_2017-02-06-162217
10411 seconds 2.89194 hours CTEQ5L-LO_HardQCDAll_230To300_2017-02-06-162217
9989.5 seconds 2.77486 hours CTEQ5L-LO_HardQCDAll_230To300_2017-02-06-162217
10053.2 seconds 2.79256 hours CTEQ5L-LO_HardQCDAll_230To300_2017-02-06-162217
8948.16 seconds 2.4856 hours CTEQ5L-LO_HardQCDAll_230To300_2017-02-06-162217
10033.9 seconds 2.78719 hours CTEQ5L-LO_HardQCDAll_230To300_2017-02-06-162217
8904.51 seconds 2.47348 hours CTEQ5L-LO_HardQCDAll_230To300_2017-02-06-162217
8522.12 seconds 2.36726 hours CTEQ5L-LO_HardQCDAll_230To300_2017-02-06-162217
10199 seconds 2.83306 hours CTEQ5L-LO_HardQCDAll_230To300_2017-02-06-162217
9894.1 seconds 2.74836 hours CTEQ5L-LO_HardQCDAll_230To300_2017-02-06-162217
10062 seconds 2.795 hours CTEQ5L-LO_HardQCDAll_230To300_2017-02-06-162217
10192.1 seconds 2.83114 hours CTEQ5L-LO_HardQCDAll_230To300_2017-02-06-162217
10109 seconds 2.80806 hours CTEQ5L-LO_HardQCDAll_230To300_2017-02-06-162217


10510.4 seconds 2.91956 hours CTEQ5L-LO_HardQCDAll_300To380_2017-02-06-162217
10445.3 seconds 2.90147 hours CTEQ5L-LO_HardQCDAll_300To380_2017-02-06-162217
10898.3 seconds 3.02731 hours CTEQ5L-LO_HardQCDAll_300To380_2017-02-06-162217
10640.1 seconds 2.95558 hours CTEQ5L-LO_HardQCDAll_300To380_2017-02-06-162217
8874.32 seconds 2.46509 hours CTEQ5L-LO_HardQCDAll_300To380_2017-02-06-162217
10437.4 seconds 2.89928 hours CTEQ5L-LO_HardQCDAll_300To380_2017-02-06-162217
10584.5 seconds 2.94014 hours CTEQ5L-LO_HardQCDAll_300To380_2017-02-06-162217
10384.8 seconds 2.88467 hours CTEQ5L-LO_HardQCDAll_300To380_2017-02-06-162217
10342 seconds 2.87278 hours CTEQ5L-LO_HardQCDAll_300To380_2017-02-06-162217
10537.3 seconds 2.92703 hours CTEQ5L-LO_HardQCDAll_300To380_2017-02-06-162217
10611 seconds 2.9475 hours CTEQ5L-LO_HardQCDAll_300To380_2017-02-06-162217
10536.4 seconds 2.92678 hours CTEQ5L-LO_HardQCDAll_300To380_2017-02-06-162217
10553.2 seconds 2.93144 hours CTEQ5L-LO_HardQCDAll_300To380_2017-02-06-162217
10564.7 seconds 2.93464 hours CTEQ5L-LO_HardQCDAll_300To380_2017-02-06-162217
10579.5 seconds 2.93875 hours CTEQ5L-LO_HardQCDAll_300To380_2017-02-06-162217
10548.4 seconds 2.93011 hours CTEQ5L-LO_HardQCDAll_300To380_2017-02-06-162217
9294.46 seconds 2.58179 hours CTEQ5L-LO_HardQCDAll_300To380_2017-02-06-162217
10511 seconds 2.91972 hours CTEQ5L-LO_HardQCDAll_300To380_2017-02-06-162217
10470.8 seconds 2.90856 hours CTEQ5L-LO_HardQCDAll_300To380_2017-02-06-162217
10476.8 seconds 2.91022 hours CTEQ5L-LO_HardQCDAll_300To380_2017-02-06-162217


7553.52 seconds 2.0982 hours CTEQ5L-LO_HardQCDAll_30To50_2017-02-06-162217
7604.03 seconds 2.11223 hours CTEQ5L-LO_HardQCDAll_30To50_2017-02-06-162217
7749.37 seconds 2.1526 hours CTEQ5L-LO_HardQCDAll_30To50_2017-02-06-162217
7552.7 seconds 2.09797 hours CTEQ5L-LO_HardQCDAll_30To50_2017-02-06-162217
7510.71 seconds 2.08631 hours CTEQ5L-LO_HardQCDAll_30To50_2017-02-06-162217
6653.52 seconds 1.8482 hours CTEQ5L-LO_HardQCDAll_30To50_2017-02-06-162217
6682.57 seconds 1.85627 hours CTEQ5L-LO_HardQCDAll_30To50_2017-02-06-162217
7641.52 seconds 2.12264 hours CTEQ5L-LO_HardQCDAll_30To50_2017-02-06-162217
7732.09 seconds 2.1478 hours CTEQ5L-LO_HardQCDAll_30To50_2017-02-06-162217
7376.16 seconds 2.04893 hours CTEQ5L-LO_HardQCDAll_30To50_2017-02-06-162217
7444.68 seconds 2.06797 hours CTEQ5L-LO_HardQCDAll_30To50_2017-02-06-162217
7363.67 seconds 2.04546 hours CTEQ5L-LO_HardQCDAll_30To50_2017-02-06-162217
7724.74 seconds 2.14576 hours CTEQ5L-LO_HardQCDAll_30To50_2017-02-06-162217
7580.44 seconds 2.10568 hours CTEQ5L-LO_HardQCDAll_30To50_2017-02-06-162217
7582.38 seconds 2.10622 hours CTEQ5L-LO_HardQCDAll_30To50_2017-02-06-162217
7579.25 seconds 2.10535 hours CTEQ5L-LO_HardQCDAll_30To50_2017-02-06-162217
6809.44 seconds 1.89151 hours CTEQ5L-LO_HardQCDAll_30To50_2017-02-06-162217
6841.18 seconds 1.90033 hours CTEQ5L-LO_HardQCDAll_30To50_2017-02-06-162217
6768.57 seconds 1.88016 hours CTEQ5L-LO_HardQCDAll_30To50_2017-02-06-162217
6789.6 seconds 1.886 hours CTEQ5L-LO_HardQCDAll_30To50_2017-02-06-162217


10799.8 seconds 2.99994 hours CTEQ5L-LO_HardQCDAll_380To10000_2017-02-06-162217
10972.4 seconds 3.04789 hours CTEQ5L-LO_HardQCDAll_380To10000_2017-02-06-162217
10648.2 seconds 2.95783 hours CTEQ5L-LO_HardQCDAll_380To10000_2017-02-06-162217
8013.07 seconds 2.22585 hours CTEQ5L-LO_HardQCDAll_380To10000_2017-02-06-162217
7795.04 seconds 2.16529 hours CTEQ5L-LO_HardQCDAll_380To10000_2017-02-06-162217
7673.79 seconds 2.13161 hours CTEQ5L-LO_HardQCDAll_380To10000_2017-02-06-162217
7364.57 seconds 2.04571 hours CTEQ5L-LO_HardQCDAll_380To10000_2017-02-06-162217
7414.28 seconds 2.05952 hours CTEQ5L-LO_HardQCDAll_380To10000_2017-02-06-162217
8004 seconds 2.22333 hours CTEQ5L-LO_HardQCDAll_380To10000_2017-02-06-162217
8071.92 seconds 2.2422 hours CTEQ5L-LO_HardQCDAll_380To10000_2017-02-06-162217
7348.26 seconds 2.04118 hours CTEQ5L-LO_HardQCDAll_380To10000_2017-02-06-162217
10773.2 seconds 2.99256 hours CTEQ5L-LO_HardQCDAll_380To10000_2017-02-06-162217
7473.18 seconds 2.07588 hours CTEQ5L-LO_HardQCDAll_380To10000_2017-02-06-162217
10678.2 seconds 2.96617 hours CTEQ5L-LO_HardQCDAll_380To10000_2017-02-06-162217
11033.4 seconds 3.06483 hours CTEQ5L-LO_HardQCDAll_380To10000_2017-02-06-162217
10755.3 seconds 2.98758 hours CTEQ5L-LO_HardQCDAll_380To10000_2017-02-06-162217
10863.9 seconds 3.01775 hours CTEQ5L-LO_HardQCDAll_380To10000_2017-02-06-162217
10921.4 seconds 3.03372 hours CTEQ5L-LO_HardQCDAll_380To10000_2017-02-06-162217
11142.3 seconds 3.09508 hours CTEQ5L-LO_HardQCDAll_380To10000_2017-02-06-162217
10777.5 seconds 2.99375 hours CTEQ5L-LO_HardQCDAll_380To10000_2017-02-06-162217


6862.45 seconds 1.90624 hours CTEQ5L-LO_HardQCDAll_50To80_2017-02-06-162217
8252.64 seconds 2.2924 hours CTEQ5L-LO_HardQCDAll_50To80_2017-02-06-162217
8202.3 seconds 2.27842 hours CTEQ5L-LO_HardQCDAll_50To80_2017-02-06-162217
8122.62 seconds 2.25628 hours CTEQ5L-LO_HardQCDAll_50To80_2017-02-06-162217
8155.82 seconds 2.26551 hours CTEQ5L-LO_HardQCDAll_50To80_2017-02-06-162217
5911.61 seconds 1.64211 hours CTEQ5L-LO_HardQCDAll_50To80_2017-02-06-162217
5866.8 seconds 1.62967 hours CTEQ5L-LO_HardQCDAll_50To80_2017-02-06-162217
8036.71 seconds 2.23242 hours CTEQ5L-LO_HardQCDAll_50To80_2017-02-06-162217
8078.98 seconds 2.24416 hours CTEQ5L-LO_HardQCDAll_50To80_2017-02-06-162217
8390.24 seconds 2.33062 hours CTEQ5L-LO_HardQCDAll_50To80_2017-02-06-162217
8046.35 seconds 2.2351 hours CTEQ5L-LO_HardQCDAll_50To80_2017-02-06-162217
7362.51 seconds 2.04514 hours CTEQ5L-LO_HardQCDAll_50To80_2017-02-06-162217
8168.12 seconds 2.26892 hours CTEQ5L-LO_HardQCDAll_50To80_2017-02-06-162217
8054.72 seconds 2.23742 hours CTEQ5L-LO_HardQCDAll_50To80_2017-02-06-162217
7918.92 seconds 2.1997 hours CTEQ5L-LO_HardQCDAll_50To80_2017-02-06-162217
8056.01 seconds 2.23778 hours CTEQ5L-LO_HardQCDAll_50To80_2017-02-06-162217
5665.37 seconds 1.57371 hours CTEQ5L-LO_HardQCDAll_50To80_2017-02-06-162217
5681.39 seconds 1.57816 hours CTEQ5L-LO_HardQCDAll_50To80_2017-02-06-162217
8228.25 seconds 2.28563 hours CTEQ5L-LO_HardQCDAll_50To80_2017-02-06-162217
8065.48 seconds 2.24041 hours CTEQ5L-LO_HardQCDAll_50To80_2017-02-06-162217


8562.42 seconds 2.37845 hours CTEQ5L-LO_HardQCDAll_80To120_2017-02-06-162217
6124.54 seconds 1.70126 hours CTEQ5L-LO_HardQCDAll_80To120_2017-02-06-162217
8762.28 seconds 2.43397 hours CTEQ5L-LO_HardQCDAll_80To120_2017-02-06-162217
8589.32 seconds 2.38592 hours CTEQ5L-LO_HardQCDAll_80To120_2017-02-06-162217
8904.71 seconds 2.47353 hours CTEQ5L-LO_HardQCDAll_80To120_2017-02-06-162217
8644.56 seconds 2.40127 hours CTEQ5L-LO_HardQCDAll_80To120_2017-02-06-162217
8790.32 seconds 2.44176 hours CTEQ5L-LO_HardQCDAll_80To120_2017-02-06-162217
8677.96 seconds 2.41054 hours CTEQ5L-LO_HardQCDAll_80To120_2017-02-06-162217
8579.69 seconds 2.38325 hours CTEQ5L-LO_HardQCDAll_80To120_2017-02-06-162217
7768.86 seconds 2.15802 hours CTEQ5L-LO_HardQCDAll_80To120_2017-02-06-162217
7721.2 seconds 2.14478 hours CTEQ5L-LO_HardQCDAll_80To120_2017-02-06-162217
8577.48 seconds 2.38263 hours CTEQ5L-LO_HardQCDAll_80To120_2017-02-06-162217
8661.36 seconds 2.40593 hours CTEQ5L-LO_HardQCDAll_80To120_2017-02-06-162217
8537.56 seconds 2.37154 hours CTEQ5L-LO_HardQCDAll_80To120_2017-02-06-162217
8536.92 seconds 2.37137 hours CTEQ5L-LO_HardQCDAll_80To120_2017-02-06-162217
8669.61 seconds 2.40823 hours CTEQ5L-LO_HardQCDAll_80To120_2017-02-06-162217
8890.03 seconds 2.46945 hours CTEQ5L-LO_HardQCDAll_80To120_2017-02-06-162217
6515.58 seconds 1.80988 hours CTEQ5L-LO_HardQCDAll_80To120_2017-02-06-162217
6228.09 seconds 1.73003 hours CTEQ5L-LO_HardQCDAll_80To120_2017-02-06-162217
6162.17 seconds 1.71171 hours CTEQ5L-LO_HardQCDAll_80To120_2017-02-06-162217




