

Time taken to complete the job, Statistics
==========================================
11481.7 seconds 3.18936 hours NNPDF2.3-QCD+QED-NLO_HardQCDMix_10To20_2016-09-23-124251
8110.63 seconds 2.25295 hours NNPDF2.3-QCD+QED-NLO_HardQCDMix_10To20_2016-09-23-124251
7974.07 seconds 2.21502 hours NNPDF2.3-QCD+QED-NLO_HardQCDMix_10To20_2016-09-23-124251
8047.63 seconds 2.23545 hours NNPDF2.3-QCD+QED-NLO_HardQCDMix_10To20_2016-09-23-124251
7898.21 seconds 2.19395 hours NNPDF2.3-QCD+QED-NLO_HardQCDMix_10To20_2016-09-23-124251
7860.53 seconds 2.18348 hours NNPDF2.3-QCD+QED-NLO_HardQCDMix_10To20_2016-09-23-124251
7835.57 seconds 2.17655 hours NNPDF2.3-QCD+QED-NLO_HardQCDMix_10To20_2016-09-23-124251
7854.94 seconds 2.18193 hours NNPDF2.3-QCD+QED-NLO_HardQCDMix_10To20_2016-09-23-124251
7767.64 seconds 2.15768 hours NNPDF2.3-QCD+QED-NLO_HardQCDMix_10To20_2016-09-23-124251
7795.8 seconds 2.1655 hours NNPDF2.3-QCD+QED-NLO_HardQCDMix_10To20_2016-09-23-124251
7979.66 seconds 2.21657 hours NNPDF2.3-QCD+QED-NLO_HardQCDMix_10To20_2016-09-23-124251
7876.14 seconds 2.18782 hours NNPDF2.3-QCD+QED-NLO_HardQCDMix_10To20_2016-09-23-124251
7994.72 seconds 2.22076 hours NNPDF2.3-QCD+QED-NLO_HardQCDMix_10To20_2016-09-23-124251
7739.42 seconds 2.14984 hours NNPDF2.3-QCD+QED-NLO_HardQCDMix_10To20_2016-09-23-124251
7689.46 seconds 2.13596 hours NNPDF2.3-QCD+QED-NLO_HardQCDMix_10To20_2016-09-23-124251
7703.74 seconds 2.13993 hours NNPDF2.3-QCD+QED-NLO_HardQCDMix_10To20_2016-09-23-124251
7697.12 seconds 2.13809 hours NNPDF2.3-QCD+QED-NLO_HardQCDMix_10To20_2016-09-23-124251
7984.02 seconds 2.21778 hours NNPDF2.3-QCD+QED-NLO_HardQCDMix_10To20_2016-09-23-124251
8076.04 seconds 2.24334 hours NNPDF2.3-QCD+QED-NLO_HardQCDMix_10To20_2016-09-23-124251
7968.82 seconds 2.21356 hours NNPDF2.3-QCD+QED-NLO_HardQCDMix_10To20_2016-09-23-124251


11073.7 seconds 3.07603 hours NNPDF2.3-QCD+QED-NLO_HardQCDMix_120To170_2016-09-23-124251
12662.7 seconds 3.51742 hours NNPDF2.3-QCD+QED-NLO_HardQCDMix_120To170_2016-09-23-124251
12599.3 seconds 3.49981 hours NNPDF2.3-QCD+QED-NLO_HardQCDMix_120To170_2016-09-23-124251
12570.4 seconds 3.49178 hours NNPDF2.3-QCD+QED-NLO_HardQCDMix_120To170_2016-09-23-124251
12460.3 seconds 3.46119 hours NNPDF2.3-QCD+QED-NLO_HardQCDMix_120To170_2016-09-23-124251
12384.7 seconds 3.44019 hours NNPDF2.3-QCD+QED-NLO_HardQCDMix_120To170_2016-09-23-124251
12382.4 seconds 3.43956 hours NNPDF2.3-QCD+QED-NLO_HardQCDMix_120To170_2016-09-23-124251
12379 seconds 3.43861 hours NNPDF2.3-QCD+QED-NLO_HardQCDMix_120To170_2016-09-23-124251
11241 seconds 3.1225 hours NNPDF2.3-QCD+QED-NLO_HardQCDMix_120To170_2016-09-23-124251
11318.6 seconds 3.14406 hours NNPDF2.3-QCD+QED-NLO_HardQCDMix_120To170_2016-09-23-124251
11426.7 seconds 3.17408 hours NNPDF2.3-QCD+QED-NLO_HardQCDMix_120To170_2016-09-23-124251
11115.5 seconds 3.08764 hours NNPDF2.3-QCD+QED-NLO_HardQCDMix_120To170_2016-09-23-124251
11216.6 seconds 3.11572 hours NNPDF2.3-QCD+QED-NLO_HardQCDMix_120To170_2016-09-23-124251
11254.7 seconds 3.12631 hours NNPDF2.3-QCD+QED-NLO_HardQCDMix_120To170_2016-09-23-124251
11368.7 seconds 3.15797 hours NNPDF2.3-QCD+QED-NLO_HardQCDMix_120To170_2016-09-23-124251
11416.4 seconds 3.17122 hours NNPDF2.3-QCD+QED-NLO_HardQCDMix_120To170_2016-09-23-124251
11207.9 seconds 3.11331 hours NNPDF2.3-QCD+QED-NLO_HardQCDMix_120To170_2016-09-23-124251
11536.7 seconds 3.20464 hours NNPDF2.3-QCD+QED-NLO_HardQCDMix_120To170_2016-09-23-124251
11235.4 seconds 3.12094 hours NNPDF2.3-QCD+QED-NLO_HardQCDMix_120To170_2016-09-23-124251
11185.6 seconds 3.10711 hours NNPDF2.3-QCD+QED-NLO_HardQCDMix_120To170_2016-09-23-124251


11756.7 seconds 3.26575 hours NNPDF2.3-QCD+QED-NLO_HardQCDMix_170To230_2016-09-23-124251
12120.4 seconds 3.36678 hours NNPDF2.3-QCD+QED-NLO_HardQCDMix_170To230_2016-09-23-124251
12023 seconds 3.33972 hours NNPDF2.3-QCD+QED-NLO_HardQCDMix_170To230_2016-09-23-124251
11962.6 seconds 3.32294 hours NNPDF2.3-QCD+QED-NLO_HardQCDMix_170To230_2016-09-23-124251
12223.6 seconds 3.39544 hours NNPDF2.3-QCD+QED-NLO_HardQCDMix_170To230_2016-09-23-124251
17432.3 seconds 4.84231 hours NNPDF2.3-QCD+QED-NLO_HardQCDMix_170To230_2016-09-23-124251
17356.6 seconds 4.82128 hours NNPDF2.3-QCD+QED-NLO_HardQCDMix_170To230_2016-09-23-124251
17998.1 seconds 4.99947 hours NNPDF2.3-QCD+QED-NLO_HardQCDMix_170To230_2016-09-23-124251
18097.1 seconds 5.02697 hours NNPDF2.3-QCD+QED-NLO_HardQCDMix_170To230_2016-09-23-124251
17399.2 seconds 4.83311 hours NNPDF2.3-QCD+QED-NLO_HardQCDMix_170To230_2016-09-23-124251
12084.4 seconds 3.35678 hours NNPDF2.3-QCD+QED-NLO_HardQCDMix_170To230_2016-09-23-124251
11899.9 seconds 3.30553 hours NNPDF2.3-QCD+QED-NLO_HardQCDMix_170To230_2016-09-23-124251
12083.5 seconds 3.35653 hours NNPDF2.3-QCD+QED-NLO_HardQCDMix_170To230_2016-09-23-124251
12043.2 seconds 3.34533 hours NNPDF2.3-QCD+QED-NLO_HardQCDMix_170To230_2016-09-23-124251
11954.3 seconds 3.32064 hours NNPDF2.3-QCD+QED-NLO_HardQCDMix_170To230_2016-09-23-124251
12007.7 seconds 3.33547 hours NNPDF2.3-QCD+QED-NLO_HardQCDMix_170To230_2016-09-23-124251
16601 seconds 4.61139 hours NNPDF2.3-QCD+QED-NLO_HardQCDMix_170To230_2016-09-23-124251
14322.1 seconds 3.97836 hours NNPDF2.3-QCD+QED-NLO_HardQCDMix_170To230_2016-09-23-124251
18054.5 seconds 5.01514 hours NNPDF2.3-QCD+QED-NLO_HardQCDMix_170To230_2016-09-23-124251
17146.8 seconds 4.763 hours NNPDF2.3-QCD+QED-NLO_HardQCDMix_170To230_2016-09-23-124251


8754.99 seconds 2.43194 hours NNPDF2.3-QCD+QED-NLO_HardQCDMix_20To30_2016-09-23-124251
12483.1 seconds 3.46753 hours NNPDF2.3-QCD+QED-NLO_HardQCDMix_20To30_2016-09-23-124251
12328.6 seconds 3.42461 hours NNPDF2.3-QCD+QED-NLO_HardQCDMix_20To30_2016-09-23-124251
12689.9 seconds 3.52497 hours NNPDF2.3-QCD+QED-NLO_HardQCDMix_20To30_2016-09-23-124251
9068.15 seconds 2.51893 hours NNPDF2.3-QCD+QED-NLO_HardQCDMix_20To30_2016-09-23-124251
9084.06 seconds 2.52335 hours NNPDF2.3-QCD+QED-NLO_HardQCDMix_20To30_2016-09-23-124251
8774.83 seconds 2.43745 hours NNPDF2.3-QCD+QED-NLO_HardQCDMix_20To30_2016-09-23-124251
8760.23 seconds 2.4334 hours NNPDF2.3-QCD+QED-NLO_HardQCDMix_20To30_2016-09-23-124251
8906.2 seconds 2.47394 hours NNPDF2.3-QCD+QED-NLO_HardQCDMix_20To30_2016-09-23-124251
8837.56 seconds 2.45488 hours NNPDF2.3-QCD+QED-NLO_HardQCDMix_20To30_2016-09-23-124251
8494.58 seconds 2.35961 hours NNPDF2.3-QCD+QED-NLO_HardQCDMix_20To30_2016-09-23-124251
8716.74 seconds 2.42132 hours NNPDF2.3-QCD+QED-NLO_HardQCDMix_20To30_2016-09-23-124251
8472.68 seconds 2.35352 hours NNPDF2.3-QCD+QED-NLO_HardQCDMix_20To30_2016-09-23-124251
8717.64 seconds 2.42157 hours NNPDF2.3-QCD+QED-NLO_HardQCDMix_20To30_2016-09-23-124251
8708.48 seconds 2.41902 hours NNPDF2.3-QCD+QED-NLO_HardQCDMix_20To30_2016-09-23-124251
8533.81 seconds 2.3705 hours NNPDF2.3-QCD+QED-NLO_HardQCDMix_20To30_2016-09-23-124251
8450.88 seconds 2.34747 hours NNPDF2.3-QCD+QED-NLO_HardQCDMix_20To30_2016-09-23-124251
8533.59 seconds 2.37044 hours NNPDF2.3-QCD+QED-NLO_HardQCDMix_20To30_2016-09-23-124251
8493.66 seconds 2.35935 hours NNPDF2.3-QCD+QED-NLO_HardQCDMix_20To30_2016-09-23-124251
8560.16 seconds 2.37782 hours NNPDF2.3-QCD+QED-NLO_HardQCDMix_20To30_2016-09-23-124251


12381.1 seconds 3.43919 hours NNPDF2.3-QCD+QED-NLO_HardQCDMix_230To300_2016-09-23-124251
14157.9 seconds 3.93275 hours NNPDF2.3-QCD+QED-NLO_HardQCDMix_230To300_2016-09-23-124251
13724.1 seconds 3.81225 hours NNPDF2.3-QCD+QED-NLO_HardQCDMix_230To300_2016-09-23-124251
13759.1 seconds 3.82197 hours NNPDF2.3-QCD+QED-NLO_HardQCDMix_230To300_2016-09-23-124251
13867.1 seconds 3.85197 hours NNPDF2.3-QCD+QED-NLO_HardQCDMix_230To300_2016-09-23-124251
13735.6 seconds 3.81544 hours NNPDF2.3-QCD+QED-NLO_HardQCDMix_230To300_2016-09-23-124251
13986 seconds 3.885 hours NNPDF2.3-QCD+QED-NLO_HardQCDMix_230To300_2016-09-23-124251
13746.1 seconds 3.81836 hours NNPDF2.3-QCD+QED-NLO_HardQCDMix_230To300_2016-09-23-124251
14128.9 seconds 3.92469 hours NNPDF2.3-QCD+QED-NLO_HardQCDMix_230To300_2016-09-23-124251
13809.8 seconds 3.83606 hours NNPDF2.3-QCD+QED-NLO_HardQCDMix_230To300_2016-09-23-124251
13700.9 seconds 3.80581 hours NNPDF2.3-QCD+QED-NLO_HardQCDMix_230To300_2016-09-23-124251
13772.3 seconds 3.82564 hours NNPDF2.3-QCD+QED-NLO_HardQCDMix_230To300_2016-09-23-124251
13644.8 seconds 3.79022 hours NNPDF2.3-QCD+QED-NLO_HardQCDMix_230To300_2016-09-23-124251
13682.6 seconds 3.80072 hours NNPDF2.3-QCD+QED-NLO_HardQCDMix_230To300_2016-09-23-124251
13987.5 seconds 3.88542 hours NNPDF2.3-QCD+QED-NLO_HardQCDMix_230To300_2016-09-23-124251
13675.3 seconds 3.79869 hours NNPDF2.3-QCD+QED-NLO_HardQCDMix_230To300_2016-09-23-124251
13810.7 seconds 3.83631 hours NNPDF2.3-QCD+QED-NLO_HardQCDMix_230To300_2016-09-23-124251
13626.1 seconds 3.78503 hours NNPDF2.3-QCD+QED-NLO_HardQCDMix_230To300_2016-09-23-124251
13861.3 seconds 3.85036 hours NNPDF2.3-QCD+QED-NLO_HardQCDMix_230To300_2016-09-23-124251
13741.3 seconds 3.81703 hours NNPDF2.3-QCD+QED-NLO_HardQCDMix_230To300_2016-09-23-124251


14482.3 seconds 4.02286 hours NNPDF2.3-QCD+QED-NLO_HardQCDMix_300To380_2016-09-23-124251
14405.3 seconds 4.00147 hours NNPDF2.3-QCD+QED-NLO_HardQCDMix_300To380_2016-09-23-124251
14218.5 seconds 3.94958 hours NNPDF2.3-QCD+QED-NLO_HardQCDMix_300To380_2016-09-23-124251
14126.1 seconds 3.92392 hours NNPDF2.3-QCD+QED-NLO_HardQCDMix_300To380_2016-09-23-124251
12760.2 seconds 3.5445 hours NNPDF2.3-QCD+QED-NLO_HardQCDMix_300To380_2016-09-23-124251
12890.5 seconds 3.58069 hours NNPDF2.3-QCD+QED-NLO_HardQCDMix_300To380_2016-09-23-124251
12670.6 seconds 3.51961 hours NNPDF2.3-QCD+QED-NLO_HardQCDMix_300To380_2016-09-23-124251
12635.2 seconds 3.50978 hours NNPDF2.3-QCD+QED-NLO_HardQCDMix_300To380_2016-09-23-124251
12765.8 seconds 3.54606 hours NNPDF2.3-QCD+QED-NLO_HardQCDMix_300To380_2016-09-23-124251
12615.6 seconds 3.50433 hours NNPDF2.3-QCD+QED-NLO_HardQCDMix_300To380_2016-09-23-124251
12678 seconds 3.52167 hours NNPDF2.3-QCD+QED-NLO_HardQCDMix_300To380_2016-09-23-124251
14465.2 seconds 4.01811 hours NNPDF2.3-QCD+QED-NLO_HardQCDMix_300To380_2016-09-23-124251
12547 seconds 3.48528 hours NNPDF2.3-QCD+QED-NLO_HardQCDMix_300To380_2016-09-23-124251
13099.6 seconds 3.63878 hours NNPDF2.3-QCD+QED-NLO_HardQCDMix_300To380_2016-09-23-124251
12769.5 seconds 3.54708 hours NNPDF2.3-QCD+QED-NLO_HardQCDMix_300To380_2016-09-23-124251
16401.7 seconds 4.55603 hours NNPDF2.3-QCD+QED-NLO_HardQCDMix_300To380_2016-09-23-124251
14908.1 seconds 4.14114 hours NNPDF2.3-QCD+QED-NLO_HardQCDMix_300To380_2016-09-23-124251
14064.1 seconds 3.90669 hours NNPDF2.3-QCD+QED-NLO_HardQCDMix_300To380_2016-09-23-124251
14161.3 seconds 3.93369 hours NNPDF2.3-QCD+QED-NLO_HardQCDMix_300To380_2016-09-23-124251
14301.3 seconds 3.97258 hours NNPDF2.3-QCD+QED-NLO_HardQCDMix_300To380_2016-09-23-124251


9014.92 seconds 2.50414 hours NNPDF2.3-QCD+QED-NLO_HardQCDMix_30To50_2016-09-23-124251
10627.1 seconds 2.95197 hours NNPDF2.3-QCD+QED-NLO_HardQCDMix_30To50_2016-09-23-124251
10634.5 seconds 2.95403 hours NNPDF2.3-QCD+QED-NLO_HardQCDMix_30To50_2016-09-23-124251
10239.7 seconds 2.84436 hours NNPDF2.3-QCD+QED-NLO_HardQCDMix_30To50_2016-09-23-124251
10496.8 seconds 2.91578 hours NNPDF2.3-QCD+QED-NLO_HardQCDMix_30To50_2016-09-23-124251
10334.2 seconds 2.87061 hours NNPDF2.3-QCD+QED-NLO_HardQCDMix_30To50_2016-09-23-124251
10588.9 seconds 2.94136 hours NNPDF2.3-QCD+QED-NLO_HardQCDMix_30To50_2016-09-23-124251
10316.6 seconds 2.86572 hours NNPDF2.3-QCD+QED-NLO_HardQCDMix_30To50_2016-09-23-124251
9348.81 seconds 2.59689 hours NNPDF2.3-QCD+QED-NLO_HardQCDMix_30To50_2016-09-23-124251
9308.05 seconds 2.58557 hours NNPDF2.3-QCD+QED-NLO_HardQCDMix_30To50_2016-09-23-124251
9429.68 seconds 2.61936 hours NNPDF2.3-QCD+QED-NLO_HardQCDMix_30To50_2016-09-23-124251
9010.75 seconds 2.50299 hours NNPDF2.3-QCD+QED-NLO_HardQCDMix_30To50_2016-09-23-124251
9183.63 seconds 2.55101 hours NNPDF2.3-QCD+QED-NLO_HardQCDMix_30To50_2016-09-23-124251
9109.49 seconds 2.53041 hours NNPDF2.3-QCD+QED-NLO_HardQCDMix_30To50_2016-09-23-124251
8982.49 seconds 2.49514 hours NNPDF2.3-QCD+QED-NLO_HardQCDMix_30To50_2016-09-23-124251
9046.83 seconds 2.51301 hours NNPDF2.3-QCD+QED-NLO_HardQCDMix_30To50_2016-09-23-124251
9304.31 seconds 2.58453 hours NNPDF2.3-QCD+QED-NLO_HardQCDMix_30To50_2016-09-23-124251
9205.83 seconds 2.55717 hours NNPDF2.3-QCD+QED-NLO_HardQCDMix_30To50_2016-09-23-124251
9210.96 seconds 2.5586 hours NNPDF2.3-QCD+QED-NLO_HardQCDMix_30To50_2016-09-23-124251
9141.03 seconds 2.53918 hours NNPDF2.3-QCD+QED-NLO_HardQCDMix_30To50_2016-09-23-124251


13061.4 seconds 3.62817 hours NNPDF2.3-QCD+QED-NLO_HardQCDMix_380To10000_2016-09-23-124251
14738.6 seconds 4.09406 hours NNPDF2.3-QCD+QED-NLO_HardQCDMix_380To10000_2016-09-23-124251
14943.1 seconds 4.15086 hours NNPDF2.3-QCD+QED-NLO_HardQCDMix_380To10000_2016-09-23-124251
14813.2 seconds 4.11478 hours NNPDF2.3-QCD+QED-NLO_HardQCDMix_380To10000_2016-09-23-124251
14603.2 seconds 4.05644 hours NNPDF2.3-QCD+QED-NLO_HardQCDMix_380To10000_2016-09-23-124251
14685 seconds 4.07917 hours NNPDF2.3-QCD+QED-NLO_HardQCDMix_380To10000_2016-09-23-124251
13442.1 seconds 3.73392 hours NNPDF2.3-QCD+QED-NLO_HardQCDMix_380To10000_2016-09-23-124251
13441.9 seconds 3.73386 hours NNPDF2.3-QCD+QED-NLO_HardQCDMix_380To10000_2016-09-23-124251
13203.3 seconds 3.66758 hours NNPDF2.3-QCD+QED-NLO_HardQCDMix_380To10000_2016-09-23-124251
13209 seconds 3.66917 hours NNPDF2.3-QCD+QED-NLO_HardQCDMix_380To10000_2016-09-23-124251
13306.7 seconds 3.69631 hours NNPDF2.3-QCD+QED-NLO_HardQCDMix_380To10000_2016-09-23-124251
16819.4 seconds 4.67206 hours NNPDF2.3-QCD+QED-NLO_HardQCDMix_380To10000_2016-09-23-124251
13174.2 seconds 3.6595 hours NNPDF2.3-QCD+QED-NLO_HardQCDMix_380To10000_2016-09-23-124251
16859.9 seconds 4.68331 hours NNPDF2.3-QCD+QED-NLO_HardQCDMix_380To10000_2016-09-23-124251
19796.9 seconds 5.49914 hours NNPDF2.3-QCD+QED-NLO_HardQCDMix_380To10000_2016-09-23-124251
19888.3 seconds 5.52453 hours NNPDF2.3-QCD+QED-NLO_HardQCDMix_380To10000_2016-09-23-124251
18909.5 seconds 5.25264 hours NNPDF2.3-QCD+QED-NLO_HardQCDMix_380To10000_2016-09-23-124251
18851.3 seconds 5.23647 hours NNPDF2.3-QCD+QED-NLO_HardQCDMix_380To10000_2016-09-23-124251
13074.3 seconds 3.63175 hours NNPDF2.3-QCD+QED-NLO_HardQCDMix_380To10000_2016-09-23-124251
12896.2 seconds 3.58228 hours NNPDF2.3-QCD+QED-NLO_HardQCDMix_380To10000_2016-09-23-124251


9827.89 seconds 2.72997 hours NNPDF2.3-QCD+QED-NLO_HardQCDMix_50To80_2016-09-23-124251
9730.04 seconds 2.70279 hours NNPDF2.3-QCD+QED-NLO_HardQCDMix_50To80_2016-09-23-124251
9978.8 seconds 2.77189 hours NNPDF2.3-QCD+QED-NLO_HardQCDMix_50To80_2016-09-23-124251
9904.43 seconds 2.75123 hours NNPDF2.3-QCD+QED-NLO_HardQCDMix_50To80_2016-09-23-124251
14306.4 seconds 3.974 hours NNPDF2.3-QCD+QED-NLO_HardQCDMix_50To80_2016-09-23-124251
14258.6 seconds 3.96072 hours NNPDF2.3-QCD+QED-NLO_HardQCDMix_50To80_2016-09-23-124251
14323.3 seconds 3.97869 hours NNPDF2.3-QCD+QED-NLO_HardQCDMix_50To80_2016-09-23-124251
14254.8 seconds 3.95967 hours NNPDF2.3-QCD+QED-NLO_HardQCDMix_50To80_2016-09-23-124251
14150.9 seconds 3.93081 hours NNPDF2.3-QCD+QED-NLO_HardQCDMix_50To80_2016-09-23-124251
10276 seconds 2.85444 hours NNPDF2.3-QCD+QED-NLO_HardQCDMix_50To80_2016-09-23-124251
10098.1 seconds 2.80503 hours NNPDF2.3-QCD+QED-NLO_HardQCDMix_50To80_2016-09-23-124251
9969.31 seconds 2.76925 hours NNPDF2.3-QCD+QED-NLO_HardQCDMix_50To80_2016-09-23-124251
10113.4 seconds 2.80928 hours NNPDF2.3-QCD+QED-NLO_HardQCDMix_50To80_2016-09-23-124251
9857.79 seconds 2.73828 hours NNPDF2.3-QCD+QED-NLO_HardQCDMix_50To80_2016-09-23-124251
10263.1 seconds 2.85086 hours NNPDF2.3-QCD+QED-NLO_HardQCDMix_50To80_2016-09-23-124251
10179.4 seconds 2.82761 hours NNPDF2.3-QCD+QED-NLO_HardQCDMix_50To80_2016-09-23-124251
10071.4 seconds 2.79761 hours NNPDF2.3-QCD+QED-NLO_HardQCDMix_50To80_2016-09-23-124251
10144.3 seconds 2.81786 hours NNPDF2.3-QCD+QED-NLO_HardQCDMix_50To80_2016-09-23-124251
9900.7 seconds 2.75019 hours NNPDF2.3-QCD+QED-NLO_HardQCDMix_50To80_2016-09-23-124251
9784.73 seconds 2.71798 hours NNPDF2.3-QCD+QED-NLO_HardQCDMix_50To80_2016-09-23-124251


10770.7 seconds 2.99186 hours NNPDF2.3-QCD+QED-NLO_HardQCDMix_80To120_2016-09-23-124251
11984.9 seconds 3.32914 hours NNPDF2.3-QCD+QED-NLO_HardQCDMix_80To120_2016-09-23-124251
11918.7 seconds 3.31075 hours NNPDF2.3-QCD+QED-NLO_HardQCDMix_80To120_2016-09-23-124251
11778.6 seconds 3.27183 hours NNPDF2.3-QCD+QED-NLO_HardQCDMix_80To120_2016-09-23-124251
11900.4 seconds 3.30567 hours NNPDF2.3-QCD+QED-NLO_HardQCDMix_80To120_2016-09-23-124251
11687.1 seconds 3.24642 hours NNPDF2.3-QCD+QED-NLO_HardQCDMix_80To120_2016-09-23-124251
11901.8 seconds 3.30606 hours NNPDF2.3-QCD+QED-NLO_HardQCDMix_80To120_2016-09-23-124251
10740.9 seconds 2.98358 hours NNPDF2.3-QCD+QED-NLO_HardQCDMix_80To120_2016-09-23-124251
10654.1 seconds 2.95947 hours NNPDF2.3-QCD+QED-NLO_HardQCDMix_80To120_2016-09-23-124251
10537.5 seconds 2.92708 hours NNPDF2.3-QCD+QED-NLO_HardQCDMix_80To120_2016-09-23-124251
10516.8 seconds 2.92133 hours NNPDF2.3-QCD+QED-NLO_HardQCDMix_80To120_2016-09-23-124251
10746.3 seconds 2.98508 hours NNPDF2.3-QCD+QED-NLO_HardQCDMix_80To120_2016-09-23-124251
10799.4 seconds 2.99983 hours NNPDF2.3-QCD+QED-NLO_HardQCDMix_80To120_2016-09-23-124251
10761.3 seconds 2.98925 hours NNPDF2.3-QCD+QED-NLO_HardQCDMix_80To120_2016-09-23-124251
10721.8 seconds 2.97828 hours NNPDF2.3-QCD+QED-NLO_HardQCDMix_80To120_2016-09-23-124251
10579 seconds 2.93861 hours NNPDF2.3-QCD+QED-NLO_HardQCDMix_80To120_2016-09-23-124251
10867.7 seconds 3.01881 hours NNPDF2.3-QCD+QED-NLO_HardQCDMix_80To120_2016-09-23-124251
10556.4 seconds 2.93233 hours NNPDF2.3-QCD+QED-NLO_HardQCDMix_80To120_2016-09-23-124251
10542.5 seconds 2.92847 hours NNPDF2.3-QCD+QED-NLO_HardQCDMix_80To120_2016-09-23-124251
11876.1 seconds 3.29892 hours NNPDF2.3-QCD+QED-NLO_HardQCDMix_80To120_2016-09-23-124251




