

Time taken to complete the job, Statistics
==========================================
8309.33 seconds 2.30815 hours CTEQ5L-LO_HardQCDSelectionGluon_10To20_2017-02-07-094647
8323.07 seconds 2.31196 hours CTEQ5L-LO_HardQCDSelectionGluon_10To20_2017-02-07-094647
8212.6 seconds 2.28128 hours CTEQ5L-LO_HardQCDSelectionGluon_10To20_2017-02-07-094647
8186.62 seconds 2.27406 hours CTEQ5L-LO_HardQCDSelectionGluon_10To20_2017-02-07-094647
8294.84 seconds 2.30412 hours CTEQ5L-LO_HardQCDSelectionGluon_10To20_2017-02-07-094647
8211.84 seconds 2.28107 hours CTEQ5L-LO_HardQCDSelectionGluon_10To20_2017-02-07-094647
8281.2 seconds 2.30033 hours CTEQ5L-LO_HardQCDSelectionGluon_10To20_2017-02-07-094647
8395.77 seconds 2.33216 hours CTEQ5L-LO_HardQCDSelectionGluon_10To20_2017-02-07-094647
8250.51 seconds 2.29181 hours CTEQ5L-LO_HardQCDSelectionGluon_10To20_2017-02-07-094647
8215.79 seconds 2.28216 hours CTEQ5L-LO_HardQCDSelectionGluon_10To20_2017-02-07-094647
8304.26 seconds 2.30674 hours CTEQ5L-LO_HardQCDSelectionGluon_10To20_2017-02-07-094647
8220.69 seconds 2.28353 hours CTEQ5L-LO_HardQCDSelectionGluon_10To20_2017-02-07-094647
8292.8 seconds 2.30356 hours CTEQ5L-LO_HardQCDSelectionGluon_10To20_2017-02-07-094647
8239.85 seconds 2.28885 hours CTEQ5L-LO_HardQCDSelectionGluon_10To20_2017-02-07-094647
8164.44 seconds 2.2679 hours CTEQ5L-LO_HardQCDSelectionGluon_10To20_2017-02-07-094647
8254.65 seconds 2.29296 hours CTEQ5L-LO_HardQCDSelectionGluon_10To20_2017-02-07-094647
8260.92 seconds 2.2947 hours CTEQ5L-LO_HardQCDSelectionGluon_10To20_2017-02-07-094647
8197.25 seconds 2.27701 hours CTEQ5L-LO_HardQCDSelectionGluon_10To20_2017-02-07-094647
8226.38 seconds 2.28511 hours CTEQ5L-LO_HardQCDSelectionGluon_10To20_2017-02-07-094647
8279.12 seconds 2.29976 hours CTEQ5L-LO_HardQCDSelectionGluon_10To20_2017-02-07-094647


18450.7 seconds 5.12519 hours CTEQ5L-LO_HardQCDSelectionGluon_120To170_2017-02-07-094647
18830.9 seconds 5.23081 hours CTEQ5L-LO_HardQCDSelectionGluon_120To170_2017-02-07-094647
18792.2 seconds 5.22006 hours CTEQ5L-LO_HardQCDSelectionGluon_120To170_2017-02-07-094647
18566.3 seconds 5.15731 hours CTEQ5L-LO_HardQCDSelectionGluon_120To170_2017-02-07-094647
18735 seconds 5.20417 hours CTEQ5L-LO_HardQCDSelectionGluon_120To170_2017-02-07-094647
18634.2 seconds 5.17617 hours CTEQ5L-LO_HardQCDSelectionGluon_120To170_2017-02-07-094647
18838 seconds 5.23278 hours CTEQ5L-LO_HardQCDSelectionGluon_120To170_2017-02-07-094647
13549.9 seconds 3.76386 hours CTEQ5L-LO_HardQCDSelectionGluon_120To170_2017-02-07-094647
11887 seconds 3.30194 hours CTEQ5L-LO_HardQCDSelectionGluon_120To170_2017-02-07-094647
18200.6 seconds 5.05572 hours CTEQ5L-LO_HardQCDSelectionGluon_120To170_2017-02-07-094647
18342.9 seconds 5.09525 hours CTEQ5L-LO_HardQCDSelectionGluon_120To170_2017-02-07-094647
13603.1 seconds 3.77864 hours CTEQ5L-LO_HardQCDSelectionGluon_120To170_2017-02-07-094647
13734.5 seconds 3.81514 hours CTEQ5L-LO_HardQCDSelectionGluon_120To170_2017-02-07-094647
18313.8 seconds 5.08717 hours CTEQ5L-LO_HardQCDSelectionGluon_120To170_2017-02-07-094647
18815 seconds 5.22639 hours CTEQ5L-LO_HardQCDSelectionGluon_120To170_2017-02-07-094647
18611.3 seconds 5.16981 hours CTEQ5L-LO_HardQCDSelectionGluon_120To170_2017-02-07-094647
18338.4 seconds 5.094 hours CTEQ5L-LO_HardQCDSelectionGluon_120To170_2017-02-07-094647
13627.3 seconds 3.78536 hours CTEQ5L-LO_HardQCDSelectionGluon_120To170_2017-02-07-094647
18419.4 seconds 5.1165 hours CTEQ5L-LO_HardQCDSelectionGluon_120To170_2017-02-07-094647
13738.1 seconds 3.81614 hours CTEQ5L-LO_HardQCDSelectionGluon_120To170_2017-02-07-094647


14422.3 seconds 4.00619 hours CTEQ5L-LO_HardQCDSelectionGluon_170To230_2017-02-07-094647
19913.5 seconds 5.53153 hours CTEQ5L-LO_HardQCDSelectionGluon_170To230_2017-02-07-094647
20336 seconds 5.64889 hours CTEQ5L-LO_HardQCDSelectionGluon_170To230_2017-02-07-094647
19830.5 seconds 5.50847 hours CTEQ5L-LO_HardQCDSelectionGluon_170To230_2017-02-07-094647
20046 seconds 5.56833 hours CTEQ5L-LO_HardQCDSelectionGluon_170To230_2017-02-07-094647
20129.2 seconds 5.59144 hours CTEQ5L-LO_HardQCDSelectionGluon_170To230_2017-02-07-094647
20150.5 seconds 5.59736 hours CTEQ5L-LO_HardQCDSelectionGluon_170To230_2017-02-07-094647
20145.9 seconds 5.59608 hours CTEQ5L-LO_HardQCDSelectionGluon_170To230_2017-02-07-094647
20132.8 seconds 5.59244 hours CTEQ5L-LO_HardQCDSelectionGluon_170To230_2017-02-07-094647
20021.3 seconds 5.56147 hours CTEQ5L-LO_HardQCDSelectionGluon_170To230_2017-02-07-094647
20530.2 seconds 5.70283 hours CTEQ5L-LO_HardQCDSelectionGluon_170To230_2017-02-07-094647
14605.9 seconds 4.05719 hours CTEQ5L-LO_HardQCDSelectionGluon_170To230_2017-02-07-094647
20106.7 seconds 5.58519 hours CTEQ5L-LO_HardQCDSelectionGluon_170To230_2017-02-07-094647
14666.3 seconds 4.07397 hours CTEQ5L-LO_HardQCDSelectionGluon_170To230_2017-02-07-094647
20540.2 seconds 5.70561 hours CTEQ5L-LO_HardQCDSelectionGluon_170To230_2017-02-07-094647
20267.7 seconds 5.62992 hours CTEQ5L-LO_HardQCDSelectionGluon_170To230_2017-02-07-094647
20197.2 seconds 5.61033 hours CTEQ5L-LO_HardQCDSelectionGluon_170To230_2017-02-07-094647
19935.4 seconds 5.53761 hours CTEQ5L-LO_HardQCDSelectionGluon_170To230_2017-02-07-094647
19506.8 seconds 5.41856 hours CTEQ5L-LO_HardQCDSelectionGluon_170To230_2017-02-07-094647
19600.5 seconds 5.44458 hours CTEQ5L-LO_HardQCDSelectionGluon_170To230_2017-02-07-094647


9335.45 seconds 2.59318 hours CTEQ5L-LO_HardQCDSelectionGluon_20To30_2017-02-07-094647
9256.38 seconds 2.57122 hours CTEQ5L-LO_HardQCDSelectionGluon_20To30_2017-02-07-094647
9229.8 seconds 2.56383 hours CTEQ5L-LO_HardQCDSelectionGluon_20To30_2017-02-07-094647
9372 seconds 2.60333 hours CTEQ5L-LO_HardQCDSelectionGluon_20To30_2017-02-07-094647
9320.97 seconds 2.58916 hours CTEQ5L-LO_HardQCDSelectionGluon_20To30_2017-02-07-094647
9338.27 seconds 2.59396 hours CTEQ5L-LO_HardQCDSelectionGluon_20To30_2017-02-07-094647
9269.78 seconds 2.57494 hours CTEQ5L-LO_HardQCDSelectionGluon_20To30_2017-02-07-094647
9325.54 seconds 2.59043 hours CTEQ5L-LO_HardQCDSelectionGluon_20To30_2017-02-07-094647
9361.03 seconds 2.60029 hours CTEQ5L-LO_HardQCDSelectionGluon_20To30_2017-02-07-094647
9348.6 seconds 2.59683 hours CTEQ5L-LO_HardQCDSelectionGluon_20To30_2017-02-07-094647
9292.96 seconds 2.58138 hours CTEQ5L-LO_HardQCDSelectionGluon_20To30_2017-02-07-094647
9286.65 seconds 2.57963 hours CTEQ5L-LO_HardQCDSelectionGluon_20To30_2017-02-07-094647
9226.83 seconds 2.56301 hours CTEQ5L-LO_HardQCDSelectionGluon_20To30_2017-02-07-094647
9311.87 seconds 2.58663 hours CTEQ5L-LO_HardQCDSelectionGluon_20To30_2017-02-07-094647
9275.8 seconds 2.57661 hours CTEQ5L-LO_HardQCDSelectionGluon_20To30_2017-02-07-094647
9228.94 seconds 2.56359 hours CTEQ5L-LO_HardQCDSelectionGluon_20To30_2017-02-07-094647
9217.03 seconds 2.56029 hours CTEQ5L-LO_HardQCDSelectionGluon_20To30_2017-02-07-094647
9263.95 seconds 2.57332 hours CTEQ5L-LO_HardQCDSelectionGluon_20To30_2017-02-07-094647
9231.2 seconds 2.56422 hours CTEQ5L-LO_HardQCDSelectionGluon_20To30_2017-02-07-094647
9353.21 seconds 2.59811 hours CTEQ5L-LO_HardQCDSelectionGluon_20To30_2017-02-07-094647


21447.4 seconds 5.95761 hours CTEQ5L-LO_HardQCDSelectionGluon_230To300_2017-02-07-094647
21452.2 seconds 5.95894 hours CTEQ5L-LO_HardQCDSelectionGluon_230To300_2017-02-07-094647
21167.3 seconds 5.87981 hours CTEQ5L-LO_HardQCDSelectionGluon_230To300_2017-02-07-094647
21125.5 seconds 5.86819 hours CTEQ5L-LO_HardQCDSelectionGluon_230To300_2017-02-07-094647
21173.5 seconds 5.88153 hours CTEQ5L-LO_HardQCDSelectionGluon_230To300_2017-02-07-094647
21196.6 seconds 5.88794 hours CTEQ5L-LO_HardQCDSelectionGluon_230To300_2017-02-07-094647
21173.3 seconds 5.88147 hours CTEQ5L-LO_HardQCDSelectionGluon_230To300_2017-02-07-094647
21467.9 seconds 5.96331 hours CTEQ5L-LO_HardQCDSelectionGluon_230To300_2017-02-07-094647
21483.7 seconds 5.96769 hours CTEQ5L-LO_HardQCDSelectionGluon_230To300_2017-02-07-094647
21136.3 seconds 5.87119 hours CTEQ5L-LO_HardQCDSelectionGluon_230To300_2017-02-07-094647
21241.9 seconds 5.90053 hours CTEQ5L-LO_HardQCDSelectionGluon_230To300_2017-02-07-094647
21357.4 seconds 5.93261 hours CTEQ5L-LO_HardQCDSelectionGluon_230To300_2017-02-07-094647
21144 seconds 5.87333 hours CTEQ5L-LO_HardQCDSelectionGluon_230To300_2017-02-07-094647
21309 seconds 5.91917 hours CTEQ5L-LO_HardQCDSelectionGluon_230To300_2017-02-07-094647
21305.1 seconds 5.91808 hours CTEQ5L-LO_HardQCDSelectionGluon_230To300_2017-02-07-094647
21029 seconds 5.84139 hours CTEQ5L-LO_HardQCDSelectionGluon_230To300_2017-02-07-094647
21602 seconds 6.00056 hours CTEQ5L-LO_HardQCDSelectionGluon_230To300_2017-02-07-094647
21794.4 seconds 6.054 hours CTEQ5L-LO_HardQCDSelectionGluon_230To300_2017-02-07-094647
21912.1 seconds 6.08669 hours CTEQ5L-LO_HardQCDSelectionGluon_230To300_2017-02-07-094647
21875.7 seconds 6.07658 hours CTEQ5L-LO_HardQCDSelectionGluon_230To300_2017-02-07-094647


22146.4 seconds 6.15178 hours CTEQ5L-LO_HardQCDSelectionGluon_300To380_2017-02-07-094647
22424.1 seconds 6.22892 hours CTEQ5L-LO_HardQCDSelectionGluon_300To380_2017-02-07-094647
22727.7 seconds 6.31325 hours CTEQ5L-LO_HardQCDSelectionGluon_300To380_2017-02-07-094647
22355.7 seconds 6.20992 hours CTEQ5L-LO_HardQCDSelectionGluon_300To380_2017-02-07-094647
22386.2 seconds 6.21839 hours CTEQ5L-LO_HardQCDSelectionGluon_300To380_2017-02-07-094647
22558.1 seconds 6.26614 hours CTEQ5L-LO_HardQCDSelectionGluon_300To380_2017-02-07-094647
22435 seconds 6.23194 hours CTEQ5L-LO_HardQCDSelectionGluon_300To380_2017-02-07-094647
22460 seconds 6.23889 hours CTEQ5L-LO_HardQCDSelectionGluon_300To380_2017-02-07-094647
23037.9 seconds 6.39942 hours CTEQ5L-LO_HardQCDSelectionGluon_300To380_2017-02-07-094647
22583.4 seconds 6.27317 hours CTEQ5L-LO_HardQCDSelectionGluon_300To380_2017-02-07-094647
22876.3 seconds 6.35453 hours CTEQ5L-LO_HardQCDSelectionGluon_300To380_2017-02-07-094647
21971.2 seconds 6.10311 hours CTEQ5L-LO_HardQCDSelectionGluon_300To380_2017-02-07-094647
23688.4 seconds 6.58011 hours CTEQ5L-LO_HardQCDSelectionGluon_300To380_2017-02-07-094647
22146.2 seconds 6.15172 hours CTEQ5L-LO_HardQCDSelectionGluon_300To380_2017-02-07-094647
22390.9 seconds 6.21969 hours CTEQ5L-LO_HardQCDSelectionGluon_300To380_2017-02-07-094647
22362.8 seconds 6.21189 hours CTEQ5L-LO_HardQCDSelectionGluon_300To380_2017-02-07-094647
21924.7 seconds 6.09019 hours CTEQ5L-LO_HardQCDSelectionGluon_300To380_2017-02-07-094647
22018.9 seconds 6.11636 hours CTEQ5L-LO_HardQCDSelectionGluon_300To380_2017-02-07-094647
21913 seconds 6.08694 hours CTEQ5L-LO_HardQCDSelectionGluon_300To380_2017-02-07-094647
22333.7 seconds 6.20381 hours CTEQ5L-LO_HardQCDSelectionGluon_300To380_2017-02-07-094647


10133.2 seconds 2.81478 hours CTEQ5L-LO_HardQCDSelectionGluon_30To50_2017-02-07-094647
10153.5 seconds 2.82042 hours CTEQ5L-LO_HardQCDSelectionGluon_30To50_2017-02-07-094647
10219.4 seconds 2.83872 hours CTEQ5L-LO_HardQCDSelectionGluon_30To50_2017-02-07-094647
10143.2 seconds 2.81756 hours CTEQ5L-LO_HardQCDSelectionGluon_30To50_2017-02-07-094647
10069.2 seconds 2.797 hours CTEQ5L-LO_HardQCDSelectionGluon_30To50_2017-02-07-094647
10171.6 seconds 2.82544 hours CTEQ5L-LO_HardQCDSelectionGluon_30To50_2017-02-07-094647
10116.6 seconds 2.81017 hours CTEQ5L-LO_HardQCDSelectionGluon_30To50_2017-02-07-094647
10152.5 seconds 2.82014 hours CTEQ5L-LO_HardQCDSelectionGluon_30To50_2017-02-07-094647
9997.23 seconds 2.77701 hours CTEQ5L-LO_HardQCDSelectionGluon_30To50_2017-02-07-094647
10193.1 seconds 2.83142 hours CTEQ5L-LO_HardQCDSelectionGluon_30To50_2017-02-07-094647
10202.6 seconds 2.83406 hours CTEQ5L-LO_HardQCDSelectionGluon_30To50_2017-02-07-094647
10174.2 seconds 2.82617 hours CTEQ5L-LO_HardQCDSelectionGluon_30To50_2017-02-07-094647
10261.8 seconds 2.8505 hours CTEQ5L-LO_HardQCDSelectionGluon_30To50_2017-02-07-094647
10150.8 seconds 2.81967 hours CTEQ5L-LO_HardQCDSelectionGluon_30To50_2017-02-07-094647
10077.6 seconds 2.79933 hours CTEQ5L-LO_HardQCDSelectionGluon_30To50_2017-02-07-094647
10098.8 seconds 2.80522 hours CTEQ5L-LO_HardQCDSelectionGluon_30To50_2017-02-07-094647
14008.1 seconds 3.89114 hours CTEQ5L-LO_HardQCDSelectionGluon_30To50_2017-02-07-094647
10003.3 seconds 2.77869 hours CTEQ5L-LO_HardQCDSelectionGluon_30To50_2017-02-07-094647
10256.3 seconds 2.84897 hours CTEQ5L-LO_HardQCDSelectionGluon_30To50_2017-02-07-094647
10210.1 seconds 2.83614 hours CTEQ5L-LO_HardQCDSelectionGluon_30To50_2017-02-07-094647


20333.6 seconds 5.64822 hours CTEQ5L-LO_HardQCDSelectionGluon_380To10000_2017-02-07-094647
17095.3 seconds 4.74869 hours CTEQ5L-LO_HardQCDSelectionGluon_380To10000_2017-02-07-094647
16799.2 seconds 4.66644 hours CTEQ5L-LO_HardQCDSelectionGluon_380To10000_2017-02-07-094647
24035.5 seconds 6.67653 hours CTEQ5L-LO_HardQCDSelectionGluon_380To10000_2017-02-07-094647
23352 seconds 6.48667 hours CTEQ5L-LO_HardQCDSelectionGluon_380To10000_2017-02-07-094647
15658.4 seconds 4.34956 hours CTEQ5L-LO_HardQCDSelectionGluon_380To10000_2017-02-07-094647
23529.5 seconds 6.53597 hours CTEQ5L-LO_HardQCDSelectionGluon_380To10000_2017-02-07-094647
16983.3 seconds 4.71758 hours CTEQ5L-LO_HardQCDSelectionGluon_380To10000_2017-02-07-094647
24063.2 seconds 6.68422 hours CTEQ5L-LO_HardQCDSelectionGluon_380To10000_2017-02-07-094647
23960.5 seconds 6.65569 hours CTEQ5L-LO_HardQCDSelectionGluon_380To10000_2017-02-07-094647
23730.8 seconds 6.59189 hours CTEQ5L-LO_HardQCDSelectionGluon_380To10000_2017-02-07-094647
17546.4 seconds 4.874 hours CTEQ5L-LO_HardQCDSelectionGluon_380To10000_2017-02-07-094647
23387.7 seconds 6.49658 hours CTEQ5L-LO_HardQCDSelectionGluon_380To10000_2017-02-07-094647
18077.3 seconds 5.02147 hours CTEQ5L-LO_HardQCDSelectionGluon_380To10000_2017-02-07-094647
23891.9 seconds 6.63664 hours CTEQ5L-LO_HardQCDSelectionGluon_380To10000_2017-02-07-094647
17392.3 seconds 4.83119 hours CTEQ5L-LO_HardQCDSelectionGluon_380To10000_2017-02-07-094647
23931.8 seconds 6.64772 hours CTEQ5L-LO_HardQCDSelectionGluon_380To10000_2017-02-07-094647
16914.4 seconds 4.69844 hours CTEQ5L-LO_HardQCDSelectionGluon_380To10000_2017-02-07-094647
23559.7 seconds 6.54436 hours CTEQ5L-LO_HardQCDSelectionGluon_380To10000_2017-02-07-094647
23603.1 seconds 6.55642 hours CTEQ5L-LO_HardQCDSelectionGluon_380To10000_2017-02-07-094647


22491.9 seconds 6.24775 hours CTEQ5L-LO_HardQCDSelectionGluon_50To80_2017-02-07-094647
15217 seconds 4.22694 hours CTEQ5L-LO_HardQCDSelectionGluon_50To80_2017-02-07-094647
22471.8 seconds 6.24217 hours CTEQ5L-LO_HardQCDSelectionGluon_50To80_2017-02-07-094647
22526 seconds 6.25722 hours CTEQ5L-LO_HardQCDSelectionGluon_50To80_2017-02-07-094647
22339.9 seconds 6.20553 hours CTEQ5L-LO_HardQCDSelectionGluon_50To80_2017-02-07-094647
22570.4 seconds 6.26956 hours CTEQ5L-LO_HardQCDSelectionGluon_50To80_2017-02-07-094647
22187.5 seconds 6.16319 hours CTEQ5L-LO_HardQCDSelectionGluon_50To80_2017-02-07-094647
22198.6 seconds 6.16628 hours CTEQ5L-LO_HardQCDSelectionGluon_50To80_2017-02-07-094647
22607.5 seconds 6.27986 hours CTEQ5L-LO_HardQCDSelectionGluon_50To80_2017-02-07-094647
22890.6 seconds 6.3585 hours CTEQ5L-LO_HardQCDSelectionGluon_50To80_2017-02-07-094647
23003.5 seconds 6.38986 hours CTEQ5L-LO_HardQCDSelectionGluon_50To80_2017-02-07-094647
22347.9 seconds 6.20775 hours CTEQ5L-LO_HardQCDSelectionGluon_50To80_2017-02-07-094647
22722.9 seconds 6.31192 hours CTEQ5L-LO_HardQCDSelectionGluon_50To80_2017-02-07-094647
22805 seconds 6.33472 hours CTEQ5L-LO_HardQCDSelectionGluon_50To80_2017-02-07-094647
22402.5 seconds 6.22292 hours CTEQ5L-LO_HardQCDSelectionGluon_50To80_2017-02-07-094647
22096.6 seconds 6.13794 hours CTEQ5L-LO_HardQCDSelectionGluon_50To80_2017-02-07-094647
23006.3 seconds 6.39064 hours CTEQ5L-LO_HardQCDSelectionGluon_50To80_2017-02-07-094647
22831.3 seconds 6.34203 hours CTEQ5L-LO_HardQCDSelectionGluon_50To80_2017-02-07-094647
22513.6 seconds 6.25378 hours CTEQ5L-LO_HardQCDSelectionGluon_50To80_2017-02-07-094647
22583 seconds 6.27306 hours CTEQ5L-LO_HardQCDSelectionGluon_50To80_2017-02-07-094647


24678.6 seconds 6.85517 hours CTEQ5L-LO_HardQCDSelectionGluon_80To120_2017-02-07-094647
16798.9 seconds 4.66636 hours CTEQ5L-LO_HardQCDSelectionGluon_80To120_2017-02-07-094647
17643.4 seconds 4.90094 hours CTEQ5L-LO_HardQCDSelectionGluon_80To120_2017-02-07-094647
12910.1 seconds 3.58614 hours CTEQ5L-LO_HardQCDSelectionGluon_80To120_2017-02-07-094647
16834.7 seconds 4.67631 hours CTEQ5L-LO_HardQCDSelectionGluon_80To120_2017-02-07-094647
16953.9 seconds 4.70942 hours CTEQ5L-LO_HardQCDSelectionGluon_80To120_2017-02-07-094647
16874 seconds 4.68722 hours CTEQ5L-LO_HardQCDSelectionGluon_80To120_2017-02-07-094647
17185.5 seconds 4.77375 hours CTEQ5L-LO_HardQCDSelectionGluon_80To120_2017-02-07-094647
16606.6 seconds 4.61294 hours CTEQ5L-LO_HardQCDSelectionGluon_80To120_2017-02-07-094647
17177.5 seconds 4.77153 hours CTEQ5L-LO_HardQCDSelectionGluon_80To120_2017-02-07-094647
16803.1 seconds 4.66753 hours CTEQ5L-LO_HardQCDSelectionGluon_80To120_2017-02-07-094647
24660 seconds 6.85 hours CTEQ5L-LO_HardQCDSelectionGluon_80To120_2017-02-07-094647
17164.2 seconds 4.76783 hours CTEQ5L-LO_HardQCDSelectionGluon_80To120_2017-02-07-094647
24697.9 seconds 6.86053 hours CTEQ5L-LO_HardQCDSelectionGluon_80To120_2017-02-07-094647
12085.6 seconds 3.35711 hours CTEQ5L-LO_HardQCDSelectionGluon_80To120_2017-02-07-094647
12065.7 seconds 3.35158 hours CTEQ5L-LO_HardQCDSelectionGluon_80To120_2017-02-07-094647
17365.2 seconds 4.82367 hours CTEQ5L-LO_HardQCDSelectionGluon_80To120_2017-02-07-094647
17097.7 seconds 4.74936 hours CTEQ5L-LO_HardQCDSelectionGluon_80To120_2017-02-07-094647
17244.8 seconds 4.79022 hours CTEQ5L-LO_HardQCDSelectionGluon_80To120_2017-02-07-094647
17063 seconds 4.73972 hours CTEQ5L-LO_HardQCDSelectionGluon_80To120_2017-02-07-094647




