

Time taken to complete the job, Statistics
==========================================
6634.25 seconds 1.84285 hours CTEQ5L-LO_HardQCDSelectionQuark_10To20_2017-02-06-110319
4966.75 seconds 1.37965 hours CTEQ5L-LO_HardQCDSelectionQuark_10To20_2017-02-06-110319
4766.37 seconds 1.32399 hours CTEQ5L-LO_HardQCDSelectionQuark_10To20_2017-02-06-110319
4996.29 seconds 1.38786 hours CTEQ5L-LO_HardQCDSelectionQuark_10To20_2017-02-06-110319
6618.88 seconds 1.83858 hours CTEQ5L-LO_HardQCDSelectionQuark_10To20_2017-02-06-110319
6861.14 seconds 1.90587 hours CTEQ5L-LO_HardQCDSelectionQuark_10To20_2017-02-06-110319
6816.23 seconds 1.8934 hours CTEQ5L-LO_HardQCDSelectionQuark_10To20_2017-02-06-110319
6719.33 seconds 1.86648 hours CTEQ5L-LO_HardQCDSelectionQuark_10To20_2017-02-06-110319
6726.97 seconds 1.8686 hours CTEQ5L-LO_HardQCDSelectionQuark_10To20_2017-02-06-110319
7116.36 seconds 1.97677 hours CTEQ5L-LO_HardQCDSelectionQuark_10To20_2017-02-06-110319
6843.98 seconds 1.90111 hours CTEQ5L-LO_HardQCDSelectionQuark_10To20_2017-02-06-110319
6823.5 seconds 1.89542 hours CTEQ5L-LO_HardQCDSelectionQuark_10To20_2017-02-06-110319
6792.61 seconds 1.88684 hours CTEQ5L-LO_HardQCDSelectionQuark_10To20_2017-02-06-110319
7070.85 seconds 1.96413 hours CTEQ5L-LO_HardQCDSelectionQuark_10To20_2017-02-06-110319
6843.72 seconds 1.90103 hours CTEQ5L-LO_HardQCDSelectionQuark_10To20_2017-02-06-110319
7234.78 seconds 2.00966 hours CTEQ5L-LO_HardQCDSelectionQuark_10To20_2017-02-06-110319
5064.22 seconds 1.40673 hours CTEQ5L-LO_HardQCDSelectionQuark_10To20_2017-02-06-110319
7099.82 seconds 1.97217 hours CTEQ5L-LO_HardQCDSelectionQuark_10To20_2017-02-06-110319
6651.45 seconds 1.84762 hours CTEQ5L-LO_HardQCDSelectionQuark_10To20_2017-02-06-110319
6671.38 seconds 1.85316 hours CTEQ5L-LO_HardQCDSelectionQuark_10To20_2017-02-06-110319


5502.57 seconds 1.52849 hours CTEQ5L-LO_HardQCDSelectionQuark_120To170_2017-02-06-110319
5271.29 seconds 1.46425 hours CTEQ5L-LO_HardQCDSelectionQuark_120To170_2017-02-06-110319
7260.96 seconds 2.01693 hours CTEQ5L-LO_HardQCDSelectionQuark_120To170_2017-02-06-110319
7113.2 seconds 1.97589 hours CTEQ5L-LO_HardQCDSelectionQuark_120To170_2017-02-06-110319
5227.82 seconds 1.45217 hours CTEQ5L-LO_HardQCDSelectionQuark_120To170_2017-02-06-110319
5104.72 seconds 1.41798 hours CTEQ5L-LO_HardQCDSelectionQuark_120To170_2017-02-06-110319
5260.46 seconds 1.46124 hours CTEQ5L-LO_HardQCDSelectionQuark_120To170_2017-02-06-110319
4955.34 seconds 1.37648 hours CTEQ5L-LO_HardQCDSelectionQuark_120To170_2017-02-06-110319
5012.3 seconds 1.39231 hours CTEQ5L-LO_HardQCDSelectionQuark_120To170_2017-02-06-110319
4891.85 seconds 1.35885 hours CTEQ5L-LO_HardQCDSelectionQuark_120To170_2017-02-06-110319
5747.12 seconds 1.59642 hours CTEQ5L-LO_HardQCDSelectionQuark_120To170_2017-02-06-110319
5484.85 seconds 1.52357 hours CTEQ5L-LO_HardQCDSelectionQuark_120To170_2017-02-06-110319
5571.76 seconds 1.54771 hours CTEQ5L-LO_HardQCDSelectionQuark_120To170_2017-02-06-110319
5266.5 seconds 1.46292 hours CTEQ5L-LO_HardQCDSelectionQuark_120To170_2017-02-06-110319
5689.9 seconds 1.58053 hours CTEQ5L-LO_HardQCDSelectionQuark_120To170_2017-02-06-110319
5632.91 seconds 1.5647 hours CTEQ5L-LO_HardQCDSelectionQuark_120To170_2017-02-06-110319
5439.03 seconds 1.51084 hours CTEQ5L-LO_HardQCDSelectionQuark_120To170_2017-02-06-110319
5871.03 seconds 1.63084 hours CTEQ5L-LO_HardQCDSelectionQuark_120To170_2017-02-06-110319
7367.1 seconds 2.04642 hours CTEQ5L-LO_HardQCDSelectionQuark_120To170_2017-02-06-110319
6539.61 seconds 1.81656 hours CTEQ5L-LO_HardQCDSelectionQuark_120To170_2017-02-06-110319


5604.68 seconds 1.55686 hours CTEQ5L-LO_HardQCDSelectionQuark_170To230_2017-02-06-110319
5294.2 seconds 1.47061 hours CTEQ5L-LO_HardQCDSelectionQuark_170To230_2017-02-06-110319
5421.31 seconds 1.50592 hours CTEQ5L-LO_HardQCDSelectionQuark_170To230_2017-02-06-110319
4766.11 seconds 1.32392 hours CTEQ5L-LO_HardQCDSelectionQuark_170To230_2017-02-06-110319
5616.93 seconds 1.56026 hours CTEQ5L-LO_HardQCDSelectionQuark_170To230_2017-02-06-110319
3260.09 seconds 0.905581 hours CTEQ5L-LO_HardQCDSelectionQuark_170To230_2017-02-06-110319
7151.34 seconds 1.98648 hours CTEQ5L-LO_HardQCDSelectionQuark_170To230_2017-02-06-110319
7430.85 seconds 2.06413 hours CTEQ5L-LO_HardQCDSelectionQuark_170To230_2017-02-06-110319
6892.74 seconds 1.91465 hours CTEQ5L-LO_HardQCDSelectionQuark_170To230_2017-02-06-110319
6659.13 seconds 1.84976 hours CTEQ5L-LO_HardQCDSelectionQuark_170To230_2017-02-06-110319
7377.95 seconds 2.04943 hours CTEQ5L-LO_HardQCDSelectionQuark_170To230_2017-02-06-110319
5658.22 seconds 1.57173 hours CTEQ5L-LO_HardQCDSelectionQuark_170To230_2017-02-06-110319
6901.52 seconds 1.91709 hours CTEQ5L-LO_HardQCDSelectionQuark_170To230_2017-02-06-110319
5666.36 seconds 1.57399 hours CTEQ5L-LO_HardQCDSelectionQuark_170To230_2017-02-06-110319
5783.15 seconds 1.60643 hours CTEQ5L-LO_HardQCDSelectionQuark_170To230_2017-02-06-110319
5488.14 seconds 1.52448 hours CTEQ5L-LO_HardQCDSelectionQuark_170To230_2017-02-06-110319
5564.21 seconds 1.54561 hours CTEQ5L-LO_HardQCDSelectionQuark_170To230_2017-02-06-110319
7508.43 seconds 2.08568 hours CTEQ5L-LO_HardQCDSelectionQuark_170To230_2017-02-06-110319
7720.31 seconds 2.14453 hours CTEQ5L-LO_HardQCDSelectionQuark_170To230_2017-02-06-110319
7328.92 seconds 2.03581 hours CTEQ5L-LO_HardQCDSelectionQuark_170To230_2017-02-06-110319


6554.13 seconds 1.82059 hours CTEQ5L-LO_HardQCDSelectionQuark_20To30_2017-02-06-110319
5090.31 seconds 1.41398 hours CTEQ5L-LO_HardQCDSelectionQuark_20To30_2017-02-06-110319
4900.58 seconds 1.36127 hours CTEQ5L-LO_HardQCDSelectionQuark_20To30_2017-02-06-110319
7632.27 seconds 2.12007 hours CTEQ5L-LO_HardQCDSelectionQuark_20To30_2017-02-06-110319
7039.07 seconds 1.9553 hours CTEQ5L-LO_HardQCDSelectionQuark_20To30_2017-02-06-110319
7043.71 seconds 1.95659 hours CTEQ5L-LO_HardQCDSelectionQuark_20To30_2017-02-06-110319
7022.48 seconds 1.95069 hours CTEQ5L-LO_HardQCDSelectionQuark_20To30_2017-02-06-110319
7039.11 seconds 1.95531 hours CTEQ5L-LO_HardQCDSelectionQuark_20To30_2017-02-06-110319
7108.09 seconds 1.97447 hours CTEQ5L-LO_HardQCDSelectionQuark_20To30_2017-02-06-110319
7471.85 seconds 2.07551 hours CTEQ5L-LO_HardQCDSelectionQuark_20To30_2017-02-06-110319
7104.37 seconds 1.97344 hours CTEQ5L-LO_HardQCDSelectionQuark_20To30_2017-02-06-110319
6888.43 seconds 1.91345 hours CTEQ5L-LO_HardQCDSelectionQuark_20To30_2017-02-06-110319
7198.57 seconds 1.9996 hours CTEQ5L-LO_HardQCDSelectionQuark_20To30_2017-02-06-110319
7171.26 seconds 1.99202 hours CTEQ5L-LO_HardQCDSelectionQuark_20To30_2017-02-06-110319
7193.45 seconds 1.99818 hours CTEQ5L-LO_HardQCDSelectionQuark_20To30_2017-02-06-110319
7359.32 seconds 2.04426 hours CTEQ5L-LO_HardQCDSelectionQuark_20To30_2017-02-06-110319
6999.11 seconds 1.9442 hours CTEQ5L-LO_HardQCDSelectionQuark_20To30_2017-02-06-110319
4958.14 seconds 1.37726 hours CTEQ5L-LO_HardQCDSelectionQuark_20To30_2017-02-06-110319
4909.89 seconds 1.36386 hours CTEQ5L-LO_HardQCDSelectionQuark_20To30_2017-02-06-110319
5018.11 seconds 1.39392 hours CTEQ5L-LO_HardQCDSelectionQuark_20To30_2017-02-06-110319


6805.27 seconds 1.89035 hours CTEQ5L-LO_HardQCDSelectionQuark_230To300_2017-02-06-110319
7269.67 seconds 2.01935 hours CTEQ5L-LO_HardQCDSelectionQuark_230To300_2017-02-06-110319
7288.43 seconds 2.02456 hours CTEQ5L-LO_HardQCDSelectionQuark_230To300_2017-02-06-110319
7180.06 seconds 1.99446 hours CTEQ5L-LO_HardQCDSelectionQuark_230To300_2017-02-06-110319
7197.85 seconds 1.9994 hours CTEQ5L-LO_HardQCDSelectionQuark_230To300_2017-02-06-110319
7488.19 seconds 2.08005 hours CTEQ5L-LO_HardQCDSelectionQuark_230To300_2017-02-06-110319
7387.5 seconds 2.05208 hours CTEQ5L-LO_HardQCDSelectionQuark_230To300_2017-02-06-110319
7254.64 seconds 2.01518 hours CTEQ5L-LO_HardQCDSelectionQuark_230To300_2017-02-06-110319
7372.47 seconds 2.04791 hours CTEQ5L-LO_HardQCDSelectionQuark_230To300_2017-02-06-110319
7119.62 seconds 1.97767 hours CTEQ5L-LO_HardQCDSelectionQuark_230To300_2017-02-06-110319
7075.89 seconds 1.96553 hours CTEQ5L-LO_HardQCDSelectionQuark_230To300_2017-02-06-110319
6754.56 seconds 1.87627 hours CTEQ5L-LO_HardQCDSelectionQuark_230To300_2017-02-06-110319
7166.92 seconds 1.99081 hours CTEQ5L-LO_HardQCDSelectionQuark_230To300_2017-02-06-110319
6749.37 seconds 1.87482 hours CTEQ5L-LO_HardQCDSelectionQuark_230To300_2017-02-06-110319
7322.52 seconds 2.03403 hours CTEQ5L-LO_HardQCDSelectionQuark_230To300_2017-02-06-110319
7290.01 seconds 2.025 hours CTEQ5L-LO_HardQCDSelectionQuark_230To300_2017-02-06-110319
7468.91 seconds 2.0747 hours CTEQ5L-LO_HardQCDSelectionQuark_230To300_2017-02-06-110319
7429.26 seconds 2.06368 hours CTEQ5L-LO_HardQCDSelectionQuark_230To300_2017-02-06-110319
7230.28 seconds 2.00841 hours CTEQ5L-LO_HardQCDSelectionQuark_230To300_2017-02-06-110319
7192.69 seconds 1.99797 hours CTEQ5L-LO_HardQCDSelectionQuark_230To300_2017-02-06-110319


7099 seconds 1.97194 hours CTEQ5L-LO_HardQCDSelectionQuark_300To380_2017-02-06-110319
7423.47 seconds 2.06208 hours CTEQ5L-LO_HardQCDSelectionQuark_300To380_2017-02-06-110319
5399.44 seconds 1.49984 hours CTEQ5L-LO_HardQCDSelectionQuark_300To380_2017-02-06-110319
5279.44 seconds 1.46651 hours CTEQ5L-LO_HardQCDSelectionQuark_300To380_2017-02-06-110319
5038.04 seconds 1.39946 hours CTEQ5L-LO_HardQCDSelectionQuark_300To380_2017-02-06-110319
7549.62 seconds 2.09712 hours CTEQ5L-LO_HardQCDSelectionQuark_300To380_2017-02-06-110319
8055.87 seconds 2.23774 hours CTEQ5L-LO_HardQCDSelectionQuark_300To380_2017-02-06-110319
7755.49 seconds 2.1543 hours CTEQ5L-LO_HardQCDSelectionQuark_300To380_2017-02-06-110319
5187.75 seconds 1.44104 hours CTEQ5L-LO_HardQCDSelectionQuark_300To380_2017-02-06-110319
5200.29 seconds 1.44453 hours CTEQ5L-LO_HardQCDSelectionQuark_300To380_2017-02-06-110319
5153.06 seconds 1.43141 hours CTEQ5L-LO_HardQCDSelectionQuark_300To380_2017-02-06-110319
7539.77 seconds 2.09438 hours CTEQ5L-LO_HardQCDSelectionQuark_300To380_2017-02-06-110319
7534.04 seconds 2.09279 hours CTEQ5L-LO_HardQCDSelectionQuark_300To380_2017-02-06-110319
7738.89 seconds 2.14969 hours CTEQ5L-LO_HardQCDSelectionQuark_300To380_2017-02-06-110319
7180.46 seconds 1.99457 hours CTEQ5L-LO_HardQCDSelectionQuark_300To380_2017-02-06-110319
7085.03 seconds 1.96806 hours CTEQ5L-LO_HardQCDSelectionQuark_300To380_2017-02-06-110319
7065.27 seconds 1.96258 hours CTEQ5L-LO_HardQCDSelectionQuark_300To380_2017-02-06-110319
7198.33 seconds 1.99954 hours CTEQ5L-LO_HardQCDSelectionQuark_300To380_2017-02-06-110319
7333.01 seconds 2.03695 hours CTEQ5L-LO_HardQCDSelectionQuark_300To380_2017-02-06-110319
7313.89 seconds 2.03164 hours CTEQ5L-LO_HardQCDSelectionQuark_300To380_2017-02-06-110319


7038.59 seconds 1.95516 hours CTEQ5L-LO_HardQCDSelectionQuark_30To50_2017-02-06-110319
7117.11 seconds 1.97697 hours CTEQ5L-LO_HardQCDSelectionQuark_30To50_2017-02-06-110319
7118.72 seconds 1.97742 hours CTEQ5L-LO_HardQCDSelectionQuark_30To50_2017-02-06-110319
7546.59 seconds 2.09627 hours CTEQ5L-LO_HardQCDSelectionQuark_30To50_2017-02-06-110319
7111.3 seconds 1.97536 hours CTEQ5L-LO_HardQCDSelectionQuark_30To50_2017-02-06-110319
7032.39 seconds 1.95344 hours CTEQ5L-LO_HardQCDSelectionQuark_30To50_2017-02-06-110319
7295.25 seconds 2.02646 hours CTEQ5L-LO_HardQCDSelectionQuark_30To50_2017-02-06-110319
7245.03 seconds 2.01251 hours CTEQ5L-LO_HardQCDSelectionQuark_30To50_2017-02-06-110319
7200.7 seconds 2.00019 hours CTEQ5L-LO_HardQCDSelectionQuark_30To50_2017-02-06-110319
7291.67 seconds 2.02546 hours CTEQ5L-LO_HardQCDSelectionQuark_30To50_2017-02-06-110319
7253.91 seconds 2.01497 hours CTEQ5L-LO_HardQCDSelectionQuark_30To50_2017-02-06-110319
7159.59 seconds 1.98877 hours CTEQ5L-LO_HardQCDSelectionQuark_30To50_2017-02-06-110319
7363.69 seconds 2.04547 hours CTEQ5L-LO_HardQCDSelectionQuark_30To50_2017-02-06-110319
7343.47 seconds 2.03985 hours CTEQ5L-LO_HardQCDSelectionQuark_30To50_2017-02-06-110319
6268.77 seconds 1.74133 hours CTEQ5L-LO_HardQCDSelectionQuark_30To50_2017-02-06-110319
7263.58 seconds 2.01766 hours CTEQ5L-LO_HardQCDSelectionQuark_30To50_2017-02-06-110319
7163.39 seconds 1.98983 hours CTEQ5L-LO_HardQCDSelectionQuark_30To50_2017-02-06-110319
7129.81 seconds 1.9805 hours CTEQ5L-LO_HardQCDSelectionQuark_30To50_2017-02-06-110319
7111.32 seconds 1.97537 hours CTEQ5L-LO_HardQCDSelectionQuark_30To50_2017-02-06-110319
7233.5 seconds 2.00931 hours CTEQ5L-LO_HardQCDSelectionQuark_30To50_2017-02-06-110319


7834.36 seconds 2.17621 hours CTEQ5L-LO_HardQCDSelectionQuark_380To10000_2017-02-06-110319
5710.83 seconds 1.58634 hours CTEQ5L-LO_HardQCDSelectionQuark_380To10000_2017-02-06-110319
5671.78 seconds 1.57549 hours CTEQ5L-LO_HardQCDSelectionQuark_380To10000_2017-02-06-110319
5584.63 seconds 1.55129 hours CTEQ5L-LO_HardQCDSelectionQuark_380To10000_2017-02-06-110319
5600.71 seconds 1.55575 hours CTEQ5L-LO_HardQCDSelectionQuark_380To10000_2017-02-06-110319
5626.54 seconds 1.56293 hours CTEQ5L-LO_HardQCDSelectionQuark_380To10000_2017-02-06-110319
5659.62 seconds 1.57212 hours CTEQ5L-LO_HardQCDSelectionQuark_380To10000_2017-02-06-110319
5718.06 seconds 1.58835 hours CTEQ5L-LO_HardQCDSelectionQuark_380To10000_2017-02-06-110319
5392.04 seconds 1.49779 hours CTEQ5L-LO_HardQCDSelectionQuark_380To10000_2017-02-06-110319
5629.79 seconds 1.56383 hours CTEQ5L-LO_HardQCDSelectionQuark_380To10000_2017-02-06-110319
5633.5 seconds 1.56486 hours CTEQ5L-LO_HardQCDSelectionQuark_380To10000_2017-02-06-110319
7127.31 seconds 1.97981 hours CTEQ5L-LO_HardQCDSelectionQuark_380To10000_2017-02-06-110319
9404.84 seconds 2.61246 hours CTEQ5L-LO_HardQCDSelectionQuark_380To10000_2017-02-06-110319
5476 seconds 1.52111 hours CTEQ5L-LO_HardQCDSelectionQuark_380To10000_2017-02-06-110319
5618.59 seconds 1.56072 hours CTEQ5L-LO_HardQCDSelectionQuark_380To10000_2017-02-06-110319
8049.41 seconds 2.23595 hours CTEQ5L-LO_HardQCDSelectionQuark_380To10000_2017-02-06-110319
8111.92 seconds 2.25331 hours CTEQ5L-LO_HardQCDSelectionQuark_380To10000_2017-02-06-110319
7910.59 seconds 2.19739 hours CTEQ5L-LO_HardQCDSelectionQuark_380To10000_2017-02-06-110319
8035.9 seconds 2.23219 hours CTEQ5L-LO_HardQCDSelectionQuark_380To10000_2017-02-06-110319
5772.8 seconds 1.60356 hours CTEQ5L-LO_HardQCDSelectionQuark_380To10000_2017-02-06-110319


7526.46 seconds 2.09068 hours CTEQ5L-LO_HardQCDSelectionQuark_50To80_2017-02-06-110319
7417.71 seconds 2.06047 hours CTEQ5L-LO_HardQCDSelectionQuark_50To80_2017-02-06-110319
7530.13 seconds 2.0917 hours CTEQ5L-LO_HardQCDSelectionQuark_50To80_2017-02-06-110319
7451.56 seconds 2.06988 hours CTEQ5L-LO_HardQCDSelectionQuark_50To80_2017-02-06-110319
7705.99 seconds 2.14055 hours CTEQ5L-LO_HardQCDSelectionQuark_50To80_2017-02-06-110319
7463.25 seconds 2.07313 hours CTEQ5L-LO_HardQCDSelectionQuark_50To80_2017-02-06-110319
7075.35 seconds 1.96538 hours CTEQ5L-LO_HardQCDSelectionQuark_50To80_2017-02-06-110319
7469.02 seconds 2.07473 hours CTEQ5L-LO_HardQCDSelectionQuark_50To80_2017-02-06-110319
7235.53 seconds 2.00987 hours CTEQ5L-LO_HardQCDSelectionQuark_50To80_2017-02-06-110319
7176.03 seconds 1.99334 hours CTEQ5L-LO_HardQCDSelectionQuark_50To80_2017-02-06-110319
7513.03 seconds 2.08695 hours CTEQ5L-LO_HardQCDSelectionQuark_50To80_2017-02-06-110319
7157.9 seconds 1.98831 hours CTEQ5L-LO_HardQCDSelectionQuark_50To80_2017-02-06-110319
7173.8 seconds 1.99272 hours CTEQ5L-LO_HardQCDSelectionQuark_50To80_2017-02-06-110319
7138.79 seconds 1.983 hours CTEQ5L-LO_HardQCDSelectionQuark_50To80_2017-02-06-110319
7434.63 seconds 2.06517 hours CTEQ5L-LO_HardQCDSelectionQuark_50To80_2017-02-06-110319
7352.87 seconds 2.04246 hours CTEQ5L-LO_HardQCDSelectionQuark_50To80_2017-02-06-110319
7301.49 seconds 2.02819 hours CTEQ5L-LO_HardQCDSelectionQuark_50To80_2017-02-06-110319
7170.51 seconds 1.99181 hours CTEQ5L-LO_HardQCDSelectionQuark_50To80_2017-02-06-110319
7205.81 seconds 2.00161 hours CTEQ5L-LO_HardQCDSelectionQuark_50To80_2017-02-06-110319
7251.93 seconds 2.01443 hours CTEQ5L-LO_HardQCDSelectionQuark_50To80_2017-02-06-110319


7356.01 seconds 2.04334 hours CTEQ5L-LO_HardQCDSelectionQuark_80To120_2017-02-06-110319
7386.79 seconds 2.05189 hours CTEQ5L-LO_HardQCDSelectionQuark_80To120_2017-02-06-110319
7266.58 seconds 2.01849 hours CTEQ5L-LO_HardQCDSelectionQuark_80To120_2017-02-06-110319
7321.59 seconds 2.03377 hours CTEQ5L-LO_HardQCDSelectionQuark_80To120_2017-02-06-110319
7743.85 seconds 2.15107 hours CTEQ5L-LO_HardQCDSelectionQuark_80To120_2017-02-06-110319
7291.02 seconds 2.02528 hours CTEQ5L-LO_HardQCDSelectionQuark_80To120_2017-02-06-110319
7406.12 seconds 2.05726 hours CTEQ5L-LO_HardQCDSelectionQuark_80To120_2017-02-06-110319
6481.85 seconds 1.80051 hours CTEQ5L-LO_HardQCDSelectionQuark_80To120_2017-02-06-110319
6172.07 seconds 1.71446 hours CTEQ5L-LO_HardQCDSelectionQuark_80To120_2017-02-06-110319
7291.19 seconds 2.02533 hours CTEQ5L-LO_HardQCDSelectionQuark_80To120_2017-02-06-110319
4752.55 seconds 1.32015 hours CTEQ5L-LO_HardQCDSelectionQuark_80To120_2017-02-06-110319
7240.02 seconds 2.01112 hours CTEQ5L-LO_HardQCDSelectionQuark_80To120_2017-02-06-110319
4920.73 seconds 1.36687 hours CTEQ5L-LO_HardQCDSelectionQuark_80To120_2017-02-06-110319
7379.95 seconds 2.04999 hours CTEQ5L-LO_HardQCDSelectionQuark_80To120_2017-02-06-110319
7472.32 seconds 2.07564 hours CTEQ5L-LO_HardQCDSelectionQuark_80To120_2017-02-06-110319
7289.82 seconds 2.02495 hours CTEQ5L-LO_HardQCDSelectionQuark_80To120_2017-02-06-110319
7229.39 seconds 2.00816 hours CTEQ5L-LO_HardQCDSelectionQuark_80To120_2017-02-06-110319
7487.03 seconds 2.07973 hours CTEQ5L-LO_HardQCDSelectionQuark_80To120_2017-02-06-110319
7314.47 seconds 2.0318 hours CTEQ5L-LO_HardQCDSelectionQuark_80To120_2017-02-06-110319
7193.81 seconds 1.99828 hours CTEQ5L-LO_HardQCDSelectionQuark_80To120_2017-02-06-110319




