

Time taken to complete the job, Statistics
==========================================
27993.5 seconds 7.77597 hours CTEQ5L-LO_HardQCDMix_10To20_2016-09-23-124217
28397.2 seconds 7.88811 hours CTEQ5L-LO_HardQCDMix_10To20_2016-09-23-124217
28338.6 seconds 7.87183 hours CTEQ5L-LO_HardQCDMix_10To20_2016-09-23-124217
28552.3 seconds 7.93119 hours CTEQ5L-LO_HardQCDMix_10To20_2016-09-23-124217
28310.9 seconds 7.86414 hours CTEQ5L-LO_HardQCDMix_10To20_2016-09-23-124217
28398.8 seconds 7.88856 hours CTEQ5L-LO_HardQCDMix_10To20_2016-09-23-124217
29159.9 seconds 8.09997 hours CTEQ5L-LO_HardQCDMix_10To20_2016-09-23-124217
28325.9 seconds 7.86831 hours CTEQ5L-LO_HardQCDMix_10To20_2016-09-23-124217
27965.3 seconds 7.76814 hours CTEQ5L-LO_HardQCDMix_10To20_2016-09-23-124217
27762.2 seconds 7.71172 hours CTEQ5L-LO_HardQCDMix_10To20_2016-09-23-124217
27788.8 seconds 7.71911 hours CTEQ5L-LO_HardQCDMix_10To20_2016-09-23-124217
27860.3 seconds 7.73897 hours CTEQ5L-LO_HardQCDMix_10To20_2016-09-23-124217
28415.1 seconds 7.89308 hours CTEQ5L-LO_HardQCDMix_10To20_2016-09-23-124217
27995.5 seconds 7.77653 hours CTEQ5L-LO_HardQCDMix_10To20_2016-09-23-124217
28453.7 seconds 7.90381 hours CTEQ5L-LO_HardQCDMix_10To20_2016-09-23-124217
27973.9 seconds 7.77053 hours CTEQ5L-LO_HardQCDMix_10To20_2016-09-23-124217
28340.9 seconds 7.87247 hours CTEQ5L-LO_HardQCDMix_10To20_2016-09-23-124217
27994.2 seconds 7.77617 hours CTEQ5L-LO_HardQCDMix_10To20_2016-09-23-124217
28031.6 seconds 7.78656 hours CTEQ5L-LO_HardQCDMix_10To20_2016-09-23-124217
28565.5 seconds 7.93486 hours CTEQ5L-LO_HardQCDMix_10To20_2016-09-23-124217


29423.8 seconds 8.17328 hours CTEQ5L-LO_HardQCDMix_120To170_2016-09-23-124217
33993.5 seconds 9.44264 hours CTEQ5L-LO_HardQCDMix_120To170_2016-09-23-124217
33668.9 seconds 9.35247 hours CTEQ5L-LO_HardQCDMix_120To170_2016-09-23-124217
33246.4 seconds 9.23511 hours CTEQ5L-LO_HardQCDMix_120To170_2016-09-23-124217
31839.4 seconds 8.84428 hours CTEQ5L-LO_HardQCDMix_120To170_2016-09-23-124217
31253.7 seconds 8.68158 hours CTEQ5L-LO_HardQCDMix_120To170_2016-09-23-124217
31547 seconds 8.76306 hours CTEQ5L-LO_HardQCDMix_120To170_2016-09-23-124217
31177.1 seconds 8.66031 hours CTEQ5L-LO_HardQCDMix_120To170_2016-09-23-124217
32263.1 seconds 8.96197 hours CTEQ5L-LO_HardQCDMix_120To170_2016-09-23-124217
32315.6 seconds 8.97656 hours CTEQ5L-LO_HardQCDMix_120To170_2016-09-23-124217
31821.9 seconds 8.83942 hours CTEQ5L-LO_HardQCDMix_120To170_2016-09-23-124217
29867.9 seconds 8.29664 hours CTEQ5L-LO_HardQCDMix_120To170_2016-09-23-124217
24330.4 seconds 6.75844 hours CTEQ5L-LO_HardQCDMix_120To170_2016-09-23-124217
29508.2 seconds 8.19672 hours CTEQ5L-LO_HardQCDMix_120To170_2016-09-23-124217
33943.5 seconds 9.42875 hours CTEQ5L-LO_HardQCDMix_120To170_2016-09-23-124217
33418.5 seconds 9.28292 hours CTEQ5L-LO_HardQCDMix_120To170_2016-09-23-124217
32957.5 seconds 9.15486 hours CTEQ5L-LO_HardQCDMix_120To170_2016-09-23-124217
33693.6 seconds 9.35933 hours CTEQ5L-LO_HardQCDMix_120To170_2016-09-23-124217
33428.6 seconds 9.28572 hours CTEQ5L-LO_HardQCDMix_120To170_2016-09-23-124217
33264.1 seconds 9.24003 hours CTEQ5L-LO_HardQCDMix_120To170_2016-09-23-124217


23875.3 seconds 6.63203 hours CTEQ5L-LO_HardQCDMix_170To230_2016-09-23-124217
33694.7 seconds 9.35964 hours CTEQ5L-LO_HardQCDMix_170To230_2016-09-23-124217
33794.7 seconds 9.38742 hours CTEQ5L-LO_HardQCDMix_170To230_2016-09-23-124217
33539.6 seconds 9.31656 hours CTEQ5L-LO_HardQCDMix_170To230_2016-09-23-124217
33398.9 seconds 9.27747 hours CTEQ5L-LO_HardQCDMix_170To230_2016-09-23-124217
24185.1 seconds 6.71808 hours CTEQ5L-LO_HardQCDMix_170To230_2016-09-23-124217
23775.3 seconds 6.60425 hours CTEQ5L-LO_HardQCDMix_170To230_2016-09-23-124217
24406.5 seconds 6.77958 hours CTEQ5L-LO_HardQCDMix_170To230_2016-09-23-124217
24001.1 seconds 6.66697 hours CTEQ5L-LO_HardQCDMix_170To230_2016-09-23-124217
23937.4 seconds 6.64928 hours CTEQ5L-LO_HardQCDMix_170To230_2016-09-23-124217
24682.5 seconds 6.85625 hours CTEQ5L-LO_HardQCDMix_170To230_2016-09-23-124217
23980.3 seconds 6.66119 hours CTEQ5L-LO_HardQCDMix_170To230_2016-09-23-124217
24386.6 seconds 6.77406 hours CTEQ5L-LO_HardQCDMix_170To230_2016-09-23-124217
24065.8 seconds 6.68494 hours CTEQ5L-LO_HardQCDMix_170To230_2016-09-23-124217
24256.8 seconds 6.738 hours CTEQ5L-LO_HardQCDMix_170To230_2016-09-23-124217
24035.9 seconds 6.67664 hours CTEQ5L-LO_HardQCDMix_170To230_2016-09-23-124217
33896.9 seconds 9.41581 hours CTEQ5L-LO_HardQCDMix_170To230_2016-09-23-124217
33806.5 seconds 9.39069 hours CTEQ5L-LO_HardQCDMix_170To230_2016-09-23-124217
32065.1 seconds 8.90697 hours CTEQ5L-LO_HardQCDMix_170To230_2016-09-23-124217
31717.9 seconds 8.81053 hours CTEQ5L-LO_HardQCDMix_170To230_2016-09-23-124217


30444.2 seconds 8.45672 hours CTEQ5L-LO_HardQCDMix_20To30_2016-09-23-124217
29357.8 seconds 8.15494 hours CTEQ5L-LO_HardQCDMix_20To30_2016-09-23-124217
29467.5 seconds 8.18542 hours CTEQ5L-LO_HardQCDMix_20To30_2016-09-23-124217
30745.1 seconds 8.54031 hours CTEQ5L-LO_HardQCDMix_20To30_2016-09-23-124217
30214.6 seconds 8.39294 hours CTEQ5L-LO_HardQCDMix_20To30_2016-09-23-124217
29999.8 seconds 8.33328 hours CTEQ5L-LO_HardQCDMix_20To30_2016-09-23-124217
29782.6 seconds 8.27294 hours CTEQ5L-LO_HardQCDMix_20To30_2016-09-23-124217
30134.2 seconds 8.37061 hours CTEQ5L-LO_HardQCDMix_20To30_2016-09-23-124217
29467.4 seconds 8.18539 hours CTEQ5L-LO_HardQCDMix_20To30_2016-09-23-124217
31589.3 seconds 8.77481 hours CTEQ5L-LO_HardQCDMix_20To30_2016-09-23-124217
30286.2 seconds 8.41283 hours CTEQ5L-LO_HardQCDMix_20To30_2016-09-23-124217
30114 seconds 8.365 hours CTEQ5L-LO_HardQCDMix_20To30_2016-09-23-124217
30143 seconds 8.37306 hours CTEQ5L-LO_HardQCDMix_20To30_2016-09-23-124217
29893.1 seconds 8.30364 hours CTEQ5L-LO_HardQCDMix_20To30_2016-09-23-124217
29509.8 seconds 8.19717 hours CTEQ5L-LO_HardQCDMix_20To30_2016-09-23-124217
29766.2 seconds 8.26839 hours CTEQ5L-LO_HardQCDMix_20To30_2016-09-23-124217
29594.4 seconds 8.22067 hours CTEQ5L-LO_HardQCDMix_20To30_2016-09-23-124217
29814.3 seconds 8.28175 hours CTEQ5L-LO_HardQCDMix_20To30_2016-09-23-124217
29390.3 seconds 8.16397 hours CTEQ5L-LO_HardQCDMix_20To30_2016-09-23-124217
29342.7 seconds 8.15075 hours CTEQ5L-LO_HardQCDMix_20To30_2016-09-23-124217


23956.1 seconds 6.65447 hours CTEQ5L-LO_HardQCDMix_230To300_2016-09-23-124217
24320.4 seconds 6.75567 hours CTEQ5L-LO_HardQCDMix_230To300_2016-09-23-124217
24144.1 seconds 6.70669 hours CTEQ5L-LO_HardQCDMix_230To300_2016-09-23-124217
24102.3 seconds 6.69508 hours CTEQ5L-LO_HardQCDMix_230To300_2016-09-23-124217
23918.5 seconds 6.64403 hours CTEQ5L-LO_HardQCDMix_230To300_2016-09-23-124217
23804.5 seconds 6.61236 hours CTEQ5L-LO_HardQCDMix_230To300_2016-09-23-124217
23940.7 seconds 6.65019 hours CTEQ5L-LO_HardQCDMix_230To300_2016-09-23-124217
23976.9 seconds 6.66025 hours CTEQ5L-LO_HardQCDMix_230To300_2016-09-23-124217
23986.2 seconds 6.66283 hours CTEQ5L-LO_HardQCDMix_230To300_2016-09-23-124217
24085.8 seconds 6.6905 hours CTEQ5L-LO_HardQCDMix_230To300_2016-09-23-124217
23397.8 seconds 6.49939 hours CTEQ5L-LO_HardQCDMix_230To300_2016-09-23-124217
24074.1 seconds 6.68725 hours CTEQ5L-LO_HardQCDMix_230To300_2016-09-23-124217
23467.1 seconds 6.51864 hours CTEQ5L-LO_HardQCDMix_230To300_2016-09-23-124217
24667.6 seconds 6.85211 hours CTEQ5L-LO_HardQCDMix_230To300_2016-09-23-124217
24492.6 seconds 6.8035 hours CTEQ5L-LO_HardQCDMix_230To300_2016-09-23-124217
24780.5 seconds 6.88347 hours CTEQ5L-LO_HardQCDMix_230To300_2016-09-23-124217
24530.8 seconds 6.81411 hours CTEQ5L-LO_HardQCDMix_230To300_2016-09-23-124217
24648.6 seconds 6.84683 hours CTEQ5L-LO_HardQCDMix_230To300_2016-09-23-124217
24558.5 seconds 6.82181 hours CTEQ5L-LO_HardQCDMix_230To300_2016-09-23-124217
24382.9 seconds 6.77303 hours CTEQ5L-LO_HardQCDMix_230To300_2016-09-23-124217


23448.6 seconds 6.5135 hours CTEQ5L-LO_HardQCDMix_300To380_2016-09-23-124217
23579.1 seconds 6.54975 hours CTEQ5L-LO_HardQCDMix_300To380_2016-09-23-124217
23564.3 seconds 6.54564 hours CTEQ5L-LO_HardQCDMix_300To380_2016-09-23-124217
23589.1 seconds 6.55253 hours CTEQ5L-LO_HardQCDMix_300To380_2016-09-23-124217
23652.4 seconds 6.57011 hours CTEQ5L-LO_HardQCDMix_300To380_2016-09-23-124217
23218.8 seconds 6.44967 hours CTEQ5L-LO_HardQCDMix_300To380_2016-09-23-124217
23150 seconds 6.43056 hours CTEQ5L-LO_HardQCDMix_300To380_2016-09-23-124217
23304.7 seconds 6.47353 hours CTEQ5L-LO_HardQCDMix_300To380_2016-09-23-124217
23514.4 seconds 6.53178 hours CTEQ5L-LO_HardQCDMix_300To380_2016-09-23-124217
34152.1 seconds 9.48669 hours CTEQ5L-LO_HardQCDMix_300To380_2016-09-23-124217
33962.5 seconds 9.43403 hours CTEQ5L-LO_HardQCDMix_300To380_2016-09-23-124217
23533.6 seconds 6.53711 hours CTEQ5L-LO_HardQCDMix_300To380_2016-09-23-124217
35275.9 seconds 9.79886 hours CTEQ5L-LO_HardQCDMix_300To380_2016-09-23-124217
23356.9 seconds 6.48803 hours CTEQ5L-LO_HardQCDMix_300To380_2016-09-23-124217
23162.3 seconds 6.43397 hours CTEQ5L-LO_HardQCDMix_300To380_2016-09-23-124217
23659.3 seconds 6.57203 hours CTEQ5L-LO_HardQCDMix_300To380_2016-09-23-124217
23387.8 seconds 6.49661 hours CTEQ5L-LO_HardQCDMix_300To380_2016-09-23-124217
23416.8 seconds 6.50467 hours CTEQ5L-LO_HardQCDMix_300To380_2016-09-23-124217
23225.4 seconds 6.4515 hours CTEQ5L-LO_HardQCDMix_300To380_2016-09-23-124217
23230.6 seconds 6.45294 hours CTEQ5L-LO_HardQCDMix_300To380_2016-09-23-124217


30432.5 seconds 8.45347 hours CTEQ5L-LO_HardQCDMix_30To50_2016-09-23-124217
30628.7 seconds 8.50797 hours CTEQ5L-LO_HardQCDMix_30To50_2016-09-23-124217
30263.2 seconds 8.40644 hours CTEQ5L-LO_HardQCDMix_30To50_2016-09-23-124217
30410.2 seconds 8.44728 hours CTEQ5L-LO_HardQCDMix_30To50_2016-09-23-124217
30135.3 seconds 8.37092 hours CTEQ5L-LO_HardQCDMix_30To50_2016-09-23-124217
30648.2 seconds 8.51339 hours CTEQ5L-LO_HardQCDMix_30To50_2016-09-23-124217
30679.4 seconds 8.52206 hours CTEQ5L-LO_HardQCDMix_30To50_2016-09-23-124217
29923.5 seconds 8.31208 hours CTEQ5L-LO_HardQCDMix_30To50_2016-09-23-124217
30419.6 seconds 8.44989 hours CTEQ5L-LO_HardQCDMix_30To50_2016-09-23-124217
30370.2 seconds 8.43617 hours CTEQ5L-LO_HardQCDMix_30To50_2016-09-23-124217
30464.4 seconds 8.46233 hours CTEQ5L-LO_HardQCDMix_30To50_2016-09-23-124217
30432.8 seconds 8.45356 hours CTEQ5L-LO_HardQCDMix_30To50_2016-09-23-124217
30918.9 seconds 8.58858 hours CTEQ5L-LO_HardQCDMix_30To50_2016-09-23-124217
30867.2 seconds 8.57422 hours CTEQ5L-LO_HardQCDMix_30To50_2016-09-23-124217
30630.7 seconds 8.50853 hours CTEQ5L-LO_HardQCDMix_30To50_2016-09-23-124217
30071.7 seconds 8.35325 hours CTEQ5L-LO_HardQCDMix_30To50_2016-09-23-124217
30360.9 seconds 8.43358 hours CTEQ5L-LO_HardQCDMix_30To50_2016-09-23-124217
30598.3 seconds 8.49953 hours CTEQ5L-LO_HardQCDMix_30To50_2016-09-23-124217
32143.1 seconds 8.92864 hours CTEQ5L-LO_HardQCDMix_30To50_2016-09-23-124217
31048.5 seconds 8.62458 hours CTEQ5L-LO_HardQCDMix_30To50_2016-09-23-124217


33941.6 seconds 9.42822 hours CTEQ5L-LO_HardQCDMix_380To10000_2016-09-23-124217
22945.5 seconds 6.37375 hours CTEQ5L-LO_HardQCDMix_380To10000_2016-09-23-124217
22938.8 seconds 6.37189 hours CTEQ5L-LO_HardQCDMix_380To10000_2016-09-23-124217
22996.7 seconds 6.38797 hours CTEQ5L-LO_HardQCDMix_380To10000_2016-09-23-124217
22888.5 seconds 6.35792 hours CTEQ5L-LO_HardQCDMix_380To10000_2016-09-23-124217
23361.9 seconds 6.48942 hours CTEQ5L-LO_HardQCDMix_380To10000_2016-09-23-124217
23344.3 seconds 6.48453 hours CTEQ5L-LO_HardQCDMix_380To10000_2016-09-23-124217
23255.7 seconds 6.45992 hours CTEQ5L-LO_HardQCDMix_380To10000_2016-09-23-124217
23385.5 seconds 6.49597 hours CTEQ5L-LO_HardQCDMix_380To10000_2016-09-23-124217
23289.3 seconds 6.46925 hours CTEQ5L-LO_HardQCDMix_380To10000_2016-09-23-124217
23131.5 seconds 6.42542 hours CTEQ5L-LO_HardQCDMix_380To10000_2016-09-23-124217
34235.1 seconds 9.50975 hours CTEQ5L-LO_HardQCDMix_380To10000_2016-09-23-124217
33818.9 seconds 9.39414 hours CTEQ5L-LO_HardQCDMix_380To10000_2016-09-23-124217
34612.1 seconds 9.61447 hours CTEQ5L-LO_HardQCDMix_380To10000_2016-09-23-124217
34374.6 seconds 9.5485 hours CTEQ5L-LO_HardQCDMix_380To10000_2016-09-23-124217
34327.9 seconds 9.53553 hours CTEQ5L-LO_HardQCDMix_380To10000_2016-09-23-124217
33881.7 seconds 9.41158 hours CTEQ5L-LO_HardQCDMix_380To10000_2016-09-23-124217
34013.9 seconds 9.44831 hours CTEQ5L-LO_HardQCDMix_380To10000_2016-09-23-124217
23039 seconds 6.39972 hours CTEQ5L-LO_HardQCDMix_380To10000_2016-09-23-124217
23045.2 seconds 6.40144 hours CTEQ5L-LO_HardQCDMix_380To10000_2016-09-23-124217


31330.6 seconds 8.70294 hours CTEQ5L-LO_HardQCDMix_50To80_2016-09-23-124217
31420.3 seconds 8.72786 hours CTEQ5L-LO_HardQCDMix_50To80_2016-09-23-124217
31803 seconds 8.83417 hours CTEQ5L-LO_HardQCDMix_50To80_2016-09-23-124217
31548.3 seconds 8.76342 hours CTEQ5L-LO_HardQCDMix_50To80_2016-09-23-124217
31822.8 seconds 8.83967 hours CTEQ5L-LO_HardQCDMix_50To80_2016-09-23-124217
33193.5 seconds 9.22042 hours CTEQ5L-LO_HardQCDMix_50To80_2016-09-23-124217
32007.9 seconds 8.89108 hours CTEQ5L-LO_HardQCDMix_50To80_2016-09-23-124217
31174.8 seconds 8.65967 hours CTEQ5L-LO_HardQCDMix_50To80_2016-09-23-124217
31384 seconds 8.71778 hours CTEQ5L-LO_HardQCDMix_50To80_2016-09-23-124217
28070.8 seconds 7.79744 hours CTEQ5L-LO_HardQCDMix_50To80_2016-09-23-124217
32044.9 seconds 8.90136 hours CTEQ5L-LO_HardQCDMix_50To80_2016-09-23-124217
31649 seconds 8.79139 hours CTEQ5L-LO_HardQCDMix_50To80_2016-09-23-124217
31539.3 seconds 8.76092 hours CTEQ5L-LO_HardQCDMix_50To80_2016-09-23-124217
31356.9 seconds 8.71025 hours CTEQ5L-LO_HardQCDMix_50To80_2016-09-23-124217
31429.4 seconds 8.73039 hours CTEQ5L-LO_HardQCDMix_50To80_2016-09-23-124217
31498.5 seconds 8.74958 hours CTEQ5L-LO_HardQCDMix_50To80_2016-09-23-124217
31605.6 seconds 8.77933 hours CTEQ5L-LO_HardQCDMix_50To80_2016-09-23-124217
33243.9 seconds 9.23442 hours CTEQ5L-LO_HardQCDMix_50To80_2016-09-23-124217
31354.5 seconds 8.70958 hours CTEQ5L-LO_HardQCDMix_50To80_2016-09-23-124217
31461.9 seconds 8.73942 hours CTEQ5L-LO_HardQCDMix_50To80_2016-09-23-124217


34419.3 seconds 9.56092 hours CTEQ5L-LO_HardQCDMix_80To120_2016-09-23-124217
31824.7 seconds 8.84019 hours CTEQ5L-LO_HardQCDMix_80To120_2016-09-23-124217
31957.3 seconds 8.87703 hours CTEQ5L-LO_HardQCDMix_80To120_2016-09-23-124217
31987.8 seconds 8.8855 hours CTEQ5L-LO_HardQCDMix_80To120_2016-09-23-124217
32020.7 seconds 8.89464 hours CTEQ5L-LO_HardQCDMix_80To120_2016-09-23-124217
32088 seconds 8.91333 hours CTEQ5L-LO_HardQCDMix_80To120_2016-09-23-124217
32297.9 seconds 8.97164 hours CTEQ5L-LO_HardQCDMix_80To120_2016-09-23-124217
32210 seconds 8.94722 hours CTEQ5L-LO_HardQCDMix_80To120_2016-09-23-124217
29112.1 seconds 8.08669 hours CTEQ5L-LO_HardQCDMix_80To120_2016-09-23-124217
33671.6 seconds 9.35322 hours CTEQ5L-LO_HardQCDMix_80To120_2016-09-23-124217
32763 seconds 9.10083 hours CTEQ5L-LO_HardQCDMix_80To120_2016-09-23-124217
32928.3 seconds 9.14675 hours CTEQ5L-LO_HardQCDMix_80To120_2016-09-23-124217
32538.7 seconds 9.03853 hours CTEQ5L-LO_HardQCDMix_80To120_2016-09-23-124217
32638.8 seconds 9.06633 hours CTEQ5L-LO_HardQCDMix_80To120_2016-09-23-124217
32519 seconds 9.03306 hours CTEQ5L-LO_HardQCDMix_80To120_2016-09-23-124217
32140.9 seconds 8.92803 hours CTEQ5L-LO_HardQCDMix_80To120_2016-09-23-124217
32267.2 seconds 8.96311 hours CTEQ5L-LO_HardQCDMix_80To120_2016-09-23-124217
32080.9 seconds 8.91136 hours CTEQ5L-LO_HardQCDMix_80To120_2016-09-23-124217
32368.7 seconds 8.99131 hours CTEQ5L-LO_HardQCDMix_80To120_2016-09-23-124217
27723.1 seconds 7.70086 hours CTEQ5L-LO_HardQCDMix_80To120_2016-09-23-124217




