

Time taken to complete the job, Statistics
==========================================
5184.63 seconds 1.44017 hours CTEQ5L-LO_HardQCDSelectionGluon_10To20_2017-02-06-105408
5075.55 seconds 1.40987 hours CTEQ5L-LO_HardQCDSelectionGluon_10To20_2017-02-06-105408
5173.01 seconds 1.43695 hours CTEQ5L-LO_HardQCDSelectionGluon_10To20_2017-02-06-105408
5208.86 seconds 1.44691 hours CTEQ5L-LO_HardQCDSelectionGluon_10To20_2017-02-06-105408
5267.68 seconds 1.46324 hours CTEQ5L-LO_HardQCDSelectionGluon_10To20_2017-02-06-105408
5270.91 seconds 1.46414 hours CTEQ5L-LO_HardQCDSelectionGluon_10To20_2017-02-06-105408
5269.35 seconds 1.46371 hours CTEQ5L-LO_HardQCDSelectionGluon_10To20_2017-02-06-105408
5382.12 seconds 1.49503 hours CTEQ5L-LO_HardQCDSelectionGluon_10To20_2017-02-06-105408
5161.08 seconds 1.43363 hours CTEQ5L-LO_HardQCDSelectionGluon_10To20_2017-02-06-105408
5151.46 seconds 1.43096 hours CTEQ5L-LO_HardQCDSelectionGluon_10To20_2017-02-06-105408
5388.09 seconds 1.49669 hours CTEQ5L-LO_HardQCDSelectionGluon_10To20_2017-02-06-105408
5122.97 seconds 1.42305 hours CTEQ5L-LO_HardQCDSelectionGluon_10To20_2017-02-06-105408
5307.39 seconds 1.47428 hours CTEQ5L-LO_HardQCDSelectionGluon_10To20_2017-02-06-105408
5267.49 seconds 1.46319 hours CTEQ5L-LO_HardQCDSelectionGluon_10To20_2017-02-06-105408
5431.61 seconds 1.50878 hours CTEQ5L-LO_HardQCDSelectionGluon_10To20_2017-02-06-105408
5272.95 seconds 1.46471 hours CTEQ5L-LO_HardQCDSelectionGluon_10To20_2017-02-06-105408
7673.13 seconds 2.13143 hours CTEQ5L-LO_HardQCDSelectionGluon_10To20_2017-02-06-105408
6627.33 seconds 1.84092 hours CTEQ5L-LO_HardQCDSelectionGluon_10To20_2017-02-06-105408
5061.61 seconds 1.406 hours CTEQ5L-LO_HardQCDSelectionGluon_10To20_2017-02-06-105408
5163.98 seconds 1.43444 hours CTEQ5L-LO_HardQCDSelectionGluon_10To20_2017-02-06-105408


8654.19 seconds 2.40394 hours CTEQ5L-LO_HardQCDSelectionGluon_120To170_2017-02-06-105408
5889.6 seconds 1.636 hours CTEQ5L-LO_HardQCDSelectionGluon_120To170_2017-02-06-105408
5884.57 seconds 1.6346 hours CTEQ5L-LO_HardQCDSelectionGluon_120To170_2017-02-06-105408
6072.82 seconds 1.68689 hours CTEQ5L-LO_HardQCDSelectionGluon_120To170_2017-02-06-105408
6154.42 seconds 1.70956 hours CTEQ5L-LO_HardQCDSelectionGluon_120To170_2017-02-06-105408
6123.6 seconds 1.701 hours CTEQ5L-LO_HardQCDSelectionGluon_120To170_2017-02-06-105408
6000.29 seconds 1.66675 hours CTEQ5L-LO_HardQCDSelectionGluon_120To170_2017-02-06-105408
6439.05 seconds 1.78863 hours CTEQ5L-LO_HardQCDSelectionGluon_120To170_2017-02-06-105408
6856.95 seconds 1.90471 hours CTEQ5L-LO_HardQCDSelectionGluon_120To170_2017-02-06-105408
6872.42 seconds 1.90901 hours CTEQ5L-LO_HardQCDSelectionGluon_120To170_2017-02-06-105408
8725.59 seconds 2.42378 hours CTEQ5L-LO_HardQCDSelectionGluon_120To170_2017-02-06-105408
7733 seconds 2.14806 hours CTEQ5L-LO_HardQCDSelectionGluon_120To170_2017-02-06-105408
7900.53 seconds 2.19459 hours CTEQ5L-LO_HardQCDSelectionGluon_120To170_2017-02-06-105408
7685.68 seconds 2.13491 hours CTEQ5L-LO_HardQCDSelectionGluon_120To170_2017-02-06-105408
6491.15 seconds 1.8031 hours CTEQ5L-LO_HardQCDSelectionGluon_120To170_2017-02-06-105408
6362.77 seconds 1.76744 hours CTEQ5L-LO_HardQCDSelectionGluon_120To170_2017-02-06-105408
6396.76 seconds 1.77688 hours CTEQ5L-LO_HardQCDSelectionGluon_120To170_2017-02-06-105408
6461.02 seconds 1.79473 hours CTEQ5L-LO_HardQCDSelectionGluon_120To170_2017-02-06-105408
6023.28 seconds 1.67313 hours CTEQ5L-LO_HardQCDSelectionGluon_120To170_2017-02-06-105408
5984.41 seconds 1.66234 hours CTEQ5L-LO_HardQCDSelectionGluon_120To170_2017-02-06-105408


6643.67 seconds 1.84546 hours CTEQ5L-LO_HardQCDSelectionGluon_170To230_2017-02-06-105408
5939.79 seconds 1.64994 hours CTEQ5L-LO_HardQCDSelectionGluon_170To230_2017-02-06-105408
5939.86 seconds 1.64996 hours CTEQ5L-LO_HardQCDSelectionGluon_170To230_2017-02-06-105408
5946.42 seconds 1.65178 hours CTEQ5L-LO_HardQCDSelectionGluon_170To230_2017-02-06-105408
6532.86 seconds 1.81468 hours CTEQ5L-LO_HardQCDSelectionGluon_170To230_2017-02-06-105408
7146.72 seconds 1.9852 hours CTEQ5L-LO_HardQCDSelectionGluon_170To230_2017-02-06-105408
6892.09 seconds 1.91447 hours CTEQ5L-LO_HardQCDSelectionGluon_170To230_2017-02-06-105408
6729.53 seconds 1.86931 hours CTEQ5L-LO_HardQCDSelectionGluon_170To230_2017-02-06-105408
6732.07 seconds 1.87002 hours CTEQ5L-LO_HardQCDSelectionGluon_170To230_2017-02-06-105408
8734.27 seconds 2.42619 hours CTEQ5L-LO_HardQCDSelectionGluon_170To230_2017-02-06-105408
8081.03 seconds 2.24473 hours CTEQ5L-LO_HardQCDSelectionGluon_170To230_2017-02-06-105408
6078.68 seconds 1.68852 hours CTEQ5L-LO_HardQCDSelectionGluon_170To230_2017-02-06-105408
6713.87 seconds 1.86496 hours CTEQ5L-LO_HardQCDSelectionGluon_170To230_2017-02-06-105408
6089.6 seconds 1.69156 hours CTEQ5L-LO_HardQCDSelectionGluon_170To230_2017-02-06-105408
6078.06 seconds 1.68835 hours CTEQ5L-LO_HardQCDSelectionGluon_170To230_2017-02-06-105408
6047.91 seconds 1.67997 hours CTEQ5L-LO_HardQCDSelectionGluon_170To230_2017-02-06-105408
5969.6 seconds 1.65822 hours CTEQ5L-LO_HardQCDSelectionGluon_170To230_2017-02-06-105408
5919.4 seconds 1.64428 hours CTEQ5L-LO_HardQCDSelectionGluon_170To230_2017-02-06-105408
5896.19 seconds 1.63783 hours CTEQ5L-LO_HardQCDSelectionGluon_170To230_2017-02-06-105408
5919.42 seconds 1.64428 hours CTEQ5L-LO_HardQCDSelectionGluon_170To230_2017-02-06-105408


5589.71 seconds 1.5527 hours CTEQ5L-LO_HardQCDSelectionGluon_20To30_2017-02-06-105408
5610.61 seconds 1.5585 hours CTEQ5L-LO_HardQCDSelectionGluon_20To30_2017-02-06-105408
5662.43 seconds 1.5729 hours CTEQ5L-LO_HardQCDSelectionGluon_20To30_2017-02-06-105408
5555.79 seconds 1.54327 hours CTEQ5L-LO_HardQCDSelectionGluon_20To30_2017-02-06-105408
5559.17 seconds 1.54421 hours CTEQ5L-LO_HardQCDSelectionGluon_20To30_2017-02-06-105408
5492.7 seconds 1.52575 hours CTEQ5L-LO_HardQCDSelectionGluon_20To30_2017-02-06-105408
5602.1 seconds 1.55614 hours CTEQ5L-LO_HardQCDSelectionGluon_20To30_2017-02-06-105408
5498.65 seconds 1.5274 hours CTEQ5L-LO_HardQCDSelectionGluon_20To30_2017-02-06-105408
5537.7 seconds 1.53825 hours CTEQ5L-LO_HardQCDSelectionGluon_20To30_2017-02-06-105408
5520.96 seconds 1.5336 hours CTEQ5L-LO_HardQCDSelectionGluon_20To30_2017-02-06-105408
5443.27 seconds 1.51202 hours CTEQ5L-LO_HardQCDSelectionGluon_20To30_2017-02-06-105408
5490.55 seconds 1.52515 hours CTEQ5L-LO_HardQCDSelectionGluon_20To30_2017-02-06-105408
5481.58 seconds 1.52266 hours CTEQ5L-LO_HardQCDSelectionGluon_20To30_2017-02-06-105408
5508.56 seconds 1.53016 hours CTEQ5L-LO_HardQCDSelectionGluon_20To30_2017-02-06-105408
5529.65 seconds 1.53601 hours CTEQ5L-LO_HardQCDSelectionGluon_20To30_2017-02-06-105408
8158.12 seconds 2.26614 hours CTEQ5L-LO_HardQCDSelectionGluon_20To30_2017-02-06-105408
6002.86 seconds 1.66746 hours CTEQ5L-LO_HardQCDSelectionGluon_20To30_2017-02-06-105408
5982.04 seconds 1.66168 hours CTEQ5L-LO_HardQCDSelectionGluon_20To30_2017-02-06-105408
5942.28 seconds 1.65063 hours CTEQ5L-LO_HardQCDSelectionGluon_20To30_2017-02-06-105408
5650.34 seconds 1.56954 hours CTEQ5L-LO_HardQCDSelectionGluon_20To30_2017-02-06-105408


6203.71 seconds 1.72325 hours CTEQ5L-LO_HardQCDSelectionGluon_230To300_2017-02-06-105408
6599.91 seconds 1.83331 hours CTEQ5L-LO_HardQCDSelectionGluon_230To300_2017-02-06-105408
7227.95 seconds 2.00776 hours CTEQ5L-LO_HardQCDSelectionGluon_230To300_2017-02-06-105408
6486.77 seconds 1.80188 hours CTEQ5L-LO_HardQCDSelectionGluon_230To300_2017-02-06-105408
7355.36 seconds 2.04316 hours CTEQ5L-LO_HardQCDSelectionGluon_230To300_2017-02-06-105408
6642.81 seconds 1.84523 hours CTEQ5L-LO_HardQCDSelectionGluon_230To300_2017-02-06-105408
6905.95 seconds 1.91832 hours CTEQ5L-LO_HardQCDSelectionGluon_230To300_2017-02-06-105408
6487.44 seconds 1.80207 hours CTEQ5L-LO_HardQCDSelectionGluon_230To300_2017-02-06-105408
8849.67 seconds 2.45824 hours CTEQ5L-LO_HardQCDSelectionGluon_230To300_2017-02-06-105408
7868.84 seconds 2.18579 hours CTEQ5L-LO_HardQCDSelectionGluon_230To300_2017-02-06-105408
7905.64 seconds 2.19601 hours CTEQ5L-LO_HardQCDSelectionGluon_230To300_2017-02-06-105408
6756.01 seconds 1.87667 hours CTEQ5L-LO_HardQCDSelectionGluon_230To300_2017-02-06-105408
8834.34 seconds 2.45398 hours CTEQ5L-LO_HardQCDSelectionGluon_230To300_2017-02-06-105408
6861.32 seconds 1.90592 hours CTEQ5L-LO_HardQCDSelectionGluon_230To300_2017-02-06-105408
7183.19 seconds 1.99533 hours CTEQ5L-LO_HardQCDSelectionGluon_230To300_2017-02-06-105408
6781.18 seconds 1.88366 hours CTEQ5L-LO_HardQCDSelectionGluon_230To300_2017-02-06-105408
6797 seconds 1.88806 hours CTEQ5L-LO_HardQCDSelectionGluon_230To300_2017-02-06-105408
6739.12 seconds 1.87198 hours CTEQ5L-LO_HardQCDSelectionGluon_230To300_2017-02-06-105408
6741.92 seconds 1.87276 hours CTEQ5L-LO_HardQCDSelectionGluon_230To300_2017-02-06-105408
7015.89 seconds 1.94886 hours CTEQ5L-LO_HardQCDSelectionGluon_230To300_2017-02-06-105408


8840.5 seconds 2.45569 hours CTEQ5L-LO_HardQCDSelectionGluon_300To380_2017-02-06-105408
6212.63 seconds 1.72573 hours CTEQ5L-LO_HardQCDSelectionGluon_300To380_2017-02-06-105408
6374.74 seconds 1.77076 hours CTEQ5L-LO_HardQCDSelectionGluon_300To380_2017-02-06-105408
6401.39 seconds 1.77816 hours CTEQ5L-LO_HardQCDSelectionGluon_300To380_2017-02-06-105408
6295.12 seconds 1.74864 hours CTEQ5L-LO_HardQCDSelectionGluon_300To380_2017-02-06-105408
6283.22 seconds 1.74534 hours CTEQ5L-LO_HardQCDSelectionGluon_300To380_2017-02-06-105408
6311.84 seconds 1.75329 hours CTEQ5L-LO_HardQCDSelectionGluon_300To380_2017-02-06-105408
8938.33 seconds 2.48287 hours CTEQ5L-LO_HardQCDSelectionGluon_300To380_2017-02-06-105408
8030.33 seconds 2.23065 hours CTEQ5L-LO_HardQCDSelectionGluon_300To380_2017-02-06-105408
8058.34 seconds 2.23843 hours CTEQ5L-LO_HardQCDSelectionGluon_300To380_2017-02-06-105408
7998.21 seconds 2.22173 hours CTEQ5L-LO_HardQCDSelectionGluon_300To380_2017-02-06-105408
8983.55 seconds 2.49543 hours CTEQ5L-LO_HardQCDSelectionGluon_300To380_2017-02-06-105408
7928.15 seconds 2.20226 hours CTEQ5L-LO_HardQCDSelectionGluon_300To380_2017-02-06-105408
9065.97 seconds 2.51832 hours CTEQ5L-LO_HardQCDSelectionGluon_300To380_2017-02-06-105408
7963.05 seconds 2.21196 hours CTEQ5L-LO_HardQCDSelectionGluon_300To380_2017-02-06-105408
7964.46 seconds 2.21235 hours CTEQ5L-LO_HardQCDSelectionGluon_300To380_2017-02-06-105408
6438.64 seconds 1.78851 hours CTEQ5L-LO_HardQCDSelectionGluon_300To380_2017-02-06-105408
6160.48 seconds 1.71124 hours CTEQ5L-LO_HardQCDSelectionGluon_300To380_2017-02-06-105408
6613.99 seconds 1.83722 hours CTEQ5L-LO_HardQCDSelectionGluon_300To380_2017-02-06-105408
6591.16 seconds 1.83088 hours CTEQ5L-LO_HardQCDSelectionGluon_300To380_2017-02-06-105408


5785.48 seconds 1.60708 hours CTEQ5L-LO_HardQCDSelectionGluon_30To50_2017-02-06-105408
6197.58 seconds 1.72155 hours CTEQ5L-LO_HardQCDSelectionGluon_30To50_2017-02-06-105408
6142.49 seconds 1.70625 hours CTEQ5L-LO_HardQCDSelectionGluon_30To50_2017-02-06-105408
6142.12 seconds 1.70614 hours CTEQ5L-LO_HardQCDSelectionGluon_30To50_2017-02-06-105408
6322.87 seconds 1.75635 hours CTEQ5L-LO_HardQCDSelectionGluon_30To50_2017-02-06-105408
5613.15 seconds 1.55921 hours CTEQ5L-LO_HardQCDSelectionGluon_30To50_2017-02-06-105408
5528.25 seconds 1.53563 hours CTEQ5L-LO_HardQCDSelectionGluon_30To50_2017-02-06-105408
5619.85 seconds 1.56107 hours CTEQ5L-LO_HardQCDSelectionGluon_30To50_2017-02-06-105408
5618.26 seconds 1.56063 hours CTEQ5L-LO_HardQCDSelectionGluon_30To50_2017-02-06-105408
5581.34 seconds 1.55037 hours CTEQ5L-LO_HardQCDSelectionGluon_30To50_2017-02-06-105408
5642.6 seconds 1.56739 hours CTEQ5L-LO_HardQCDSelectionGluon_30To50_2017-02-06-105408
5688.07 seconds 1.58002 hours CTEQ5L-LO_HardQCDSelectionGluon_30To50_2017-02-06-105408
5649.49 seconds 1.5693 hours CTEQ5L-LO_HardQCDSelectionGluon_30To50_2017-02-06-105408
5596.53 seconds 1.55459 hours CTEQ5L-LO_HardQCDSelectionGluon_30To50_2017-02-06-105408
8268.51 seconds 2.29681 hours CTEQ5L-LO_HardQCDSelectionGluon_30To50_2017-02-06-105408
8155.51 seconds 2.26542 hours CTEQ5L-LO_HardQCDSelectionGluon_30To50_2017-02-06-105408
6104.42 seconds 1.69567 hours CTEQ5L-LO_HardQCDSelectionGluon_30To50_2017-02-06-105408
6287.41 seconds 1.7465 hours CTEQ5L-LO_HardQCDSelectionGluon_30To50_2017-02-06-105408
6198.38 seconds 1.72177 hours CTEQ5L-LO_HardQCDSelectionGluon_30To50_2017-02-06-105408
6194.4 seconds 1.72067 hours CTEQ5L-LO_HardQCDSelectionGluon_30To50_2017-02-06-105408


7838.56 seconds 2.17738 hours CTEQ5L-LO_HardQCDSelectionGluon_380To10000_2017-02-06-105408
6212.71 seconds 1.72575 hours CTEQ5L-LO_HardQCDSelectionGluon_380To10000_2017-02-06-105408
6641.72 seconds 1.84492 hours CTEQ5L-LO_HardQCDSelectionGluon_380To10000_2017-02-06-105408
6776.63 seconds 1.8824 hours CTEQ5L-LO_HardQCDSelectionGluon_380To10000_2017-02-06-105408
6583.81 seconds 1.82884 hours CTEQ5L-LO_HardQCDSelectionGluon_380To10000_2017-02-06-105408
6365.35 seconds 1.76815 hours CTEQ5L-LO_HardQCDSelectionGluon_380To10000_2017-02-06-105408
8871.7 seconds 2.46436 hours CTEQ5L-LO_HardQCDSelectionGluon_380To10000_2017-02-06-105408
8872.79 seconds 2.46466 hours CTEQ5L-LO_HardQCDSelectionGluon_380To10000_2017-02-06-105408
9040.65 seconds 2.51129 hours CTEQ5L-LO_HardQCDSelectionGluon_380To10000_2017-02-06-105408
8259.49 seconds 2.2943 hours CTEQ5L-LO_HardQCDSelectionGluon_380To10000_2017-02-06-105408
8278.19 seconds 2.2995 hours CTEQ5L-LO_HardQCDSelectionGluon_380To10000_2017-02-06-105408
7929.65 seconds 2.20268 hours CTEQ5L-LO_HardQCDSelectionGluon_380To10000_2017-02-06-105408
7906.85 seconds 2.19635 hours CTEQ5L-LO_HardQCDSelectionGluon_380To10000_2017-02-06-105408
7983.2 seconds 2.21756 hours CTEQ5L-LO_HardQCDSelectionGluon_380To10000_2017-02-06-105408
7936.14 seconds 2.20448 hours CTEQ5L-LO_HardQCDSelectionGluon_380To10000_2017-02-06-105408
7575.67 seconds 2.10435 hours CTEQ5L-LO_HardQCDSelectionGluon_380To10000_2017-02-06-105408
6233.77 seconds 1.7316 hours CTEQ5L-LO_HardQCDSelectionGluon_380To10000_2017-02-06-105408
6651.08 seconds 1.84752 hours CTEQ5L-LO_HardQCDSelectionGluon_380To10000_2017-02-06-105408
6374.86 seconds 1.77079 hours CTEQ5L-LO_HardQCDSelectionGluon_380To10000_2017-02-06-105408
6360.32 seconds 1.76676 hours CTEQ5L-LO_HardQCDSelectionGluon_380To10000_2017-02-06-105408


5792.47 seconds 1.60902 hours CTEQ5L-LO_HardQCDSelectionGluon_50To80_2017-02-06-105408
5753.27 seconds 1.59813 hours CTEQ5L-LO_HardQCDSelectionGluon_50To80_2017-02-06-105408
5848.06 seconds 1.62446 hours CTEQ5L-LO_HardQCDSelectionGluon_50To80_2017-02-06-105408
5733.64 seconds 1.59268 hours CTEQ5L-LO_HardQCDSelectionGluon_50To80_2017-02-06-105408
5881.72 seconds 1.63381 hours CTEQ5L-LO_HardQCDSelectionGluon_50To80_2017-02-06-105408
5817.29 seconds 1.61591 hours CTEQ5L-LO_HardQCDSelectionGluon_50To80_2017-02-06-105408
5695.28 seconds 1.58202 hours CTEQ5L-LO_HardQCDSelectionGluon_50To80_2017-02-06-105408
5989.17 seconds 1.66366 hours CTEQ5L-LO_HardQCDSelectionGluon_50To80_2017-02-06-105408
6077.79 seconds 1.68827 hours CTEQ5L-LO_HardQCDSelectionGluon_50To80_2017-02-06-105408
5852.43 seconds 1.62567 hours CTEQ5L-LO_HardQCDSelectionGluon_50To80_2017-02-06-105408
5818.53 seconds 1.61626 hours CTEQ5L-LO_HardQCDSelectionGluon_50To80_2017-02-06-105408
5675.44 seconds 1.57651 hours CTEQ5L-LO_HardQCDSelectionGluon_50To80_2017-02-06-105408
6531.04 seconds 1.81418 hours CTEQ5L-LO_HardQCDSelectionGluon_50To80_2017-02-06-105408
8380.63 seconds 2.32795 hours CTEQ5L-LO_HardQCDSelectionGluon_50To80_2017-02-06-105408
8239.37 seconds 2.28871 hours CTEQ5L-LO_HardQCDSelectionGluon_50To80_2017-02-06-105408
6103.99 seconds 1.69555 hours CTEQ5L-LO_HardQCDSelectionGluon_50To80_2017-02-06-105408
6290.01 seconds 1.74723 hours CTEQ5L-LO_HardQCDSelectionGluon_50To80_2017-02-06-105408
5824.01 seconds 1.61778 hours CTEQ5L-LO_HardQCDSelectionGluon_50To80_2017-02-06-105408
6265.73 seconds 1.74048 hours CTEQ5L-LO_HardQCDSelectionGluon_50To80_2017-02-06-105408
6446.64 seconds 1.79073 hours CTEQ5L-LO_HardQCDSelectionGluon_50To80_2017-02-06-105408


8417.56 seconds 2.33821 hours CTEQ5L-LO_HardQCDSelectionGluon_80To120_2017-02-06-105408
6153.46 seconds 1.70929 hours CTEQ5L-LO_HardQCDSelectionGluon_80To120_2017-02-06-105408
6380.31 seconds 1.77231 hours CTEQ5L-LO_HardQCDSelectionGluon_80To120_2017-02-06-105408
6370.92 seconds 1.7697 hours CTEQ5L-LO_HardQCDSelectionGluon_80To120_2017-02-06-105408
6362.89 seconds 1.76747 hours CTEQ5L-LO_HardQCDSelectionGluon_80To120_2017-02-06-105408
6042.05 seconds 1.67835 hours CTEQ5L-LO_HardQCDSelectionGluon_80To120_2017-02-06-105408
5732.84 seconds 1.59246 hours CTEQ5L-LO_HardQCDSelectionGluon_80To120_2017-02-06-105408
6293.05 seconds 1.74807 hours CTEQ5L-LO_HardQCDSelectionGluon_80To120_2017-02-06-105408
6725.83 seconds 1.86829 hours CTEQ5L-LO_HardQCDSelectionGluon_80To120_2017-02-06-105408
6602.93 seconds 1.83415 hours CTEQ5L-LO_HardQCDSelectionGluon_80To120_2017-02-06-105408
6654.74 seconds 1.84854 hours CTEQ5L-LO_HardQCDSelectionGluon_80To120_2017-02-06-105408
8539.73 seconds 2.37215 hours CTEQ5L-LO_HardQCDSelectionGluon_80To120_2017-02-06-105408
8526.7 seconds 2.36853 hours CTEQ5L-LO_HardQCDSelectionGluon_80To120_2017-02-06-105408
7627.52 seconds 2.11876 hours CTEQ5L-LO_HardQCDSelectionGluon_80To120_2017-02-06-105408
6066.68 seconds 1.68519 hours CTEQ5L-LO_HardQCDSelectionGluon_80To120_2017-02-06-105408
6364.9 seconds 1.76803 hours CTEQ5L-LO_HardQCDSelectionGluon_80To120_2017-02-06-105408
6047.11 seconds 1.67975 hours CTEQ5L-LO_HardQCDSelectionGluon_80To120_2017-02-06-105408
5973.07 seconds 1.65919 hours CTEQ5L-LO_HardQCDSelectionGluon_80To120_2017-02-06-105408
6256.97 seconds 1.73805 hours CTEQ5L-LO_HardQCDSelectionGluon_80To120_2017-02-06-105408
6075.23 seconds 1.68756 hours CTEQ5L-LO_HardQCDSelectionGluon_80To120_2017-02-06-105408




